[gd_scene load_steps=2 format=2]

[ext_resource path="res://Scenes/RaceSegments/RockFall.tscn" type="PackedScene" id=1]

[node name="FallingRocks" type="Spatial"]
transform = Transform( 1, 0, 0, 0, 1, 0, 0, 0, 1, 0, 0, -0.499733 )

[node name="RockFall1" parent="." instance=ExtResource( 1 )]
transform = Transform( 1, 0, 0, 0, 1, 0, 0, 0, 1, -58.4667, 0, 40.8734 )

[node name="RockFall2" parent="." instance=ExtResource( 1 )]
transform = Transform( 1, 0, 0, 0, 1, 0, 0, 0, 1, 3.73905, 0, -0.200649 )

[node name="RockFall3" parent="." instance=ExtResource( 1 )]
transform = Transform( 1, 0, 0, 0, 1, 0, 0, 0, 1, 5.48188, 0, -100.413 )

[node name="RockFall4" parent="." instance=ExtResource( 1 )]
transform = Transform( 1, 0, 0, 0, 1, 0, 0, 0, 1, -44.3647, 0, -57.1168 )

[node name="RockFall6" parent="." instance=ExtResource( 1 )]
transform = Transform( 1, 0, 0, 0, 1, 0, 0, 0, 1, -2.91631, -1.38778e-017, 89.5699 )

[node name="RockFall7" parent="." instance=ExtResource( 1 )]
transform = Transform( 1, 0, 0, 0, 1, 0, 0, 0, 1, 60.0648, 0, 46.8708 )

[node name="RockFall8" parent="." instance=ExtResource( 1 )]
transform = Transform( 1, 0, 0, 0, 1, 0, 0, 0, 1, 49.804, 0, -55.559 )

