# MagicaVoxel @ Ephtracy

# group
g FactoryTile3

# material
mtllib FactoryTile3.mtl
usemtl palette

# normals
vn -1 0 0
vn 1 0 0
vn 0 0 1
vn 0 0 -1
vn 0 -1 0
vn 0 1 0

# texcoords
vt 0.0644531 0.5
vt 0.0722656 0.5
vt 0.0761719 0.5
vt 0.107422 0.5
vt 0.275391 0.5

# verts
v -15 0 2.5
v -15 0 -2.5
v -15 30 2.5
v -15 30 -2.5
v 15 0 2.5
v 15 0 -2.5
v 15 30 2.5
v 15 30 -2.5
v -15 0 2.5
v -15 30 2.5
v -14 3 2.5
v -14 27 2.5
v -13 2 2.5
v -13 3 2.5
v -13 4 2.5
v -13 26 2.5
v -13 27 2.5
v -13 28 2.5
v -12 1 2.5
v -12 2 2.5
v -12 3 2.5
v -12 4 2.5
v -12 5 2.5
v -12 25 2.5
v -12 26 2.5
v -12 27 2.5
v -12 28 2.5
v -12 29 2.5
v -11 2 2.5
v -11 3 2.5
v -11 4 2.5
v -11 5 2.5
v -11 25 2.5
v -11 26 2.5
v -11 27 2.5
v -11 28 2.5
v -10 3 2.5
v -10 4 2.5
v -10 26 2.5
v -10 27 2.5
v -9 7 2.5
v -9 9 2.5
v -9 21 2.5
v -9 23 2.5
v -8 6 2.5
v -8 7 2.5
v -8 9 2.5
v -8 10 2.5
v -8 20 2.5
v -8 21 2.5
v -8 23 2.5
v -8 24 2.5
v -6 6 2.5
v -6 7 2.5
v -6 9 2.5
v -6 10 2.5
v -6 20 2.5
v -6 21 2.5
v -6 23 2.5
v -6 24 2.5
v -5 7 2.5
v -5 9 2.5
v -5 21 2.5
v -5 23 2.5
v 5 7 2.5
v 5 9 2.5
v 5 21 2.5
v 5 23 2.5
v 6 6 2.5
v 6 7 2.5
v 6 9 2.5
v 6 10 2.5
v 6 20 2.5
v 6 21 2.5
v 6 23 2.5
v 6 24 2.5
v 8 6 2.5
v 8 7 2.5
v 8 9 2.5
v 8 10 2.5
v 8 20 2.5
v 8 21 2.5
v 8 23 2.5
v 8 24 2.5
v 9 7 2.5
v 9 9 2.5
v 9 21 2.5
v 9 23 2.5
v 10 3 2.5
v 10 4 2.5
v 10 26 2.5
v 10 27 2.5
v 11 2 2.5
v 11 3 2.5
v 11 4 2.5
v 11 5 2.5
v 11 25 2.5
v 11 26 2.5
v 11 27 2.5
v 11 28 2.5
v 12 1 2.5
v 12 2 2.5
v 12 3 2.5
v 12 4 2.5
v 12 5 2.5
v 12 25 2.5
v 12 26 2.5
v 12 27 2.5
v 12 28 2.5
v 12 29 2.5
v 13 2 2.5
v 13 3 2.5
v 13 4 2.5
v 13 26 2.5
v 13 27 2.5
v 13 28 2.5
v 14 3 2.5
v 14 27 2.5
v 15 0 2.5
v 15 30 2.5
v -15 0 -2.5
v -15 30 -2.5
v 15 0 -2.5
v 15 30 -2.5
v -15 0 2.5
v 15 0 2.5
v -15 0 -2.5
v 15 0 -2.5
v -15 30 2.5
v 15 30 2.5
v -15 30 -2.5
v 15 30 -2.5

# faces
f 3/3/1 2/3/1 1/3/1
f 4/3/1 2/3/1 3/3/1
f 5/3/2 6/3/2 7/3/2
f 7/3/2 6/3/2 8/3/2
f 11/3/3 10/3/3 9/3/3
f 12/3/3 10/3/3 11/3/3
f 13/3/3 11/3/3 9/3/3
f 14/1/3 12/1/3 11/1/3
f 14/3/3 11/3/3 13/3/3
f 15/1/3 12/1/3 14/1/3
f 16/1/3 12/1/3 15/1/3
f 17/3/3 10/3/3 12/3/3
f 17/1/3 12/1/3 16/1/3
f 18/3/3 10/3/3 17/3/3
f 19/3/3 13/3/3 9/3/3
f 20/1/3 14/1/3 13/1/3
f 20/3/3 13/3/3 19/3/3
f 20/1/3 15/1/3 14/1/3
f 21/1/3 15/1/3 20/1/3
f 22/2/3 16/2/3 15/2/3
f 22/1/3 15/1/3 21/1/3
f 23/2/3 16/2/3 22/2/3
f 24/2/3 16/2/3 23/2/3
f 25/1/3 18/1/3 17/1/3
f 25/2/3 16/2/3 24/2/3
f 25/1/3 17/1/3 16/1/3
f 26/1/3 18/1/3 25/1/3
f 27/3/3 10/3/3 18/3/3
f 27/1/3 18/1/3 26/1/3
f 28/3/3 10/3/3 27/3/3
f 29/1/3 21/1/3 20/1/3
f 29/1/3 20/1/3 19/1/3
f 30/2/3 23/2/3 22/2/3
f 30/1/3 21/1/3 29/1/3
f 30/2/3 22/2/3 21/2/3
f 31/2/3 23/2/3 30/2/3
f 32/4/3 24/4/3 23/4/3
f 32/2/3 23/2/3 31/2/3
f 33/2/3 26/2/3 25/2/3
f 33/4/3 24/4/3 32/4/3
f 33/2/3 25/2/3 24/2/3
f 34/2/3 26/2/3 33/2/3
f 35/1/3 28/1/3 27/1/3
f 35/2/3 26/2/3 34/2/3
f 35/1/3 27/1/3 26/1/3
f 36/1/3 28/1/3 35/1/3
f 37/2/3 31/2/3 30/2/3
f 37/2/3 30/2/3 29/2/3
f 38/4/3 32/4/3 31/4/3
f 38/2/3 31/2/3 37/2/3
f 38/4/3 34/4/3 33/4/3
f 38/4/3 33/4/3 32/4/3
f 39/2/3 35/2/3 34/2/3
f 39/4/3 34/4/3 38/4/3
f 39/2/3 36/2/3 35/2/3
f 40/2/3 36/2/3 39/2/3
f 41/4/3 38/4/3 37/4/3
f 41/4/3 39/4/3 38/4/3
f 41/4/3 40/4/3 39/4/3
f 42/4/3 40/4/3 41/4/3
f 43/4/3 40/4/3 42/4/3
f 44/4/3 40/4/3 43/4/3
f 45/4/3 41/4/3 37/4/3
f 46/1/3 42/1/3 41/1/3
f 46/4/3 41/4/3 45/4/3
f 47/4/3 43/4/3 42/4/3
f 47/1/3 42/1/3 46/1/3
f 48/4/3 43/4/3 47/4/3
f 49/4/3 43/4/3 48/4/3
f 50/1/3 44/1/3 43/1/3
f 50/4/3 43/4/3 49/4/3
f 51/4/3 40/4/3 44/4/3
f 51/1/3 44/1/3 50/1/3
f 52/4/3 40/4/3 51/4/3
f 53/4/3 45/4/3 37/4/3
f 53/2/3 46/2/3 45/2/3
f 54/3/3 47/3/3 46/3/3
f 54/2/3 46/2/3 53/2/3
f 55/1/3 48/1/3 47/1/3
f 55/3/3 47/3/3 54/3/3
f 56/4/3 49/4/3 48/4/3
f 56/1/3 48/1/3 55/1/3
f 57/2/3 50/2/3 49/2/3
f 57/4/3 49/4/3 56/4/3
f 58/3/3 51/3/3 50/3/3
f 58/2/3 50/2/3 57/2/3
f 59/1/3 52/1/3 51/1/3
f 59/3/3 51/3/3 58/3/3
f 60/4/3 40/4/3 52/4/3
f 60/1/3 52/1/3 59/1/3
f 61/2/3 55/2/3 54/2/3
f 61/4/3 54/4/3 53/4/3
f 62/4/3 56/4/3 55/4/3
f 62/2/3 55/2/3 61/2/3
f 62/4/3 58/4/3 57/4/3
f 62/4/3 57/4/3 56/4/3
f 63/2/3 59/2/3 58/2/3
f 63/4/3 58/4/3 62/4/3
f 64/4/3 60/4/3 59/4/3
f 64/2/3 59/2/3 63/2/3
f 65/4/3 61/4/3 53/4/3
f 65/4/3 62/4/3 61/4/3
f 65/4/3 64/4/3 63/4/3
f 65/4/3 63/4/3 62/4/3
f 66/4/3 64/4/3 65/4/3
f 67/4/3 64/4/3 66/4/3
f 68/4/3 60/4/3 64/4/3
f 68/4/3 64/4/3 67/4/3
f 69/4/3 53/4/3 37/4/3
f 69/4/3 65/4/3 53/4/3
f 70/1/3 66/1/3 65/1/3
f 70/4/3 65/4/3 69/4/3
f 71/4/3 67/4/3 66/4/3
f 71/1/3 66/1/3 70/1/3
f 72/4/3 67/4/3 71/4/3
f 73/4/3 67/4/3 72/4/3
f 74/1/3 68/1/3 67/1/3
f 74/4/3 67/4/3 73/4/3
f 75/4/3 60/4/3 68/4/3
f 75/1/3 68/1/3 74/1/3
f 76/4/3 40/4/3 60/4/3
f 76/4/3 60/4/3 75/4/3
f 77/2/3 70/2/3 69/2/3
f 77/4/3 69/4/3 37/4/3
f 78/3/3 71/3/3 70/3/3
f 78/2/3 70/2/3 77/2/3
f 79/1/3 72/1/3 71/1/3
f 79/3/3 71/3/3 78/3/3
f 80/4/3 73/4/3 72/4/3
f 80/1/3 72/1/3 79/1/3
f 81/2/3 74/2/3 73/2/3
f 81/4/3 73/4/3 80/4/3
f 82/3/3 75/3/3 74/3/3
f 82/2/3 74/2/3 81/2/3
f 83/1/3 76/1/3 75/1/3
f 83/3/3 75/3/3 82/3/3
f 84/4/3 40/4/3 76/4/3
f 84/1/3 76/1/3 83/1/3
f 85/2/3 79/2/3 78/2/3
f 85/4/3 78/4/3 77/4/3
f 86/4/3 80/4/3 79/4/3
f 86/2/3 79/2/3 85/2/3
f 86/4/3 81/4/3 80/4/3
f 86/4/3 82/4/3 81/4/3
f 87/2/3 83/2/3 82/2/3
f 87/4/3 82/4/3 86/4/3
f 88/4/3 84/4/3 83/4/3
f 88/2/3 83/2/3 87/2/3
f 89/2/3 37/2/3 29/2/3
f 89/4/3 86/4/3 85/4/3
f 89/4/3 88/4/3 87/4/3
f 89/4/3 77/4/3 37/4/3
f 89/4/3 85/4/3 77/4/3
f 89/4/3 87/4/3 86/4/3
f 90/4/3 88/4/3 89/4/3
f 91/4/3 84/4/3 88/4/3
f 91/4/3 88/4/3 90/4/3
f 91/4/3 40/4/3 84/4/3
f 92/2/3 36/2/3 40/2/3
f 92/4/3 40/4/3 91/4/3
f 93/2/3 90/2/3 89/2/3
f 93/1/3 29/1/3 19/1/3
f 93/2/3 89/2/3 29/2/3
f 94/2/3 90/2/3 93/2/3
f 95/4/3 91/4/3 90/4/3
f 95/2/3 90/2/3 94/2/3
f 96/4/3 91/4/3 95/4/3
f 97/4/3 91/4/3 96/4/3
f 98/2/3 92/2/3 91/2/3
f 98/4/3 91/4/3 97/4/3
f 99/2/3 36/2/3 92/2/3
f 99/2/3 92/2/3 98/2/3
f 100/1/3 28/1/3 36/1/3
f 100/2/3 36/2/3 99/2/3
f 101/3/3 19/3/3 9/3/3
f 101/1/3 94/1/3 93/1/3
f 101/1/3 93/1/3 19/1/3
f 102/1/3 94/1/3 101/1/3
f 103/2/3 96/2/3 95/2/3
f 103/1/3 94/1/3 102/1/3
f 103/2/3 95/2/3 94/2/3
f 104/2/3 96/2/3 103/2/3
f 105/4/3 97/4/3 96/4/3
f 105/2/3 96/2/3 104/2/3
f 106/2/3 98/2/3 97/2/3
f 106/4/3 97/4/3 105/4/3
f 106/2/3 99/2/3 98/2/3
f 107/2/3 99/2/3 106/2/3
f 108/1/3 100/1/3 99/1/3
f 108/2/3 99/2/3 107/2/3
f 109/1/3 28/1/3 100/1/3
f 109/1/3 100/1/3 108/1/3
f 110/3/3 10/3/3 28/3/3
f 110/1/3 28/1/3 109/1/3
f 111/1/3 103/1/3 102/1/3
f 111/1/3 104/1/3 103/1/3
f 111/3/3 102/3/3 101/3/3
f 112/1/3 104/1/3 111/1/3
f 113/2/3 105/2/3 104/2/3
f 113/1/3 104/1/3 112/1/3
f 113/2/3 107/2/3 106/2/3
f 113/2/3 106/2/3 105/2/3
f 114/1/3 109/1/3 108/1/3
f 114/2/3 107/2/3 113/2/3
f 114/1/3 108/1/3 107/1/3
f 115/1/3 109/1/3 114/1/3
f 116/3/3 110/3/3 109/3/3
f 116/1/3 109/1/3 115/1/3
f 117/1/3 113/1/3 112/1/3
f 117/3/3 112/3/3 111/3/3
f 117/1/3 115/1/3 114/1/3
f 117/1/3 114/1/3 113/1/3
f 118/3/3 116/3/3 115/3/3
f 118/1/3 115/1/3 117/1/3
f 119/3/3 117/3/3 111/3/3
f 119/3/3 101/3/3 9/3/3
f 119/3/3 118/3/3 117/3/3
f 119/3/3 111/3/3 101/3/3
f 120/3/3 110/3/3 116/3/3
f 120/3/3 118/3/3 119/3/3
f 120/3/3 116/3/3 118/3/3
f 120/3/3 10/3/3 110/3/3
f 121/3/4 122/3/4 123/3/4
f 123/3/4 122/3/4 124/3/4
f 127/3/5 126/3/5 125/3/5
f 128/3/5 126/3/5 127/3/5
f 129/3/6 130/3/6 131/3/6
f 131/3/6 130/3/6 132/3/6
