# MagicaVoxel @ Ephtracy

# group
g FactoryTile6

# material
mtllib FactoryTile6.mtl
usemtl palette

# normals
vn -1 0 0
vn 1 0 0
vn 0 0 1
vn 0 0 -1
vn 0 -1 0
vn 0 1 0

# texcoords
vt 0.0644531 0.5
vt 0.0722656 0.5
vt 0.0761719 0.5
vt 0.107422 0.5

# verts
v -20 0 20
v -20 0 -20
v -20 40 20
v -20 40 -20
v 20 0 20
v 20 0 -20
v 20 40 20
v 20 40 -20
v -20 0 20
v -20 40 20
v 20 0 20
v 20 40 20
v -20 0 -20
v -20 40 -20
v 20 0 -20
v 20 40 -20
v -20 0 20
v 20 0 20
v -20 0 -20
v 20 0 -20
v -20 40 20
v 20 40 20
v -17 40 19
v 17 40 19
v -18 40 18
v -17 40 18
v -16 40 18
v 16 40 18
v 17 40 18
v 18 40 18
v -19 40 17
v -18 40 17
v -17 40 17
v -16 40 17
v -15 40 17
v 15 40 17
v 16 40 17
v 17 40 17
v 18 40 17
v 19 40 17
v -18 40 16
v -17 40 16
v -16 40 16
v -15 40 16
v 15 40 16
v 16 40 16
v 17 40 16
v 18 40 16
v -17 40 15
v -16 40 15
v 16 40 15
v 17 40 15
v -13 40 14
v -11 40 14
v 11 40 14
v 13 40 14
v -14 40 13
v -13 40 13
v -11 40 13
v -10 40 13
v 10 40 13
v 11 40 13
v 13 40 13
v 14 40 13
v -14 40 11
v -13 40 11
v -11 40 11
v -10 40 11
v 10 40 11
v 11 40 11
v 13 40 11
v 14 40 11
v -13 40 10
v -11 40 10
v 11 40 10
v 13 40 10
v -13 40 -10
v -11 40 -10
v 11 40 -10
v 13 40 -10
v -14 40 -11
v -13 40 -11
v -11 40 -11
v -10 40 -11
v 10 40 -11
v 11 40 -11
v 13 40 -11
v 14 40 -11
v -14 40 -13
v -13 40 -13
v -11 40 -13
v -10 40 -13
v 10 40 -13
v 11 40 -13
v 13 40 -13
v 14 40 -13
v -13 40 -14
v -11 40 -14
v 11 40 -14
v 13 40 -14
v -17 40 -15
v -16 40 -15
v 16 40 -15
v 17 40 -15
v -18 40 -16
v -17 40 -16
v -16 40 -16
v -15 40 -16
v 15 40 -16
v 16 40 -16
v 17 40 -16
v 18 40 -16
v -19 40 -17
v -18 40 -17
v -17 40 -17
v -16 40 -17
v -15 40 -17
v 15 40 -17
v 16 40 -17
v 17 40 -17
v 18 40 -17
v 19 40 -17
v -18 40 -18
v -17 40 -18
v -16 40 -18
v 16 40 -18
v 17 40 -18
v 18 40 -18
v -17 40 -19
v 17 40 -19
v -20 40 -20
v 20 40 -20

# faces
f 3/3/1 2/3/1 1/3/1
f 4/3/1 2/3/1 3/3/1
f 5/3/2 6/3/2 7/3/2
f 7/3/2 6/3/2 8/3/2
f 11/3/3 10/3/3 9/3/3
f 12/3/3 10/3/3 11/3/3
f 13/3/4 14/3/4 15/3/4
f 15/3/4 14/3/4 16/3/4
f 19/3/5 18/3/5 17/3/5
f 20/3/5 18/3/5 19/3/5
f 21/3/6 22/3/6 23/3/6
f 23/3/6 22/3/6 24/3/6
f 21/3/6 23/3/6 25/3/6
f 23/1/6 24/1/6 26/1/6
f 25/3/6 23/3/6 26/3/6
f 26/1/6 24/1/6 27/1/6
f 27/1/6 24/1/6 28/1/6
f 24/3/6 22/3/6 29/3/6
f 28/1/6 24/1/6 29/1/6
f 29/3/6 22/3/6 30/3/6
f 21/3/6 25/3/6 31/3/6
f 25/1/6 26/1/6 32/1/6
f 31/3/6 25/3/6 32/3/6
f 26/1/6 27/1/6 32/1/6
f 32/1/6 27/1/6 33/1/6
f 27/2/6 28/2/6 34/2/6
f 33/1/6 27/1/6 34/1/6
f 34/2/6 28/2/6 35/2/6
f 35/2/6 28/2/6 36/2/6
f 29/1/6 30/1/6 37/1/6
f 36/2/6 28/2/6 37/2/6
f 28/1/6 29/1/6 37/1/6
f 37/1/6 30/1/6 38/1/6
f 30/3/6 22/3/6 39/3/6
f 38/1/6 30/1/6 39/1/6
f 39/3/6 22/3/6 40/3/6
f 32/1/6 33/1/6 41/1/6
f 31/1/6 32/1/6 41/1/6
f 34/2/6 35/2/6 42/2/6
f 41/1/6 33/1/6 42/1/6
f 33/2/6 34/2/6 42/2/6
f 42/2/6 35/2/6 43/2/6
f 35/4/6 36/4/6 44/4/6
f 43/2/6 35/2/6 44/2/6
f 37/2/6 38/2/6 45/2/6
f 44/4/6 36/4/6 45/4/6
f 36/2/6 37/2/6 45/2/6
f 45/2/6 38/2/6 46/2/6
f 39/1/6 40/1/6 47/1/6
f 46/2/6 38/2/6 47/2/6
f 38/1/6 39/1/6 47/1/6
f 47/1/6 40/1/6 48/1/6
f 42/2/6 43/2/6 49/2/6
f 41/2/6 42/2/6 49/2/6
f 43/4/6 44/4/6 50/4/6
f 49/2/6 43/2/6 50/2/6
f 45/4/6 46/4/6 50/4/6
f 44/4/6 45/4/6 50/4/6
f 46/2/6 47/2/6 51/2/6
f 50/4/6 46/4/6 51/4/6
f 47/2/6 48/2/6 51/2/6
f 51/2/6 48/2/6 52/2/6
f 49/4/6 50/4/6 53/4/6
f 50/4/6 51/4/6 53/4/6
f 51/4/6 52/4/6 53/4/6
f 53/4/6 52/4/6 54/4/6
f 54/4/6 52/4/6 55/4/6
f 55/4/6 52/4/6 56/4/6
f 49/4/6 53/4/6 57/4/6
f 53/2/6 54/2/6 58/2/6
f 57/4/6 53/4/6 58/4/6
f 54/4/6 55/4/6 59/4/6
f 58/2/6 54/2/6 59/2/6
f 59/4/6 55/4/6 60/4/6
f 60/4/6 55/4/6 61/4/6
f 55/2/6 56/2/6 62/2/6
f 61/4/6 55/4/6 62/4/6
f 56/4/6 52/4/6 63/4/6
f 62/2/6 56/2/6 63/2/6
f 63/4/6 52/4/6 64/4/6
f 49/4/6 57/4/6 65/4/6
f 57/1/6 58/1/6 65/1/6
f 58/3/6 59/3/6 66/3/6
f 65/1/6 58/1/6 66/1/6
f 59/2/6 60/2/6 67/2/6
f 66/3/6 59/3/6 67/3/6
f 60/4/6 61/4/6 68/4/6
f 67/2/6 60/2/6 68/2/6
f 61/1/6 62/1/6 69/1/6
f 68/4/6 61/4/6 69/4/6
f 62/3/6 63/3/6 70/3/6
f 69/1/6 62/1/6 70/1/6
f 63/2/6 64/2/6 71/2/6
f 70/3/6 63/3/6 71/3/6
f 64/4/6 52/4/6 72/4/6
f 71/2/6 64/2/6 72/2/6
f 66/1/6 67/1/6 73/1/6
f 65/4/6 66/4/6 73/4/6
f 67/4/6 68/4/6 74/4/6
f 73/1/6 67/1/6 74/1/6
f 69/4/6 70/4/6 74/4/6
f 68/4/6 69/4/6 74/4/6
f 70/1/6 71/1/6 75/1/6
f 74/4/6 70/4/6 75/4/6
f 71/4/6 72/4/6 76/4/6
f 75/1/6 71/1/6 76/1/6
f 65/4/6 73/4/6 77/4/6
f 73/4/6 74/4/6 77/4/6
f 75/4/6 76/4/6 77/4/6
f 74/4/6 75/4/6 77/4/6
f 77/4/6 76/4/6 78/4/6
f 78/4/6 76/4/6 79/4/6
f 76/4/6 72/4/6 80/4/6
f 79/4/6 76/4/6 80/4/6
f 49/4/6 65/4/6 81/4/6
f 65/4/6 77/4/6 81/4/6
f 77/2/6 78/2/6 82/2/6
f 81/4/6 77/4/6 82/4/6
f 78/4/6 79/4/6 83/4/6
f 82/2/6 78/2/6 83/2/6
f 83/4/6 79/4/6 84/4/6
f 84/4/6 79/4/6 85/4/6
f 79/2/6 80/2/6 86/2/6
f 85/4/6 79/4/6 86/4/6
f 80/4/6 72/4/6 87/4/6
f 86/2/6 80/2/6 87/2/6
f 72/4/6 52/4/6 88/4/6
f 87/4/6 72/4/6 88/4/6
f 81/1/6 82/1/6 89/1/6
f 49/4/6 81/4/6 89/4/6
f 82/3/6 83/3/6 90/3/6
f 89/1/6 82/1/6 90/1/6
f 83/2/6 84/2/6 91/2/6
f 90/3/6 83/3/6 91/3/6
f 84/4/6 85/4/6 92/4/6
f 91/2/6 84/2/6 92/2/6
f 85/1/6 86/1/6 93/1/6
f 92/4/6 85/4/6 93/4/6
f 86/3/6 87/3/6 94/3/6
f 93/1/6 86/1/6 94/1/6
f 87/2/6 88/2/6 95/2/6
f 94/3/6 87/3/6 95/3/6
f 88/4/6 52/4/6 96/4/6
f 95/2/6 88/2/6 96/2/6
f 90/1/6 91/1/6 97/1/6
f 89/4/6 90/4/6 97/4/6
f 91/4/6 92/4/6 98/4/6
f 97/1/6 91/1/6 98/1/6
f 92/4/6 93/4/6 98/4/6
f 93/4/6 94/4/6 98/4/6
f 94/1/6 95/1/6 99/1/6
f 98/4/6 94/4/6 99/4/6
f 95/4/6 96/4/6 100/4/6
f 99/1/6 95/1/6 100/1/6
f 41/2/6 49/2/6 101/2/6
f 97/4/6 98/4/6 101/4/6
f 99/4/6 100/4/6 101/4/6
f 49/4/6 89/4/6 101/4/6
f 89/4/6 97/4/6 101/4/6
f 98/4/6 99/4/6 101/4/6
f 101/4/6 100/4/6 102/4/6
f 100/4/6 96/4/6 103/4/6
f 102/4/6 100/4/6 103/4/6
f 96/4/6 52/4/6 103/4/6
f 52/2/6 48/2/6 104/2/6
f 103/4/6 52/4/6 104/4/6
f 101/2/6 102/2/6 105/2/6
f 31/1/6 41/1/6 105/1/6
f 41/2/6 101/2/6 105/2/6
f 105/2/6 102/2/6 106/2/6
f 102/4/6 103/4/6 107/4/6
f 106/2/6 102/2/6 107/2/6
f 107/4/6 103/4/6 108/4/6
f 108/4/6 103/4/6 109/4/6
f 103/2/6 104/2/6 110/2/6
f 109/4/6 103/4/6 110/4/6
f 104/2/6 48/2/6 111/2/6
f 110/2/6 104/2/6 111/2/6
f 48/1/6 40/1/6 112/1/6
f 111/2/6 48/2/6 112/2/6
f 21/3/6 31/3/6 113/3/6
f 105/1/6 106/1/6 113/1/6
f 31/1/6 105/1/6 113/1/6
f 113/1/6 106/1/6 114/1/6
f 107/2/6 108/2/6 115/2/6
f 114/1/6 106/1/6 115/1/6
f 106/2/6 107/2/6 115/2/6
f 115/2/6 108/2/6 116/2/6
f 108/4/6 109/4/6 117/4/6
f 116/2/6 108/2/6 117/2/6
f 109/2/6 110/2/6 118/2/6
f 117/4/6 109/4/6 118/4/6
f 110/2/6 111/2/6 118/2/6
f 118/2/6 111/2/6 119/2/6
f 111/1/6 112/1/6 120/1/6
f 119/2/6 111/2/6 120/2/6
f 112/1/6 40/1/6 121/1/6
f 120/1/6 112/1/6 121/1/6
f 40/3/6 22/3/6 122/3/6
f 121/1/6 40/1/6 122/1/6
f 114/1/6 115/1/6 123/1/6
f 115/1/6 116/1/6 123/1/6
f 113/3/6 114/3/6 123/3/6
f 123/1/6 116/1/6 124/1/6
f 116/2/6 117/2/6 125/2/6
f 124/1/6 116/1/6 125/1/6
f 118/2/6 119/2/6 125/2/6
f 117/2/6 118/2/6 125/2/6
f 120/1/6 121/1/6 126/1/6
f 125/2/6 119/2/6 126/2/6
f 119/1/6 120/1/6 126/1/6
f 126/1/6 121/1/6 127/1/6
f 121/3/6 122/3/6 128/3/6
f 127/1/6 121/1/6 128/1/6
f 124/1/6 125/1/6 129/1/6
f 123/3/6 124/3/6 129/3/6
f 126/1/6 127/1/6 129/1/6
f 125/1/6 126/1/6 129/1/6
f 127/3/6 128/3/6 130/3/6
f 129/1/6 127/1/6 130/1/6
f 123/3/6 129/3/6 131/3/6
f 21/3/6 113/3/6 131/3/6
f 129/3/6 130/3/6 131/3/6
f 113/3/6 123/3/6 131/3/6
f 128/3/6 122/3/6 132/3/6
f 131/3/6 130/3/6 132/3/6
f 130/3/6 128/3/6 132/3/6
f 122/3/6 22/3/6 132/3/6
