# MagicaVoxel @ Ephtracy

# group
g Podium3

# material
mtllib Podium3.mtl
usemtl palette

# normals
vn -1 0 0
vn 1 0 0
vn 0 0 1
vn 0 0 -1
vn 0 -1 0
vn 0 1 0

# texcoords
vt 0.00976563 0.5
vt 0.0644531 0.5
vt 0.0683594 0.5
vt 0.0917969 0.5
vt 0.994141 0.5

# verts
v -20 0 15
v -20 0 13
v -20 0 12
v -20 0 -22
v -20 0 -23
v -20 0 -25
v -20 37 12
v -20 37 -22
v -20 38 13
v -20 38 -23
v -20 40 15
v -20 40 -25
v -8 23 16
v -8 23 15
v -8 26 16
v -8 26 15
v -8 31 16
v -8 31 15
v -8 34 16
v -8 34 15
v -7 22 16
v -7 22 15
v -7 23 16
v -7 23 15
v -7 24 17
v -7 24 16
v -7 25 17
v -7 25 16
v -7 26 16
v -7 26 15
v -7 27 16
v -7 27 15
v -7 30 16
v -7 30 15
v -7 31 16
v -7 31 15
v -7 32 17
v -7 32 16
v -7 33 17
v -7 33 16
v -7 34 16
v -7 34 15
v -7 35 16
v -7 35 15
v -6 21 16
v -6 21 15
v -6 22 16
v -6 22 15
v -6 23 17
v -6 23 16
v -6 24 17
v -6 24 16
v -6 25 17
v -6 25 16
v -6 26 17
v -6 26 16
v -6 27 16
v -6 27 15
v -6 28 16
v -6 28 15
v -6 29 16
v -6 29 15
v -6 30 16
v -6 30 15
v -6 31 17
v -6 31 16
v -6 32 17
v -6 32 16
v -6 33 17
v -6 33 16
v -6 34 17
v -6 34 16
v -6 35 16
v -6 35 15
v -6 36 16
v -6 36 15
v -5 22 17
v -5 22 16
v -5 23 17
v -5 23 16
v -5 26 17
v -5 26 16
v -5 27 17
v -5 27 16
v -5 30 17
v -5 30 16
v -5 31 17
v -5 31 16
v -5 34 17
v -5 34 16
v -5 35 17
v -5 35 16
v -1 27 16
v -1 27 15
v -1 30 16
v -1 30 15
v 0 26 16
v 0 26 15
v 0 27 16
v 0 27 15
v 0 28 17
v 0 28 16
v 0 29 17
v 0 29 16
v 0 30 16
v 0 30 15
v 0 31 16
v 0 31 15
v 1 25 17
v 1 25 16
v 1 26 17
v 1 26 16
v 1 27 17
v 1 27 16
v 1 28 17
v 1 28 16
v 1 29 17
v 1 29 16
v 1 30 17
v 1 30 16
v 1 31 17
v 1 31 16
v 1 32 17
v 1 32 16
v 2 26 17
v 2 26 16
v 2 27 17
v 2 27 16
v 2 30 17
v 2 30 16
v 2 31 17
v 2 31 16
v -4 26 17
v -4 26 16
v -4 27 17
v -4 27 16
v -4 30 17
v -4 30 16
v -4 31 17
v -4 31 16
v -3 25 17
v -3 25 16
v -3 26 17
v -3 26 16
v -3 27 16
v -3 27 15
v -3 28 16
v -3 28 15
v -3 29 16
v -3 29 15
v -3 30 16
v -3 30 15
v -3 31 17
v -3 31 16
v -3 32 17
v -3 32 16
v -2 26 16
v -2 26 15
v -2 27 16
v -2 27 15
v -2 30 16
v -2 30 15
v -2 31 16
v -2 31 15
v 3 22 17
v 3 22 16
v 3 23 17
v 3 23 16
v 3 28 17
v 3 28 16
v 3 29 17
v 3 29 16
v 3 34 17
v 3 34 16
v 3 35 17
v 3 35 16
v 4 21 16
v 4 21 15
v 4 22 16
v 4 22 15
v 4 23 17
v 4 23 16
v 4 24 17
v 4 24 16
v 4 27 17
v 4 27 16
v 4 28 17
v 4 28 16
v 4 29 17
v 4 29 16
v 4 30 17
v 4 30 16
v 4 33 17
v 4 33 16
v 4 34 17
v 4 34 16
v 4 35 16
v 4 35 15
v 4 36 16
v 4 36 15
v 5 22 16
v 5 22 15
v 5 23 16
v 5 23 15
v 5 24 17
v 5 24 16
v 5 25 17
v 5 25 16
v 5 26 17
v 5 26 16
v 5 27 17
v 5 27 16
v 5 28 16
v 5 28 15
v 5 29 16
v 5 29 15
v 5 30 17
v 5 30 16
v 5 31 17
v 5 31 16
v 5 32 17
v 5 32 16
v 5 33 17
v 5 33 16
v 5 34 16
v 5 34 15
v 5 35 16
v 5 35 15
v 6 23 16
v 6 23 15
v 6 24 16
v 6 24 15
v 6 25 17
v 6 25 16
v 6 26 17
v 6 26 16
v 6 27 16
v 6 27 15
v 6 28 16
v 6 28 15
v 6 29 16
v 6 29 15
v 6 30 16
v 6 30 15
v 6 31 17
v 6 31 16
v 6 32 17
v 6 32 16
v 6 33 16
v 6 33 15
v 6 34 16
v 6 34 15
v 7 24 16
v 7 24 15
v 7 27 16
v 7 27 15
v 7 30 16
v 7 30 15
v 7 33 16
v 7 33 15
v 20 0 15
v 20 0 13
v 20 0 12
v 20 0 -22
v 20 0 -23
v 20 0 -25
v 20 37 12
v 20 37 -22
v 20 38 13
v 20 38 -23
v 20 40 15
v 20 40 -25
v -7 24 17
v -7 25 17
v -7 32 17
v -7 33 17
v -6 23 17
v -6 24 17
v -6 25 17
v -6 26 17
v -6 31 17
v -6 32 17
v -6 33 17
v -6 34 17
v -5 22 17
v -5 23 17
v -5 26 17
v -5 27 17
v -5 30 17
v -5 31 17
v -5 34 17
v -5 35 17
v -4 26 17
v -4 27 17
v -4 30 17
v -4 31 17
v -3 25 17
v -3 26 17
v -3 31 17
v -3 32 17
v 0 28 17
v 0 29 17
v 1 25 17
v 1 26 17
v 1 27 17
v 1 28 17
v 1 29 17
v 1 30 17
v 1 31 17
v 1 32 17
v 2 26 17
v 2 27 17
v 2 30 17
v 2 31 17
v 3 22 17
v 3 23 17
v 3 28 17
v 3 29 17
v 3 34 17
v 3 35 17
v 4 23 17
v 4 24 17
v 4 27 17
v 4 28 17
v 4 29 17
v 4 30 17
v 4 33 17
v 4 34 17
v 5 24 17
v 5 25 17
v 5 26 17
v 5 27 17
v 5 30 17
v 5 31 17
v 5 32 17
v 5 33 17
v 6 25 17
v 6 26 17
v 6 31 17
v 6 32 17
v -8 23 16
v -8 26 16
v -8 31 16
v -8 34 16
v -7 22 16
v -7 23 16
v -7 24 16
v -7 25 16
v -7 26 16
v -7 27 16
v -7 30 16
v -7 31 16
v -7 32 16
v -7 33 16
v -7 34 16
v -7 35 16
v -6 21 16
v -6 22 16
v -6 23 16
v -6 24 16
v -6 25 16
v -6 26 16
v -6 27 16
v -6 28 16
v -6 29 16
v -6 30 16
v -6 31 16
v -6 32 16
v -6 33 16
v -6 34 16
v -6 35 16
v -6 36 16
v -5 22 16
v -5 23 16
v -5 26 16
v -5 27 16
v -5 30 16
v -5 31 16
v -5 34 16
v -5 35 16
v -4 26 16
v -4 27 16
v -4 30 16
v -4 31 16
v -3 25 16
v -3 26 16
v -3 27 16
v -3 28 16
v -3 29 16
v -3 30 16
v -3 31 16
v -3 32 16
v -2 26 16
v -2 27 16
v -2 30 16
v -2 31 16
v -1 27 16
v -1 30 16
v 0 26 16
v 0 27 16
v 0 28 16
v 0 29 16
v 0 30 16
v 0 31 16
v 1 25 16
v 1 26 16
v 1 27 16
v 1 28 16
v 1 29 16
v 1 30 16
v 1 31 16
v 1 32 16
v 2 26 16
v 2 27 16
v 2 30 16
v 2 31 16
v 3 22 16
v 3 23 16
v 3 28 16
v 3 29 16
v 3 34 16
v 3 35 16
v 4 21 16
v 4 22 16
v 4 23 16
v 4 24 16
v 4 27 16
v 4 28 16
v 4 29 16
v 4 30 16
v 4 33 16
v 4 34 16
v 4 35 16
v 4 36 16
v 5 22 16
v 5 23 16
v 5 24 16
v 5 25 16
v 5 26 16
v 5 27 16
v 5 28 16
v 5 29 16
v 5 30 16
v 5 31 16
v 5 32 16
v 5 33 16
v 5 34 16
v 5 35 16
v 6 23 16
v 6 24 16
v 6 25 16
v 6 26 16
v 6 27 16
v 6 28 16
v 6 29 16
v 6 30 16
v 6 31 16
v 6 32 16
v 6 33 16
v 6 34 16
v 7 24 16
v 7 27 16
v 7 30 16
v 7 33 16
v -20 0 15
v -20 40 15
v -18 0 15
v -18 38 15
v -17 0 15
v -17 37 15
v -8 23 15
v -8 26 15
v -8 31 15
v -8 34 15
v -7 22 15
v -7 23 15
v -7 26 15
v -7 27 15
v -7 30 15
v -7 31 15
v -7 34 15
v -7 35 15
v -6 21 15
v -6 22 15
v -6 27 15
v -6 28 15
v -6 29 15
v -6 30 15
v -6 35 15
v -6 36 15
v -3 27 15
v -3 28 15
v -3 29 15
v -3 30 15
v -2 26 15
v -2 27 15
v -2 30 15
v -2 31 15
v -1 27 15
v -1 30 15
v 0 26 15
v 0 27 15
v 0 30 15
v 0 31 15
v 4 21 15
v 4 22 15
v 4 35 15
v 4 36 15
v 5 22 15
v 5 23 15
v 5 28 15
v 5 29 15
v 5 34 15
v 5 35 15
v 6 23 15
v 6 24 15
v 6 27 15
v 6 28 15
v 6 29 15
v 6 30 15
v 6 33 15
v 6 34 15
v 7 24 15
v 7 27 15
v 7 30 15
v 7 33 15
v 17 0 15
v 17 37 15
v 18 0 15
v 18 38 15
v 20 0 15
v 20 40 15
v -20 0 -25
v -20 40 -25
v -18 0 -25
v -18 38 -25
v -17 0 -25
v -17 37 -25
v 17 0 -25
v 17 37 -25
v 18 0 -25
v 18 38 -25
v 20 0 -25
v 20 40 -25
v -20 0 15
v -18 0 15
v -17 0 15
v 17 0 15
v 18 0 15
v 20 0 15
v -19 0 14
v -18 0 14
v -17 0 14
v 17 0 14
v 18 0 14
v 19 0 14
v -20 0 13
v -19 0 13
v 19 0 13
v 20 0 13
v -20 0 12
v -19 0 12
v 19 0 12
v 20 0 12
v -20 0 -22
v -19 0 -22
v 19 0 -22
v 20 0 -22
v -20 0 -23
v -19 0 -23
v 19 0 -23
v 20 0 -23
v -19 0 -24
v -18 0 -24
v -17 0 -24
v 17 0 -24
v 18 0 -24
v 19 0 -24
v -20 0 -25
v -18 0 -25
v -17 0 -25
v 17 0 -25
v 18 0 -25
v 20 0 -25
v -6 21 16
v 4 21 16
v -6 21 15
v 4 21 15
v -5 22 17
v 3 22 17
v -7 22 16
v -6 22 16
v -5 22 16
v 3 22 16
v 4 22 16
v 5 22 16
v -7 22 15
v -6 22 15
v 4 22 15
v 5 22 15
v -6 23 17
v -5 23 17
v 3 23 17
v 4 23 17
v -8 23 16
v -7 23 16
v -6 23 16
v -5 23 16
v 3 23 16
v 4 23 16
v 5 23 16
v 6 23 16
v -8 23 15
v -7 23 15
v 5 23 15
v 6 23 15
v -7 24 17
v -6 24 17
v 4 24 17
v 5 24 17
v -7 24 16
v -6 24 16
v 4 24 16
v 5 24 16
v 6 24 16
v 7 24 16
v 6 24 15
v 7 24 15
v 5 25 17
v 6 25 17
v 5 25 16
v 6 25 16
v 1 27 17
v 2 27 17
v -1 27 16
v 0 27 16
v 1 27 16
v 2 27 16
v -1 27 15
v 0 27 15
v 0 28 17
v 1 28 17
v 0 28 16
v 1 28 16
v 3 29 17
v 4 29 17
v -6 29 16
v -3 29 16
v 3 29 16
v 4 29 16
v 5 29 16
v 6 29 16
v -6 29 15
v -3 29 15
v 5 29 15
v 6 29 15
v -5 30 17
v -4 30 17
v 4 30 17
v 5 30 17
v -7 30 16
v -6 30 16
v -5 30 16
v -4 30 16
v -3 30 16
v -2 30 16
v 4 30 16
v 5 30 16
v 6 30 16
v 7 30 16
v -7 30 15
v -6 30 15
v -3 30 15
v -2 30 15
v 6 30 15
v 7 30 15
v -6 31 17
v -5 31 17
v -4 31 17
v -3 31 17
v 1 31 17
v 2 31 17
v 5 31 17
v 6 31 17
v -8 31 16
v -7 31 16
v -6 31 16
v -5 31 16
v -4 31 16
v -3 31 16
v -2 31 16
v 0 31 16
v 1 31 16
v 2 31 16
v 5 31 16
v 6 31 16
v -8 31 15
v -7 31 15
v -2 31 15
v 0 31 15
v -7 32 17
v -6 32 17
v -3 32 17
v 1 32 17
v -7 32 16
v -6 32 16
v -3 32 16
v 1 32 16
v -7 25 17
v -6 25 17
v -3 25 17
v 1 25 17
v -7 25 16
v -6 25 16
v -3 25 16
v 1 25 16
v -6 26 17
v -5 26 17
v -4 26 17
v -3 26 17
v 1 26 17
v 2 26 17
v 5 26 17
v 6 26 17
v -8 26 16
v -7 26 16
v -6 26 16
v -5 26 16
v -4 26 16
v -3 26 16
v -2 26 16
v 0 26 16
v 1 26 16
v 2 26 16
v 5 26 16
v 6 26 16
v -8 26 15
v -7 26 15
v -2 26 15
v 0 26 15
v -5 27 17
v -4 27 17
v 4 27 17
v 5 27 17
v -7 27 16
v -6 27 16
v -5 27 16
v -4 27 16
v -3 27 16
v -2 27 16
v 4 27 16
v 5 27 16
v 6 27 16
v 7 27 16
v -7 27 15
v -6 27 15
v -3 27 15
v -2 27 15
v 6 27 15
v 7 27 15
v 3 28 17
v 4 28 17
v -6 28 16
v -3 28 16
v 3 28 16
v 4 28 16
v 5 28 16
v 6 28 16
v -6 28 15
v -3 28 15
v 5 28 15
v 6 28 15
v 0 29 17
v 1 29 17
v 0 29 16
v 1 29 16
v 1 30 17
v 2 30 17
v -1 30 16
v 0 30 16
v 1 30 16
v 2 30 16
v -1 30 15
v 0 30 15
v 5 32 17
v 6 32 17
v 5 32 16
v 6 32 16
v -7 33 17
v -6 33 17
v 4 33 17
v 5 33 17
v -7 33 16
v -6 33 16
v 4 33 16
v 5 33 16
v 6 33 16
v 7 33 16
v 6 33 15
v 7 33 15
v -6 34 17
v -5 34 17
v 3 34 17
v 4 34 17
v -8 34 16
v -7 34 16
v -6 34 16
v -5 34 16
v 3 34 16
v 4 34 16
v 5 34 16
v 6 34 16
v -8 34 15
v -7 34 15
v 5 34 15
v 6 34 15
v -5 35 17
v 3 35 17
v -7 35 16
v -6 35 16
v -5 35 16
v 3 35 16
v 4 35 16
v 5 35 16
v -7 35 15
v -6 35 15
v 4 35 15
v 5 35 15
v -6 36 16
v 4 36 16
v -6 36 15
v 4 36 15
v -20 40 15
v 20 40 15
v -18 40 13
v 18 40 13
v -17 40 12
v 17 40 12
v -17 40 -22
v 17 40 -22
v -18 40 -23
v 18 40 -23
v -20 40 -25
v 20 40 -25

# faces
f 7/2/1 3/2/1 2/2/1
f 7/3/1 4/3/1 3/3/1
f 8/2/1 5/2/1 4/2/1
f 8/3/1 4/3/1 7/3/1
f 9/4/1 2/4/1 1/4/1
f 9/2/1 7/2/1 2/2/1
f 9/2/1 8/2/1 7/2/1
f 10/2/1 5/2/1 8/2/1
f 10/2/1 8/2/1 9/2/1
f 10/4/1 6/4/1 5/4/1
f 11/4/1 9/4/1 1/4/1
f 11/4/1 10/4/1 9/4/1
f 12/4/1 6/4/1 10/4/1
f 12/4/1 10/4/1 11/4/1
f 15/5/1 14/5/1 13/5/1
f 16/5/1 14/5/1 15/5/1
f 19/5/1 18/5/1 17/5/1
f 20/5/1 18/5/1 19/5/1
f 23/5/1 22/5/1 21/5/1
f 24/5/1 22/5/1 23/5/1
f 27/1/1 26/1/1 25/1/1
f 28/1/1 26/1/1 27/1/1
f 31/5/1 30/5/1 29/5/1
f 32/5/1 30/5/1 31/5/1
f 35/5/1 34/5/1 33/5/1
f 36/5/1 34/5/1 35/5/1
f 39/1/1 38/1/1 37/1/1
f 40/1/1 38/1/1 39/1/1
f 43/5/1 42/5/1 41/5/1
f 44/5/1 42/5/1 43/5/1
f 47/5/1 46/5/1 45/5/1
f 48/5/1 46/5/1 47/5/1
f 51/1/1 50/1/1 49/1/1
f 52/1/1 50/1/1 51/1/1
f 55/1/1 54/1/1 53/1/1
f 56/1/1 54/1/1 55/1/1
f 59/5/1 58/5/1 57/5/1
f 60/5/1 58/5/1 59/5/1
f 63/5/1 62/5/1 61/5/1
f 64/5/1 62/5/1 63/5/1
f 67/1/1 66/1/1 65/1/1
f 68/1/1 66/1/1 67/1/1
f 71/1/1 70/1/1 69/1/1
f 72/1/1 70/1/1 71/1/1
f 75/5/1 74/5/1 73/5/1
f 76/5/1 74/5/1 75/5/1
f 79/1/1 78/1/1 77/1/1
f 80/1/1 78/1/1 79/1/1
f 83/1/1 82/1/1 81/1/1
f 84/1/1 82/1/1 83/1/1
f 87/1/1 86/1/1 85/1/1
f 88/1/1 86/1/1 87/1/1
f 91/1/1 90/1/1 89/1/1
f 92/1/1 90/1/1 91/1/1
f 95/5/1 94/5/1 93/5/1
f 96/5/1 94/5/1 95/5/1
f 99/5/1 98/5/1 97/5/1
f 100/5/1 98/5/1 99/5/1
f 103/1/1 102/1/1 101/1/1
f 104/1/1 102/1/1 103/1/1
f 107/5/1 106/5/1 105/5/1
f 108/5/1 106/5/1 107/5/1
f 111/1/1 110/1/1 109/1/1
f 112/1/1 110/1/1 111/1/1
f 115/1/1 114/1/1 113/1/1
f 116/1/1 114/1/1 115/1/1
f 119/1/1 118/1/1 117/1/1
f 120/1/1 118/1/1 119/1/1
f 123/1/1 122/1/1 121/1/1
f 124/1/1 122/1/1 123/1/1
f 127/1/1 126/1/1 125/1/1
f 128/1/1 126/1/1 127/1/1
f 131/1/1 130/1/1 129/1/1
f 132/1/1 130/1/1 131/1/1
f 133/1/2 134/1/2 135/1/2
f 135/1/2 134/1/2 136/1/2
f 137/1/2 138/1/2 139/1/2
f 139/1/2 138/1/2 140/1/2
f 141/1/2 142/1/2 143/1/2
f 143/1/2 142/1/2 144/1/2
f 145/5/2 146/5/2 147/5/2
f 147/5/2 146/5/2 148/5/2
f 149/5/2 150/5/2 151/5/2
f 151/5/2 150/5/2 152/5/2
f 153/1/2 154/1/2 155/1/2
f 155/1/2 154/1/2 156/1/2
f 157/5/2 158/5/2 159/5/2
f 159/5/2 158/5/2 160/5/2
f 161/5/2 162/5/2 163/5/2
f 163/5/2 162/5/2 164/5/2
f 165/1/2 166/1/2 167/1/2
f 167/1/2 166/1/2 168/1/2
f 169/1/2 170/1/2 171/1/2
f 171/1/2 170/1/2 172/1/2
f 173/1/2 174/1/2 175/1/2
f 175/1/2 174/1/2 176/1/2
f 177/5/2 178/5/2 179/5/2
f 179/5/2 178/5/2 180/5/2
f 181/1/2 182/1/2 183/1/2
f 183/1/2 182/1/2 184/1/2
f 185/1/2 186/1/2 187/1/2
f 187/1/2 186/1/2 188/1/2
f 189/1/2 190/1/2 191/1/2
f 191/1/2 190/1/2 192/1/2
f 193/1/2 194/1/2 195/1/2
f 195/1/2 194/1/2 196/1/2
f 197/5/2 198/5/2 199/5/2
f 199/5/2 198/5/2 200/5/2
f 201/5/2 202/5/2 203/5/2
f 203/5/2 202/5/2 204/5/2
f 205/1/2 206/1/2 207/1/2
f 207/1/2 206/1/2 208/1/2
f 209/1/2 210/1/2 211/1/2
f 211/1/2 210/1/2 212/1/2
f 213/5/2 214/5/2 215/5/2
f 215/5/2 214/5/2 216/5/2
f 217/1/2 218/1/2 219/1/2
f 219/1/2 218/1/2 220/1/2
f 221/1/2 222/1/2 223/1/2
f 223/1/2 222/1/2 224/1/2
f 225/5/2 226/5/2 227/5/2
f 227/5/2 226/5/2 228/5/2
f 229/5/2 230/5/2 231/5/2
f 231/5/2 230/5/2 232/5/2
f 233/1/2 234/1/2 235/1/2
f 235/1/2 234/1/2 236/1/2
f 237/5/2 238/5/2 239/5/2
f 239/5/2 238/5/2 240/5/2
f 241/5/2 242/5/2 243/5/2
f 243/5/2 242/5/2 244/5/2
f 245/1/2 246/1/2 247/1/2
f 247/1/2 246/1/2 248/1/2
f 249/5/2 250/5/2 251/5/2
f 251/5/2 250/5/2 252/5/2
f 253/5/2 254/5/2 255/5/2
f 255/5/2 254/5/2 256/5/2
f 257/5/2 258/5/2 259/5/2
f 259/5/2 258/5/2 260/5/2
f 262/2/2 263/2/2 267/2/2
f 263/3/2 264/3/2 267/3/2
f 264/2/2 265/2/2 268/2/2
f 267/3/2 264/3/2 268/3/2
f 261/4/2 262/4/2 269/4/2
f 262/2/2 267/2/2 269/2/2
f 267/2/2 268/2/2 269/2/2
f 268/2/2 265/2/2 270/2/2
f 269/2/2 268/2/2 270/2/2
f 265/4/2 266/4/2 270/4/2
f 261/4/2 269/4/2 271/4/2
f 269/4/2 270/4/2 271/4/2
f 270/4/2 266/4/2 272/4/2
f 271/4/2 270/4/2 272/4/2
f 278/1/3 274/1/3 273/1/3
f 279/1/3 274/1/3 278/1/3
f 282/1/3 276/1/3 275/1/3
f 283/1/3 276/1/3 282/1/3
f 286/1/3 280/1/3 279/1/3
f 286/1/3 278/1/3 277/1/3
f 286/1/3 279/1/3 278/1/3
f 287/1/3 280/1/3 286/1/3
f 290/1/3 284/1/3 283/1/3
f 290/1/3 283/1/3 282/1/3
f 290/1/3 282/1/3 281/1/3
f 291/1/3 284/1/3 290/1/3
f 293/1/3 288/1/3 287/1/3
f 293/1/3 287/1/3 286/1/3
f 293/1/3 286/1/3 285/1/3
f 294/1/3 288/1/3 293/1/3
f 295/1/3 292/1/3 291/1/3
f 295/1/3 291/1/3 290/1/3
f 295/1/3 290/1/3 289/1/3
f 296/1/3 292/1/3 295/1/3
f 297/1/3 293/1/3 285/1/3
f 298/1/3 293/1/3 297/1/3
f 299/1/3 292/1/3 296/1/3
f 300/1/3 292/1/3 299/1/3
f 303/1/3 297/1/3 285/1/3
f 306/1/3 302/1/3 301/1/3
f 307/1/3 302/1/3 306/1/3
f 310/1/3 292/1/3 300/1/3
f 311/1/3 304/1/3 303/1/3
f 312/1/3 308/1/3 307/1/3
f 312/1/3 306/1/3 305/1/3
f 312/1/3 307/1/3 306/1/3
f 313/1/3 308/1/3 312/1/3
f 314/1/3 310/1/3 309/1/3
f 315/1/3 311/1/3 303/1/3
f 315/1/3 314/1/3 313/1/3
f 315/1/3 313/1/3 312/1/3
f 315/1/3 303/1/3 285/1/3
f 315/1/3 312/1/3 311/1/3
f 316/1/3 314/1/3 315/1/3
f 317/1/3 314/1/3 316/1/3
f 318/1/3 314/1/3 317/1/3
f 319/1/3 310/1/3 314/1/3
f 319/1/3 314/1/3 318/1/3
f 319/1/3 292/1/3 310/1/3
f 320/1/3 292/1/3 319/1/3
f 321/1/3 317/1/3 316/1/3
f 322/1/3 317/1/3 321/1/3
f 323/1/3 317/1/3 322/1/3
f 324/1/3 317/1/3 323/1/3
f 325/1/3 319/1/3 318/1/3
f 326/1/3 319/1/3 325/1/3
f 327/1/3 319/1/3 326/1/3
f 328/1/3 319/1/3 327/1/3
f 329/1/3 323/1/3 322/1/3
f 330/1/3 323/1/3 329/1/3
f 331/1/3 323/1/3 330/1/3
f 332/1/3 323/1/3 331/1/3
f 333/1/3 327/1/3 326/1/3
f 334/1/3 327/1/3 333/1/3
f 335/1/3 327/1/3 334/1/3
f 336/1/3 327/1/3 335/1/3
f 337/1/3 331/1/3 330/1/3
f 338/1/3 331/1/3 337/1/3
f 339/1/3 335/1/3 334/1/3
f 340/1/3 335/1/3 339/1/3
f 346/5/3 342/5/3 341/5/3
f 347/5/3 342/5/3 346/5/3
f 348/5/3 342/5/3 347/5/3
f 349/5/3 342/5/3 348/5/3
f 352/5/3 344/5/3 343/5/3
f 353/5/3 344/5/3 352/5/3
f 354/5/3 344/5/3 353/5/3
f 355/5/3 344/5/3 354/5/3
f 358/5/3 346/5/3 345/5/3
f 358/5/3 347/5/3 346/5/3
f 359/5/3 347/5/3 358/5/3
f 360/5/3 347/5/3 359/5/3
f 361/5/3 350/5/3 349/5/3
f 361/5/3 349/5/3 348/5/3
f 362/5/3 350/5/3 361/5/3
f 363/5/3 350/5/3 362/5/3
f 366/5/3 353/5/3 352/5/3
f 366/5/3 352/5/3 351/5/3
f 367/5/3 353/5/3 366/5/3
f 368/5/3 353/5/3 367/5/3
f 369/5/3 355/5/3 354/5/3
f 369/5/3 356/5/3 355/5/3
f 370/5/3 356/5/3 369/5/3
f 371/5/3 356/5/3 370/5/3
f 373/5/3 359/5/3 358/5/3
f 373/5/3 358/5/3 357/5/3
f 374/5/3 359/5/3 373/5/3
f 375/5/3 364/5/3 363/5/3
f 375/5/3 363/5/3 362/5/3
f 376/5/3 364/5/3 375/5/3
f 377/5/3 367/5/3 366/5/3
f 377/5/3 366/5/3 365/5/3
f 378/5/3 367/5/3 377/5/3
f 379/5/3 372/5/3 371/5/3
f 379/5/3 371/5/3 370/5/3
f 380/5/3 372/5/3 379/5/3
f 382/5/3 364/5/3 376/5/3
f 383/5/3 377/5/3 365/5/3
f 386/5/3 382/5/3 381/5/3
f 387/5/3 364/5/3 382/5/3
f 387/5/3 382/5/3 386/5/3
f 388/5/3 364/5/3 387/5/3
f 389/5/3 384/5/3 383/5/3
f 389/5/3 383/5/3 365/5/3
f 390/5/3 384/5/3 389/5/3
f 391/5/3 384/5/3 390/5/3
f 393/5/3 386/5/3 385/5/3
f 393/5/3 387/5/3 386/5/3
f 394/5/3 387/5/3 393/5/3
f 395/5/3 392/5/3 391/5/3
f 395/5/3 391/5/3 390/5/3
f 396/5/3 392/5/3 395/5/3
f 399/5/3 393/5/3 385/5/3
f 400/5/3 398/5/3 397/5/3
f 401/5/3 398/5/3 400/5/3
f 402/5/3 398/5/3 401/5/3
f 403/5/3 398/5/3 402/5/3
f 404/5/3 392/5/3 396/5/3
f 405/5/3 399/5/3 385/5/3
f 405/5/3 400/5/3 399/5/3
f 405/5/3 401/5/3 400/5/3
f 406/5/3 401/5/3 405/5/3
f 407/5/3 401/5/3 406/5/3
f 408/5/3 401/5/3 407/5/3
f 409/5/3 403/5/3 402/5/3
f 409/5/3 404/5/3 403/5/3
f 410/5/3 404/5/3 409/5/3
f 411/5/3 392/5/3 404/5/3
f 411/5/3 404/5/3 410/5/3
f 412/5/3 392/5/3 411/5/3
f 413/5/3 407/5/3 406/5/3
f 414/5/3 407/5/3 413/5/3
f 415/5/3 411/5/3 410/5/3
f 416/5/3 411/5/3 415/5/3
f 417/5/3 373/5/3 357/5/3
f 422/5/3 372/5/3 380/5/3
f 423/5/3 417/5/3 357/5/3
f 423/5/3 418/5/3 417/5/3
f 424/5/3 418/5/3 423/5/3
f 425/5/3 418/5/3 424/5/3
f 428/5/3 420/5/3 419/5/3
f 429/5/3 420/5/3 428/5/3
f 432/5/3 422/5/3 421/5/3
f 433/5/3 372/5/3 422/5/3
f 433/5/3 422/5/3 432/5/3
f 434/5/3 372/5/3 433/5/3
f 435/5/3 426/5/3 425/5/3
f 435/5/3 425/5/3 424/5/3
f 436/5/3 426/5/3 435/5/3
f 437/5/3 426/5/3 436/5/3
f 440/5/3 430/5/3 429/5/3
f 440/5/3 428/5/3 427/5/3
f 440/5/3 429/5/3 428/5/3
f 441/5/3 430/5/3 440/5/3
f 442/5/3 430/5/3 441/5/3
f 443/5/3 430/5/3 442/5/3
f 446/5/3 432/5/3 431/5/3
f 446/5/3 433/5/3 432/5/3
f 447/5/3 433/5/3 446/5/3
f 448/5/3 433/5/3 447/5/3
f 449/5/3 438/5/3 437/5/3
f 449/5/3 437/5/3 436/5/3
f 450/5/3 438/5/3 449/5/3
f 451/5/3 438/5/3 450/5/3
f 452/5/3 440/5/3 439/5/3
f 452/5/3 441/5/3 440/5/3
f 453/5/3 441/5/3 452/5/3
f 454/5/3 441/5/3 453/5/3
f 455/5/3 444/5/3 443/5/3
f 455/5/3 443/5/3 442/5/3
f 456/5/3 444/5/3 455/5/3
f 457/5/3 444/5/3 456/5/3
f 458/5/3 447/5/3 446/5/3
f 458/5/3 446/5/3 445/5/3
f 459/5/3 447/5/3 458/5/3
f 460/5/3 447/5/3 459/5/3
f 461/5/3 453/5/3 452/5/3
f 461/5/3 451/5/3 450/5/3
f 461/5/3 452/5/3 451/5/3
f 462/5/3 453/5/3 461/5/3
f 463/5/3 459/5/3 458/5/3
f 463/5/3 457/5/3 456/5/3
f 463/5/3 458/5/3 457/5/3
f 464/5/3 459/5/3 463/5/3
f 467/4/3 466/4/3 465/4/3
f 468/4/3 466/4/3 467/4/3
f 469/2/3 468/2/3 467/2/3
f 470/2/3 468/2/3 469/2/3
f 471/3/3 470/3/3 469/3/3
f 472/3/3 470/3/3 471/3/3
f 473/3/3 470/3/3 472/3/3
f 474/3/3 470/3/3 473/3/3
f 475/3/3 471/3/3 469/3/3
f 476/3/3 471/3/3 475/3/3
f 477/3/3 473/3/3 472/3/3
f 478/3/3 473/3/3 477/3/3
f 479/3/3 473/3/3 478/3/3
f 480/3/3 473/3/3 479/3/3
f 481/3/3 470/3/3 474/3/3
f 482/3/3 470/3/3 481/3/3
f 483/3/3 475/3/3 469/3/3
f 484/3/3 475/3/3 483/3/3
f 485/3/3 479/3/3 478/3/3
f 486/3/3 479/3/3 485/3/3
f 487/3/3 479/3/3 486/3/3
f 488/3/3 479/3/3 487/3/3
f 489/3/3 470/3/3 482/3/3
f 490/3/3 470/3/3 489/3/3
f 492/3/3 487/3/3 486/3/3
f 493/3/3 487/3/3 492/3/3
f 496/3/3 492/3/3 491/3/3
f 496/3/3 494/3/3 493/3/3
f 496/3/3 493/3/3 492/3/3
f 497/3/3 494/3/3 496/3/3
f 499/3/3 496/3/3 495/3/3
f 499/3/3 498/3/3 497/3/3
f 499/3/3 497/3/3 496/3/3
f 500/3/3 498/3/3 499/3/3
f 501/3/3 499/3/3 495/3/3
f 502/3/3 499/3/3 501/3/3
f 503/3/3 498/3/3 500/3/3
f 504/3/3 498/3/3 503/3/3
f 505/3/3 483/3/3 469/3/3
f 508/3/3 470/3/3 490/3/3
f 509/3/3 506/3/3 505/3/3
f 514/3/3 508/3/3 507/3/3
f 515/3/3 510/3/3 509/3/3
f 518/3/3 512/3/3 511/3/3
f 519/3/3 512/3/3 518/3/3
f 522/3/3 514/3/3 513/3/3
f 523/3/3 516/3/3 515/3/3
f 524/3/3 520/3/3 519/3/3
f 524/3/3 518/3/3 517/3/3
f 524/3/3 519/3/3 518/3/3
f 525/3/3 520/3/3 524/3/3
f 526/3/3 522/3/3 521/3/3
f 527/3/3 505/3/3 469/3/3
f 527/3/3 526/3/3 525/3/3
f 527/3/3 525/3/3 524/3/3
f 527/3/3 509/3/3 505/3/3
f 527/3/3 524/3/3 523/3/3
f 527/3/3 523/3/3 515/3/3
f 527/3/3 515/3/3 509/3/3
f 528/2/3 468/2/3 470/2/3
f 528/3/3 526/3/3 527/3/3
f 528/3/3 522/3/3 526/3/3
f 528/3/3 470/3/3 508/3/3
f 528/3/3 514/3/3 522/3/3
f 528/3/3 508/3/3 514/3/3
f 529/2/3 528/2/3 527/2/3
f 530/4/3 466/4/3 468/4/3
f 530/2/3 528/2/3 529/2/3
f 530/2/3 468/2/3 528/2/3
f 531/4/3 530/4/3 529/4/3
f 532/4/3 466/4/3 530/4/3
f 532/4/3 530/4/3 531/4/3
f 533/4/4 534/4/4 535/4/4
f 535/4/4 534/4/4 536/4/4
f 535/2/4 536/2/4 537/2/4
f 537/2/4 536/2/4 538/2/4
f 537/3/4 538/3/4 539/3/4
f 538/2/4 536/2/4 540/2/4
f 539/3/4 538/3/4 540/3/4
f 539/2/4 540/2/4 541/2/4
f 536/4/4 534/4/4 542/4/4
f 541/2/4 540/2/4 542/2/4
f 540/2/4 536/2/4 542/2/4
f 541/4/4 542/4/4 543/4/4
f 542/4/4 534/4/4 544/4/4
f 543/4/4 542/4/4 544/4/4
f 551/4/5 546/4/5 545/4/5
f 552/2/5 547/2/5 546/2/5
f 552/4/5 546/4/5 551/4/5
f 553/3/5 548/3/5 547/3/5
f 553/2/5 547/2/5 552/2/5
f 554/2/5 549/2/5 548/2/5
f 554/3/5 548/3/5 553/3/5
f 555/4/5 550/4/5 549/4/5
f 555/2/5 549/2/5 554/2/5
f 556/4/5 550/4/5 555/4/5
f 557/4/5 551/4/5 545/4/5
f 558/3/5 554/3/5 553/3/5
f 558/4/5 551/4/5 557/4/5
f 558/3/5 552/3/5 551/3/5
f 558/3/5 556/3/5 555/3/5
f 558/3/5 555/3/5 554/3/5
f 558/3/5 553/3/5 552/3/5
f 559/4/5 550/4/5 556/4/5
f 559/3/5 556/3/5 558/3/5
f 560/4/5 550/4/5 559/4/5
f 561/2/5 558/2/5 557/2/5
f 562/3/5 559/3/5 558/3/5
f 562/2/5 558/2/5 561/2/5
f 563/2/5 560/2/5 559/2/5
f 563/3/5 559/3/5 562/3/5
f 564/2/5 560/2/5 563/2/5
f 565/3/5 562/3/5 561/3/5
f 565/3/5 563/3/5 562/3/5
f 565/3/5 564/3/5 563/3/5
f 566/3/5 564/3/5 565/3/5
f 567/3/5 564/3/5 566/3/5
f 568/3/5 564/3/5 567/3/5
f 569/2/5 566/2/5 565/2/5
f 570/3/5 567/3/5 566/3/5
f 570/2/5 566/2/5 569/2/5
f 571/2/5 568/2/5 567/2/5
f 571/3/5 567/3/5 570/3/5
f 572/2/5 568/2/5 571/2/5
f 573/4/5 570/4/5 569/4/5
f 573/3/5 571/3/5 570/3/5
f 574/3/5 571/3/5 573/3/5
f 575/3/5 571/3/5 574/3/5
f 576/3/5 571/3/5 575/3/5
f 577/3/5 571/3/5 576/3/5
f 578/4/5 572/4/5 571/4/5
f 578/3/5 571/3/5 577/3/5
f 579/4/5 573/4/5 569/4/5
f 579/4/5 574/4/5 573/4/5
f 580/2/5 575/2/5 574/2/5
f 580/4/5 574/4/5 579/4/5
f 581/3/5 576/3/5 575/3/5
f 581/2/5 575/2/5 580/2/5
f 582/2/5 577/2/5 576/2/5
f 582/3/5 576/3/5 581/3/5
f 583/4/5 578/4/5 577/4/5
f 583/2/5 577/2/5 582/2/5
f 584/4/5 572/4/5 578/4/5
f 584/4/5 578/4/5 583/4/5
f 587/5/5 586/5/5 585/5/5
f 588/5/5 586/5/5 587/5/5
f 593/1/5 590/1/5 589/1/5
f 594/1/5 590/1/5 593/1/5
f 597/5/5 592/5/5 591/5/5
f 598/5/5 592/5/5 597/5/5
f 599/5/5 596/5/5 595/5/5
f 600/5/5 596/5/5 599/5/5
f 607/1/5 602/1/5 601/1/5
f 608/1/5 602/1/5 607/1/5
f 609/1/5 604/1/5 603/1/5
f 610/1/5 604/1/5 609/1/5
f 613/5/5 606/5/5 605/5/5
f 614/5/5 606/5/5 613/5/5
f 615/5/5 612/5/5 611/5/5
f 616/5/5 612/5/5 615/5/5
f 621/1/5 618/1/5 617/1/5
f 622/1/5 618/1/5 621/1/5
f 623/1/5 620/1/5 619/1/5
f 624/1/5 620/1/5 623/1/5
f 627/5/5 626/5/5 625/5/5
f 628/5/5 626/5/5 627/5/5
f 631/1/5 630/1/5 629/1/5
f 632/1/5 630/1/5 631/1/5
f 637/1/5 634/1/5 633/1/5
f 638/1/5 634/1/5 637/1/5
f 639/5/5 636/5/5 635/5/5
f 640/5/5 636/5/5 639/5/5
f 643/1/5 642/1/5 641/1/5
f 644/1/5 642/1/5 643/1/5
f 649/1/5 646/1/5 645/1/5
f 650/1/5 646/1/5 649/1/5
f 653/5/5 648/5/5 647/5/5
f 654/5/5 648/5/5 653/5/5
f 655/5/5 652/5/5 651/5/5
f 656/5/5 652/5/5 655/5/5
f 663/1/5 658/1/5 657/1/5
f 664/1/5 658/1/5 663/1/5
f 667/1/5 660/1/5 659/1/5
f 668/1/5 660/1/5 667/1/5
f 671/5/5 662/5/5 661/5/5
f 672/5/5 662/5/5 671/5/5
f 673/5/5 666/5/5 665/5/5
f 674/5/5 666/5/5 673/5/5
f 675/5/5 670/5/5 669/5/5
f 676/5/5 670/5/5 675/5/5
f 687/1/5 678/1/5 677/1/5
f 688/1/5 678/1/5 687/1/5
f 689/1/5 680/1/5 679/1/5
f 690/1/5 680/1/5 689/1/5
f 693/1/5 682/1/5 681/1/5
f 694/1/5 682/1/5 693/1/5
f 695/1/5 684/1/5 683/1/5
f 696/1/5 684/1/5 695/1/5
f 697/5/5 686/5/5 685/5/5
f 698/5/5 686/5/5 697/5/5
f 699/5/5 692/5/5 691/5/5
f 700/5/5 692/5/5 699/5/5
f 705/1/5 702/1/5 701/1/5
f 706/1/5 702/1/5 705/1/5
f 707/1/5 704/1/5 703/1/5
f 708/1/5 704/1/5 707/1/5
f 709/1/6 710/1/6 713/1/6
f 713/1/6 710/1/6 714/1/6
f 711/1/6 712/1/6 715/1/6
f 715/1/6 712/1/6 716/1/6
f 717/1/6 718/1/6 727/1/6
f 727/1/6 718/1/6 728/1/6
f 719/1/6 720/1/6 729/1/6
f 729/1/6 720/1/6 730/1/6
f 721/1/6 722/1/6 733/1/6
f 733/1/6 722/1/6 734/1/6
f 723/1/6 724/1/6 735/1/6
f 735/1/6 724/1/6 736/1/6
f 725/5/6 726/5/6 737/5/6
f 737/5/6 726/5/6 738/5/6
f 731/5/6 732/5/6 739/5/6
f 739/5/6 732/5/6 740/5/6
f 741/1/6 742/1/6 747/1/6
f 747/1/6 742/1/6 748/1/6
f 743/1/6 744/1/6 751/1/6
f 751/1/6 744/1/6 752/1/6
f 745/5/6 746/5/6 755/5/6
f 755/5/6 746/5/6 756/5/6
f 749/5/6 750/5/6 757/5/6
f 757/5/6 750/5/6 758/5/6
f 753/5/6 754/5/6 759/5/6
f 759/5/6 754/5/6 760/5/6
f 761/1/6 762/1/6 765/1/6
f 765/1/6 762/1/6 766/1/6
f 763/5/6 764/5/6 769/5/6
f 769/5/6 764/5/6 770/5/6
f 767/5/6 768/5/6 771/5/6
f 771/5/6 768/5/6 772/5/6
f 773/1/6 774/1/6 775/1/6
f 775/1/6 774/1/6 776/1/6
f 777/1/6 778/1/6 781/1/6
f 781/1/6 778/1/6 782/1/6
f 779/5/6 780/5/6 783/5/6
f 783/5/6 780/5/6 784/5/6
f 785/1/6 786/1/6 787/1/6
f 787/1/6 786/1/6 788/1/6
f 789/1/6 790/1/6 793/1/6
f 793/1/6 790/1/6 794/1/6
f 791/1/6 792/1/6 795/1/6
f 795/1/6 792/1/6 796/1/6
f 797/5/6 798/5/6 799/5/6
f 799/5/6 798/5/6 800/5/6
f 801/1/6 802/1/6 807/1/6
f 807/1/6 802/1/6 808/1/6
f 803/1/6 804/1/6 809/1/6
f 809/1/6 804/1/6 810/1/6
f 805/5/6 806/5/6 813/5/6
f 813/5/6 806/5/6 814/5/6
f 811/5/6 812/5/6 815/5/6
f 815/5/6 812/5/6 816/5/6
f 817/1/6 818/1/6 821/1/6
f 821/1/6 818/1/6 822/1/6
f 819/5/6 820/5/6 825/5/6
f 825/5/6 820/5/6 826/5/6
f 823/5/6 824/5/6 827/5/6
f 827/5/6 824/5/6 828/5/6
f 829/5/6 830/5/6 831/5/6
f 831/5/6 830/5/6 832/5/6
f 833/4/6 834/4/6 835/4/6
f 835/4/6 834/4/6 836/4/6
f 835/2/6 836/2/6 837/2/6
f 837/2/6 836/2/6 838/2/6
f 835/2/6 837/2/6 839/2/6
f 837/3/6 838/3/6 839/3/6
f 838/2/6 836/2/6 840/2/6
f 839/3/6 838/3/6 840/3/6
f 833/4/6 835/4/6 841/4/6
f 835/2/6 839/2/6 841/2/6
f 839/2/6 840/2/6 841/2/6
f 840/2/6 836/2/6 842/2/6
f 841/2/6 840/2/6 842/2/6
f 836/4/6 834/4/6 842/4/6
f 833/4/6 841/4/6 843/4/6
f 841/4/6 842/4/6 843/4/6
f 842/4/6 834/4/6 844/4/6
f 843/4/6 842/4/6 844/4/6
