# MagicaVoxel @ Ephtracy

# group
g Podium4

# material
mtllib Podium4.mtl
usemtl palette

# normals
vn -1 0 0
vn 1 0 0
vn 0 0 1
vn 0 0 -1
vn 0 -1 0
vn 0 1 0

# texcoords
vt 0.00976563 0.5
vt 0.0644531 0.5
vt 0.0683594 0.5
vt 0.0917969 0.5
vt 0.994141 0.5

# verts
v -20 0 15
v -20 0 13
v -20 0 12
v -20 0 -22
v -20 0 -23
v -20 0 -25
v -20 17 12
v -20 17 -22
v -20 18 13
v -20 18 -23
v -20 20 15
v -20 20 -25
v -7 5 16
v -7 5 15
v -7 8 16
v -7 8 15
v -6 4 16
v -6 4 15
v -6 5 17
v -6 5 16
v -6 5 15
v -6 8 17
v -6 8 16
v -6 8 15
v -6 11 16
v -6 11 15
v -5 8 17
v -5 8 16
v -5 11 17
v -5 11 16
v -5 11 15
v -5 13 16
v -5 13 15
v -4 11 17
v -4 11 16
v -4 13 17
v -4 13 16
v -4 13 15
v -4 15 16
v -4 15 15
v -3 13 17
v -3 13 16
v -3 15 17
v -3 15 16
v -3 15 15
v -3 17 16
v -3 17 15
v -2 15 17
v -2 15 16
v -2 16 17
v -2 16 16
v 0 2 16
v 0 2 15
v 0 4 17
v 0 4 16
v 0 4 15
v 0 5 17
v 0 5 16
v 1 1 16
v 1 1 15
v 1 2 17
v 1 2 16
v 1 2 15
v 1 4 17
v 1 4 16
v 1 8 17
v 1 8 16
v 1 9 17
v 1 9 16
v 1 9 15
v 1 12 16
v 1 12 15
v 2 9 17
v 2 9 16
v 2 12 17
v 2 12 16
v 2 12 15
v 2 16 16
v 2 16 15
v 3 12 17
v 3 12 16
v 3 16 17
v 3 16 16
v 3 16 15
v 3 17 16
v 3 17 15
v -3 8 17
v -3 8 16
v -3 9 17
v -3 9 16
v -2 9 17
v -2 9 16
v -2 11 17
v -2 11 16
v -1 9 16
v -1 9 15
v -1 11 17
v -1 11 16
v -1 11 15
v -1 13 17
v -1 13 16
v -1 15 17
v -1 15 16
v -1 16 17
v -1 16 16
v -1 16 15
v -1 17 16
v -1 17 15
v 0 11 16
v 0 11 15
v 0 13 17
v 0 13 16
v 0 13 15
v 0 15 17
v 0 15 16
v 0 15 15
v 0 16 16
v 0 16 15
v 1 13 16
v 1 13 15
v 1 15 16
v 1 15 15
v 4 1 16
v 4 1 15
v 4 2 17
v 4 2 16
v 4 2 15
v 4 4 17
v 4 4 16
v 4 8 17
v 4 8 16
v 4 12 17
v 4 12 16
v 5 2 16
v 5 2 15
v 5 4 17
v 5 4 16
v 5 4 15
v 5 5 17
v 5 5 16
v 5 7 17
v 5 7 16
v 5 8 17
v 5 8 16
v 5 8 15
v 5 12 17
v 5 12 16
v 5 12 15
v 5 16 17
v 5 16 16
v 5 16 15
v 5 17 16
v 5 17 15
v 6 12 16
v 6 12 15
v 6 16 16
v 6 16 15
v 7 4 16
v 7 4 15
v 7 5 17
v 7 5 16
v 7 5 15
v 7 7 17
v 7 7 16
v 7 7 15
v 7 8 16
v 7 8 15
v 8 5 16
v 8 5 15
v 8 7 16
v 8 7 15
v 20 0 15
v 20 0 13
v 20 0 12
v 20 0 -22
v 20 0 -23
v 20 0 -25
v 20 17 12
v 20 17 -22
v 20 18 13
v 20 18 -23
v 20 20 15
v 20 20 -25
v -6 5 17
v -6 8 17
v -5 8 17
v -5 11 17
v -4 11 17
v -4 13 17
v -3 8 17
v -3 9 17
v -3 13 17
v -3 15 17
v -2 9 17
v -2 11 17
v -2 15 17
v -2 16 17
v -1 11 17
v -1 13 17
v -1 15 17
v -1 16 17
v 0 4 17
v 0 5 17
v 0 13 17
v 0 15 17
v 1 2 17
v 1 4 17
v 1 8 17
v 1 9 17
v 2 9 17
v 2 12 17
v 3 12 17
v 3 16 17
v 4 2 17
v 4 4 17
v 4 8 17
v 4 12 17
v 5 4 17
v 5 5 17
v 5 7 17
v 5 8 17
v 5 12 17
v 5 16 17
v 7 5 17
v 7 7 17
v -7 5 16
v -7 8 16
v -6 4 16
v -6 5 16
v -6 8 16
v -6 11 16
v -5 8 16
v -5 11 16
v -5 13 16
v -4 11 16
v -4 13 16
v -4 15 16
v -3 8 16
v -3 9 16
v -3 13 16
v -3 15 16
v -3 17 16
v -2 9 16
v -2 11 16
v -2 15 16
v -2 16 16
v -1 9 16
v -1 11 16
v -1 13 16
v -1 15 16
v -1 16 16
v -1 17 16
v 0 2 16
v 0 4 16
v 0 5 16
v 0 11 16
v 0 13 16
v 0 15 16
v 0 16 16
v 1 1 16
v 1 2 16
v 1 4 16
v 1 8 16
v 1 9 16
v 1 12 16
v 1 13 16
v 1 15 16
v 2 9 16
v 2 12 16
v 2 16 16
v 3 12 16
v 3 16 16
v 3 17 16
v 4 1 16
v 4 2 16
v 4 4 16
v 4 8 16
v 4 12 16
v 5 2 16
v 5 4 16
v 5 5 16
v 5 7 16
v 5 8 16
v 5 12 16
v 5 16 16
v 5 17 16
v 6 12 16
v 6 16 16
v 7 4 16
v 7 5 16
v 7 7 16
v 7 8 16
v 8 5 16
v 8 7 16
v -20 0 15
v -20 20 15
v -18 0 15
v -18 18 15
v -17 0 15
v -17 17 15
v -7 5 15
v -7 8 15
v -6 4 15
v -6 5 15
v -6 8 15
v -6 11 15
v -5 11 15
v -5 13 15
v -4 13 15
v -4 15 15
v -3 15 15
v -3 17 15
v -1 9 15
v -1 11 15
v -1 16 15
v -1 17 15
v 0 2 15
v 0 4 15
v 0 11 15
v 0 13 15
v 0 15 15
v 0 16 15
v 1 1 15
v 1 2 15
v 1 9 15
v 1 12 15
v 1 13 15
v 1 15 15
v 2 12 15
v 2 16 15
v 3 16 15
v 3 17 15
v 4 1 15
v 4 2 15
v 5 2 15
v 5 4 15
v 5 8 15
v 5 12 15
v 5 16 15
v 5 17 15
v 6 12 15
v 6 16 15
v 7 4 15
v 7 5 15
v 7 7 15
v 7 8 15
v 8 5 15
v 8 7 15
v 17 0 15
v 17 17 15
v 18 0 15
v 18 18 15
v 20 0 15
v 20 20 15
v -20 0 -25
v -20 20 -25
v -18 0 -25
v -18 18 -25
v -17 0 -25
v -17 17 -25
v 17 0 -25
v 17 17 -25
v 18 0 -25
v 18 18 -25
v 20 0 -25
v 20 20 -25
v -20 0 15
v -18 0 15
v -17 0 15
v 17 0 15
v 18 0 15
v 20 0 15
v -19 0 14
v -18 0 14
v -17 0 14
v 17 0 14
v 18 0 14
v 19 0 14
v -20 0 13
v -19 0 13
v 19 0 13
v 20 0 13
v -20 0 12
v -19 0 12
v 19 0 12
v 20 0 12
v -20 0 -22
v -19 0 -22
v 19 0 -22
v 20 0 -22
v -20 0 -23
v -19 0 -23
v 19 0 -23
v 20 0 -23
v -19 0 -24
v -18 0 -24
v -17 0 -24
v 17 0 -24
v 18 0 -24
v 19 0 -24
v -20 0 -25
v -18 0 -25
v -17 0 -25
v 17 0 -25
v 18 0 -25
v 20 0 -25
v 1 1 16
v 4 1 16
v 1 1 15
v 4 1 15
v 1 2 17
v 4 2 17
v 0 2 16
v 1 2 16
v 4 2 16
v 5 2 16
v 0 2 15
v 1 2 15
v 4 2 15
v 5 2 15
v 0 4 17
v 1 4 17
v 4 4 17
v 5 4 17
v -6 4 16
v 0 4 16
v 1 4 16
v 4 4 16
v 5 4 16
v 7 4 16
v -6 4 15
v 0 4 15
v 5 4 15
v 7 4 15
v -6 5 17
v 0 5 17
v 5 5 17
v 7 5 17
v -7 5 16
v -6 5 16
v 0 5 16
v 5 5 16
v 7 5 16
v 8 5 16
v -7 5 15
v -6 5 15
v 7 5 15
v 8 5 15
v -3 9 17
v -2 9 17
v -3 9 16
v -2 9 16
v -2 11 17
v -1 11 17
v -2 11 16
v -1 11 16
v 0 11 16
v -1 11 15
v 0 11 15
v 4 12 17
v 5 12 17
v 4 12 16
v 5 12 16
v 6 12 16
v 5 12 15
v 6 12 15
v -1 13 17
v 0 13 17
v -1 13 16
v 0 13 16
v 1 13 16
v 0 13 15
v 1 13 15
v 5 7 17
v 7 7 17
v 5 7 16
v 7 7 16
v 8 7 16
v 7 7 15
v 8 7 15
v -6 8 17
v -5 8 17
v -3 8 17
v 1 8 17
v 4 8 17
v 5 8 17
v -7 8 16
v -6 8 16
v -5 8 16
v -3 8 16
v 1 8 16
v 4 8 16
v 5 8 16
v 7 8 16
v -7 8 15
v -6 8 15
v 5 8 15
v 7 8 15
v 1 9 17
v 2 9 17
v -1 9 16
v 1 9 16
v 2 9 16
v -1 9 15
v 1 9 15
v -5 11 17
v -4 11 17
v -6 11 16
v -5 11 16
v -4 11 16
v -6 11 15
v -5 11 15
v 2 12 17
v 3 12 17
v 1 12 16
v 2 12 16
v 3 12 16
v 1 12 15
v 2 12 15
v -4 13 17
v -3 13 17
v -5 13 16
v -4 13 16
v -3 13 16
v -5 13 15
v -4 13 15
v -3 15 17
v -2 15 17
v -1 15 17
v 0 15 17
v -4 15 16
v -3 15 16
v -2 15 16
v -1 15 16
v 0 15 16
v 1 15 16
v -4 15 15
v -3 15 15
v 0 15 15
v 1 15 15
v -2 16 17
v -1 16 17
v 3 16 17
v 5 16 17
v -2 16 16
v -1 16 16
v 0 16 16
v 2 16 16
v 3 16 16
v 5 16 16
v 6 16 16
v -1 16 15
v 0 16 15
v 2 16 15
v 3 16 15
v 5 16 15
v 6 16 15
v -3 17 16
v -1 17 16
v 3 17 16
v 5 17 16
v -3 17 15
v -1 17 15
v 3 17 15
v 5 17 15
v -20 20 15
v 20 20 15
v -18 20 13
v 18 20 13
v -17 20 12
v 17 20 12
v -17 20 -22
v 17 20 -22
v -18 20 -23
v 18 20 -23
v -20 20 -25
v 20 20 -25

# faces
f 7/2/1 3/2/1 2/2/1
f 7/3/1 4/3/1 3/3/1
f 8/2/1 5/2/1 4/2/1
f 8/3/1 4/3/1 7/3/1
f 9/4/1 2/4/1 1/4/1
f 9/2/1 7/2/1 2/2/1
f 9/2/1 8/2/1 7/2/1
f 10/2/1 5/2/1 8/2/1
f 10/2/1 8/2/1 9/2/1
f 10/4/1 6/4/1 5/4/1
f 11/4/1 9/4/1 1/4/1
f 11/4/1 10/4/1 9/4/1
f 12/4/1 6/4/1 10/4/1
f 12/4/1 10/4/1 11/4/1
f 15/5/1 14/5/1 13/5/1
f 16/5/1 14/5/1 15/5/1
f 20/5/1 18/5/1 17/5/1
f 21/5/1 18/5/1 20/5/1
f 22/1/1 20/1/1 19/1/1
f 23/1/1 20/1/1 22/1/1
f 25/5/1 24/5/1 23/5/1
f 26/5/1 24/5/1 25/5/1
f 29/1/1 28/1/1 27/1/1
f 30/1/1 28/1/1 29/1/1
f 32/5/1 31/5/1 30/5/1
f 33/5/1 31/5/1 32/5/1
f 36/1/1 35/1/1 34/1/1
f 37/1/1 35/1/1 36/1/1
f 39/5/1 38/5/1 37/5/1
f 40/5/1 38/5/1 39/5/1
f 43/1/1 42/1/1 41/1/1
f 44/1/1 42/1/1 43/1/1
f 46/5/1 45/5/1 44/5/1
f 47/5/1 45/5/1 46/5/1
f 50/1/1 49/1/1 48/1/1
f 51/1/1 49/1/1 50/1/1
f 55/5/1 53/5/1 52/5/1
f 56/5/1 53/5/1 55/5/1
f 57/1/1 55/1/1 54/1/1
f 58/1/1 55/1/1 57/1/1
f 62/5/1 60/5/1 59/5/1
f 63/5/1 60/5/1 62/5/1
f 64/1/1 62/1/1 61/1/1
f 65/1/1 62/1/1 64/1/1
f 68/1/1 67/1/1 66/1/1
f 69/1/1 67/1/1 68/1/1
f 71/5/1 70/5/1 69/5/1
f 72/5/1 70/5/1 71/5/1
f 75/1/1 74/1/1 73/1/1
f 76/1/1 74/1/1 75/1/1
f 78/5/1 77/5/1 76/5/1
f 79/5/1 77/5/1 78/5/1
f 82/1/1 81/1/1 80/1/1
f 83/1/1 81/1/1 82/1/1
f 85/5/1 84/5/1 83/5/1
f 86/5/1 84/5/1 85/5/1
f 87/1/2 88/1/2 89/1/2
f 89/1/2 88/1/2 90/1/2
f 91/1/2 92/1/2 93/1/2
f 93/1/2 92/1/2 94/1/2
f 95/5/2 96/5/2 98/5/2
f 98/5/2 96/5/2 99/5/2
f 97/1/2 98/1/2 100/1/2
f 100/1/2 98/1/2 101/1/2
f 102/1/2 103/1/2 104/1/2
f 104/1/2 103/1/2 105/1/2
f 105/5/2 106/5/2 107/5/2
f 107/5/2 106/5/2 108/5/2
f 109/5/2 110/5/2 112/5/2
f 112/5/2 110/5/2 113/5/2
f 111/1/2 112/1/2 114/1/2
f 114/1/2 112/1/2 115/1/2
f 115/5/2 116/5/2 117/5/2
f 117/5/2 116/5/2 118/5/2
f 119/5/2 120/5/2 121/5/2
f 121/5/2 120/5/2 122/5/2
f 123/5/2 124/5/2 126/5/2
f 126/5/2 124/5/2 127/5/2
f 125/1/2 126/1/2 128/1/2
f 128/1/2 126/1/2 129/1/2
f 130/1/2 131/1/2 132/1/2
f 132/1/2 131/1/2 133/1/2
f 134/5/2 135/5/2 137/5/2
f 137/5/2 135/5/2 138/5/2
f 136/1/2 137/1/2 139/1/2
f 139/1/2 137/1/2 140/1/2
f 141/1/2 142/1/2 143/1/2
f 143/1/2 142/1/2 144/1/2
f 144/5/2 145/5/2 147/5/2
f 147/5/2 145/5/2 148/5/2
f 146/1/2 147/1/2 149/1/2
f 149/1/2 147/1/2 150/1/2
f 150/5/2 151/5/2 152/5/2
f 152/5/2 151/5/2 153/5/2
f 154/5/2 155/5/2 156/5/2
f 156/5/2 155/5/2 157/5/2
f 158/5/2 159/5/2 161/5/2
f 161/5/2 159/5/2 162/5/2
f 160/1/2 161/1/2 163/1/2
f 163/1/2 161/1/2 164/1/2
f 164/5/2 165/5/2 166/5/2
f 166/5/2 165/5/2 167/5/2
f 168/5/2 169/5/2 170/5/2
f 170/5/2 169/5/2 171/5/2
f 173/2/2 174/2/2 178/2/2
f 174/3/2 175/3/2 178/3/2
f 175/2/2 176/2/2 179/2/2
f 178/3/2 175/3/2 179/3/2
f 172/4/2 173/4/2 180/4/2
f 173/2/2 178/2/2 180/2/2
f 178/2/2 179/2/2 180/2/2
f 179/2/2 176/2/2 181/2/2
f 180/2/2 179/2/2 181/2/2
f 176/4/2 177/4/2 181/4/2
f 172/4/2 180/4/2 182/4/2
f 180/4/2 181/4/2 182/4/2
f 181/4/2 177/4/2 183/4/2
f 182/4/2 181/4/2 183/4/2
f 186/1/3 185/1/3 184/1/3
f 188/1/3 187/1/3 186/1/3
f 190/1/3 186/1/3 184/1/3
f 190/1/3 189/1/3 188/1/3
f 190/1/3 188/1/3 186/1/3
f 191/1/3 189/1/3 190/1/3
f 192/1/3 189/1/3 191/1/3
f 194/1/3 193/1/3 192/1/3
f 194/1/3 192/1/3 191/1/3
f 195/1/3 193/1/3 194/1/3
f 196/1/3 193/1/3 195/1/3
f 198/1/3 197/1/3 196/1/3
f 198/1/3 196/1/3 195/1/3
f 199/1/3 197/1/3 198/1/3
f 200/1/3 197/1/3 199/1/3
f 201/1/3 197/1/3 200/1/3
f 203/1/3 190/1/3 184/1/3
f 204/1/3 200/1/3 199/1/3
f 205/1/3 200/1/3 204/1/3
f 207/1/3 203/1/3 202/1/3
f 208/1/3 190/1/3 203/1/3
f 208/1/3 203/1/3 207/1/3
f 210/1/3 207/1/3 206/1/3
f 210/1/3 209/1/3 208/1/3
f 210/1/3 208/1/3 207/1/3
f 212/1/3 211/1/3 210/1/3
f 214/1/3 212/1/3 210/1/3
f 214/1/3 213/1/3 212/1/3
f 214/1/3 210/1/3 206/1/3
f 215/1/3 213/1/3 214/1/3
f 216/1/3 213/1/3 215/1/3
f 217/1/3 213/1/3 216/1/3
f 218/1/3 216/1/3 215/1/3
f 219/1/3 216/1/3 218/1/3
f 220/1/3 216/1/3 219/1/3
f 221/1/3 216/1/3 220/1/3
f 222/1/3 213/1/3 217/1/3
f 223/1/3 213/1/3 222/1/3
f 224/1/3 220/1/3 219/1/3
f 225/1/3 220/1/3 224/1/3
f 229/5/3 227/5/3 226/5/3
f 230/5/3 227/5/3 229/5/3
f 232/5/3 231/5/3 230/5/3
f 233/5/3 231/5/3 232/5/3
f 235/5/3 234/5/3 233/5/3
f 236/5/3 234/5/3 235/5/3
f 240/5/3 237/5/3 236/5/3
f 241/5/3 237/5/3 240/5/3
f 243/5/3 239/5/3 238/5/3
f 245/5/3 242/5/3 241/5/3
f 246/5/3 242/5/3 245/5/3
f 247/5/3 244/5/3 243/5/3
f 247/5/3 243/5/3 238/5/3
f 248/5/3 244/5/3 247/5/3
f 251/5/3 242/5/3 246/5/3
f 252/5/3 242/5/3 251/5/3
f 254/5/3 229/5/3 228/5/3
f 255/5/3 229/5/3 254/5/3
f 256/5/3 249/5/3 248/5/3
f 257/5/3 249/5/3 256/5/3
f 258/5/3 251/5/3 250/5/3
f 259/5/3 251/5/3 258/5/3
f 261/5/3 254/5/3 253/5/3
f 262/5/3 254/5/3 261/5/3
f 263/5/3 247/5/3 238/5/3
f 264/5/3 247/5/3 263/5/3
f 266/5/3 258/5/3 257/5/3
f 267/5/3 258/5/3 266/5/3
f 268/5/3 265/5/3 264/5/3
f 269/5/3 265/5/3 268/5/3
f 271/5/3 270/5/3 269/5/3
f 272/5/3 270/5/3 271/5/3
f 274/5/3 261/5/3 260/5/3
f 275/5/3 261/5/3 274/5/3
f 279/5/3 276/5/3 275/5/3
f 280/5/3 276/5/3 279/5/3
f 283/5/3 278/5/3 277/5/3
f 284/5/3 278/5/3 283/5/3
f 285/5/3 273/5/3 272/5/3
f 286/5/3 273/5/3 285/5/3
f 287/5/3 285/5/3 284/5/3
f 288/5/3 285/5/3 287/5/3
f 289/5/3 281/5/3 280/5/3
f 290/5/3 281/5/3 289/5/3
f 291/5/3 283/5/3 282/5/3
f 292/5/3 283/5/3 291/5/3
f 293/5/3 291/5/3 290/5/3
f 294/5/3 291/5/3 293/5/3
f 297/4/3 296/4/3 295/4/3
f 298/4/3 296/4/3 297/4/3
f 299/2/3 298/2/3 297/2/3
f 300/2/3 298/2/3 299/2/3
f 301/3/3 300/3/3 299/3/3
f 302/3/3 300/3/3 301/3/3
f 303/3/3 301/3/3 299/3/3
f 304/3/3 301/3/3 303/3/3
f 305/3/3 300/3/3 302/3/3
f 306/3/3 300/3/3 305/3/3
f 307/3/3 300/3/3 306/3/3
f 308/3/3 300/3/3 307/3/3
f 309/3/3 300/3/3 308/3/3
f 310/3/3 300/3/3 309/3/3
f 311/3/3 300/3/3 310/3/3
f 312/2/3 298/2/3 300/2/3
f 312/3/3 300/3/3 311/3/3
f 316/2/3 298/2/3 312/2/3
f 317/3/3 303/3/3 299/3/3
f 318/3/3 303/3/3 317/3/3
f 319/3/3 314/3/3 313/3/3
f 322/3/3 316/3/3 315/3/3
f 323/3/3 317/3/3 299/3/3
f 324/3/3 317/3/3 323/3/3
f 325/3/3 320/3/3 319/3/3
f 325/3/3 319/3/3 313/3/3
f 326/3/3 320/3/3 325/3/3
f 327/3/3 320/3/3 326/3/3
f 328/3/3 322/3/3 321/3/3
f 329/3/3 328/3/3 327/3/3
f 329/3/3 327/3/3 326/3/3
f 330/3/3 322/3/3 328/3/3
f 330/3/3 328/3/3 329/3/3
f 330/3/3 316/3/3 322/3/3
f 331/3/3 316/3/3 330/3/3
f 332/2/3 298/2/3 316/2/3
f 332/3/3 316/3/3 331/3/3
f 333/3/3 323/3/3 299/3/3
f 335/3/3 334/3/3 333/3/3
f 340/2/3 298/2/3 332/2/3
f 341/3/3 338/3/3 337/3/3
f 342/3/3 340/3/3 339/3/3
f 343/3/3 336/3/3 335/3/3
f 346/3/3 341/3/3 337/3/3
f 346/3/3 342/3/3 341/3/3
f 347/3/3 344/3/3 343/3/3
f 348/3/3 346/3/3 345/3/3
f 349/3/3 347/3/3 343/3/3
f 349/3/3 348/3/3 347/3/3
f 349/3/3 333/3/3 299/3/3
f 349/3/3 335/3/3 333/3/3
f 349/3/3 343/3/3 335/3/3
f 350/3/3 346/3/3 348/3/3
f 350/3/3 348/3/3 349/3/3
f 350/3/3 342/3/3 346/3/3
f 350/3/3 340/3/3 342/3/3
f 350/2/3 298/2/3 340/2/3
f 351/2/3 350/2/3 349/2/3
f 352/4/3 296/4/3 298/4/3
f 352/2/3 350/2/3 351/2/3
f 352/2/3 298/2/3 350/2/3
f 353/4/3 352/4/3 351/4/3
f 354/4/3 296/4/3 352/4/3
f 354/4/3 352/4/3 353/4/3
f 355/4/4 356/4/4 357/4/4
f 357/4/4 356/4/4 358/4/4
f 357/2/4 358/2/4 359/2/4
f 359/2/4 358/2/4 360/2/4
f 359/3/4 360/3/4 361/3/4
f 360/2/4 358/2/4 362/2/4
f 361/3/4 360/3/4 362/3/4
f 361/2/4 362/2/4 363/2/4
f 358/4/4 356/4/4 364/4/4
f 363/2/4 362/2/4 364/2/4
f 362/2/4 358/2/4 364/2/4
f 363/4/4 364/4/4 365/4/4
f 364/4/4 356/4/4 366/4/4
f 365/4/4 364/4/4 366/4/4
f 373/4/5 368/4/5 367/4/5
f 374/2/5 369/2/5 368/2/5
f 374/4/5 368/4/5 373/4/5
f 375/3/5 370/3/5 369/3/5
f 375/2/5 369/2/5 374/2/5
f 376/2/5 371/2/5 370/2/5
f 376/3/5 370/3/5 375/3/5
f 377/4/5 372/4/5 371/4/5
f 377/2/5 371/2/5 376/2/5
f 378/4/5 372/4/5 377/4/5
f 379/4/5 373/4/5 367/4/5
f 380/3/5 376/3/5 375/3/5
f 380/4/5 373/4/5 379/4/5
f 380/3/5 374/3/5 373/3/5
f 380/3/5 378/3/5 377/3/5
f 380/3/5 377/3/5 376/3/5
f 380/3/5 375/3/5 374/3/5
f 381/4/5 372/4/5 378/4/5
f 381/3/5 378/3/5 380/3/5
f 382/4/5 372/4/5 381/4/5
f 383/2/5 380/2/5 379/2/5
f 384/3/5 381/3/5 380/3/5
f 384/2/5 380/2/5 383/2/5
f 385/2/5 382/2/5 381/2/5
f 385/3/5 381/3/5 384/3/5
f 386/2/5 382/2/5 385/2/5
f 387/3/5 384/3/5 383/3/5
f 387/3/5 385/3/5 384/3/5
f 387/3/5 386/3/5 385/3/5
f 388/3/5 386/3/5 387/3/5
f 389/3/5 386/3/5 388/3/5
f 390/3/5 386/3/5 389/3/5
f 391/2/5 388/2/5 387/2/5
f 392/3/5 389/3/5 388/3/5
f 392/2/5 388/2/5 391/2/5
f 393/2/5 390/2/5 389/2/5
f 393/3/5 389/3/5 392/3/5
f 394/2/5 390/2/5 393/2/5
f 395/4/5 392/4/5 391/4/5
f 395/3/5 393/3/5 392/3/5
f 396/3/5 393/3/5 395/3/5
f 397/3/5 393/3/5 396/3/5
f 398/3/5 393/3/5 397/3/5
f 399/3/5 393/3/5 398/3/5
f 400/4/5 394/4/5 393/4/5
f 400/3/5 393/3/5 399/3/5
f 401/4/5 395/4/5 391/4/5
f 401/4/5 396/4/5 395/4/5
f 402/2/5 397/2/5 396/2/5
f 402/4/5 396/4/5 401/4/5
f 403/3/5 398/3/5 397/3/5
f 403/2/5 397/2/5 402/2/5
f 404/2/5 399/2/5 398/2/5
f 404/3/5 398/3/5 403/3/5
f 405/4/5 400/4/5 399/4/5
f 405/2/5 399/2/5 404/2/5
f 406/4/5 394/4/5 400/4/5
f 406/4/5 400/4/5 405/4/5
f 409/5/5 408/5/5 407/5/5
f 410/5/5 408/5/5 409/5/5
f 414/1/5 412/1/5 411/1/5
f 415/1/5 412/1/5 414/1/5
f 417/5/5 414/5/5 413/5/5
f 418/5/5 414/5/5 417/5/5
f 419/5/5 416/5/5 415/5/5
f 420/5/5 416/5/5 419/5/5
f 426/1/5 422/1/5 421/1/5
f 427/1/5 422/1/5 426/1/5
f 428/1/5 424/1/5 423/1/5
f 429/1/5 424/1/5 428/1/5
f 431/5/5 426/5/5 425/5/5
f 432/5/5 426/5/5 431/5/5
f 433/5/5 430/5/5 429/5/5
f 434/5/5 430/5/5 433/5/5
f 440/1/5 436/1/5 435/1/5
f 441/1/5 436/1/5 440/1/5
f 442/1/5 438/1/5 437/1/5
f 443/1/5 438/1/5 442/1/5
f 445/5/5 440/5/5 439/5/5
f 446/5/5 440/5/5 445/5/5
f 447/5/5 444/5/5 443/5/5
f 448/5/5 444/5/5 447/5/5
f 451/1/5 450/1/5 449/1/5
f 452/1/5 450/1/5 451/1/5
f 455/1/5 454/1/5 453/1/5
f 456/1/5 454/1/5 455/1/5
f 458/5/5 457/5/5 456/5/5
f 459/5/5 457/5/5 458/5/5
f 462/1/5 461/1/5 460/1/5
f 463/1/5 461/1/5 462/1/5
f 465/5/5 464/5/5 463/5/5
f 466/5/5 464/5/5 465/5/5
f 469/1/5 468/1/5 467/1/5
f 470/1/5 468/1/5 469/1/5
f 472/5/5 471/5/5 470/5/5
f 473/5/5 471/5/5 472/5/5
f 474/1/6 475/1/6 476/1/6
f 476/1/6 475/1/6 477/1/6
f 477/5/6 478/5/6 479/5/6
f 479/5/6 478/5/6 480/5/6
f 481/1/6 482/1/6 488/1/6
f 488/1/6 482/1/6 489/1/6
f 483/1/6 484/1/6 490/1/6
f 490/1/6 484/1/6 491/1/6
f 485/1/6 486/1/6 492/1/6
f 492/1/6 486/1/6 493/1/6
f 487/5/6 488/5/6 495/5/6
f 495/5/6 488/5/6 496/5/6
f 493/5/6 494/5/6 497/5/6
f 497/5/6 494/5/6 498/5/6
f 499/1/6 500/1/6 502/1/6
f 502/1/6 500/1/6 503/1/6
f 501/5/6 502/5/6 504/5/6
f 504/5/6 502/5/6 505/5/6
f 506/1/6 507/1/6 509/1/6
f 509/1/6 507/1/6 510/1/6
f 508/5/6 509/5/6 511/5/6
f 511/5/6 509/5/6 512/5/6
f 513/1/6 514/1/6 516/1/6
f 516/1/6 514/1/6 517/1/6
f 515/5/6 516/5/6 518/5/6
f 518/5/6 516/5/6 519/5/6
f 520/1/6 521/1/6 523/1/6
f 523/1/6 521/1/6 524/1/6
f 522/5/6 523/5/6 525/5/6
f 525/5/6 523/5/6 526/5/6
f 527/1/6 528/1/6 532/1/6
f 532/1/6 528/1/6 533/1/6
f 529/1/6 530/1/6 534/1/6
f 534/1/6 530/1/6 535/1/6
f 531/5/6 532/5/6 537/5/6
f 537/5/6 532/5/6 538/5/6
f 535/5/6 536/5/6 539/5/6
f 539/5/6 536/5/6 540/5/6
f 541/1/6 542/1/6 545/1/6
f 545/1/6 542/1/6 546/1/6
f 543/1/6 544/1/6 549/1/6
f 549/1/6 544/1/6 550/1/6
f 546/5/6 547/5/6 552/5/6
f 552/5/6 547/5/6 553/5/6
f 548/5/6 549/5/6 554/5/6
f 554/5/6 549/5/6 555/5/6
f 550/5/6 551/5/6 556/5/6
f 556/5/6 551/5/6 557/5/6
f 558/5/6 559/5/6 562/5/6
f 562/5/6 559/5/6 563/5/6
f 560/5/6 561/5/6 564/5/6
f 564/5/6 561/5/6 565/5/6
f 566/4/6 567/4/6 568/4/6
f 568/4/6 567/4/6 569/4/6
f 568/2/6 569/2/6 570/2/6
f 570/2/6 569/2/6 571/2/6
f 568/2/6 570/2/6 572/2/6
f 570/3/6 571/3/6 572/3/6
f 571/2/6 569/2/6 573/2/6
f 572/3/6 571/3/6 573/3/6
f 566/4/6 568/4/6 574/4/6
f 568/2/6 572/2/6 574/2/6
f 572/2/6 573/2/6 574/2/6
f 573/2/6 569/2/6 575/2/6
f 574/2/6 573/2/6 575/2/6
f 569/4/6 567/4/6 575/4/6
f 566/4/6 574/4/6 576/4/6
f 574/4/6 575/4/6 576/4/6
f 575/4/6 567/4/6 577/4/6
f 576/4/6 575/4/6 577/4/6
