# MagicaVoxel @ Ephtracy

# group
g CircusPlataformOther2

# material
mtllib CircusPlataformOther2.mtl
usemtl palette

# normals
vn -1 0 0
vn 1 0 0
vn 0 0 1
vn 0 0 -1
vn 0 -1 0
vn 0 1 0

# texcoords
vt 0.755859 0.5
vt 0.767578 0.5
vt 0.775391 0.5

# verts
v 4 0 -3
v 4 0 -4
v 4 11 -3
v 4 11 -4
v 5 0 -2
v 5 0 -3
v 5 0 -4
v 5 0 -5
v 5 11 -2
v 5 11 -3
v 5 11 -4
v 5 11 -5
v 6 0 -5
v 6 0 -6
v 6 11 -5
v 6 11 -6
v 7 0 -1
v 7 0 -2
v 7 0 -6
v 7 0 -7
v 7 11 -1
v 7 11 -2
v 7 11 -6
v 7 11 -7
v 8 0 -7
v 8 0 -8
v 8 11 -7
v 8 11 -8
v 9 0 -0
v 9 0 -1
v 9 0 -8
v 9 0 -9
v 9 11 -0
v 9 11 -1
v 9 11 -8
v 9 11 -9
v 10 0 -9
v 10 0 -10
v 10 11 -9
v 10 11 -10
v 11 0 1
v 11 0 -0
v 11 0 -10
v 11 0 -11
v 11 11 1
v 11 11 -0
v 11 11 -10
v 11 11 -11
v 12 0 -11
v 12 0 -12
v 12 11 -11
v 12 11 -12
v 13 0 2
v 13 0 1
v 13 0 -12
v 13 0 -13
v 13 11 2
v 13 11 1
v 13 11 -12
v 13 11 -13
v 14 0 -13
v 14 0 -14
v 14 11 -13
v 14 11 -14
v 15 0 3
v 15 0 2
v 15 0 -14
v 15 0 -15
v 15 11 3
v 15 11 2
v 15 11 -14
v 15 11 -15
v 16 0 -15
v 16 0 -16
v 16 11 -15
v 16 11 -16
v 17 0 4
v 17 0 3
v 17 0 -16
v 17 0 -17
v 17 11 4
v 17 11 3
v 17 11 -16
v 17 11 -17
v 18 0 -17
v 18 0 -18
v 18 11 -17
v 18 11 -18
v 19 0 5
v 19 0 4
v 19 0 -18
v 19 0 -19
v 19 11 5
v 19 11 4
v 19 11 -18
v 19 11 -19
v 20 0 -19
v 20 0 -20
v 20 11 -19
v 20 11 -20
v 21 0 6
v 21 0 5
v 21 0 -20
v 21 0 -21
v 21 11 6
v 21 11 5
v 21 11 -20
v 21 11 -21
v 22 0 -21
v 22 0 -22
v 22 11 -21
v 22 11 -22
v 23 0 7
v 23 0 6
v 23 0 -22
v 23 0 -23
v 23 11 7
v 23 11 6
v 23 11 -22
v 23 11 -23
v 24 0 -23
v 24 0 -24
v 24 11 -23
v 24 11 -24
v 25 0 8
v 25 0 7
v 25 0 -24
v 25 0 -25
v 25 11 8
v 25 11 7
v 25 11 -24
v 25 11 -25
v 26 0 -25
v 26 0 -26
v 26 11 -25
v 26 11 -26
v 27 0 9
v 27 0 8
v 27 0 -26
v 27 0 -27
v 27 11 9
v 27 11 8
v 27 11 -26
v 27 11 -27
v 28 0 -27
v 28 0 -28
v 28 11 -27
v 28 11 -28
v 29 0 10
v 29 0 9
v 29 0 -28
v 29 0 -29
v 29 11 10
v 29 11 9
v 29 11 -28
v 29 11 -29
v 30 0 -29
v 30 0 -30
v 30 11 -29
v 30 11 -30
v 31 0 11
v 31 0 10
v 31 0 -30
v 31 0 -31
v 31 11 11
v 31 11 10
v 31 11 -30
v 31 11 -31
v 32 0 -31
v 32 0 -32
v 32 11 -31
v 32 11 -32
v 33 0 12
v 33 0 11
v 33 0 -32
v 33 0 -33
v 33 11 12
v 33 11 11
v 33 11 -32
v 33 11 -33
v 34 0 -33
v 34 0 -34
v 34 11 -33
v 34 11 -34
v 35 0 13
v 35 0 12
v 35 0 -34
v 35 0 -35
v 35 11 13
v 35 11 12
v 35 11 -34
v 35 11 -35
v 36 0 -35
v 36 0 -36
v 36 11 -35
v 36 11 -36
v 37 0 14
v 37 0 13
v 37 0 -36
v 37 0 -37
v 37 11 14
v 37 11 13
v 37 11 -36
v 37 11 -37
v 38 0 -37
v 38 0 -38
v 38 11 -37
v 38 11 -38
v 39 0 15
v 39 0 14
v 39 0 -38
v 39 0 -39
v 39 11 15
v 39 11 14
v 39 11 -38
v 39 11 -39
v 40 0 -39
v 40 0 -40
v 40 11 -39
v 40 11 -40
v 41 0 16
v 41 0 15
v 41 0 -40
v 41 0 -41
v 41 11 16
v 41 11 15
v 41 11 -40
v 41 11 -41
v 42 0 -41
v 42 0 -42
v 42 11 -41
v 42 11 -42
v 43 0 17
v 43 0 16
v 43 0 -42
v 43 0 -43
v 43 11 17
v 43 11 16
v 43 11 -42
v 43 11 -43
v 44 0 -43
v 44 0 -44
v 44 11 -43
v 44 11 -44
v 45 0 18
v 45 0 17
v 45 0 -44
v 45 0 -45
v 45 11 18
v 45 11 17
v 45 11 -44
v 45 11 -45
v 46 0 -45
v 46 0 -46
v 46 11 -45
v 46 11 -46
v 47 0 -46
v 47 0 -47
v 47 11 -46
v 47 11 -47
v 48 0 18
v 48 0 -47
v 48 11 18
v 48 11 -47
v 45 0 18
v 45 11 18
v 48 0 18
v 48 11 18
v 43 0 17
v 43 11 17
v 45 0 17
v 45 11 17
v 41 0 16
v 41 11 16
v 43 0 16
v 43 11 16
v 39 0 15
v 39 11 15
v 41 0 15
v 41 11 15
v 37 0 14
v 37 11 14
v 39 0 14
v 39 11 14
v 35 0 13
v 35 11 13
v 37 0 13
v 37 11 13
v 33 0 12
v 33 11 12
v 35 0 12
v 35 11 12
v 31 0 11
v 31 11 11
v 33 0 11
v 33 11 11
v 29 0 10
v 29 11 10
v 31 0 10
v 31 11 10
v 27 0 9
v 27 11 9
v 29 0 9
v 29 11 9
v 25 0 8
v 25 11 8
v 27 0 8
v 27 11 8
v 23 0 7
v 23 11 7
v 25 0 7
v 25 11 7
v 21 0 6
v 21 11 6
v 23 0 6
v 23 11 6
v 19 0 5
v 19 11 5
v 21 0 5
v 21 11 5
v 17 0 4
v 17 11 4
v 19 0 4
v 19 11 4
v 15 0 3
v 15 11 3
v 17 0 3
v 17 11 3
v 13 0 2
v 13 11 2
v 15 0 2
v 15 11 2
v 11 0 1
v 11 11 1
v 13 0 1
v 13 11 1
v 9 0 -0
v 9 11 -0
v 11 0 -0
v 11 11 -0
v 7 0 -1
v 7 11 -1
v 9 0 -1
v 9 11 -1
v 5 0 -2
v 5 11 -2
v 7 0 -2
v 7 11 -2
v 4 0 -3
v 4 11 -3
v 5 0 -3
v 5 11 -3
v 4 0 -4
v 4 11 -4
v 5 0 -4
v 5 11 -4
v 5 0 -5
v 5 11 -5
v 6 0 -5
v 6 11 -5
v 6 0 -6
v 6 11 -6
v 7 0 -6
v 7 11 -6
v 7 0 -7
v 7 11 -7
v 8 0 -7
v 8 11 -7
v 8 0 -8
v 8 11 -8
v 9 0 -8
v 9 11 -8
v 9 0 -9
v 9 11 -9
v 10 0 -9
v 10 11 -9
v 10 0 -10
v 10 11 -10
v 11 0 -10
v 11 11 -10
v 11 0 -11
v 11 11 -11
v 12 0 -11
v 12 11 -11
v 12 0 -12
v 12 11 -12
v 13 0 -12
v 13 11 -12
v 13 0 -13
v 13 11 -13
v 14 0 -13
v 14 11 -13
v 14 0 -14
v 14 11 -14
v 15 0 -14
v 15 11 -14
v 15 0 -15
v 15 11 -15
v 16 0 -15
v 16 11 -15
v 16 0 -16
v 16 11 -16
v 17 0 -16
v 17 11 -16
v 17 0 -17
v 17 11 -17
v 18 0 -17
v 18 11 -17
v 18 0 -18
v 18 11 -18
v 19 0 -18
v 19 11 -18
v 19 0 -19
v 19 11 -19
v 20 0 -19
v 20 11 -19
v 20 0 -20
v 20 11 -20
v 21 0 -20
v 21 11 -20
v 21 0 -21
v 21 11 -21
v 22 0 -21
v 22 11 -21
v 22 0 -22
v 22 11 -22
v 23 0 -22
v 23 11 -22
v 23 0 -23
v 23 11 -23
v 24 0 -23
v 24 11 -23
v 24 0 -24
v 24 11 -24
v 25 0 -24
v 25 11 -24
v 25 0 -25
v 25 11 -25
v 26 0 -25
v 26 11 -25
v 26 0 -26
v 26 11 -26
v 27 0 -26
v 27 11 -26
v 27 0 -27
v 27 11 -27
v 28 0 -27
v 28 11 -27
v 28 0 -28
v 28 11 -28
v 29 0 -28
v 29 11 -28
v 29 0 -29
v 29 11 -29
v 30 0 -29
v 30 11 -29
v 30 0 -30
v 30 11 -30
v 31 0 -30
v 31 11 -30
v 31 0 -31
v 31 11 -31
v 32 0 -31
v 32 11 -31
v 32 0 -32
v 32 11 -32
v 33 0 -32
v 33 11 -32
v 33 0 -33
v 33 11 -33
v 34 0 -33
v 34 11 -33
v 34 0 -34
v 34 11 -34
v 35 0 -34
v 35 11 -34
v 35 0 -35
v 35 11 -35
v 36 0 -35
v 36 11 -35
v 36 0 -36
v 36 11 -36
v 37 0 -36
v 37 11 -36
v 37 0 -37
v 37 11 -37
v 38 0 -37
v 38 11 -37
v 38 0 -38
v 38 11 -38
v 39 0 -38
v 39 11 -38
v 39 0 -39
v 39 11 -39
v 40 0 -39
v 40 11 -39
v 40 0 -40
v 40 11 -40
v 41 0 -40
v 41 11 -40
v 41 0 -41
v 41 11 -41
v 42 0 -41
v 42 11 -41
v 42 0 -42
v 42 11 -42
v 43 0 -42
v 43 11 -42
v 43 0 -43
v 43 11 -43
v 44 0 -43
v 44 11 -43
v 44 0 -44
v 44 11 -44
v 45 0 -44
v 45 11 -44
v 45 0 -45
v 45 11 -45
v 46 0 -45
v 46 11 -45
v 46 0 -46
v 46 11 -46
v 47 0 -46
v 47 11 -46
v 47 0 -47
v 47 11 -47
v 48 0 -47
v 48 11 -47
v 45 0 18
v 48 0 18
v 43 0 17
v 45 0 17
v 41 0 16
v 43 0 16
v 39 0 15
v 41 0 15
v 37 0 14
v 39 0 14
v 35 0 13
v 37 0 13
v 33 0 12
v 35 0 12
v 31 0 11
v 33 0 11
v 29 0 10
v 31 0 10
v 27 0 9
v 29 0 9
v 25 0 8
v 27 0 8
v 23 0 7
v 25 0 7
v 21 0 6
v 23 0 6
v 19 0 5
v 21 0 5
v 17 0 4
v 19 0 4
v 15 0 3
v 17 0 3
v 13 0 2
v 15 0 2
v 11 0 1
v 13 0 1
v 9 0 -0
v 11 0 -0
v 7 0 -1
v 9 0 -1
v 5 0 -2
v 7 0 -2
v 4 0 -3
v 5 0 -3
v 4 0 -4
v 5 0 -4
v 5 0 -5
v 6 0 -5
v 6 0 -6
v 7 0 -6
v 7 0 -7
v 8 0 -7
v 8 0 -8
v 9 0 -8
v 9 0 -9
v 10 0 -9
v 10 0 -10
v 11 0 -10
v 11 0 -11
v 12 0 -11
v 12 0 -12
v 13 0 -12
v 13 0 -13
v 14 0 -13
v 14 0 -14
v 15 0 -14
v 15 0 -15
v 16 0 -15
v 16 0 -16
v 17 0 -16
v 17 0 -17
v 18 0 -17
v 18 0 -18
v 19 0 -18
v 19 0 -19
v 20 0 -19
v 20 0 -20
v 21 0 -20
v 21 0 -21
v 22 0 -21
v 22 0 -22
v 23 0 -22
v 23 0 -23
v 24 0 -23
v 24 0 -24
v 25 0 -24
v 25 0 -25
v 26 0 -25
v 26 0 -26
v 27 0 -26
v 27 0 -27
v 28 0 -27
v 28 0 -28
v 29 0 -28
v 29 0 -29
v 30 0 -29
v 30 0 -30
v 31 0 -30
v 31 0 -31
v 32 0 -31
v 32 0 -32
v 33 0 -32
v 33 0 -33
v 34 0 -33
v 34 0 -34
v 35 0 -34
v 35 0 -35
v 36 0 -35
v 36 0 -36
v 37 0 -36
v 37 0 -37
v 38 0 -37
v 38 0 -38
v 39 0 -38
v 39 0 -39
v 40 0 -39
v 40 0 -40
v 41 0 -40
v 41 0 -41
v 42 0 -41
v 42 0 -42
v 43 0 -42
v 43 0 -43
v 44 0 -43
v 44 0 -44
v 45 0 -44
v 45 0 -45
v 46 0 -45
v 46 0 -46
v 47 0 -46
v 47 0 -47
v 48 0 -47
v 45 11 18
v 48 11 18
v 43 11 17
v 45 11 17
v 41 11 16
v 43 11 16
v 45 11 16
v 46 11 16
v 39 11 15
v 41 11 15
v 43 11 15
v 45 11 15
v 37 11 14
v 39 11 14
v 41 11 14
v 43 11 14
v 35 11 13
v 37 11 13
v 39 11 13
v 41 11 13
v 43 11 13
v 45 11 13
v 33 11 12
v 35 11 12
v 37 11 12
v 39 11 12
v 41 11 12
v 43 11 12
v 31 11 11
v 33 11 11
v 35 11 11
v 37 11 11
v 39 11 11
v 41 11 11
v 43 11 11
v 44 11 11
v 29 11 10
v 31 11 10
v 33 11 10
v 35 11 10
v 37 11 10
v 39 11 10
v 41 11 10
v 43 11 10
v 27 11 9
v 29 11 9
v 31 11 9
v 33 11 9
v 35 11 9
v 37 11 9
v 39 11 9
v 41 11 9
v 25 11 8
v 27 11 8
v 29 11 8
v 31 11 8
v 33 11 8
v 35 11 8
v 37 11 8
v 39 11 8
v 23 11 7
v 25 11 7
v 27 11 7
v 29 11 7
v 31 11 7
v 33 11 7
v 35 11 7
v 37 11 7
v 21 11 6
v 23 11 6
v 25 11 6
v 27 11 6
v 29 11 6
v 31 11 6
v 33 11 6
v 35 11 6
v 19 11 5
v 21 11 5
v 23 11 5
v 25 11 5
v 27 11 5
v 29 11 5
v 31 11 5
v 33 11 5
v 17 11 4
v 19 11 4
v 21 11 4
v 23 11 4
v 25 11 4
v 27 11 4
v 29 11 4
v 31 11 4
v 15 11 3
v 17 11 3
v 19 11 3
v 21 11 3
v 23 11 3
v 25 11 3
v 27 11 3
v 29 11 3
v 13 11 2
v 15 11 2
v 17 11 2
v 19 11 2
v 21 11 2
v 23 11 2
v 25 11 2
v 27 11 2
v 11 11 1
v 13 11 1
v 15 11 1
v 17 11 1
v 19 11 1
v 21 11 1
v 23 11 1
v 25 11 1
v 9 11 -0
v 11 11 -0
v 13 11 -0
v 15 11 -0
v 17 11 -0
v 19 11 -0
v 21 11 -0
v 23 11 -0
v 7 11 -1
v 9 11 -1
v 11 11 -1
v 13 11 -1
v 15 11 -1
v 17 11 -1
v 19 11 -1
v 21 11 -1
v 5 11 -2
v 7 11 -2
v 9 11 -2
v 11 11 -2
v 13 11 -2
v 15 11 -2
v 17 11 -2
v 19 11 -2
v 4 11 -3
v 5 11 -3
v 7 11 -3
v 9 11 -3
v 11 11 -3
v 13 11 -3
v 15 11 -3
v 17 11 -3
v 4 11 -4
v 5 11 -4
v 9 11 -4
v 11 11 -4
v 13 11 -4
v 15 11 -4
v 5 11 -5
v 6 11 -5
v 7 11 -5
v 8 11 -5
v 9 11 -5
v 10 11 -5
v 12 11 -5
v 13 11 -5
v 6 11 -6
v 7 11 -6
v 8 11 -6
v 9 11 -6
v 10 11 -6
v 11 11 -6
v 12 11 -6
v 13 11 -6
v 7 11 -7
v 8 11 -7
v 9 11 -7
v 10 11 -7
v 11 11 -7
v 12 11 -7
v 13 11 -7
v 14 11 -7
v 8 11 -8
v 9 11 -8
v 10 11 -8
v 11 11 -8
v 12 11 -8
v 13 11 -8
v 14 11 -8
v 15 11 -8
v 9 11 -9
v 10 11 -9
v 11 11 -9
v 12 11 -9
v 13 11 -9
v 14 11 -9
v 15 11 -9
v 16 11 -9
v 10 11 -10
v 11 11 -10
v 12 11 -10
v 13 11 -10
v 14 11 -10
v 15 11 -10
v 16 11 -10
v 17 11 -10
v 11 11 -11
v 12 11 -11
v 13 11 -11
v 14 11 -11
v 15 11 -11
v 16 11 -11
v 17 11 -11
v 18 11 -11
v 12 11 -12
v 13 11 -12
v 14 11 -12
v 15 11 -12
v 16 11 -12
v 17 11 -12
v 18 11 -12
v 19 11 -12
v 13 11 -13
v 14 11 -13
v 15 11 -13
v 16 11 -13
v 17 11 -13
v 18 11 -13
v 19 11 -13
v 20 11 -13
v 14 11 -14
v 15 11 -14
v 16 11 -14
v 17 11 -14
v 18 11 -14
v 19 11 -14
v 20 11 -14
v 21 11 -14
v 15 11 -15
v 16 11 -15
v 17 11 -15
v 18 11 -15
v 19 11 -15
v 20 11 -15
v 21 11 -15
v 22 11 -15
v 16 11 -16
v 17 11 -16
v 18 11 -16
v 19 11 -16
v 20 11 -16
v 21 11 -16
v 22 11 -16
v 23 11 -16
v 17 11 -17
v 18 11 -17
v 19 11 -17
v 20 11 -17
v 21 11 -17
v 22 11 -17
v 23 11 -17
v 24 11 -17
v 18 11 -18
v 19 11 -18
v 20 11 -18
v 21 11 -18
v 22 11 -18
v 23 11 -18
v 24 11 -18
v 25 11 -18
v 19 11 -19
v 20 11 -19
v 21 11 -19
v 22 11 -19
v 23 11 -19
v 24 11 -19
v 25 11 -19
v 26 11 -19
v 20 11 -20
v 21 11 -20
v 22 11 -20
v 23 11 -20
v 24 11 -20
v 25 11 -20
v 26 11 -20
v 27 11 -20
v 21 11 -21
v 22 11 -21
v 23 11 -21
v 24 11 -21
v 25 11 -21
v 26 11 -21
v 27 11 -21
v 28 11 -21
v 22 11 -22
v 23 11 -22
v 24 11 -22
v 25 11 -22
v 26 11 -22
v 27 11 -22
v 28 11 -22
v 29 11 -22
v 23 11 -23
v 24 11 -23
v 25 11 -23
v 26 11 -23
v 27 11 -23
v 28 11 -23
v 29 11 -23
v 30 11 -23
v 24 11 -24
v 25 11 -24
v 26 11 -24
v 27 11 -24
v 28 11 -24
v 29 11 -24
v 30 11 -24
v 31 11 -24
v 25 11 -25
v 26 11 -25
v 27 11 -25
v 28 11 -25
v 29 11 -25
v 30 11 -25
v 31 11 -25
v 32 11 -25
v 26 11 -26
v 27 11 -26
v 28 11 -26
v 29 11 -26
v 30 11 -26
v 31 11 -26
v 32 11 -26
v 33 11 -26
v 27 11 -27
v 28 11 -27
v 29 11 -27
v 30 11 -27
v 31 11 -27
v 32 11 -27
v 33 11 -27
v 34 11 -27
v 28 11 -28
v 29 11 -28
v 30 11 -28
v 31 11 -28
v 32 11 -28
v 33 11 -28
v 34 11 -28
v 35 11 -28
v 29 11 -29
v 30 11 -29
v 31 11 -29
v 32 11 -29
v 33 11 -29
v 34 11 -29
v 35 11 -29
v 36 11 -29
v 30 11 -30
v 31 11 -30
v 32 11 -30
v 33 11 -30
v 34 11 -30
v 35 11 -30
v 36 11 -30
v 37 11 -30
v 31 11 -31
v 32 11 -31
v 33 11 -31
v 34 11 -31
v 35 11 -31
v 36 11 -31
v 37 11 -31
v 38 11 -31
v 32 11 -32
v 33 11 -32
v 34 11 -32
v 35 11 -32
v 36 11 -32
v 37 11 -32
v 38 11 -32
v 39 11 -32
v 33 11 -33
v 34 11 -33
v 35 11 -33
v 36 11 -33
v 37 11 -33
v 38 11 -33
v 39 11 -33
v 40 11 -33
v 34 11 -34
v 35 11 -34
v 36 11 -34
v 37 11 -34
v 38 11 -34
v 39 11 -34
v 40 11 -34
v 41 11 -34
v 35 11 -35
v 36 11 -35
v 37 11 -35
v 38 11 -35
v 39 11 -35
v 40 11 -35
v 41 11 -35
v 42 11 -35
v 36 11 -36
v 37 11 -36
v 38 11 -36
v 39 11 -36
v 40 11 -36
v 41 11 -36
v 42 11 -36
v 43 11 -36
v 37 11 -37
v 38 11 -37
v 39 11 -37
v 40 11 -37
v 41 11 -37
v 42 11 -37
v 43 11 -37
v 44 11 -37
v 38 11 -38
v 39 11 -38
v 40 11 -38
v 41 11 -38
v 42 11 -38
v 43 11 -38
v 39 11 -39
v 40 11 -39
v 41 11 -39
v 42 11 -39
v 43 11 -39
v 44 11 -39
v 40 11 -40
v 41 11 -40
v 42 11 -40
v 43 11 -40
v 44 11 -40
v 45 11 -40
v 41 11 -41
v 42 11 -41
v 43 11 -41
v 44 11 -41
v 42 11 -42
v 43 11 -42
v 44 11 -42
v 45 11 -42
v 43 11 -43
v 44 11 -43
v 45 11 -43
v 46 11 -43
v 44 11 -44
v 45 11 -44
v 45 11 -45
v 46 11 -45
v 46 11 -46
v 47 11 -46
v 47 11 -47
v 48 11 -47

# faces
f 3/3/1 2/3/1 1/3/1
f 4/3/1 2/3/1 3/3/1
f 9/3/1 6/3/1 5/3/1
f 10/3/1 6/3/1 9/3/1
f 11/3/1 8/3/1 7/3/1
f 12/3/1 8/3/1 11/3/1
f 15/3/1 14/3/1 13/3/1
f 16/3/1 14/3/1 15/3/1
f 21/3/1 18/3/1 17/3/1
f 22/3/1 18/3/1 21/3/1
f 23/3/1 20/3/1 19/3/1
f 24/3/1 20/3/1 23/3/1
f 27/3/1 26/3/1 25/3/1
f 28/3/1 26/3/1 27/3/1
f 33/3/1 30/3/1 29/3/1
f 34/3/1 30/3/1 33/3/1
f 35/3/1 32/3/1 31/3/1
f 36/3/1 32/3/1 35/3/1
f 39/3/1 38/3/1 37/3/1
f 40/3/1 38/3/1 39/3/1
f 45/3/1 42/3/1 41/3/1
f 46/3/1 42/3/1 45/3/1
f 47/3/1 44/3/1 43/3/1
f 48/3/1 44/3/1 47/3/1
f 51/3/1 50/3/1 49/3/1
f 52/3/1 50/3/1 51/3/1
f 57/3/1 54/3/1 53/3/1
f 58/3/1 54/3/1 57/3/1
f 59/3/1 56/3/1 55/3/1
f 60/3/1 56/3/1 59/3/1
f 63/3/1 62/3/1 61/3/1
f 64/3/1 62/3/1 63/3/1
f 69/3/1 66/3/1 65/3/1
f 70/3/1 66/3/1 69/3/1
f 71/3/1 68/3/1 67/3/1
f 72/3/1 68/3/1 71/3/1
f 75/3/1 74/3/1 73/3/1
f 76/3/1 74/3/1 75/3/1
f 81/3/1 78/3/1 77/3/1
f 82/3/1 78/3/1 81/3/1
f 83/3/1 80/3/1 79/3/1
f 84/3/1 80/3/1 83/3/1
f 87/3/1 86/3/1 85/3/1
f 88/3/1 86/3/1 87/3/1
f 93/3/1 90/3/1 89/3/1
f 94/3/1 90/3/1 93/3/1
f 95/3/1 92/3/1 91/3/1
f 96/3/1 92/3/1 95/3/1
f 99/3/1 98/3/1 97/3/1
f 100/3/1 98/3/1 99/3/1
f 105/3/1 102/3/1 101/3/1
f 106/3/1 102/3/1 105/3/1
f 107/3/1 104/3/1 103/3/1
f 108/3/1 104/3/1 107/3/1
f 111/3/1 110/3/1 109/3/1
f 112/3/1 110/3/1 111/3/1
f 117/3/1 114/3/1 113/3/1
f 118/3/1 114/3/1 117/3/1
f 119/3/1 116/3/1 115/3/1
f 120/3/1 116/3/1 119/3/1
f 123/3/1 122/3/1 121/3/1
f 124/3/1 122/3/1 123/3/1
f 129/3/1 126/3/1 125/3/1
f 130/3/1 126/3/1 129/3/1
f 131/3/1 128/3/1 127/3/1
f 132/3/1 128/3/1 131/3/1
f 135/3/1 134/3/1 133/3/1
f 136/3/1 134/3/1 135/3/1
f 141/3/1 138/3/1 137/3/1
f 142/3/1 138/3/1 141/3/1
f 143/3/1 140/3/1 139/3/1
f 144/3/1 140/3/1 143/3/1
f 147/3/1 146/3/1 145/3/1
f 148/3/1 146/3/1 147/3/1
f 153/3/1 150/3/1 149/3/1
f 154/3/1 150/3/1 153/3/1
f 155/3/1 152/3/1 151/3/1
f 156/3/1 152/3/1 155/3/1
f 159/3/1 158/3/1 157/3/1
f 160/3/1 158/3/1 159/3/1
f 165/3/1 162/3/1 161/3/1
f 166/3/1 162/3/1 165/3/1
f 167/3/1 164/3/1 163/3/1
f 168/3/1 164/3/1 167/3/1
f 171/3/1 170/3/1 169/3/1
f 172/3/1 170/3/1 171/3/1
f 177/3/1 174/3/1 173/3/1
f 178/3/1 174/3/1 177/3/1
f 179/3/1 176/3/1 175/3/1
f 180/3/1 176/3/1 179/3/1
f 183/3/1 182/3/1 181/3/1
f 184/3/1 182/3/1 183/3/1
f 189/3/1 186/3/1 185/3/1
f 190/3/1 186/3/1 189/3/1
f 191/3/1 188/3/1 187/3/1
f 192/3/1 188/3/1 191/3/1
f 195/3/1 194/3/1 193/3/1
f 196/3/1 194/3/1 195/3/1
f 201/3/1 198/3/1 197/3/1
f 202/3/1 198/3/1 201/3/1
f 203/3/1 200/3/1 199/3/1
f 204/3/1 200/3/1 203/3/1
f 207/3/1 206/3/1 205/3/1
f 208/3/1 206/3/1 207/3/1
f 213/3/1 210/3/1 209/3/1
f 214/3/1 210/3/1 213/3/1
f 215/3/1 212/3/1 211/3/1
f 216/3/1 212/3/1 215/3/1
f 219/3/1 218/3/1 217/3/1
f 220/3/1 218/3/1 219/3/1
f 225/3/1 222/3/1 221/3/1
f 226/3/1 222/3/1 225/3/1
f 227/3/1 224/3/1 223/3/1
f 228/3/1 224/3/1 227/3/1
f 231/3/1 230/3/1 229/3/1
f 232/3/1 230/3/1 231/3/1
f 237/3/1 234/3/1 233/3/1
f 238/3/1 234/3/1 237/3/1
f 239/3/1 236/3/1 235/3/1
f 240/3/1 236/3/1 239/3/1
f 243/3/1 242/3/1 241/3/1
f 244/3/1 242/3/1 243/3/1
f 249/3/1 246/3/1 245/3/1
f 250/3/1 246/3/1 249/3/1
f 251/3/1 248/3/1 247/3/1
f 252/3/1 248/3/1 251/3/1
f 255/3/1 254/3/1 253/3/1
f 256/3/1 254/3/1 255/3/1
f 259/3/1 258/3/1 257/3/1
f 260/3/1 258/3/1 259/3/1
f 261/3/2 262/3/2 263/3/2
f 263/3/2 262/3/2 264/3/2
f 267/3/3 266/3/3 265/3/3
f 268/3/3 266/3/3 267/3/3
f 271/3/3 270/3/3 269/3/3
f 272/3/3 270/3/3 271/3/3
f 275/3/3 274/3/3 273/3/3
f 276/3/3 274/3/3 275/3/3
f 279/3/3 278/3/3 277/3/3
f 280/3/3 278/3/3 279/3/3
f 283/3/3 282/3/3 281/3/3
f 284/3/3 282/3/3 283/3/3
f 287/3/3 286/3/3 285/3/3
f 288/3/3 286/3/3 287/3/3
f 291/3/3 290/3/3 289/3/3
f 292/3/3 290/3/3 291/3/3
f 295/3/3 294/3/3 293/3/3
f 296/3/3 294/3/3 295/3/3
f 299/3/3 298/3/3 297/3/3
f 300/3/3 298/3/3 299/3/3
f 303/3/3 302/3/3 301/3/3
f 304/3/3 302/3/3 303/3/3
f 307/3/3 306/3/3 305/3/3
f 308/3/3 306/3/3 307/3/3
f 311/3/3 310/3/3 309/3/3
f 312/3/3 310/3/3 311/3/3
f 315/3/3 314/3/3 313/3/3
f 316/3/3 314/3/3 315/3/3
f 319/3/3 318/3/3 317/3/3
f 320/3/3 318/3/3 319/3/3
f 323/3/3 322/3/3 321/3/3
f 324/3/3 322/3/3 323/3/3
f 327/3/3 326/3/3 325/3/3
f 328/3/3 326/3/3 327/3/3
f 331/3/3 330/3/3 329/3/3
f 332/3/3 330/3/3 331/3/3
f 335/3/3 334/3/3 333/3/3
f 336/3/3 334/3/3 335/3/3
f 339/3/3 338/3/3 337/3/3
f 340/3/3 338/3/3 339/3/3
f 343/3/3 342/3/3 341/3/3
f 344/3/3 342/3/3 343/3/3
f 347/3/3 346/3/3 345/3/3
f 348/3/3 346/3/3 347/3/3
f 351/3/3 350/3/3 349/3/3
f 352/3/3 350/3/3 351/3/3
f 353/3/4 354/3/4 355/3/4
f 355/3/4 354/3/4 356/3/4
f 357/3/4 358/3/4 359/3/4
f 359/3/4 358/3/4 360/3/4
f 361/3/4 362/3/4 363/3/4
f 363/3/4 362/3/4 364/3/4
f 365/3/4 366/3/4 367/3/4
f 367/3/4 366/3/4 368/3/4
f 369/3/4 370/3/4 371/3/4
f 371/3/4 370/3/4 372/3/4
f 373/3/4 374/3/4 375/3/4
f 375/3/4 374/3/4 376/3/4
f 377/3/4 378/3/4 379/3/4
f 379/3/4 378/3/4 380/3/4
f 381/3/4 382/3/4 383/3/4
f 383/3/4 382/3/4 384/3/4
f 385/3/4 386/3/4 387/3/4
f 387/3/4 386/3/4 388/3/4
f 389/3/4 390/3/4 391/3/4
f 391/3/4 390/3/4 392/3/4
f 393/3/4 394/3/4 395/3/4
f 395/3/4 394/3/4 396/3/4
f 397/3/4 398/3/4 399/3/4
f 399/3/4 398/3/4 400/3/4
f 401/3/4 402/3/4 403/3/4
f 403/3/4 402/3/4 404/3/4
f 405/3/4 406/3/4 407/3/4
f 407/3/4 406/3/4 408/3/4
f 409/3/4 410/3/4 411/3/4
f 411/3/4 410/3/4 412/3/4
f 413/3/4 414/3/4 415/3/4
f 415/3/4 414/3/4 416/3/4
f 417/3/4 418/3/4 419/3/4
f 419/3/4 418/3/4 420/3/4
f 421/3/4 422/3/4 423/3/4
f 423/3/4 422/3/4 424/3/4
f 425/3/4 426/3/4 427/3/4
f 427/3/4 426/3/4 428/3/4
f 429/3/4 430/3/4 431/3/4
f 431/3/4 430/3/4 432/3/4
f 433/3/4 434/3/4 435/3/4
f 435/3/4 434/3/4 436/3/4
f 437/3/4 438/3/4 439/3/4
f 439/3/4 438/3/4 440/3/4
f 441/3/4 442/3/4 443/3/4
f 443/3/4 442/3/4 444/3/4
f 445/3/4 446/3/4 447/3/4
f 447/3/4 446/3/4 448/3/4
f 449/3/4 450/3/4 451/3/4
f 451/3/4 450/3/4 452/3/4
f 453/3/4 454/3/4 455/3/4
f 455/3/4 454/3/4 456/3/4
f 457/3/4 458/3/4 459/3/4
f 459/3/4 458/3/4 460/3/4
f 461/3/4 462/3/4 463/3/4
f 463/3/4 462/3/4 464/3/4
f 465/3/4 466/3/4 467/3/4
f 467/3/4 466/3/4 468/3/4
f 469/3/4 470/3/4 471/3/4
f 471/3/4 470/3/4 472/3/4
f 473/3/4 474/3/4 475/3/4
f 475/3/4 474/3/4 476/3/4
f 477/3/4 478/3/4 479/3/4
f 479/3/4 478/3/4 480/3/4
f 481/3/4 482/3/4 483/3/4
f 483/3/4 482/3/4 484/3/4
f 485/3/4 486/3/4 487/3/4
f 487/3/4 486/3/4 488/3/4
f 489/3/4 490/3/4 491/3/4
f 491/3/4 490/3/4 492/3/4
f 493/3/4 494/3/4 495/3/4
f 495/3/4 494/3/4 496/3/4
f 497/3/4 498/3/4 499/3/4
f 499/3/4 498/3/4 500/3/4
f 501/3/4 502/3/4 503/3/4
f 503/3/4 502/3/4 504/3/4
f 505/3/4 506/3/4 507/3/4
f 507/3/4 506/3/4 508/3/4
f 509/3/4 510/3/4 511/3/4
f 511/3/4 510/3/4 512/3/4
f 513/3/4 514/3/4 515/3/4
f 515/3/4 514/3/4 516/3/4
f 517/3/4 518/3/4 519/3/4
f 519/3/4 518/3/4 520/3/4
f 521/3/4 522/3/4 523/3/4
f 523/3/4 522/3/4 524/3/4
f 525/3/4 526/3/4 527/3/4
f 527/3/4 526/3/4 528/3/4
f 532/3/5 530/3/5 529/3/5
f 534/3/5 532/3/5 531/3/5
f 536/3/5 534/3/5 533/3/5
f 538/3/5 536/3/5 535/3/5
f 540/3/5 538/3/5 537/3/5
f 542/3/5 540/3/5 539/3/5
f 544/3/5 542/3/5 541/3/5
f 546/3/5 544/3/5 543/3/5
f 548/3/5 546/3/5 545/3/5
f 550/3/5 548/3/5 547/3/5
f 552/3/5 550/3/5 549/3/5
f 554/3/5 552/3/5 551/3/5
f 556/3/5 554/3/5 553/3/5
f 558/3/5 556/3/5 555/3/5
f 560/3/5 558/3/5 557/3/5
f 562/3/5 560/3/5 559/3/5
f 564/3/5 562/3/5 561/3/5
f 566/3/5 564/3/5 563/3/5
f 568/3/5 566/3/5 565/3/5
f 570/3/5 568/3/5 567/3/5
f 572/3/5 570/3/5 569/3/5
f 573/3/5 572/3/5 571/3/5
f 574/3/5 570/3/5 572/3/5
f 574/3/5 572/3/5 573/3/5
f 575/3/5 570/3/5 574/3/5
f 576/3/5 570/3/5 575/3/5
f 577/3/5 570/3/5 576/3/5
f 578/3/5 568/3/5 570/3/5
f 578/3/5 570/3/5 577/3/5
f 579/3/5 568/3/5 578/3/5
f 580/3/5 568/3/5 579/3/5
f 581/3/5 568/3/5 580/3/5
f 582/3/5 566/3/5 568/3/5
f 582/3/5 568/3/5 581/3/5
f 583/3/5 566/3/5 582/3/5
f 584/3/5 566/3/5 583/3/5
f 585/3/5 566/3/5 584/3/5
f 586/3/5 564/3/5 566/3/5
f 586/3/5 566/3/5 585/3/5
f 587/3/5 564/3/5 586/3/5
f 588/3/5 564/3/5 587/3/5
f 589/3/5 564/3/5 588/3/5
f 590/3/5 562/3/5 564/3/5
f 590/3/5 564/3/5 589/3/5
f 591/3/5 562/3/5 590/3/5
f 592/3/5 562/3/5 591/3/5
f 593/3/5 562/3/5 592/3/5
f 594/3/5 560/3/5 562/3/5
f 594/3/5 562/3/5 593/3/5
f 595/3/5 560/3/5 594/3/5
f 596/3/5 560/3/5 595/3/5
f 597/3/5 560/3/5 596/3/5
f 598/3/5 558/3/5 560/3/5
f 598/3/5 560/3/5 597/3/5
f 599/3/5 558/3/5 598/3/5
f 600/3/5 558/3/5 599/3/5
f 601/3/5 558/3/5 600/3/5
f 602/3/5 556/3/5 558/3/5
f 602/3/5 558/3/5 601/3/5
f 603/3/5 556/3/5 602/3/5
f 604/3/5 556/3/5 603/3/5
f 605/3/5 556/3/5 604/3/5
f 606/3/5 554/3/5 556/3/5
f 606/3/5 556/3/5 605/3/5
f 607/3/5 554/3/5 606/3/5
f 608/3/5 554/3/5 607/3/5
f 609/3/5 554/3/5 608/3/5
f 610/3/5 552/3/5 554/3/5
f 610/3/5 554/3/5 609/3/5
f 611/3/5 552/3/5 610/3/5
f 612/3/5 552/3/5 611/3/5
f 613/3/5 552/3/5 612/3/5
f 614/3/5 550/3/5 552/3/5
f 614/3/5 552/3/5 613/3/5
f 615/3/5 550/3/5 614/3/5
f 616/3/5 550/3/5 615/3/5
f 617/3/5 550/3/5 616/3/5
f 618/3/5 548/3/5 550/3/5
f 618/3/5 550/3/5 617/3/5
f 619/3/5 548/3/5 618/3/5
f 620/3/5 548/3/5 619/3/5
f 621/3/5 548/3/5 620/3/5
f 622/3/5 546/3/5 548/3/5
f 622/3/5 548/3/5 621/3/5
f 623/3/5 546/3/5 622/3/5
f 624/3/5 546/3/5 623/3/5
f 625/3/5 546/3/5 624/3/5
f 626/3/5 544/3/5 546/3/5
f 626/3/5 546/3/5 625/3/5
f 627/3/5 544/3/5 626/3/5
f 628/3/5 544/3/5 627/3/5
f 629/3/5 544/3/5 628/3/5
f 630/3/5 542/3/5 544/3/5
f 630/3/5 544/3/5 629/3/5
f 631/3/5 542/3/5 630/3/5
f 632/3/5 542/3/5 631/3/5
f 633/3/5 542/3/5 632/3/5
f 634/3/5 540/3/5 542/3/5
f 634/3/5 542/3/5 633/3/5
f 635/3/5 540/3/5 634/3/5
f 636/3/5 540/3/5 635/3/5
f 637/3/5 540/3/5 636/3/5
f 638/3/5 538/3/5 540/3/5
f 638/3/5 540/3/5 637/3/5
f 639/3/5 538/3/5 638/3/5
f 640/3/5 538/3/5 639/3/5
f 641/3/5 538/3/5 640/3/5
f 642/3/5 536/3/5 538/3/5
f 642/3/5 538/3/5 641/3/5
f 643/3/5 536/3/5 642/3/5
f 644/3/5 536/3/5 643/3/5
f 645/3/5 536/3/5 644/3/5
f 646/3/5 534/3/5 536/3/5
f 646/3/5 536/3/5 645/3/5
f 647/3/5 534/3/5 646/3/5
f 648/3/5 534/3/5 647/3/5
f 649/3/5 534/3/5 648/3/5
f 650/3/5 532/3/5 534/3/5
f 650/3/5 534/3/5 649/3/5
f 651/3/5 532/3/5 650/3/5
f 652/3/5 532/3/5 651/3/5
f 653/3/5 532/3/5 652/3/5
f 654/3/5 530/3/5 532/3/5
f 654/3/5 532/3/5 653/3/5
f 655/3/5 530/3/5 654/3/5
f 656/3/5 530/3/5 655/3/5
f 657/3/5 530/3/5 656/3/5
f 658/3/5 530/3/5 657/3/5
f 659/3/5 530/3/5 658/3/5
f 660/3/5 530/3/5 659/3/5
f 661/3/6 662/3/6 664/3/6
f 663/3/6 664/3/6 666/3/6
f 664/3/6 662/3/6 667/3/6
f 666/3/6 664/3/6 667/3/6
f 667/3/6 662/3/6 668/3/6
f 665/3/6 666/3/6 670/3/6
f 666/3/6 667/3/6 670/3/6
f 670/3/6 667/3/6 671/3/6
f 667/2/6 668/2/6 672/2/6
f 671/3/6 667/3/6 672/3/6
f 670/3/6 671/3/6 674/3/6
f 669/3/6 670/3/6 674/3/6
f 674/3/6 671/3/6 675/3/6
f 671/2/6 672/2/6 676/2/6
f 675/3/6 671/3/6 676/3/6
f 674/3/6 675/3/6 678/3/6
f 673/3/6 674/3/6 678/3/6
f 678/3/6 675/3/6 679/3/6
f 675/2/6 676/2/6 680/2/6
f 679/3/6 675/3/6 680/3/6
f 676/2/6 672/2/6 681/2/6
f 680/2/6 676/2/6 681/2/6
f 672/2/6 668/2/6 682/2/6
f 681/2/6 672/2/6 682/2/6
f 678/3/6 679/3/6 684/3/6
f 677/3/6 678/3/6 684/3/6
f 684/3/6 679/3/6 685/3/6
f 680/2/6 681/2/6 686/2/6
f 685/3/6 679/3/6 686/3/6
f 679/2/6 680/2/6 686/2/6
f 686/2/6 681/2/6 687/2/6
f 681/3/6 682/3/6 688/3/6
f 687/2/6 681/2/6 688/2/6
f 684/3/6 685/3/6 690/3/6
f 683/3/6 684/3/6 690/3/6
f 690/3/6 685/3/6 691/3/6
f 686/2/6 687/2/6 692/2/6
f 691/3/6 685/3/6 692/3/6
f 685/2/6 686/2/6 692/2/6
f 692/2/6 687/2/6 693/2/6
f 687/3/6 688/3/6 694/3/6
f 693/2/6 687/2/6 694/2/6
f 688/3/6 682/3/6 695/3/6
f 694/3/6 688/3/6 695/3/6
f 695/3/6 682/3/6 696/3/6
f 690/3/6 691/3/6 698/3/6
f 689/3/6 690/3/6 698/3/6
f 698/3/6 691/3/6 699/3/6
f 692/2/6 693/2/6 700/2/6
f 699/3/6 691/3/6 700/3/6
f 691/2/6 692/2/6 700/2/6
f 700/2/6 693/2/6 701/2/6
f 693/3/6 694/3/6 702/3/6
f 701/2/6 693/2/6 702/2/6
f 694/3/6 695/3/6 702/3/6
f 702/3/6 695/3/6 703/3/6
f 695/1/6 696/1/6 704/1/6
f 703/3/6 695/3/6 704/3/6
f 698/3/6 699/3/6 706/3/6
f 697/3/6 698/3/6 706/3/6
f 706/3/6 699/3/6 707/3/6
f 700/2/6 701/2/6 708/2/6
f 707/3/6 699/3/6 708/3/6
f 699/2/6 700/2/6 708/2/6
f 708/2/6 701/2/6 709/2/6
f 702/3/6 703/3/6 710/3/6
f 709/2/6 701/2/6 710/2/6
f 701/3/6 702/3/6 710/3/6
f 710/3/6 703/3/6 711/3/6
f 703/1/6 704/1/6 712/1/6
f 711/3/6 703/3/6 712/3/6
f 706/3/6 707/3/6 714/3/6
f 705/3/6 706/3/6 714/3/6
f 714/3/6 707/3/6 715/3/6
f 708/2/6 709/2/6 716/2/6
f 715/3/6 707/3/6 716/3/6
f 707/2/6 708/2/6 716/2/6
f 716/2/6 709/2/6 717/2/6
f 710/3/6 711/3/6 718/3/6
f 717/2/6 709/2/6 718/2/6
f 709/3/6 710/3/6 718/3/6
f 718/3/6 711/3/6 719/3/6
f 711/1/6 712/1/6 720/1/6
f 719/3/6 711/3/6 720/3/6
f 714/3/6 715/3/6 722/3/6
f 713/3/6 714/3/6 722/3/6
f 722/3/6 715/3/6 723/3/6
f 716/2/6 717/2/6 724/2/6
f 723/3/6 715/3/6 724/3/6
f 715/2/6 716/2/6 724/2/6
f 724/2/6 717/2/6 725/2/6
f 718/3/6 719/3/6 726/3/6
f 725/2/6 717/2/6 726/2/6
f 717/3/6 718/3/6 726/3/6
f 726/3/6 719/3/6 727/3/6
f 719/1/6 720/1/6 728/1/6
f 727/3/6 719/3/6 728/3/6
f 722/3/6 723/3/6 730/3/6
f 721/3/6 722/3/6 730/3/6
f 730/3/6 723/3/6 731/3/6
f 724/2/6 725/2/6 732/2/6
f 731/3/6 723/3/6 732/3/6
f 723/2/6 724/2/6 732/2/6
f 732/2/6 725/2/6 733/2/6
f 726/3/6 727/3/6 734/3/6
f 733/2/6 725/2/6 734/2/6
f 725/3/6 726/3/6 734/3/6
f 734/3/6 727/3/6 735/3/6
f 727/1/6 728/1/6 736/1/6
f 735/3/6 727/3/6 736/3/6
f 730/3/6 731/3/6 738/3/6
f 729/3/6 730/3/6 738/3/6
f 738/3/6 731/3/6 739/3/6
f 732/2/6 733/2/6 740/2/6
f 739/3/6 731/3/6 740/3/6
f 731/2/6 732/2/6 740/2/6
f 740/2/6 733/2/6 741/2/6
f 734/3/6 735/3/6 742/3/6
f 741/2/6 733/2/6 742/2/6
f 733/3/6 734/3/6 742/3/6
f 742/3/6 735/3/6 743/3/6
f 735/1/6 736/1/6 744/1/6
f 743/3/6 735/3/6 744/3/6
f 738/3/6 739/3/6 746/3/6
f 737/3/6 738/3/6 746/3/6
f 746/3/6 739/3/6 747/3/6
f 740/2/6 741/2/6 748/2/6
f 747/3/6 739/3/6 748/3/6
f 739/2/6 740/2/6 748/2/6
f 748/2/6 741/2/6 749/2/6
f 742/3/6 743/3/6 750/3/6
f 749/2/6 741/2/6 750/2/6
f 741/3/6 742/3/6 750/3/6
f 750/3/6 743/3/6 751/3/6
f 743/1/6 744/1/6 752/1/6
f 751/3/6 743/3/6 752/3/6
f 746/3/6 747/3/6 754/3/6
f 745/3/6 746/3/6 754/3/6
f 754/3/6 747/3/6 755/3/6
f 748/2/6 749/2/6 756/2/6
f 755/3/6 747/3/6 756/3/6
f 747/2/6 748/2/6 756/2/6
f 756/2/6 749/2/6 757/2/6
f 750/3/6 751/3/6 758/3/6
f 757/2/6 749/2/6 758/2/6
f 749/3/6 750/3/6 758/3/6
f 758/3/6 751/3/6 759/3/6
f 751/1/6 752/1/6 760/1/6
f 759/3/6 751/3/6 760/3/6
f 754/3/6 755/3/6 762/3/6
f 753/3/6 754/3/6 762/3/6
f 762/3/6 755/3/6 763/3/6
f 756/2/6 757/2/6 764/2/6
f 763/3/6 755/3/6 764/3/6
f 755/2/6 756/2/6 764/2/6
f 764/2/6 757/2/6 765/2/6
f 758/3/6 759/3/6 766/3/6
f 765/2/6 757/2/6 766/2/6
f 757/3/6 758/3/6 766/3/6
f 766/3/6 759/3/6 767/3/6
f 759/1/6 760/1/6 768/1/6
f 767/3/6 759/3/6 768/3/6
f 762/3/6 763/3/6 770/3/6
f 761/3/6 762/3/6 770/3/6
f 770/3/6 763/3/6 771/3/6
f 764/2/6 765/2/6 772/2/6
f 771/3/6 763/3/6 772/3/6
f 763/2/6 764/2/6 772/2/6
f 772/2/6 765/2/6 773/2/6
f 766/3/6 767/3/6 774/3/6
f 773/2/6 765/2/6 774/2/6
f 765/3/6 766/3/6 774/3/6
f 774/3/6 767/3/6 775/3/6
f 767/1/6 768/1/6 776/1/6
f 775/3/6 767/3/6 776/3/6
f 770/3/6 771/3/6 778/3/6
f 769/3/6 770/3/6 778/3/6
f 778/3/6 771/3/6 779/3/6
f 772/2/6 773/2/6 780/2/6
f 779/3/6 771/3/6 780/3/6
f 771/2/6 772/2/6 780/2/6
f 780/2/6 773/2/6 781/2/6
f 774/3/6 775/3/6 782/3/6
f 781/2/6 773/2/6 782/2/6
f 773/3/6 774/3/6 782/3/6
f 782/3/6 775/3/6 783/3/6
f 775/1/6 776/1/6 784/1/6
f 783/3/6 775/3/6 784/3/6
f 778/3/6 779/3/6 786/3/6
f 777/3/6 778/3/6 786/3/6
f 786/3/6 779/3/6 787/3/6
f 780/2/6 781/2/6 788/2/6
f 787/3/6 779/3/6 788/3/6
f 779/2/6 780/2/6 788/2/6
f 788/2/6 781/2/6 789/2/6
f 782/3/6 783/3/6 790/3/6
f 789/2/6 781/2/6 790/2/6
f 781/3/6 782/3/6 790/3/6
f 790/3/6 783/3/6 791/3/6
f 783/1/6 784/1/6 792/1/6
f 791/3/6 783/3/6 792/3/6
f 786/3/6 787/3/6 794/3/6
f 785/3/6 786/3/6 794/3/6
f 794/3/6 787/3/6 795/3/6
f 788/2/6 789/2/6 796/2/6
f 795/3/6 787/3/6 796/3/6
f 787/2/6 788/2/6 796/2/6
f 796/2/6 789/2/6 797/2/6
f 790/3/6 791/3/6 798/3/6
f 797/2/6 789/2/6 798/2/6
f 789/3/6 790/3/6 798/3/6
f 798/3/6 791/3/6 799/3/6
f 791/1/6 792/1/6 800/1/6
f 799/3/6 791/3/6 800/3/6
f 794/3/6 795/3/6 802/3/6
f 793/3/6 794/3/6 802/3/6
f 802/3/6 795/3/6 803/3/6
f 796/2/6 797/2/6 804/2/6
f 803/3/6 795/3/6 804/3/6
f 795/2/6 796/2/6 804/2/6
f 804/2/6 797/2/6 805/2/6
f 798/3/6 799/3/6 806/3/6
f 805/2/6 797/2/6 806/2/6
f 797/3/6 798/3/6 806/3/6
f 806/3/6 799/3/6 807/3/6
f 799/1/6 800/1/6 808/1/6
f 807/3/6 799/3/6 808/3/6
f 802/3/6 803/3/6 809/3/6
f 801/3/6 802/3/6 809/3/6
f 809/3/6 803/3/6 810/3/6
f 804/2/6 805/2/6 811/2/6
f 803/2/6 804/2/6 811/2/6
f 806/3/6 807/3/6 812/3/6
f 811/2/6 805/2/6 812/2/6
f 805/3/6 806/3/6 812/3/6
f 812/3/6 807/3/6 813/3/6
f 807/1/6 808/1/6 814/1/6
f 813/3/6 807/3/6 814/3/6
f 810/3/6 803/3/6 815/3/6
f 815/3/6 803/3/6 816/3/6
f 803/2/6 811/2/6 817/2/6
f 816/3/6 803/3/6 817/3/6
f 817/2/6 811/2/6 818/2/6
f 812/3/6 813/3/6 819/3/6
f 818/2/6 811/2/6 819/2/6
f 811/3/6 812/3/6 819/3/6
f 819/3/6 813/3/6 820/3/6
f 820/3/6 813/3/6 821/3/6
f 813/1/6 814/1/6 822/1/6
f 821/3/6 813/3/6 822/3/6
f 817/3/6 818/3/6 823/3/6
f 816/3/6 817/3/6 823/3/6
f 823/3/6 818/3/6 824/3/6
f 819/2/6 820/2/6 825/2/6
f 824/3/6 818/3/6 825/3/6
f 818/2/6 819/2/6 825/2/6
f 825/2/6 820/2/6 826/2/6
f 820/3/6 821/3/6 827/3/6
f 826/2/6 820/2/6 827/2/6
f 827/3/6 821/3/6 828/3/6
f 821/1/6 822/1/6 829/1/6
f 828/3/6 821/3/6 829/3/6
f 822/1/6 814/1/6 830/1/6
f 829/1/6 822/1/6 830/1/6
f 825/3/6 826/3/6 831/3/6
f 824/3/6 825/3/6 831/3/6
f 831/3/6 826/3/6 832/3/6
f 827/2/6 828/2/6 833/2/6
f 832/3/6 826/3/6 833/3/6
f 826/2/6 827/2/6 833/2/6
f 833/2/6 828/2/6 834/2/6
f 828/3/6 829/3/6 835/3/6
f 834/2/6 828/2/6 835/2/6
f 829/3/6 830/3/6 835/3/6
f 835/3/6 830/3/6 836/3/6
f 830/1/6 814/1/6 837/1/6
f 836/3/6 830/3/6 837/3/6
f 837/1/6 814/1/6 838/1/6
f 833/3/6 834/3/6 839/3/6
f 832/3/6 833/3/6 839/3/6
f 839/3/6 834/3/6 840/3/6
f 835/2/6 836/2/6 841/2/6
f 840/3/6 834/3/6 841/3/6
f 834/2/6 835/2/6 841/2/6
f 841/2/6 836/2/6 842/2/6
f 837/3/6 838/3/6 843/3/6
f 842/2/6 836/2/6 843/2/6
f 836/3/6 837/3/6 843/3/6
f 843/3/6 838/3/6 844/3/6
f 838/1/6 814/1/6 845/1/6
f 844/3/6 838/3/6 845/3/6
f 814/1/6 808/1/6 846/1/6
f 845/1/6 814/1/6 846/1/6
f 841/3/6 842/3/6 847/3/6
f 840/3/6 841/3/6 847/3/6
f 847/3/6 842/3/6 848/3/6
f 843/2/6 844/2/6 849/2/6
f 848/3/6 842/3/6 849/3/6
f 842/2/6 843/2/6 849/2/6
f 849/2/6 844/2/6 850/2/6
f 844/3/6 845/3/6 851/3/6
f 850/2/6 844/2/6 851/2/6
f 845/3/6 846/3/6 851/3/6
f 851/3/6 846/3/6 852/3/6
f 846/1/6 808/1/6 853/1/6
f 852/3/6 846/3/6 853/3/6
f 853/1/6 808/1/6 854/1/6
f 849/3/6 850/3/6 855/3/6
f 848/3/6 849/3/6 855/3/6
f 855/3/6 850/3/6 856/3/6
f 851/2/6 852/2/6 857/2/6
f 856/3/6 850/3/6 857/3/6
f 850/2/6 851/2/6 857/2/6
f 857/2/6 852/2/6 858/2/6
f 853/3/6 854/3/6 859/3/6
f 858/2/6 852/2/6 859/2/6
f 852/3/6 853/3/6 859/3/6
f 859/3/6 854/3/6 860/3/6
f 854/1/6 808/1/6 861/1/6
f 860/3/6 854/3/6 861/3/6
f 808/1/6 800/1/6 862/1/6
f 861/1/6 808/1/6 862/1/6
f 857/3/6 858/3/6 863/3/6
f 856/3/6 857/3/6 863/3/6
f 863/3/6 858/3/6 864/3/6
f 859/2/6 860/2/6 865/2/6
f 864/3/6 858/3/6 865/3/6
f 858/2/6 859/2/6 865/2/6
f 865/2/6 860/2/6 866/2/6
f 860/3/6 861/3/6 867/3/6
f 866/2/6 860/2/6 867/2/6
f 861/3/6 862/3/6 867/3/6
f 867/3/6 862/3/6 868/3/6
f 862/1/6 800/1/6 869/1/6
f 868/3/6 862/3/6 869/3/6
f 869/1/6 800/1/6 870/1/6
f 865/3/6 866/3/6 871/3/6
f 864/3/6 865/3/6 871/3/6
f 871/3/6 866/3/6 872/3/6
f 867/2/6 868/2/6 873/2/6
f 872/3/6 866/3/6 873/3/6
f 866/2/6 867/2/6 873/2/6
f 873/2/6 868/2/6 874/2/6
f 869/3/6 870/3/6 875/3/6
f 874/2/6 868/2/6 875/2/6
f 868/3/6 869/3/6 875/3/6
f 875/3/6 870/3/6 876/3/6
f 870/1/6 800/1/6 877/1/6
f 876/3/6 870/3/6 877/3/6
f 800/1/6 792/1/6 878/1/6
f 877/1/6 800/1/6 878/1/6
f 873/3/6 874/3/6 879/3/6
f 872/3/6 873/3/6 879/3/6
f 879/3/6 874/3/6 880/3/6
f 875/2/6 876/2/6 881/2/6
f 880/3/6 874/3/6 881/3/6
f 874/2/6 875/2/6 881/2/6
f 881/2/6 876/2/6 882/2/6
f 876/3/6 877/3/6 883/3/6
f 882/2/6 876/2/6 883/2/6
f 877/3/6 878/3/6 883/3/6
f 883/3/6 878/3/6 884/3/6
f 878/1/6 792/1/6 885/1/6
f 884/3/6 878/3/6 885/3/6
f 885/1/6 792/1/6 886/1/6
f 881/3/6 882/3/6 887/3/6
f 880/3/6 881/3/6 887/3/6
f 887/3/6 882/3/6 888/3/6
f 883/2/6 884/2/6 889/2/6
f 888/3/6 882/3/6 889/3/6
f 882/2/6 883/2/6 889/2/6
f 889/2/6 884/2/6 890/2/6
f 885/3/6 886/3/6 891/3/6
f 890/2/6 884/2/6 891/2/6
f 884/3/6 885/3/6 891/3/6
f 891/3/6 886/3/6 892/3/6
f 886/1/6 792/1/6 893/1/6
f 892/3/6 886/3/6 893/3/6
f 792/1/6 784/1/6 894/1/6
f 893/1/6 792/1/6 894/1/6
f 889/3/6 890/3/6 895/3/6
f 888/3/6 889/3/6 895/3/6
f 895/3/6 890/3/6 896/3/6
f 891/2/6 892/2/6 897/2/6
f 896/3/6 890/3/6 897/3/6
f 890/2/6 891/2/6 897/2/6
f 897/2/6 892/2/6 898/2/6
f 892/3/6 893/3/6 899/3/6
f 898/2/6 892/2/6 899/2/6
f 893/3/6 894/3/6 899/3/6
f 899/3/6 894/3/6 900/3/6
f 894/1/6 784/1/6 901/1/6
f 900/3/6 894/3/6 901/3/6
f 901/1/6 784/1/6 902/1/6
f 897/3/6 898/3/6 903/3/6
f 896/3/6 897/3/6 903/3/6
f 903/3/6 898/3/6 904/3/6
f 899/2/6 900/2/6 905/2/6
f 904/3/6 898/3/6 905/3/6
f 898/2/6 899/2/6 905/2/6
f 905/2/6 900/2/6 906/2/6
f 901/3/6 902/3/6 907/3/6
f 906/2/6 900/2/6 907/2/6
f 900/3/6 901/3/6 907/3/6
f 907/3/6 902/3/6 908/3/6
f 902/1/6 784/1/6 909/1/6
f 908/3/6 902/3/6 909/3/6
f 784/1/6 776/1/6 910/1/6
f 909/1/6 784/1/6 910/1/6
f 905/3/6 906/3/6 911/3/6
f 904/3/6 905/3/6 911/3/6
f 911/3/6 906/3/6 912/3/6
f 907/2/6 908/2/6 913/2/6
f 912/3/6 906/3/6 913/3/6
f 906/2/6 907/2/6 913/2/6
f 913/2/6 908/2/6 914/2/6
f 908/3/6 909/3/6 915/3/6
f 914/2/6 908/2/6 915/2/6
f 909/3/6 910/3/6 915/3/6
f 915/3/6 910/3/6 916/3/6
f 910/1/6 776/1/6 917/1/6
f 916/3/6 910/3/6 917/3/6
f 917/1/6 776/1/6 918/1/6
f 913/3/6 914/3/6 919/3/6
f 912/3/6 913/3/6 919/3/6
f 919/3/6 914/3/6 920/3/6
f 915/2/6 916/2/6 921/2/6
f 920/3/6 914/3/6 921/3/6
f 914/2/6 915/2/6 921/2/6
f 921/2/6 916/2/6 922/2/6
f 917/3/6 918/3/6 923/3/6
f 922/2/6 916/2/6 923/2/6
f 916/3/6 917/3/6 923/3/6
f 923/3/6 918/3/6 924/3/6
f 918/1/6 776/1/6 925/1/6
f 924/3/6 918/3/6 925/3/6
f 776/1/6 768/1/6 926/1/6
f 925/1/6 776/1/6 926/1/6
f 921/3/6 922/3/6 927/3/6
f 920/3/6 921/3/6 927/3/6
f 927/3/6 922/3/6 928/3/6
f 923/2/6 924/2/6 929/2/6
f 928/3/6 922/3/6 929/3/6
f 922/2/6 923/2/6 929/2/6
f 929/2/6 924/2/6 930/2/6
f 924/3/6 925/3/6 931/3/6
f 930/2/6 924/2/6 931/2/6
f 925/3/6 926/3/6 931/3/6
f 931/3/6 926/3/6 932/3/6
f 926/1/6 768/1/6 933/1/6
f 932/3/6 926/3/6 933/3/6
f 933/1/6 768/1/6 934/1/6
f 929/3/6 930/3/6 935/3/6
f 928/3/6 929/3/6 935/3/6
f 935/3/6 930/3/6 936/3/6
f 931/2/6 932/2/6 937/2/6
f 936/3/6 930/3/6 937/3/6
f 930/2/6 931/2/6 937/2/6
f 937/2/6 932/2/6 938/2/6
f 933/3/6 934/3/6 939/3/6
f 938/2/6 932/2/6 939/2/6
f 932/3/6 933/3/6 939/3/6
f 939/3/6 934/3/6 940/3/6
f 934/1/6 768/1/6 941/1/6
f 940/3/6 934/3/6 941/3/6
f 768/1/6 760/1/6 942/1/6
f 941/1/6 768/1/6 942/1/6
f 937/3/6 938/3/6 943/3/6
f 936/3/6 937/3/6 943/3/6
f 943/3/6 938/3/6 944/3/6
f 939/2/6 940/2/6 945/2/6
f 944/3/6 938/3/6 945/3/6
f 938/2/6 939/2/6 945/2/6
f 945/2/6 940/2/6 946/2/6
f 940/3/6 941/3/6 947/3/6
f 946/2/6 940/2/6 947/2/6
f 941/3/6 942/3/6 947/3/6
f 947/3/6 942/3/6 948/3/6
f 942/1/6 760/1/6 949/1/6
f 948/3/6 942/3/6 949/3/6
f 949/1/6 760/1/6 950/1/6
f 945/3/6 946/3/6 951/3/6
f 944/3/6 945/3/6 951/3/6
f 951/3/6 946/3/6 952/3/6
f 947/2/6 948/2/6 953/2/6
f 952/3/6 946/3/6 953/3/6
f 946/2/6 947/2/6 953/2/6
f 953/2/6 948/2/6 954/2/6
f 949/3/6 950/3/6 955/3/6
f 954/2/6 948/2/6 955/2/6
f 948/3/6 949/3/6 955/3/6
f 955/3/6 950/3/6 956/3/6
f 950/1/6 760/1/6 957/1/6
f 956/3/6 950/3/6 957/3/6
f 760/1/6 752/1/6 958/1/6
f 957/1/6 760/1/6 958/1/6
f 953/3/6 954/3/6 959/3/6
f 952/3/6 953/3/6 959/3/6
f 959/3/6 954/3/6 960/3/6
f 955/2/6 956/2/6 961/2/6
f 960/3/6 954/3/6 961/3/6
f 954/2/6 955/2/6 961/2/6
f 961/2/6 956/2/6 962/2/6
f 956/3/6 957/3/6 963/3/6
f 962/2/6 956/2/6 963/2/6
f 957/3/6 958/3/6 963/3/6
f 963/3/6 958/3/6 964/3/6
f 958/1/6 752/1/6 965/1/6
f 964/3/6 958/3/6 965/3/6
f 965/1/6 752/1/6 966/1/6
f 961/3/6 962/3/6 967/3/6
f 960/3/6 961/3/6 967/3/6
f 967/3/6 962/3/6 968/3/6
f 963/2/6 964/2/6 969/2/6
f 968/3/6 962/3/6 969/3/6
f 962/2/6 963/2/6 969/2/6
f 969/2/6 964/2/6 970/2/6
f 965/3/6 966/3/6 971/3/6
f 970/2/6 964/2/6 971/2/6
f 964/3/6 965/3/6 971/3/6
f 971/3/6 966/3/6 972/3/6
f 966/1/6 752/1/6 973/1/6
f 972/3/6 966/3/6 973/3/6
f 752/1/6 744/1/6 974/1/6
f 973/1/6 752/1/6 974/1/6
f 969/3/6 970/3/6 975/3/6
f 968/3/6 969/3/6 975/3/6
f 975/3/6 970/3/6 976/3/6
f 971/2/6 972/2/6 977/2/6
f 976/3/6 970/3/6 977/3/6
f 970/2/6 971/2/6 977/2/6
f 977/2/6 972/2/6 978/2/6
f 972/3/6 973/3/6 979/3/6
f 978/2/6 972/2/6 979/2/6
f 973/3/6 974/3/6 979/3/6
f 979/3/6 974/3/6 980/3/6
f 974/1/6 744/1/6 981/1/6
f 980/3/6 974/3/6 981/3/6
f 981/1/6 744/1/6 982/1/6
f 977/3/6 978/3/6 983/3/6
f 976/3/6 977/3/6 983/3/6
f 983/3/6 978/3/6 984/3/6
f 979/2/6 980/2/6 985/2/6
f 984/3/6 978/3/6 985/3/6
f 978/2/6 979/2/6 985/2/6
f 985/2/6 980/2/6 986/2/6
f 981/3/6 982/3/6 987/3/6
f 986/2/6 980/2/6 987/2/6
f 980/3/6 981/3/6 987/3/6
f 987/3/6 982/3/6 988/3/6
f 982/1/6 744/1/6 989/1/6
f 988/3/6 982/3/6 989/3/6
f 744/1/6 736/1/6 990/1/6
f 989/1/6 744/1/6 990/1/6
f 985/3/6 986/3/6 991/3/6
f 984/3/6 985/3/6 991/3/6
f 991/3/6 986/3/6 992/3/6
f 987/2/6 988/2/6 993/2/6
f 992/3/6 986/3/6 993/3/6
f 986/2/6 987/2/6 993/2/6
f 993/2/6 988/2/6 994/2/6
f 988/3/6 989/3/6 995/3/6
f 994/2/6 988/2/6 995/2/6
f 989/3/6 990/3/6 995/3/6
f 995/3/6 990/3/6 996/3/6
f 990/1/6 736/1/6 997/1/6
f 996/3/6 990/3/6 997/3/6
f 997/1/6 736/1/6 998/1/6
f 993/3/6 994/3/6 999/3/6
f 992/3/6 993/3/6 999/3/6
f 999/3/6 994/3/6 1000/3/6
f 995/2/6 996/2/6 1001/2/6
f 1000/3/6 994/3/6 1001/3/6
f 994/2/6 995/2/6 1001/2/6
f 1001/2/6 996/2/6 1002/2/6
f 997/3/6 998/3/6 1003/3/6
f 1002/2/6 996/2/6 1003/2/6
f 996/3/6 997/3/6 1003/3/6
f 1003/3/6 998/3/6 1004/3/6
f 998/1/6 736/1/6 1005/1/6
f 1004/3/6 998/3/6 1005/3/6
f 736/1/6 728/1/6 1006/1/6
f 1005/1/6 736/1/6 1006/1/6
f 1001/3/6 1002/3/6 1007/3/6
f 1000/3/6 1001/3/6 1007/3/6
f 1007/3/6 1002/3/6 1008/3/6
f 1003/2/6 1004/2/6 1009/2/6
f 1008/3/6 1002/3/6 1009/3/6
f 1002/2/6 1003/2/6 1009/2/6
f 1009/2/6 1004/2/6 1010/2/6
f 1004/3/6 1005/3/6 1011/3/6
f 1010/2/6 1004/2/6 1011/2/6
f 1005/3/6 1006/3/6 1011/3/6
f 1011/3/6 1006/3/6 1012/3/6
f 1006/1/6 728/1/6 1013/1/6
f 1012/3/6 1006/3/6 1013/3/6
f 1013/1/6 728/1/6 1014/1/6
f 1009/3/6 1010/3/6 1015/3/6
f 1008/3/6 1009/3/6 1015/3/6
f 1015/3/6 1010/3/6 1016/3/6
f 1011/2/6 1012/2/6 1017/2/6
f 1016/3/6 1010/3/6 1017/3/6
f 1010/2/6 1011/2/6 1017/2/6
f 1017/2/6 1012/2/6 1018/2/6
f 1013/3/6 1014/3/6 1019/3/6
f 1018/2/6 1012/2/6 1019/2/6
f 1012/3/6 1013/3/6 1019/3/6
f 1019/3/6 1014/3/6 1020/3/6
f 1014/1/6 728/1/6 1021/1/6
f 1020/3/6 1014/3/6 1021/3/6
f 728/1/6 720/1/6 1022/1/6
f 1021/1/6 728/1/6 1022/1/6
f 1017/3/6 1018/3/6 1023/3/6
f 1016/3/6 1017/3/6 1023/3/6
f 1023/3/6 1018/3/6 1024/3/6
f 1019/2/6 1020/2/6 1025/2/6
f 1024/3/6 1018/3/6 1025/3/6
f 1018/2/6 1019/2/6 1025/2/6
f 1025/2/6 1020/2/6 1026/2/6
f 1020/3/6 1021/3/6 1027/3/6
f 1026/2/6 1020/2/6 1027/2/6
f 1021/3/6 1022/3/6 1027/3/6
f 1027/3/6 1022/3/6 1028/3/6
f 1022/1/6 720/1/6 1029/1/6
f 1028/3/6 1022/3/6 1029/3/6
f 1029/1/6 720/1/6 1030/1/6
f 1025/3/6 1026/3/6 1031/3/6
f 1024/3/6 1025/3/6 1031/3/6
f 1031/3/6 1026/3/6 1032/3/6
f 1027/2/6 1028/2/6 1033/2/6
f 1032/3/6 1026/3/6 1033/3/6
f 1026/2/6 1027/2/6 1033/2/6
f 1033/2/6 1028/2/6 1034/2/6
f 1029/3/6 1030/3/6 1035/3/6
f 1034/2/6 1028/2/6 1035/2/6
f 1028/3/6 1029/3/6 1035/3/6
f 1035/3/6 1030/3/6 1036/3/6
f 1030/1/6 720/1/6 1037/1/6
f 1036/3/6 1030/3/6 1037/3/6
f 720/1/6 712/1/6 1038/1/6
f 1037/1/6 720/1/6 1038/1/6
f 1033/3/6 1034/3/6 1039/3/6
f 1032/3/6 1033/3/6 1039/3/6
f 1039/3/6 1034/3/6 1040/3/6
f 1035/2/6 1036/2/6 1041/2/6
f 1040/3/6 1034/3/6 1041/3/6
f 1034/2/6 1035/2/6 1041/2/6
f 1041/2/6 1036/2/6 1042/2/6
f 1036/3/6 1037/3/6 1043/3/6
f 1042/2/6 1036/2/6 1043/2/6
f 1037/3/6 1038/3/6 1043/3/6
f 1043/3/6 1038/3/6 1044/3/6
f 1038/1/6 712/1/6 1045/1/6
f 1044/3/6 1038/3/6 1045/3/6
f 1045/1/6 712/1/6 1046/1/6
f 1041/3/6 1042/3/6 1047/3/6
f 1040/3/6 1041/3/6 1047/3/6
f 1047/3/6 1042/3/6 1048/3/6
f 1043/2/6 1044/2/6 1049/2/6
f 1048/3/6 1042/3/6 1049/3/6
f 1042/2/6 1043/2/6 1049/2/6
f 1049/2/6 1044/2/6 1050/2/6
f 1045/3/6 1046/3/6 1051/3/6
f 1050/2/6 1044/2/6 1051/2/6
f 1044/3/6 1045/3/6 1051/3/6
f 1051/3/6 1046/3/6 1052/3/6
f 1046/1/6 712/1/6 1053/1/6
f 1052/3/6 1046/3/6 1053/3/6
f 712/1/6 704/1/6 1054/1/6
f 1053/1/6 712/1/6 1054/1/6
f 1049/3/6 1050/3/6 1055/3/6
f 1048/3/6 1049/3/6 1055/3/6
f 1055/3/6 1050/3/6 1056/3/6
f 1051/2/6 1052/2/6 1057/2/6
f 1056/3/6 1050/3/6 1057/3/6
f 1050/2/6 1051/2/6 1057/2/6
f 1057/2/6 1052/2/6 1058/2/6
f 1052/3/6 1053/3/6 1059/3/6
f 1058/2/6 1052/2/6 1059/2/6
f 1053/3/6 1054/3/6 1059/3/6
f 1059/3/6 1054/3/6 1060/3/6
f 1054/1/6 704/1/6 1061/1/6
f 1060/3/6 1054/3/6 1061/3/6
f 1061/1/6 704/1/6 1062/1/6
f 1057/3/6 1058/3/6 1063/3/6
f 1056/3/6 1057/3/6 1063/3/6
f 1063/3/6 1058/3/6 1064/3/6
f 1059/2/6 1060/2/6 1065/2/6
f 1064/3/6 1058/3/6 1065/3/6
f 1058/2/6 1059/2/6 1065/2/6
f 1065/2/6 1060/2/6 1066/2/6
f 1061/3/6 1062/3/6 1067/3/6
f 1066/2/6 1060/2/6 1067/2/6
f 1060/3/6 1061/3/6 1067/3/6
f 1067/3/6 1062/3/6 1068/3/6
f 1062/1/6 704/1/6 1069/1/6
f 1068/3/6 1062/3/6 1069/3/6
f 704/1/6 696/1/6 1070/1/6
f 1069/1/6 704/1/6 1070/1/6
f 1065/3/6 1066/3/6 1071/3/6
f 1064/3/6 1065/3/6 1071/3/6
f 1071/3/6 1066/3/6 1072/3/6
f 1067/2/6 1068/2/6 1073/2/6
f 1072/3/6 1066/3/6 1073/3/6
f 1066/2/6 1067/2/6 1073/2/6
f 1073/2/6 1068/2/6 1074/2/6
f 1068/3/6 1069/3/6 1075/3/6
f 1074/2/6 1068/2/6 1075/2/6
f 1069/3/6 1070/3/6 1075/3/6
f 1075/3/6 1070/3/6 1076/3/6
f 1070/1/6 696/1/6 1077/1/6
f 1076/3/6 1070/3/6 1077/3/6
f 696/3/6 682/3/6 1078/3/6
f 1077/1/6 696/1/6 1078/1/6
f 1073/3/6 1074/3/6 1079/3/6
f 1072/3/6 1073/3/6 1079/3/6
f 1079/3/6 1074/3/6 1080/3/6
f 1075/2/6 1076/2/6 1081/2/6
f 1080/3/6 1074/3/6 1081/3/6
f 1074/2/6 1075/2/6 1081/2/6
f 1081/2/6 1076/2/6 1082/2/6
f 1077/3/6 1078/3/6 1083/3/6
f 1082/2/6 1076/2/6 1083/2/6
f 1076/3/6 1077/3/6 1083/3/6
f 1083/3/6 1078/3/6 1084/3/6
f 1081/3/6 1082/3/6 1085/3/6
f 1080/3/6 1081/3/6 1085/3/6
f 1085/3/6 1082/3/6 1086/3/6
f 1083/2/6 1084/2/6 1087/2/6
f 1086/3/6 1082/3/6 1087/3/6
f 1082/2/6 1083/2/6 1087/2/6
f 1087/2/6 1084/2/6 1088/2/6
f 1084/3/6 1078/3/6 1089/3/6
f 1088/2/6 1084/2/6 1089/2/6
f 1078/3/6 682/3/6 1090/3/6
f 1089/3/6 1078/3/6 1090/3/6
f 1087/3/6 1088/3/6 1091/3/6
f 1086/3/6 1087/3/6 1091/3/6
f 1091/3/6 1088/3/6 1092/3/6
f 1088/2/6 1089/2/6 1093/2/6
f 1092/3/6 1088/3/6 1093/3/6
f 1089/2/6 1090/2/6 1093/2/6
f 1093/2/6 1090/2/6 1094/2/6
f 1090/3/6 682/3/6 1095/3/6
f 1094/2/6 1090/2/6 1095/2/6
f 682/2/6 668/2/6 1096/2/6
f 1095/3/6 682/3/6 1096/3/6
f 1093/3/6 1094/3/6 1097/3/6
f 1092/3/6 1093/3/6 1097/3/6
f 1097/3/6 1094/3/6 1098/3/6
f 1095/2/6 1096/2/6 1099/2/6
f 1098/3/6 1094/3/6 1099/3/6
f 1094/2/6 1095/2/6 1099/2/6
f 1099/2/6 1096/2/6 1100/2/6
f 1098/3/6 1099/3/6 1101/3/6
f 1099/3/6 1100/3/6 1101/3/6
f 1101/3/6 1100/3/6 1102/3/6
f 1100/2/6 1096/2/6 1103/2/6
f 1102/3/6 1100/3/6 1103/3/6
f 1096/2/6 668/2/6 1104/2/6
f 1103/2/6 1096/2/6 1104/2/6
f 1102/3/6 1103/3/6 1105/3/6
f 1103/3/6 1104/3/6 1105/3/6
f 1105/3/6 1104/3/6 1106/3/6
f 1104/2/6 668/2/6 1107/2/6
f 1106/3/6 1104/3/6 1107/3/6
f 668/3/6 662/3/6 1108/3/6
f 1107/2/6 668/2/6 1108/2/6
f 1106/3/6 1107/3/6 1109/3/6
f 1107/3/6 1108/3/6 1109/3/6
f 1109/3/6 1108/3/6 1110/3/6
f 1110/3/6 1108/3/6 1111/3/6
f 1108/3/6 662/3/6 1112/3/6
f 1111/3/6 1108/3/6 1112/3/6
f 1112/3/6 662/3/6 1113/3/6
f 1113/3/6 662/3/6 1114/3/6
f 1114/3/6 662/3/6 1115/3/6
f 1115/3/6 662/3/6 1116/3/6
