# MagicaVoxel @ Ephtracy

# group
g ItemPad(FrezzeBuster)

# material
mtllib ItemPad(FrezzeBuster).mtl
usemtl palette

# normals
vn -1 0 0
vn 1 0 0
vn 0 0 1
vn 0 0 -1
vn 0 -1 0
vn 0 1 0

# texcoords
vt 0.0644531 0.5
vt 0.0761719 0.5
vt 0.482422 0.5
vt 0.755859 0.5

# verts
v -20 4 4
v -20 4 -5
v -20 26 4
v -20 26 -5
v -19 2 4
v -19 2 -5
v -19 4 4
v -19 4 -5
v -19 26 4
v -19 26 -5
v -19 28 4
v -19 28 -5
v -18 1 4
v -18 1 -5
v -18 2 4
v -18 2 -5
v -18 28 4
v -18 28 -5
v -18 29 4
v -18 29 -5
v -17 5 5
v -17 5 4
v -17 25 5
v -17 25 4
v -16 0 4
v -16 0 -5
v -16 1 4
v -16 1 -5
v -16 4 5
v -16 4 4
v -16 5 5
v -16 5 4
v -16 25 5
v -16 25 4
v -16 26 5
v -16 26 4
v -16 29 4
v -16 29 -5
v -16 30 4
v -16 30 -5
v -15 3 5
v -15 3 4
v -15 4 5
v -15 4 4
v -15 26 5
v -15 26 4
v -15 27 5
v -15 27 4
v -11 14 -3
v -11 14 -4
v -11 16 -3
v -11 16 -4
v -11 17 -3
v -11 17 -4
v -11 18 -3
v -11 18 -4
v -11 20 -3
v -11 20 -4
v -11 21 -3
v -11 21 -4
v -11 24 -3
v -11 24 -4
v -11 25 -3
v -11 25 -4
v -10 16 -3
v -10 16 -4
v -10 17 -3
v -10 17 -4
v -10 18 -3
v -10 18 -4
v -10 19 -3
v -10 19 -4
v -10 22 -3
v -10 22 -4
v -10 23 -3
v -10 23 -4
v -9 14 -3
v -9 14 -4
v -9 16 -3
v -9 16 -4
v -9 17 -3
v -9 17 -4
v -9 18 -3
v -9 18 -4
v -9 21 -3
v -9 21 -4
v -9 22 -3
v -9 22 -4
v -9 23 -3
v -9 23 -4
v -9 24 -3
v -9 24 -4
v -8 6 -3
v -8 6 -4
v -8 11 -3
v -8 11 -4
v -7 14 -3
v -7 14 -4
v -7 15 -3
v -7 15 -4
v -7 18 -3
v -7 18 -4
v -7 19 -3
v -7 19 -4
v -7 20 -3
v -7 20 -4
v -7 21 -3
v -7 21 -4
v -7 23 -3
v -7 23 -4
v -7 25 -3
v -7 25 -4
v -6 7 -3
v -6 7 -4
v -6 10 -3
v -6 10 -4
v -6 16 -3
v -6 16 -4
v -6 17 -3
v -6 17 -4
v -6 22 -3
v -6 22 -4
v -6 23 -3
v -6 23 -4
v -5 15 -3
v -5 15 -4
v -5 16 -3
v -5 16 -4
v -5 17 -3
v -5 17 -4
v -5 18 -3
v -5 18 -4
v -5 21 -3
v -5 21 -4
v -5 22 -3
v -5 22 -4
v -4 6 -3
v -4 6 -4
v -4 11 -3
v -4 11 -4
v -3 18 -3
v -3 18 -4
v -3 19 -3
v -3 19 -4
v -3 20 -3
v -3 20 -4
v -3 21 -3
v -3 21 -4
v -3 24 -3
v -3 24 -4
v -3 25 -3
v -3 25 -4
v -2 7 -3
v -2 7 -4
v -2 10 -3
v -2 10 -4
v -2 14 -3
v -2 14 -4
v -2 18 -3
v -2 18 -4
v -2 22 -3
v -2 22 -4
v -2 23 -3
v -2 23 -4
v -1 21 -3
v -1 21 -4
v -1 22 -3
v -1 22 -4
v -1 23 -3
v -1 23 -4
v -1 24 -3
v -1 24 -4
v 0 6 -3
v 0 6 -4
v 0 11 -3
v 0 11 -4
v 1 14 -3
v 1 14 -4
v 1 17 -3
v 1 17 -4
v 1 18 -3
v 1 18 -4
v 1 19 -3
v 1 19 -4
v 1 20 -3
v 1 20 -4
v 1 21 -3
v 1 21 -4
v 1 24 -3
v 1 24 -4
v 1 25 -3
v 1 25 -4
v 2 22 -3
v 2 22 -4
v 2 23 -3
v 2 23 -4
v 3 17 -3
v 3 17 -4
v 3 18 -3
v 3 18 -4
v 3 21 -3
v 3 21 -4
v 3 22 -3
v 3 22 -4
v 3 23 -3
v 3 23 -4
v 3 24 -3
v 3 24 -4
v 4 5 -3
v 4 5 -4
v 4 9 -3
v 4 9 -4
v 4 10 -3
v 4 10 -4
v 4 12 -3
v 4 12 -4
v 5 14 -3
v 5 14 -4
v 5 19 -3
v 5 19 -4
v 5 20 -3
v 5 20 -4
v 5 22 -3
v 5 22 -4
v 5 23 -3
v 5 23 -4
v 5 24 -3
v 5 24 -4
v 6 4 -3
v 6 4 -4
v 6 5 -3
v 6 5 -4
v 6 6 -3
v 6 6 -4
v 6 8 -3
v 6 8 -4
v 6 9 -3
v 6 9 -4
v 6 11 -3
v 6 11 -4
v 6 12 -3
v 6 12 -4
v 6 13 -3
v 6 13 -4
v 6 22 -3
v 6 22 -4
v 6 23 -3
v 6 23 -4
v 6 24 -3
v 6 24 -4
v 6 25 -3
v 6 25 -4
v 7 15 -3
v 7 15 -4
v 7 19 -3
v 7 19 -4
v 7 20 -3
v 7 20 -4
v 7 22 -3
v 7 22 -4
v 7 23 -3
v 7 23 -4
v 7 24 -3
v 7 24 -4
v 8 6 -3
v 8 6 -4
v 8 7 -3
v 8 7 -4
v 8 9 -3
v 8 9 -4
v 8 11 -3
v 8 11 -4
v 9 15 -3
v 9 15 -4
v 9 16 -3
v 9 16 -4
v 9 17 -3
v 9 17 -4
v 9 18 -3
v 9 18 -4
v 9 24 -3
v 9 24 -4
v 9 25 -3
v 9 25 -4
v 10 14 -3
v 10 14 -4
v 10 15 -3
v 10 15 -4
v 10 16 -3
v 10 16 -4
v 10 17 -3
v 10 17 -4
v 10 18 -3
v 10 18 -4
v 10 19 -3
v 10 19 -4
v 10 22 -3
v 10 22 -4
v 10 23 -3
v 10 23 -4
v 11 15 -3
v 11 15 -4
v 11 16 -3
v 11 16 -4
v 11 17 -3
v 11 17 -4
v 11 18 -3
v 11 18 -4
v 11 20 -3
v 11 20 -4
v 11 22 -3
v 11 22 -4
v 11 23 -3
v 11 23 -4
v 11 24 -3
v 11 24 -4
v 15 3 -3
v 15 3 -5
v 15 4 -3
v 15 4 -5
v 15 26 -3
v 15 26 -5
v 15 27 -3
v 15 27 -5
v 16 4 -3
v 16 4 -5
v 16 5 -3
v 16 5 -5
v 16 25 -3
v 16 25 -5
v 16 26 -3
v 16 26 -5
v 17 5 -3
v 17 5 -5
v 17 25 -3
v 17 25 -5
v -17 5 -3
v -17 5 -5
v -17 25 -3
v -17 25 -5
v -16 4 -3
v -16 4 -5
v -16 5 -3
v -16 5 -5
v -16 25 -3
v -16 25 -5
v -16 26 -3
v -16 26 -5
v -15 3 -3
v -15 3 -5
v -15 4 -3
v -15 4 -5
v -15 26 -3
v -15 26 -5
v -15 27 -3
v -15 27 -5
v -10 14 -3
v -10 14 -4
v -10 16 -3
v -10 16 -4
v -10 17 -3
v -10 17 -4
v -10 18 -3
v -10 18 -4
v -8 14 -3
v -8 14 -4
v -8 19 -3
v -8 19 -4
v -8 20 -3
v -8 20 -4
v -8 25 -3
v -8 25 -4
v -7 7 -3
v -7 7 -4
v -7 10 -3
v -7 10 -4
v -6 23 -3
v -6 23 -4
v -6 24 -3
v -6 24 -4
v -5 6 -3
v -5 6 -4
v -5 11 -3
v -5 11 -4
v -5 22 -3
v -5 22 -4
v -5 23 -3
v -5 23 -4
v -4 14 -3
v -4 14 -4
v -4 19 -3
v -4 19 -4
v -4 20 -3
v -4 20 -4
v -4 22 -3
v -4 22 -4
v -4 24 -3
v -4 24 -4
v -4 25 -3
v -4 25 -4
v -3 7 -3
v -3 7 -4
v -3 10 -3
v -3 10 -4
v -1 6 -3
v -1 6 -4
v -1 11 -3
v -1 11 -4
v -1 14 -3
v -1 14 -4
v -1 18 -3
v -1 18 -4
v 0 18 -3
v 0 18 -4
v 0 19 -3
v 0 19 -4
v 0 20 -3
v 0 20 -4
v 0 25 -3
v 0 25 -4
v 1 6 -3
v 1 6 -4
v 1 9 -3
v 1 9 -4
v 1 10 -3
v 1 10 -4
v 1 11 -3
v 1 11 -4
v 2 9 -3
v 2 9 -4
v 2 10 -3
v 2 10 -4
v 2 15 -3
v 2 15 -4
v 2 16 -3
v 2 16 -4
v 4 14 -3
v 4 14 -4
v 4 15 -3
v 4 15 -4
v 4 16 -3
v 4 16 -4
v 4 19 -3
v 4 19 -4
v 4 20 -3
v 4 20 -4
v 4 25 -3
v 4 25 -4
v 5 6 -3
v 5 6 -4
v 5 8 -3
v 5 8 -4
v 5 10 -3
v 5 10 -4
v 5 11 -3
v 5 11 -4
v 6 15 -3
v 6 15 -4
v 6 19 -3
v 6 19 -4
v 6 20 -3
v 6 20 -4
v 6 22 -3
v 6 22 -4
v 6 23 -3
v 6 23 -4
v 6 24 -3
v 6 24 -4
v 7 4 -3
v 7 4 -4
v 7 5 -3
v 7 5 -4
v 7 6 -3
v 7 6 -4
v 7 8 -3
v 7 8 -4
v 7 9 -3
v 7 9 -4
v 7 11 -3
v 7 11 -4
v 7 12 -3
v 7 12 -4
v 7 13 -3
v 7 13 -4
v 8 14 -3
v 8 14 -4
v 8 19 -3
v 8 19 -4
v 8 20 -3
v 8 20 -4
v 8 25 -3
v 8 25 -4
v 9 5 -3
v 9 5 -4
v 9 7 -3
v 9 7 -4
v 9 8 -3
v 9 8 -4
v 9 12 -3
v 9 12 -4
v 10 15 -3
v 10 15 -4
v 10 16 -3
v 10 16 -4
v 10 17 -3
v 10 17 -4
v 10 18 -3
v 10 18 -4
v 12 14 -3
v 12 14 -4
v 12 19 -3
v 12 19 -4
v 12 20 -3
v 12 20 -4
v 12 25 -3
v 12 25 -4
v 15 3 5
v 15 3 4
v 15 4 5
v 15 4 4
v 15 26 5
v 15 26 4
v 15 27 5
v 15 27 4
v 16 0 4
v 16 0 -5
v 16 1 4
v 16 1 -5
v 16 4 5
v 16 4 4
v 16 5 5
v 16 5 4
v 16 25 5
v 16 25 4
v 16 26 5
v 16 26 4
v 16 29 4
v 16 29 -5
v 16 30 4
v 16 30 -5
v 17 5 5
v 17 5 4
v 17 25 5
v 17 25 4
v 18 1 4
v 18 1 -5
v 18 2 4
v 18 2 -5
v 18 28 4
v 18 28 -5
v 18 29 4
v 18 29 -5
v 19 2 4
v 19 2 -5
v 19 4 4
v 19 4 -5
v 19 26 4
v 19 26 -5
v 19 28 4
v 19 28 -5
v 20 4 4
v 20 4 -5
v 20 26 4
v 20 26 -5
v -17 5 5
v -17 25 5
v -16 4 5
v -16 5 5
v -16 25 5
v -16 26 5
v -15 3 5
v -15 4 5
v -15 26 5
v -15 27 5
v 15 3 5
v 15 4 5
v 15 26 5
v 15 27 5
v 16 4 5
v 16 5 5
v 16 25 5
v 16 26 5
v 17 5 5
v 17 25 5
v -20 4 4
v -20 26 4
v -19 2 4
v -19 4 4
v -19 26 4
v -19 28 4
v -18 1 4
v -18 2 4
v -18 28 4
v -18 29 4
v -17 5 4
v -17 25 4
v -16 0 4
v -16 1 4
v -16 4 4
v -16 5 4
v -16 25 4
v -16 26 4
v -16 29 4
v -16 30 4
v -15 3 4
v -15 4 4
v -15 26 4
v -15 27 4
v 15 3 4
v 15 4 4
v 15 26 4
v 15 27 4
v 16 0 4
v 16 1 4
v 16 4 4
v 16 5 4
v 16 25 4
v 16 26 4
v 16 29 4
v 16 30 4
v 17 5 4
v 17 25 4
v 18 1 4
v 18 2 4
v 18 28 4
v 18 29 4
v 19 2 4
v 19 4 4
v 19 26 4
v 19 28 4
v 20 4 4
v 20 26 4
v -17 5 -3
v -17 25 -3
v -16 4 -3
v -16 5 -3
v -16 25 -3
v -16 26 -3
v -15 3 -3
v -15 4 -3
v -15 26 -3
v -15 27 -3
v -11 14 -3
v -11 16 -3
v -11 17 -3
v -11 18 -3
v -11 20 -3
v -11 21 -3
v -11 24 -3
v -11 25 -3
v -10 14 -3
v -10 16 -3
v -10 17 -3
v -10 18 -3
v -10 19 -3
v -10 22 -3
v -10 23 -3
v -9 14 -3
v -9 16 -3
v -9 17 -3
v -9 18 -3
v -9 21 -3
v -9 22 -3
v -9 23 -3
v -9 24 -3
v -8 6 -3
v -8 11 -3
v -8 14 -3
v -8 19 -3
v -8 20 -3
v -8 25 -3
v -7 7 -3
v -7 10 -3
v -7 14 -3
v -7 15 -3
v -7 18 -3
v -7 19 -3
v -7 20 -3
v -7 21 -3
v -7 23 -3
v -7 25 -3
v -6 7 -3
v -6 10 -3
v -6 16 -3
v -6 17 -3
v -6 22 -3
v -6 23 -3
v -6 24 -3
v -5 6 -3
v -5 11 -3
v -5 15 -3
v -5 16 -3
v -5 17 -3
v -5 18 -3
v -5 21 -3
v -5 22 -3
v -5 23 -3
v -4 6 -3
v -4 11 -3
v -4 14 -3
v -4 19 -3
v -4 20 -3
v -4 22 -3
v -4 24 -3
v -4 25 -3
v -3 7 -3
v -3 10 -3
v -3 18 -3
v -3 19 -3
v -3 20 -3
v -3 21 -3
v -3 24 -3
v -3 25 -3
v -2 7 -3
v -2 10 -3
v -2 14 -3
v -2 18 -3
v -2 22 -3
v -2 23 -3
v -1 6 -3
v -1 11 -3
v -1 14 -3
v -1 18 -3
v -1 21 -3
v -1 22 -3
v -1 23 -3
v -1 24 -3
v 0 6 -3
v 0 11 -3
v 0 18 -3
v 0 19 -3
v 0 20 -3
v 0 25 -3
v 1 6 -3
v 1 9 -3
v 1 10 -3
v 1 11 -3
v 1 14 -3
v 1 17 -3
v 1 18 -3
v 1 19 -3
v 1 20 -3
v 1 21 -3
v 1 24 -3
v 1 25 -3
v 2 9 -3
v 2 10 -3
v 2 15 -3
v 2 16 -3
v 2 22 -3
v 2 23 -3
v 3 17 -3
v 3 18 -3
v 3 21 -3
v 3 22 -3
v 3 23 -3
v 3 24 -3
v 4 5 -3
v 4 9 -3
v 4 10 -3
v 4 12 -3
v 4 14 -3
v 4 15 -3
v 4 16 -3
v 4 19 -3
v 4 20 -3
v 4 25 -3
v 5 6 -3
v 5 8 -3
v 5 10 -3
v 5 11 -3
v 5 14 -3
v 5 19 -3
v 5 20 -3
v 5 22 -3
v 5 23 -3
v 5 24 -3
v 6 4 -3
v 6 5 -3
v 6 6 -3
v 6 8 -3
v 6 9 -3
v 6 11 -3
v 6 12 -3
v 6 13 -3
v 6 15 -3
v 6 19 -3
v 6 20 -3
v 6 22 -3
v 6 23 -3
v 6 24 -3
v 6 25 -3
v 7 4 -3
v 7 5 -3
v 7 6 -3
v 7 8 -3
v 7 9 -3
v 7 11 -3
v 7 12 -3
v 7 13 -3
v 7 15 -3
v 7 19 -3
v 7 20 -3
v 7 22 -3
v 7 23 -3
v 7 24 -3
v 8 6 -3
v 8 7 -3
v 8 9 -3
v 8 11 -3
v 8 14 -3
v 8 19 -3
v 8 20 -3
v 8 25 -3
v 9 5 -3
v 9 7 -3
v 9 8 -3
v 9 12 -3
v 9 15 -3
v 9 16 -3
v 9 17 -3
v 9 18 -3
v 9 24 -3
v 9 25 -3
v 10 14 -3
v 10 15 -3
v 10 16 -3
v 10 17 -3
v 10 18 -3
v 10 19 -3
v 10 22 -3
v 10 23 -3
v 11 15 -3
v 11 16 -3
v 11 17 -3
v 11 18 -3
v 11 20 -3
v 11 22 -3
v 11 23 -3
v 11 24 -3
v 12 14 -3
v 12 19 -3
v 12 20 -3
v 12 25 -3
v 15 3 -3
v 15 4 -3
v 15 26 -3
v 15 27 -3
v 16 4 -3
v 16 5 -3
v 16 25 -3
v 16 26 -3
v 17 5 -3
v 17 25 -3
v -11 14 -4
v -11 16 -4
v -11 17 -4
v -11 18 -4
v -11 20 -4
v -11 21 -4
v -11 24 -4
v -11 25 -4
v -10 14 -4
v -10 16 -4
v -10 17 -4
v -10 18 -4
v -10 19 -4
v -10 22 -4
v -10 23 -4
v -9 14 -4
v -9 16 -4
v -9 17 -4
v -9 18 -4
v -9 21 -4
v -9 22 -4
v -9 23 -4
v -9 24 -4
v -8 6 -4
v -8 11 -4
v -8 14 -4
v -8 19 -4
v -8 20 -4
v -8 25 -4
v -7 7 -4
v -7 10 -4
v -7 14 -4
v -7 15 -4
v -7 18 -4
v -7 19 -4
v -7 20 -4
v -7 21 -4
v -7 23 -4
v -7 25 -4
v -6 7 -4
v -6 10 -4
v -6 16 -4
v -6 17 -4
v -6 22 -4
v -6 23 -4
v -6 24 -4
v -5 6 -4
v -5 11 -4
v -5 15 -4
v -5 16 -4
v -5 17 -4
v -5 18 -4
v -5 21 -4
v -5 22 -4
v -5 23 -4
v -4 6 -4
v -4 11 -4
v -4 14 -4
v -4 19 -4
v -4 20 -4
v -4 22 -4
v -4 24 -4
v -4 25 -4
v -3 7 -4
v -3 10 -4
v -3 18 -4
v -3 19 -4
v -3 20 -4
v -3 21 -4
v -3 24 -4
v -3 25 -4
v -2 7 -4
v -2 10 -4
v -2 14 -4
v -2 18 -4
v -2 22 -4
v -2 23 -4
v -1 6 -4
v -1 11 -4
v -1 14 -4
v -1 18 -4
v -1 21 -4
v -1 22 -4
v -1 23 -4
v -1 24 -4
v 0 6 -4
v 0 11 -4
v 0 18 -4
v 0 19 -4
v 0 20 -4
v 0 25 -4
v 1 6 -4
v 1 9 -4
v 1 10 -4
v 1 11 -4
v 1 14 -4
v 1 17 -4
v 1 18 -4
v 1 19 -4
v 1 20 -4
v 1 21 -4
v 1 24 -4
v 1 25 -4
v 2 9 -4
v 2 10 -4
v 2 15 -4
v 2 16 -4
v 2 22 -4
v 2 23 -4
v 3 17 -4
v 3 18 -4
v 3 21 -4
v 3 22 -4
v 3 23 -4
v 3 24 -4
v 4 5 -4
v 4 9 -4
v 4 10 -4
v 4 12 -4
v 4 14 -4
v 4 15 -4
v 4 16 -4
v 4 19 -4
v 4 20 -4
v 4 25 -4
v 5 6 -4
v 5 8 -4
v 5 10 -4
v 5 11 -4
v 5 14 -4
v 5 19 -4
v 5 20 -4
v 5 22 -4
v 5 23 -4
v 5 24 -4
v 6 4 -4
v 6 5 -4
v 6 6 -4
v 6 8 -4
v 6 9 -4
v 6 11 -4
v 6 12 -4
v 6 13 -4
v 6 15 -4
v 6 19 -4
v 6 20 -4
v 6 22 -4
v 6 23 -4
v 6 24 -4
v 6 25 -4
v 7 4 -4
v 7 5 -4
v 7 6 -4
v 7 8 -4
v 7 9 -4
v 7 11 -4
v 7 12 -4
v 7 13 -4
v 7 15 -4
v 7 19 -4
v 7 20 -4
v 7 22 -4
v 7 23 -4
v 7 24 -4
v 8 6 -4
v 8 7 -4
v 8 9 -4
v 8 11 -4
v 8 14 -4
v 8 19 -4
v 8 20 -4
v 8 25 -4
v 9 5 -4
v 9 7 -4
v 9 8 -4
v 9 12 -4
v 9 15 -4
v 9 16 -4
v 9 17 -4
v 9 18 -4
v 9 24 -4
v 9 25 -4
v 10 14 -4
v 10 15 -4
v 10 16 -4
v 10 17 -4
v 10 18 -4
v 10 19 -4
v 10 22 -4
v 10 23 -4
v 11 15 -4
v 11 16 -4
v 11 17 -4
v 11 18 -4
v 11 20 -4
v 11 22 -4
v 11 23 -4
v 11 24 -4
v 12 14 -4
v 12 19 -4
v 12 20 -4
v 12 25 -4
v -20 4 -5
v -20 26 -5
v -19 2 -5
v -19 4 -5
v -19 26 -5
v -19 28 -5
v -18 1 -5
v -18 2 -5
v -18 28 -5
v -18 29 -5
v -17 5 -5
v -17 25 -5
v -16 0 -5
v -16 1 -5
v -16 4 -5
v -16 5 -5
v -16 25 -5
v -16 26 -5
v -16 29 -5
v -16 30 -5
v -15 3 -5
v -15 4 -5
v -15 26 -5
v -15 27 -5
v 15 3 -5
v 15 4 -5
v 15 26 -5
v 15 27 -5
v 16 0 -5
v 16 1 -5
v 16 4 -5
v 16 5 -5
v 16 25 -5
v 16 26 -5
v 16 29 -5
v 16 30 -5
v 17 5 -5
v 17 25 -5
v 18 1 -5
v 18 2 -5
v 18 28 -5
v 18 29 -5
v 19 2 -5
v 19 4 -5
v 19 26 -5
v 19 28 -5
v 20 4 -5
v 20 26 -5
v -16 0 4
v 16 0 4
v -16 0 -5
v 16 0 -5
v -18 1 4
v -16 1 4
v 16 1 4
v 18 1 4
v -18 1 -5
v -16 1 -5
v 16 1 -5
v 18 1 -5
v -19 2 4
v -18 2 4
v 18 2 4
v 19 2 4
v -19 2 -5
v -18 2 -5
v 18 2 -5
v 19 2 -5
v -15 3 5
v 15 3 5
v -15 3 4
v 15 3 4
v -16 4 5
v -15 4 5
v 15 4 5
v 16 4 5
v -20 4 4
v -19 4 4
v -16 4 4
v -15 4 4
v 15 4 4
v 16 4 4
v 19 4 4
v 20 4 4
v 6 4 -3
v 7 4 -3
v 6 4 -4
v 7 4 -4
v -20 4 -5
v -19 4 -5
v 19 4 -5
v 20 4 -5
v -17 5 5
v -16 5 5
v 16 5 5
v 17 5 5
v -17 5 4
v -16 5 4
v 16 5 4
v 17 5 4
v 4 5 -3
v 6 5 -3
v 7 5 -3
v 9 5 -3
v 4 5 -4
v 6 5 -4
v 7 5 -4
v 9 5 -4
v -8 6 -3
v -5 6 -3
v -4 6 -3
v -1 6 -3
v 0 6 -3
v 1 6 -3
v -8 6 -4
v -5 6 -4
v -4 6 -4
v -1 6 -4
v 0 6 -4
v 1 6 -4
v 5 8 -3
v 6 8 -3
v 7 8 -3
v 9 8 -3
v 5 8 -4
v 6 8 -4
v 7 8 -4
v 9 8 -4
v 1 9 -3
v 2 9 -3
v 1 9 -4
v 2 9 -4
v -7 10 -3
v -6 10 -3
v -3 10 -3
v -2 10 -3
v 4 10 -3
v 5 10 -3
v -7 10 -4
v -6 10 -4
v -3 10 -4
v -2 10 -4
v 4 10 -4
v 5 10 -4
v 5 11 -3
v 6 11 -3
v 7 11 -3
v 8 11 -3
v 5 11 -4
v 6 11 -4
v 7 11 -4
v 8 11 -4
v -11 14 -3
v -10 14 -3
v -9 14 -3
v -8 14 -3
v -7 14 -3
v -4 14 -3
v -2 14 -3
v -1 14 -3
v 1 14 -3
v 4 14 -3
v 5 14 -3
v 8 14 -3
v 10 14 -3
v 12 14 -3
v -11 14 -4
v -10 14 -4
v -9 14 -4
v -8 14 -4
v -7 14 -4
v -4 14 -4
v -2 14 -4
v -1 14 -4
v 1 14 -4
v 4 14 -4
v 5 14 -4
v 8 14 -4
v 10 14 -4
v 12 14 -4
v 9 15 -3
v 10 15 -3
v 9 15 -4
v 10 15 -4
v -10 16 -3
v -9 16 -3
v -6 16 -3
v -5 16 -3
v 2 16 -3
v 4 16 -3
v 10 16 -3
v 11 16 -3
v -10 16 -4
v -9 16 -4
v -6 16 -4
v -5 16 -4
v 2 16 -4
v 4 16 -4
v 10 16 -4
v 11 16 -4
v -11 17 -3
v -10 17 -3
v 9 17 -3
v 10 17 -3
v -11 17 -4
v -10 17 -4
v 9 17 -4
v 10 17 -4
v -10 18 -3
v -9 18 -3
v -7 18 -3
v -5 18 -3
v -3 18 -3
v -2 18 -3
v -1 18 -3
v 0 18 -3
v 1 18 -3
v 3 18 -3
v 10 18 -3
v 11 18 -3
v -10 18 -4
v -9 18 -4
v -7 18 -4
v -5 18 -4
v -3 18 -4
v -2 18 -4
v -1 18 -4
v 0 18 -4
v 1 18 -4
v 3 18 -4
v 10 18 -4
v 11 18 -4
v -11 20 -3
v -8 20 -3
v -7 20 -3
v -4 20 -3
v -3 20 -3
v 0 20 -3
v 1 20 -3
v 4 20 -3
v 5 20 -3
v 6 20 -3
v 7 20 -3
v 8 20 -3
v 11 20 -3
v 12 20 -3
v -11 20 -4
v -8 20 -4
v -7 20 -4
v -4 20 -4
v -3 20 -4
v 0 20 -4
v 1 20 -4
v 4 20 -4
v 5 20 -4
v 6 20 -4
v 7 20 -4
v 8 20 -4
v 11 20 -4
v 12 20 -4
v -10 22 -3
v -9 22 -3
v -6 22 -3
v -5 22 -3
v -2 22 -3
v -1 22 -3
v 2 22 -3
v 3 22 -3
v 6 22 -3
v 7 22 -3
v 10 22 -3
v 11 22 -3
v -10 22 -4
v -9 22 -4
v -6 22 -4
v -5 22 -4
v -2 22 -4
v -1 22 -4
v 2 22 -4
v 3 22 -4
v 6 22 -4
v 7 22 -4
v 10 22 -4
v 11 22 -4
v -7 23 -3
v -6 23 -3
v 5 23 -3
v 6 23 -3
v -7 23 -4
v -6 23 -4
v 5 23 -4
v 6 23 -4
v -11 24 -3
v -9 24 -3
v -6 24 -3
v -4 24 -3
v -3 24 -3
v -1 24 -3
v 1 24 -3
v 3 24 -3
v 6 24 -3
v 7 24 -3
v 9 24 -3
v 11 24 -3
v -11 24 -4
v -9 24 -4
v -6 24 -4
v -4 24 -4
v -3 24 -4
v -1 24 -4
v 1 24 -4
v 3 24 -4
v 6 24 -4
v 7 24 -4
v 9 24 -4
v 11 24 -4
v -17 25 -3
v -16 25 -3
v 16 25 -3
v 17 25 -3
v -17 25 -5
v -16 25 -5
v 16 25 -5
v 17 25 -5
v -16 26 -3
v -15 26 -3
v 15 26 -3
v 16 26 -3
v -16 26 -5
v -15 26 -5
v 15 26 -5
v 16 26 -5
v -15 27 -3
v 15 27 -3
v -15 27 -5
v 15 27 -5
v -15 3 -3
v 15 3 -3
v -15 3 -5
v 15 3 -5
v -16 4 -3
v -15 4 -3
v 15 4 -3
v 16 4 -3
v -16 4 -5
v -15 4 -5
v 15 4 -5
v 16 4 -5
v -17 5 -3
v -16 5 -3
v 16 5 -3
v 17 5 -3
v -17 5 -5
v -16 5 -5
v 16 5 -5
v 17 5 -5
v 5 6 -3
v 6 6 -3
v 7 6 -3
v 8 6 -3
v 5 6 -4
v 6 6 -4
v 7 6 -4
v 8 6 -4
v -7 7 -3
v -6 7 -3
v -3 7 -3
v -2 7 -3
v 8 7 -3
v 9 7 -3
v -7 7 -4
v -6 7 -4
v -3 7 -4
v -2 7 -4
v 8 7 -4
v 9 7 -4
v 4 9 -3
v 6 9 -3
v 7 9 -3
v 8 9 -3
v 4 9 -4
v 6 9 -4
v 7 9 -4
v 8 9 -4
v 1 10 -3
v 2 10 -3
v 1 10 -4
v 2 10 -4
v -8 11 -3
v -5 11 -3
v -4 11 -3
v -1 11 -3
v 0 11 -3
v 1 11 -3
v -8 11 -4
v -5 11 -4
v -4 11 -4
v -1 11 -4
v 0 11 -4
v 1 11 -4
v 4 12 -3
v 6 12 -3
v 7 12 -3
v 9 12 -3
v 4 12 -4
v 6 12 -4
v 7 12 -4
v 9 12 -4
v 6 13 -3
v 7 13 -3
v 6 13 -4
v 7 13 -4
v -7 15 -3
v -5 15 -3
v 2 15 -3
v 4 15 -3
v 6 15 -3
v 7 15 -3
v 10 15 -3
v 11 15 -3
v -7 15 -4
v -5 15 -4
v 2 15 -4
v 4 15 -4
v 6 15 -4
v 7 15 -4
v 10 15 -4
v 11 15 -4
v -11 16 -3
v -10 16 -3
v 9 16 -3
v 10 16 -3
v -11 16 -4
v -10 16 -4
v 9 16 -4
v 10 16 -4
v -10 17 -3
v -9 17 -3
v -6 17 -3
v -5 17 -3
v 1 17 -3
v 3 17 -3
v 10 17 -3
v 11 17 -3
v -10 17 -4
v -9 17 -4
v -6 17 -4
v -5 17 -4
v 1 17 -4
v 3 17 -4
v 10 17 -4
v 11 17 -4
v -11 18 -3
v -10 18 -3
v 9 18 -3
v 10 18 -3
v -11 18 -4
v -10 18 -4
v 9 18 -4
v 10 18 -4
v -10 19 -3
v -8 19 -3
v -7 19 -3
v -4 19 -3
v -3 19 -3
v 0 19 -3
v 1 19 -3
v 4 19 -3
v 5 19 -3
v 6 19 -3
v 7 19 -3
v 8 19 -3
v 10 19 -3
v 12 19 -3
v -10 19 -4
v -8 19 -4
v -7 19 -4
v -4 19 -4
v -3 19 -4
v 0 19 -4
v 1 19 -4
v 4 19 -4
v 5 19 -4
v 6 19 -4
v 7 19 -4
v 8 19 -4
v 10 19 -4
v 12 19 -4
v -11 21 -3
v -9 21 -3
v -7 21 -3
v -5 21 -3
v -3 21 -3
v -1 21 -3
v 1 21 -3
v 3 21 -3
v -11 21 -4
v -9 21 -4
v -7 21 -4
v -5 21 -4
v -3 21 -4
v -1 21 -4
v 1 21 -4
v 3 21 -4
v -5 22 -3
v -4 22 -3
v 5 22 -3
v 6 22 -3
v -5 22 -4
v -4 22 -4
v 5 22 -4
v 6 22 -4
v -10 23 -3
v -9 23 -3
v -6 23 -3
v -5 23 -3
v -2 23 -3
v -1 23 -3
v 2 23 -3
v 3 23 -3
v 6 23 -3
v 7 23 -3
v 10 23 -3
v 11 23 -3
v -10 23 -4
v -9 23 -4
v -6 23 -4
v -5 23 -4
v -2 23 -4
v -1 23 -4
v 2 23 -4
v 3 23 -4
v 6 23 -4
v 7 23 -4
v 10 23 -4
v 11 23 -4
v 5 24 -3
v 6 24 -3
v 5 24 -4
v 6 24 -4
v -17 25 5
v -16 25 5
v 16 25 5
v 17 25 5
v -17 25 4
v -16 25 4
v 16 25 4
v 17 25 4
v -11 25 -3
v -8 25 -3
v -7 25 -3
v -4 25 -3
v -3 25 -3
v 0 25 -3
v 1 25 -3
v 4 25 -3
v 6 25 -3
v 8 25 -3
v 9 25 -3
v 12 25 -3
v -11 25 -4
v -8 25 -4
v -7 25 -4
v -4 25 -4
v -3 25 -4
v 0 25 -4
v 1 25 -4
v 4 25 -4
v 6 25 -4
v 8 25 -4
v 9 25 -4
v 12 25 -4
v -16 26 5
v -15 26 5
v 15 26 5
v 16 26 5
v -20 26 4
v -19 26 4
v -16 26 4
v -15 26 4
v 15 26 4
v 16 26 4
v 19 26 4
v 20 26 4
v -20 26 -5
v -19 26 -5
v 19 26 -5
v 20 26 -5
v -15 27 5
v 15 27 5
v -15 27 4
v 15 27 4
v -19 28 4
v -18 28 4
v 18 28 4
v 19 28 4
v -19 28 -5
v -18 28 -5
v 18 28 -5
v 19 28 -5
v -18 29 4
v -16 29 4
v 16 29 4
v 18 29 4
v -18 29 -5
v -16 29 -5
v 16 29 -5
v 18 29 -5
v -16 30 4
v 16 30 4
v -16 30 -5
v 16 30 -5

# faces
f 3/2/1 2/2/1 1/2/1
f 4/2/1 2/2/1 3/2/1
f 7/2/1 6/2/1 5/2/1
f 8/2/1 6/2/1 7/2/1
f 11/2/1 10/2/1 9/2/1
f 12/2/1 10/2/1 11/2/1
f 15/2/1 14/2/1 13/2/1
f 16/2/1 14/2/1 15/2/1
f 19/2/1 18/2/1 17/2/1
f 20/2/1 18/2/1 19/2/1
f 23/2/1 22/2/1 21/2/1
f 24/2/1 22/2/1 23/2/1
f 27/2/1 26/2/1 25/2/1
f 28/2/1 26/2/1 27/2/1
f 31/2/1 30/2/1 29/2/1
f 32/2/1 30/2/1 31/2/1
f 35/2/1 34/2/1 33/2/1
f 36/2/1 34/2/1 35/2/1
f 39/2/1 38/2/1 37/2/1
f 40/2/1 38/2/1 39/2/1
f 43/2/1 42/2/1 41/2/1
f 44/2/1 42/2/1 43/2/1
f 47/2/1 46/2/1 45/2/1
f 48/2/1 46/2/1 47/2/1
f 51/4/1 50/4/1 49/4/1
f 52/4/1 50/4/1 51/4/1
f 55/4/1 54/4/1 53/4/1
f 56/4/1 54/4/1 55/4/1
f 59/4/1 58/4/1 57/4/1
f 60/4/1 58/4/1 59/4/1
f 63/4/1 62/4/1 61/4/1
f 64/4/1 62/4/1 63/4/1
f 67/4/1 66/4/1 65/4/1
f 68/4/1 66/4/1 67/4/1
f 71/4/1 70/4/1 69/4/1
f 72/4/1 70/4/1 71/4/1
f 75/4/1 74/4/1 73/4/1
f 76/4/1 74/4/1 75/4/1
f 79/4/1 78/4/1 77/4/1
f 80/4/1 78/4/1 79/4/1
f 83/4/1 82/4/1 81/4/1
f 84/4/1 82/4/1 83/4/1
f 87/4/1 86/4/1 85/4/1
f 88/4/1 86/4/1 87/4/1
f 91/4/1 90/4/1 89/4/1
f 92/4/1 90/4/1 91/4/1
f 95/3/1 94/3/1 93/3/1
f 96/3/1 94/3/1 95/3/1
f 99/4/1 98/4/1 97/4/1
f 100/4/1 98/4/1 99/4/1
f 103/4/1 102/4/1 101/4/1
f 104/4/1 102/4/1 103/4/1
f 107/4/1 106/4/1 105/4/1
f 108/4/1 106/4/1 107/4/1
f 111/4/1 110/4/1 109/4/1
f 112/4/1 110/4/1 111/4/1
f 115/3/1 114/3/1 113/3/1
f 116/3/1 114/3/1 115/3/1
f 119/4/1 118/4/1 117/4/1
f 120/4/1 118/4/1 119/4/1
f 123/4/1 122/4/1 121/4/1
f 124/4/1 122/4/1 123/4/1
f 127/4/1 126/4/1 125/4/1
f 128/4/1 126/4/1 127/4/1
f 131/4/1 130/4/1 129/4/1
f 132/4/1 130/4/1 131/4/1
f 135/4/1 134/4/1 133/4/1
f 136/4/1 134/4/1 135/4/1
f 139/3/1 138/3/1 137/3/1
f 140/3/1 138/3/1 139/3/1
f 143/4/1 142/4/1 141/4/1
f 144/4/1 142/4/1 143/4/1
f 147/4/1 146/4/1 145/4/1
f 148/4/1 146/4/1 147/4/1
f 151/4/1 150/4/1 149/4/1
f 152/4/1 150/4/1 151/4/1
f 155/3/1 154/3/1 153/3/1
f 156/3/1 154/3/1 155/3/1
f 159/4/1 158/4/1 157/4/1
f 160/4/1 158/4/1 159/4/1
f 163/4/1 162/4/1 161/4/1
f 164/4/1 162/4/1 163/4/1
f 167/4/1 166/4/1 165/4/1
f 168/4/1 166/4/1 167/4/1
f 171/4/1 170/4/1 169/4/1
f 172/4/1 170/4/1 171/4/1
f 175/3/1 174/3/1 173/3/1
f 176/3/1 174/3/1 175/3/1
f 179/4/1 178/4/1 177/4/1
f 180/4/1 178/4/1 179/4/1
f 183/4/1 182/4/1 181/4/1
f 184/4/1 182/4/1 183/4/1
f 187/4/1 186/4/1 185/4/1
f 188/4/1 186/4/1 187/4/1
f 191/4/1 190/4/1 189/4/1
f 192/4/1 190/4/1 191/4/1
f 195/4/1 194/4/1 193/4/1
f 196/4/1 194/4/1 195/4/1
f 199/4/1 198/4/1 197/4/1
f 200/4/1 198/4/1 199/4/1
f 203/4/1 202/4/1 201/4/1
f 204/4/1 202/4/1 203/4/1
f 207/4/1 206/4/1 205/4/1
f 208/4/1 206/4/1 207/4/1
f 211/3/1 210/3/1 209/3/1
f 212/3/1 210/3/1 211/3/1
f 215/3/1 214/3/1 213/3/1
f 216/3/1 214/3/1 215/3/1
f 219/4/1 218/4/1 217/4/1
f 220/4/1 218/4/1 219/4/1
f 223/4/1 222/4/1 221/4/1
f 224/4/1 222/4/1 223/4/1
f 227/4/1 226/4/1 225/4/1
f 228/4/1 226/4/1 227/4/1
f 231/3/1 230/3/1 229/3/1
f 232/3/1 230/3/1 231/3/1
f 235/3/1 234/3/1 233/3/1
f 236/3/1 234/3/1 235/3/1
f 239/3/1 238/3/1 237/3/1
f 240/3/1 238/3/1 239/3/1
f 243/3/1 242/3/1 241/3/1
f 244/3/1 242/3/1 243/3/1
f 247/4/1 246/4/1 245/4/1
f 248/4/1 246/4/1 247/4/1
f 251/4/1 250/4/1 249/4/1
f 252/4/1 250/4/1 251/4/1
f 255/4/1 254/4/1 253/4/1
f 256/4/1 254/4/1 255/4/1
f 259/4/1 258/4/1 257/4/1
f 260/4/1 258/4/1 259/4/1
f 263/4/1 262/4/1 261/4/1
f 264/4/1 262/4/1 263/4/1
f 267/3/1 266/3/1 265/3/1
f 268/3/1 266/3/1 267/3/1
f 271/3/1 270/3/1 269/3/1
f 272/3/1 270/3/1 271/3/1
f 275/4/1 274/4/1 273/4/1
f 276/4/1 274/4/1 275/4/1
f 279/4/1 278/4/1 277/4/1
f 280/4/1 278/4/1 279/4/1
f 283/4/1 282/4/1 281/4/1
f 284/4/1 282/4/1 283/4/1
f 287/4/1 286/4/1 285/4/1
f 288/4/1 286/4/1 287/4/1
f 291/4/1 290/4/1 289/4/1
f 292/4/1 290/4/1 291/4/1
f 295/4/1 294/4/1 293/4/1
f 296/4/1 294/4/1 295/4/1
f 299/4/1 298/4/1 297/4/1
f 300/4/1 298/4/1 299/4/1
f 303/4/1 302/4/1 301/4/1
f 304/4/1 302/4/1 303/4/1
f 307/4/1 306/4/1 305/4/1
f 308/4/1 306/4/1 307/4/1
f 311/4/1 310/4/1 309/4/1
f 312/4/1 310/4/1 311/4/1
f 315/4/1 314/4/1 313/4/1
f 316/4/1 314/4/1 315/4/1
f 319/2/1 318/2/1 317/2/1
f 320/2/1 318/2/1 319/2/1
f 323/2/1 322/2/1 321/2/1
f 324/2/1 322/2/1 323/2/1
f 327/2/1 326/2/1 325/2/1
f 328/2/1 326/2/1 327/2/1
f 331/2/1 330/2/1 329/2/1
f 332/2/1 330/2/1 331/2/1
f 335/2/1 334/2/1 333/2/1
f 336/2/1 334/2/1 335/2/1
f 337/2/2 338/2/2 339/2/2
f 339/2/2 338/2/2 340/2/2
f 341/2/2 342/2/2 343/2/2
f 343/2/2 342/2/2 344/2/2
f 345/2/2 346/2/2 347/2/2
f 347/2/2 346/2/2 348/2/2
f 349/2/2 350/2/2 351/2/2
f 351/2/2 350/2/2 352/2/2
f 353/2/2 354/2/2 355/2/2
f 355/2/2 354/2/2 356/2/2
f 357/4/2 358/4/2 359/4/2
f 359/4/2 358/4/2 360/4/2
f 361/4/2 362/4/2 363/4/2
f 363/4/2 362/4/2 364/4/2
f 365/4/2 366/4/2 367/4/2
f 367/4/2 366/4/2 368/4/2
f 369/4/2 370/4/2 371/4/2
f 371/4/2 370/4/2 372/4/2
f 373/3/2 374/3/2 375/3/2
f 375/3/2 374/3/2 376/3/2
f 377/4/2 378/4/2 379/4/2
f 379/4/2 378/4/2 380/4/2
f 381/3/2 382/3/2 383/3/2
f 383/3/2 382/3/2 384/3/2
f 385/4/2 386/4/2 387/4/2
f 387/4/2 386/4/2 388/4/2
f 389/4/2 390/4/2 391/4/2
f 391/4/2 390/4/2 392/4/2
f 393/4/2 394/4/2 395/4/2
f 395/4/2 394/4/2 396/4/2
f 397/4/2 398/4/2 399/4/2
f 399/4/2 398/4/2 400/4/2
f 401/3/2 402/3/2 403/3/2
f 403/3/2 402/3/2 404/3/2
f 405/3/2 406/3/2 407/3/2
f 407/3/2 406/3/2 408/3/2
f 409/4/2 410/4/2 411/4/2
f 411/4/2 410/4/2 412/4/2
f 413/4/2 414/4/2 415/4/2
f 415/4/2 414/4/2 416/4/2
f 417/4/2 418/4/2 419/4/2
f 419/4/2 418/4/2 420/4/2
f 421/3/2 422/3/2 423/3/2
f 423/3/2 422/3/2 424/3/2
f 425/3/2 426/3/2 427/3/2
f 427/3/2 426/3/2 428/3/2
f 429/3/2 430/3/2 431/3/2
f 431/3/2 430/3/2 432/3/2
f 433/4/2 434/4/2 435/4/2
f 435/4/2 434/4/2 436/4/2
f 437/4/2 438/4/2 439/4/2
f 439/4/2 438/4/2 440/4/2
f 441/4/2 442/4/2 443/4/2
f 443/4/2 442/4/2 444/4/2
f 445/4/2 446/4/2 447/4/2
f 447/4/2 446/4/2 448/4/2
f 449/3/2 450/3/2 451/3/2
f 451/3/2 450/3/2 452/3/2
f 453/3/2 454/3/2 455/3/2
f 455/3/2 454/3/2 456/3/2
f 457/4/2 458/4/2 459/4/2
f 459/4/2 458/4/2 460/4/2
f 461/4/2 462/4/2 463/4/2
f 463/4/2 462/4/2 464/4/2
f 465/4/2 466/4/2 467/4/2
f 467/4/2 466/4/2 468/4/2
f 469/3/2 470/3/2 471/3/2
f 471/3/2 470/3/2 472/3/2
f 473/3/2 474/3/2 475/3/2
f 475/3/2 474/3/2 476/3/2
f 477/3/2 478/3/2 479/3/2
f 479/3/2 478/3/2 480/3/2
f 481/3/2 482/3/2 483/3/2
f 483/3/2 482/3/2 484/3/2
f 485/4/2 486/4/2 487/4/2
f 487/4/2 486/4/2 488/4/2
f 489/4/2 490/4/2 491/4/2
f 491/4/2 490/4/2 492/4/2
f 493/3/2 494/3/2 495/3/2
f 495/3/2 494/3/2 496/3/2
f 497/3/2 498/3/2 499/3/2
f 499/3/2 498/3/2 500/3/2
f 501/4/2 502/4/2 503/4/2
f 503/4/2 502/4/2 504/4/2
f 505/4/2 506/4/2 507/4/2
f 507/4/2 506/4/2 508/4/2
f 509/4/2 510/4/2 511/4/2
f 511/4/2 510/4/2 512/4/2
f 513/4/2 514/4/2 515/4/2
f 515/4/2 514/4/2 516/4/2
f 517/2/2 518/2/2 519/2/2
f 519/2/2 518/2/2 520/2/2
f 521/2/2 522/2/2 523/2/2
f 523/2/2 522/2/2 524/2/2
f 525/2/2 526/2/2 527/2/2
f 527/2/2 526/2/2 528/2/2
f 529/2/2 530/2/2 531/2/2
f 531/2/2 530/2/2 532/2/2
f 533/2/2 534/2/2 535/2/2
f 535/2/2 534/2/2 536/2/2
f 537/2/2 538/2/2 539/2/2
f 539/2/2 538/2/2 540/2/2
f 541/2/2 542/2/2 543/2/2
f 543/2/2 542/2/2 544/2/2
f 545/2/2 546/2/2 547/2/2
f 547/2/2 546/2/2 548/2/2
f 549/2/2 550/2/2 551/2/2
f 551/2/2 550/2/2 552/2/2
f 553/2/2 554/2/2 555/2/2
f 555/2/2 554/2/2 556/2/2
f 557/2/2 558/2/2 559/2/2
f 559/2/2 558/2/2 560/2/2
f 561/2/2 562/2/2 563/2/2
f 563/2/2 562/2/2 564/2/2
f 568/2/3 566/2/3 565/2/3
f 569/2/3 566/2/3 568/2/3
f 572/2/3 568/2/3 567/2/3
f 572/2/3 570/2/3 569/2/3
f 572/2/3 569/2/3 568/2/3
f 573/2/3 570/2/3 572/2/3
f 575/2/3 572/2/3 571/2/3
f 575/2/3 574/2/3 573/2/3
f 575/2/3 573/2/3 572/2/3
f 576/2/3 574/2/3 575/2/3
f 577/2/3 574/2/3 576/2/3
f 578/2/3 574/2/3 577/2/3
f 579/2/3 577/2/3 576/2/3
f 580/2/3 577/2/3 579/2/3
f 581/2/3 577/2/3 580/2/3
f 582/2/3 577/2/3 581/2/3
f 583/2/3 581/2/3 580/2/3
f 584/2/3 581/2/3 583/2/3
f 588/2/3 586/2/3 585/2/3
f 589/2/3 586/2/3 588/2/3
f 592/2/3 588/2/3 587/2/3
f 592/2/3 590/2/3 589/2/3
f 592/2/3 589/2/3 588/2/3
f 593/2/3 590/2/3 592/2/3
f 595/2/3 592/2/3 591/2/3
f 595/2/3 594/2/3 593/2/3
f 595/2/3 593/2/3 592/2/3
f 596/2/3 594/2/3 595/2/3
f 598/2/3 595/2/3 591/2/3
f 599/2/3 595/2/3 598/2/3
f 600/2/3 595/2/3 599/2/3
f 601/2/3 594/2/3 596/2/3
f 602/2/3 594/2/3 601/2/3
f 603/2/3 594/2/3 602/2/3
f 605/2/3 598/2/3 597/2/3
f 605/2/3 599/2/3 598/2/3
f 606/2/3 599/2/3 605/2/3
f 607/2/3 604/2/3 603/2/3
f 607/2/3 603/2/3 602/2/3
f 608/2/3 604/2/3 607/2/3
f 609/2/3 605/2/3 597/2/3
f 612/2/3 604/2/3 608/2/3
f 613/2/3 610/2/3 609/2/3
f 613/2/3 609/2/3 597/2/3
f 614/2/3 610/2/3 613/2/3
f 615/2/3 610/2/3 614/2/3
f 618/2/3 612/2/3 611/2/3
f 619/2/3 604/2/3 612/2/3
f 619/2/3 612/2/3 618/2/3
f 620/2/3 604/2/3 619/2/3
f 621/2/3 616/2/3 615/2/3
f 621/2/3 615/2/3 614/2/3
f 622/2/3 618/2/3 617/2/3
f 622/2/3 619/2/3 618/2/3
f 623/2/3 621/2/3 614/2/3
f 623/2/3 622/2/3 621/2/3
f 624/2/3 622/2/3 623/2/3
f 625/2/3 619/2/3 622/2/3
f 625/2/3 622/2/3 624/2/3
f 626/2/3 619/2/3 625/2/3
f 627/2/3 625/2/3 624/2/3
f 628/2/3 625/2/3 627/2/3
f 629/2/3 625/2/3 628/2/3
f 630/2/3 625/2/3 629/2/3
f 631/2/3 629/2/3 628/2/3
f 632/2/3 629/2/3 631/2/3
f 633/1/4 634/1/4 636/1/4
f 636/1/4 634/1/4 637/1/4
f 635/1/4 636/1/4 640/1/4
f 637/1/4 638/1/4 640/1/4
f 636/1/4 637/1/4 640/1/4
f 640/1/4 638/1/4 641/1/4
f 639/1/4 640/1/4 643/1/4
f 641/1/4 642/1/4 643/1/4
f 640/1/4 641/1/4 643/1/4
f 643/1/4 642/1/4 644/1/4
f 644/1/4 642/1/4 645/1/4
f 645/1/4 642/1/4 646/1/4
f 646/1/4 642/1/4 647/1/4
f 647/1/4 642/1/4 648/1/4
f 648/1/4 642/1/4 649/1/4
f 649/1/4 642/1/4 650/1/4
f 639/1/4 643/1/4 651/1/4
f 644/1/4 645/1/4 652/1/4
f 652/1/4 645/1/4 653/1/4
f 646/1/4 647/1/4 654/1/4
f 654/1/4 647/1/4 655/1/4
f 648/1/4 649/1/4 656/1/4
f 656/1/4 649/1/4 657/1/4
f 639/1/4 651/1/4 658/1/4
f 651/1/4 652/1/4 658/1/4
f 658/1/4 652/1/4 659/1/4
f 653/1/4 654/1/4 660/1/4
f 660/1/4 654/1/4 661/1/4
f 648/1/4 656/1/4 662/1/4
f 662/1/4 656/1/4 663/1/4
f 657/1/4 649/1/4 664/1/4
f 664/1/4 649/1/4 665/1/4
f 639/1/4 658/1/4 666/1/4
f 666/1/4 658/1/4 667/1/4
f 667/1/4 658/1/4 668/1/4
f 655/1/4 647/1/4 669/1/4
f 669/1/4 647/1/4 670/1/4
f 650/1/4 642/1/4 671/1/4
f 669/1/4 670/1/4 674/1/4
f 667/1/4 668/1/4 674/1/4
f 668/1/4 669/1/4 674/1/4
f 670/1/4 671/1/4 674/1/4
f 674/1/4 671/1/4 675/1/4
f 675/1/4 671/1/4 676/1/4
f 676/1/4 671/1/4 677/1/4
f 677/1/4 671/1/4 678/1/4
f 678/1/4 671/1/4 679/1/4
f 679/1/4 671/1/4 680/1/4
f 671/1/4 642/1/4 681/1/4
f 680/1/4 671/1/4 681/1/4
f 672/1/4 673/1/4 682/1/4
f 682/1/4 673/1/4 683/1/4
f 675/1/4 676/1/4 684/1/4
f 684/1/4 676/1/4 685/1/4
f 679/1/4 680/1/4 686/1/4
f 686/1/4 680/1/4 687/1/4
f 639/1/4 666/1/4 689/1/4
f 667/1/4 674/1/4 690/1/4
f 675/1/4 684/1/4 691/1/4
f 691/1/4 684/1/4 692/1/4
f 685/1/4 676/1/4 693/1/4
f 693/1/4 676/1/4 694/1/4
f 679/1/4 686/1/4 695/1/4
f 695/1/4 686/1/4 696/1/4
f 687/1/4 688/1/4 697/1/4
f 639/1/4 689/1/4 698/1/4
f 689/1/4 690/1/4 698/1/4
f 690/1/4 674/1/4 699/1/4
f 698/1/4 690/1/4 699/1/4
f 699/1/4 674/1/4 700/1/4
f 677/1/4 678/1/4 701/1/4
f 701/1/4 678/1/4 702/1/4
f 696/1/4 697/1/4 703/1/4
f 697/1/4 688/1/4 704/1/4
f 703/1/4 697/1/4 704/1/4
f 681/1/4 642/1/4 705/1/4
f 703/1/4 704/1/4 708/1/4
f 701/1/4 702/1/4 708/1/4
f 702/1/4 703/1/4 708/1/4
f 699/1/4 700/1/4 708/1/4
f 704/1/4 705/1/4 708/1/4
f 700/1/4 701/1/4 708/1/4
f 708/1/4 705/1/4 709/1/4
f 709/1/4 705/1/4 710/1/4
f 710/1/4 705/1/4 711/1/4
f 711/1/4 705/1/4 712/1/4
f 705/1/4 642/1/4 713/1/4
f 712/1/4 705/1/4 713/1/4
f 706/1/4 707/1/4 714/1/4
f 714/1/4 707/1/4 715/1/4
f 699/1/4 708/1/4 716/1/4
f 716/1/4 708/1/4 717/1/4
f 711/1/4 712/1/4 718/1/4
f 718/1/4 712/1/4 719/1/4
f 639/1/4 698/1/4 720/1/4
f 699/1/4 716/1/4 721/1/4
f 721/1/4 716/1/4 722/1/4
f 711/1/4 718/1/4 724/1/4
f 724/1/4 718/1/4 725/1/4
f 719/1/4 712/1/4 726/1/4
f 726/1/4 712/1/4 727/1/4
f 722/1/4 723/1/4 728/1/4
f 639/1/4 720/1/4 728/1/4
f 720/1/4 721/1/4 728/1/4
f 721/1/4 722/1/4 728/1/4
f 728/1/4 723/1/4 729/1/4
f 729/1/4 723/1/4 730/1/4
f 709/1/4 710/1/4 731/1/4
f 731/1/4 710/1/4 732/1/4
f 713/1/4 642/1/4 733/1/4
f 639/1/4 728/1/4 734/1/4
f 731/1/4 732/1/4 737/1/4
f 730/1/4 731/1/4 737/1/4
f 729/1/4 730/1/4 737/1/4
f 732/1/4 733/1/4 737/1/4
f 737/1/4 733/1/4 738/1/4
f 738/1/4 733/1/4 739/1/4
f 739/1/4 733/1/4 740/1/4
f 740/1/4 733/1/4 741/1/4
f 741/1/4 733/1/4 742/1/4
f 742/1/4 733/1/4 743/1/4
f 743/1/4 733/1/4 744/1/4
f 733/1/4 642/1/4 745/1/4
f 744/1/4 733/1/4 745/1/4
f 734/1/4 735/1/4 746/1/4
f 736/1/4 737/1/4 747/1/4
f 737/1/4 738/1/4 747/1/4
f 743/1/4 744/1/4 750/1/4
f 750/1/4 744/1/4 751/1/4
f 739/1/4 740/1/4 752/1/4
f 752/1/4 740/1/4 753/1/4
f 743/1/4 750/1/4 754/1/4
f 754/1/4 750/1/4 755/1/4
f 751/1/4 744/1/4 756/1/4
f 756/1/4 744/1/4 757/1/4
f 639/1/4 734/1/4 758/1/4
f 734/1/4 746/1/4 758/1/4
f 746/1/4 747/1/4 758/1/4
f 758/1/4 747/1/4 759/1/4
f 747/1/4 738/1/4 760/1/4
f 759/1/4 747/1/4 760/1/4
f 760/1/4 738/1/4 761/1/4
f 761/1/4 738/1/4 762/1/4
f 748/1/4 749/1/4 763/1/4
f 763/1/4 749/1/4 764/1/4
f 741/1/4 742/1/4 765/1/4
f 765/1/4 742/1/4 766/1/4
f 745/1/4 642/1/4 767/1/4
f 759/1/4 760/1/4 770/1/4
f 765/1/4 766/1/4 772/1/4
f 764/1/4 765/1/4 772/1/4
f 761/1/4 762/1/4 772/1/4
f 763/1/4 764/1/4 772/1/4
f 766/1/4 767/1/4 772/1/4
f 762/1/4 763/1/4 772/1/4
f 772/1/4 767/1/4 773/1/4
f 773/1/4 767/1/4 774/1/4
f 774/1/4 767/1/4 775/1/4
f 775/1/4 767/1/4 776/1/4
f 776/1/4 767/1/4 777/1/4
f 639/1/4 758/1/4 778/1/4
f 778/1/4 758/1/4 779/1/4
f 768/1/4 769/1/4 780/1/4
f 780/1/4 769/1/4 781/1/4
f 770/1/4 771/1/4 782/1/4
f 759/1/4 770/1/4 782/1/4
f 782/1/4 771/1/4 783/1/4
f 761/1/4 772/1/4 784/1/4
f 784/1/4 772/1/4 785/1/4
f 773/1/4 774/1/4 787/1/4
f 787/1/4 774/1/4 788/1/4
f 775/1/4 776/1/4 789/1/4
f 789/1/4 776/1/4 790/1/4
f 777/1/4 767/1/4 791/1/4
f 767/1/4 642/1/4 792/1/4
f 791/1/4 767/1/4 792/1/4
f 639/1/4 778/1/4 793/1/4
f 785/1/4 772/1/4 800/1/4
f 788/1/4 789/1/4 801/1/4
f 787/1/4 788/1/4 801/1/4
f 786/1/4 787/1/4 801/1/4
f 801/1/4 789/1/4 802/1/4
f 802/1/4 789/1/4 803/1/4
f 803/1/4 789/1/4 804/1/4
f 790/1/4 791/1/4 805/1/4
f 805/1/4 791/1/4 806/1/4
f 795/1/4 796/1/4 807/1/4
f 807/1/4 796/1/4 808/1/4
f 797/1/4 798/1/4 809/1/4
f 809/1/4 798/1/4 810/1/4
f 799/1/4 800/1/4 811/1/4
f 800/1/4 772/1/4 811/1/4
f 802/1/4 803/1/4 812/1/4
f 812/1/4 803/1/4 813/1/4
f 792/1/4 642/1/4 814/1/4
f 793/1/4 794/1/4 815/1/4
f 808/1/4 796/1/4 816/1/4
f 816/1/4 796/1/4 817/1/4
f 812/1/4 813/1/4 818/1/4
f 813/1/4 814/1/4 818/1/4
f 811/1/4 812/1/4 818/1/4
f 799/1/4 811/1/4 818/1/4
f 818/1/4 814/1/4 819/1/4
f 819/1/4 814/1/4 820/1/4
f 820/1/4 814/1/4 821/1/4
f 821/1/4 814/1/4 822/1/4
f 822/1/4 814/1/4 823/1/4
f 814/1/4 642/1/4 824/1/4
f 823/1/4 814/1/4 824/1/4
f 816/1/4 817/1/4 825/1/4
f 815/1/4 816/1/4 825/1/4
f 817/1/4 818/1/4 825/1/4
f 818/1/4 819/1/4 825/1/4
f 825/1/4 819/1/4 826/1/4
f 820/1/4 821/1/4 827/1/4
f 827/1/4 821/1/4 828/1/4
f 822/1/4 823/1/4 829/1/4
f 829/1/4 823/1/4 830/1/4
f 830/1/4 823/1/4 831/1/4
f 831/1/4 823/1/4 832/1/4
f 826/1/4 827/1/4 833/1/4
f 833/1/4 827/1/4 834/1/4
f 828/1/4 829/1/4 835/1/4
f 835/1/4 829/1/4 836/1/4
f 830/1/4 831/1/4 837/1/4
f 837/1/4 831/1/4 838/1/4
f 832/1/4 823/1/4 839/1/4
f 839/1/4 823/1/4 840/1/4
f 815/1/4 825/1/4 841/1/4
f 830/1/4 837/1/4 842/1/4
f 842/1/4 837/1/4 843/1/4
f 824/1/4 642/1/4 844/1/4
f 842/1/4 843/1/4 845/1/4
f 843/1/4 844/1/4 845/1/4
f 841/1/4 842/1/4 845/1/4
f 793/1/4 815/1/4 845/1/4
f 639/1/4 793/1/4 845/1/4
f 815/1/4 841/1/4 845/1/4
f 845/1/4 844/1/4 846/1/4
f 844/1/4 642/1/4 847/1/4
f 846/1/4 844/1/4 847/1/4
f 847/1/4 642/1/4 848/1/4
f 846/1/4 847/1/4 849/1/4
f 849/1/4 847/1/4 850/1/4
f 850/1/4 847/1/4 851/1/4
f 851/1/4 847/1/4 852/1/4
f 850/1/4 851/1/4 853/1/4
f 853/1/4 851/1/4 854/1/4
f 855/4/4 856/4/4 863/4/4
f 863/4/4 856/4/4 864/4/4
f 857/4/4 858/4/4 865/4/4
f 865/4/4 858/4/4 866/4/4
f 864/4/4 865/4/4 871/4/4
f 871/4/4 865/4/4 872/4/4
f 866/4/4 867/4/4 873/4/4
f 859/4/4 860/4/4 874/4/4
f 868/4/4 869/4/4 875/4/4
f 875/4/4 869/4/4 876/4/4
f 861/4/4 862/4/4 877/4/4
f 872/4/4 873/4/4 880/4/4
f 871/4/4 872/4/4 880/4/4
f 870/4/4 871/4/4 880/4/4
f 873/4/4 867/4/4 881/4/4
f 880/4/4 873/4/4 881/4/4
f 875/4/4 876/4/4 882/4/4
f 859/4/4 874/4/4 882/4/4
f 876/4/4 877/4/4 882/4/4
f 874/4/4 875/4/4 882/4/4
f 877/4/4 862/4/4 883/4/4
f 882/4/4 877/4/4 883/4/4
f 878/3/4 879/3/4 884/3/4
f 884/3/4 879/3/4 885/3/4
f 878/3/4 884/3/4 894/3/4
f 885/3/4 879/3/4 895/3/4
f 892/4/4 893/4/4 899/4/4
f 899/4/4 893/4/4 900/4/4
f 878/3/4 894/3/4 901/3/4
f 894/3/4 895/3/4 901/3/4
f 895/3/4 879/3/4 902/3/4
f 901/3/4 895/3/4 902/3/4
f 886/4/4 887/4/4 903/4/4
f 896/4/4 897/4/4 904/4/4
f 904/4/4 897/4/4 905/4/4
f 888/4/4 889/4/4 906/4/4
f 890/4/4 891/4/4 907/4/4
f 898/4/4 899/4/4 908/4/4
f 908/4/4 899/4/4 909/4/4
f 886/4/4 903/4/4 912/4/4
f 905/4/4 906/4/4 912/4/4
f 904/4/4 905/4/4 912/4/4
f 903/4/4 904/4/4 912/4/4
f 906/4/4 889/4/4 913/4/4
f 912/4/4 906/4/4 913/4/4
f 907/4/4 908/4/4 914/4/4
f 890/4/4 907/4/4 914/4/4
f 914/4/4 908/4/4 915/4/4
f 900/4/4 893/4/4 916/4/4
f 916/4/4 893/4/4 917/4/4
f 910/3/4 911/3/4 918/3/4
f 918/3/4 911/3/4 919/3/4
f 910/3/4 918/3/4 926/3/4
f 919/3/4 911/3/4 927/3/4
f 920/4/4 921/4/4 929/4/4
f 910/3/4 926/3/4 932/3/4
f 926/3/4 927/3/4 932/3/4
f 927/3/4 911/3/4 933/3/4
f 932/3/4 927/3/4 933/3/4
f 928/4/4 929/4/4 934/4/4
f 929/4/4 921/4/4 935/4/4
f 934/4/4 929/4/4 935/4/4
f 922/4/4 923/4/4 936/4/4
f 930/4/4 931/4/4 937/4/4
f 937/4/4 931/4/4 938/4/4
f 924/4/4 925/4/4 939/4/4
f 935/4/4 921/4/4 942/4/4
f 942/4/4 921/4/4 943/4/4
f 937/4/4 938/4/4 944/4/4
f 922/4/4 936/4/4 944/4/4
f 938/4/4 939/4/4 944/4/4
f 936/4/4 937/4/4 944/4/4
f 939/4/4 925/4/4 945/4/4
f 944/4/4 939/4/4 945/4/4
f 940/3/4 941/3/4 946/3/4
f 946/3/4 941/3/4 947/3/4
f 947/3/4 941/3/4 948/3/4
f 948/3/4 941/3/4 949/3/4
f 947/3/4 948/3/4 958/3/4
f 958/3/4 948/3/4 959/3/4
f 950/4/4 951/4/4 960/4/4
f 960/4/4 951/4/4 961/4/4
f 961/4/4 951/4/4 964/4/4
f 952/4/4 953/4/4 965/4/4
f 954/4/4 955/4/4 966/4/4
f 962/4/4 963/4/4 967/4/4
f 967/4/4 963/4/4 968/4/4
f 956/4/4 957/4/4 969/4/4
f 950/4/4 960/4/4 974/4/4
f 974/4/4 960/4/4 975/4/4
f 964/4/4 965/4/4 976/4/4
f 961/4/4 964/4/4 976/4/4
f 965/4/4 953/4/4 977/4/4
f 976/4/4 965/4/4 977/4/4
f 967/4/4 968/4/4 978/4/4
f 954/4/4 966/4/4 978/4/4
f 966/4/4 967/4/4 978/4/4
f 968/4/4 969/4/4 978/4/4
f 969/4/4 957/4/4 979/4/4
f 978/4/4 969/4/4 979/4/4
f 970/3/4 971/3/4 980/3/4
f 980/3/4 971/3/4 981/3/4
f 972/3/4 973/3/4 982/3/4
f 982/3/4 973/3/4 983/3/4
f 970/3/4 980/3/4 991/3/4
f 991/3/4 980/3/4 992/3/4
f 981/3/4 971/3/4 993/3/4
f 993/3/4 971/3/4 994/3/4
f 983/3/4 973/3/4 995/3/4
f 995/3/4 973/3/4 996/3/4
f 984/4/4 985/4/4 998/4/4
f 998/4/4 985/4/4 999/4/4
f 986/4/4 987/4/4 1000/4/4
f 1000/4/4 987/4/4 1001/4/4
f 988/4/4 989/4/4 1002/4/4
f 1002/4/4 989/4/4 1003/4/4
f 991/3/4 992/3/4 1005/3/4
f 996/3/4 997/3/4 1005/3/4
f 993/3/4 994/3/4 1005/3/4
f 990/3/4 991/3/4 1005/3/4
f 995/3/4 996/3/4 1005/3/4
f 994/3/4 995/3/4 1005/3/4
f 992/3/4 993/3/4 1005/3/4
f 1005/3/4 997/3/4 1006/3/4
f 1006/3/4 997/3/4 1007/3/4
f 1007/3/4 997/3/4 1008/3/4
f 1008/3/4 997/3/4 1009/3/4
f 1009/3/4 997/3/4 1010/3/4
f 1010/3/4 997/3/4 1011/3/4
f 1011/3/4 997/3/4 1012/3/4
f 984/4/4 998/4/4 1013/4/4
f 1001/4/4 1002/4/4 1016/4/4
f 1016/4/4 1002/4/4 1017/4/4
f 1003/4/4 1004/4/4 1018/4/4
f 1006/3/4 1007/3/4 1019/3/4
f 1008/3/4 1009/3/4 1021/3/4
f 1010/3/4 1011/3/4 1022/3/4
f 1013/4/4 1014/4/4 1023/4/4
f 984/4/4 1013/4/4 1023/4/4
f 1023/4/4 1014/4/4 1024/4/4
f 1016/4/4 1017/4/4 1025/4/4
f 1017/4/4 1018/4/4 1025/4/4
f 1015/4/4 1016/4/4 1025/4/4
f 1018/4/4 1004/4/4 1026/4/4
f 1025/4/4 1018/4/4 1026/4/4
f 1019/3/4 1020/3/4 1027/3/4
f 1006/3/4 1019/3/4 1027/3/4
f 1027/3/4 1020/3/4 1028/3/4
f 1021/3/4 1022/3/4 1029/3/4
f 1008/3/4 1021/3/4 1029/3/4
f 1022/3/4 1011/3/4 1030/3/4
f 1029/3/4 1022/3/4 1030/3/4
f 1031/4/4 1032/4/4 1038/4/4
f 1038/4/4 1032/4/4 1039/4/4
f 1033/4/4 1034/4/4 1040/4/4
f 1040/4/4 1034/4/4 1041/4/4
f 1037/4/4 1038/4/4 1045/4/4
f 1039/4/4 1040/4/4 1046/4/4
f 1046/4/4 1040/4/4 1047/4/4
f 1041/4/4 1042/4/4 1048/4/4
f 1043/4/4 1044/4/4 1050/4/4
f 1050/4/4 1044/4/4 1051/4/4
f 1035/4/4 1036/4/4 1052/4/4
f 1047/4/4 1048/4/4 1053/4/4
f 1046/4/4 1047/4/4 1053/4/4
f 1037/4/4 1045/4/4 1053/4/4
f 1045/4/4 1046/4/4 1053/4/4
f 1048/4/4 1042/4/4 1054/4/4
f 1053/4/4 1048/4/4 1054/4/4
f 1050/4/4 1051/4/4 1055/4/4
f 1051/4/4 1052/4/4 1055/4/4
f 1049/4/4 1050/4/4 1055/4/4
f 1052/4/4 1036/4/4 1056/4/4
f 1055/4/4 1052/4/4 1056/4/4
f 1057/2/4 1058/2/4 1060/2/4
f 1060/2/4 1058/2/4 1061/2/4
f 1059/2/4 1060/2/4 1064/2/4
f 1061/2/4 1062/2/4 1064/2/4
f 1060/2/4 1061/2/4 1064/2/4
f 1064/2/4 1062/2/4 1065/2/4
f 1063/2/4 1064/2/4 1067/2/4
f 1065/2/4 1066/2/4 1067/2/4
f 1064/2/4 1065/2/4 1067/2/4
f 1067/2/4 1066/2/4 1068/2/4
f 1063/2/4 1067/2/4 1070/2/4
f 1070/2/4 1067/2/4 1071/2/4
f 1071/2/4 1067/2/4 1072/2/4
f 1068/2/4 1066/2/4 1073/2/4
f 1073/2/4 1066/2/4 1074/2/4
f 1074/2/4 1066/2/4 1075/2/4
f 1069/2/4 1070/2/4 1077/2/4
f 1070/2/4 1071/2/4 1077/2/4
f 1077/2/4 1071/2/4 1078/2/4
f 1075/2/4 1076/2/4 1079/2/4
f 1074/2/4 1075/2/4 1079/2/4
f 1079/2/4 1076/2/4 1080/2/4
f 1069/2/4 1077/2/4 1081/2/4
f 1080/2/4 1076/2/4 1084/2/4
f 1081/2/4 1082/2/4 1085/2/4
f 1069/2/4 1081/2/4 1085/2/4
f 1085/2/4 1082/2/4 1086/2/4
f 1086/2/4 1082/2/4 1087/2/4
f 1083/2/4 1084/2/4 1090/2/4
f 1084/2/4 1076/2/4 1091/2/4
f 1090/2/4 1084/2/4 1091/2/4
f 1091/2/4 1076/2/4 1092/2/4
f 1087/2/4 1088/2/4 1093/2/4
f 1086/2/4 1087/2/4 1093/2/4
f 1089/2/4 1090/2/4 1094/2/4
f 1090/2/4 1091/2/4 1094/2/4
f 1086/2/4 1093/2/4 1095/2/4
f 1093/2/4 1094/2/4 1095/2/4
f 1095/2/4 1094/2/4 1096/2/4
f 1094/2/4 1091/2/4 1097/2/4
f 1096/2/4 1094/2/4 1097/2/4
f 1097/2/4 1091/2/4 1098/2/4
f 1096/2/4 1097/2/4 1099/2/4
f 1099/2/4 1097/2/4 1100/2/4
f 1100/2/4 1097/2/4 1101/2/4
f 1101/2/4 1097/2/4 1102/2/4
f 1100/2/4 1101/2/4 1103/2/4
f 1103/2/4 1101/2/4 1104/2/4
f 1107/2/5 1106/2/5 1105/2/5
f 1108/2/5 1106/2/5 1107/2/5
f 1113/2/5 1110/2/5 1109/2/5
f 1114/2/5 1110/2/5 1113/2/5
f 1115/2/5 1112/2/5 1111/2/5
f 1116/2/5 1112/2/5 1115/2/5
f 1121/2/5 1118/2/5 1117/2/5
f 1122/2/5 1118/2/5 1121/2/5
f 1123/2/5 1120/2/5 1119/2/5
f 1124/2/5 1120/2/5 1123/2/5
f 1127/2/5 1126/2/5 1125/2/5
f 1128/2/5 1126/2/5 1127/2/5
f 1135/2/5 1130/2/5 1129/2/5
f 1136/2/5 1130/2/5 1135/2/5
f 1137/2/5 1132/2/5 1131/2/5
f 1138/2/5 1132/2/5 1137/2/5
f 1143/3/5 1142/3/5 1141/3/5
f 1144/3/5 1142/3/5 1143/3/5
f 1145/2/5 1134/2/5 1133/2/5
f 1146/2/5 1134/2/5 1145/2/5
f 1147/2/5 1140/2/5 1139/2/5
f 1148/2/5 1140/2/5 1147/2/5
f 1153/2/5 1150/2/5 1149/2/5
f 1154/2/5 1150/2/5 1153/2/5
f 1155/2/5 1152/2/5 1151/2/5
f 1156/2/5 1152/2/5 1155/2/5
f 1161/3/5 1158/3/5 1157/3/5
f 1162/3/5 1158/3/5 1161/3/5
f 1163/3/5 1160/3/5 1159/3/5
f 1164/3/5 1160/3/5 1163/3/5
f 1171/3/5 1166/3/5 1165/3/5
f 1172/3/5 1166/3/5 1171/3/5
f 1173/3/5 1168/3/5 1167/3/5
f 1174/3/5 1168/3/5 1173/3/5
f 1175/3/5 1170/3/5 1169/3/5
f 1176/3/5 1170/3/5 1175/3/5
f 1181/3/5 1178/3/5 1177/3/5
f 1182/3/5 1178/3/5 1181/3/5
f 1183/3/5 1180/3/5 1179/3/5
f 1184/3/5 1180/3/5 1183/3/5
f 1187/3/5 1186/3/5 1185/3/5
f 1188/3/5 1186/3/5 1187/3/5
f 1195/3/5 1190/3/5 1189/3/5
f 1196/3/5 1190/3/5 1195/3/5
f 1197/3/5 1192/3/5 1191/3/5
f 1198/3/5 1192/3/5 1197/3/5
f 1199/3/5 1194/3/5 1193/3/5
f 1200/3/5 1194/3/5 1199/3/5
f 1205/3/5 1202/3/5 1201/3/5
f 1206/3/5 1202/3/5 1205/3/5
f 1207/3/5 1204/3/5 1203/3/5
f 1208/3/5 1204/3/5 1207/3/5
f 1223/4/5 1210/4/5 1209/4/5
f 1224/4/5 1210/4/5 1223/4/5
f 1225/4/5 1212/4/5 1211/4/5
f 1226/4/5 1212/4/5 1225/4/5
f 1227/4/5 1214/4/5 1213/4/5
f 1228/4/5 1214/4/5 1227/4/5
f 1229/4/5 1216/4/5 1215/4/5
f 1230/4/5 1216/4/5 1229/4/5
f 1231/4/5 1218/4/5 1217/4/5
f 1232/4/5 1218/4/5 1231/4/5
f 1233/4/5 1220/4/5 1219/4/5
f 1234/4/5 1220/4/5 1233/4/5
f 1235/4/5 1222/4/5 1221/4/5
f 1236/4/5 1222/4/5 1235/4/5
f 1239/4/5 1238/4/5 1237/4/5
f 1240/4/5 1238/4/5 1239/4/5
f 1249/4/5 1242/4/5 1241/4/5
f 1250/4/5 1242/4/5 1249/4/5
f 1251/4/5 1244/4/5 1243/4/5
f 1252/4/5 1244/4/5 1251/4/5
f 1253/4/5 1246/4/5 1245/4/5
f 1254/4/5 1246/4/5 1253/4/5
f 1255/4/5 1248/4/5 1247/4/5
f 1256/4/5 1248/4/5 1255/4/5
f 1261/4/5 1258/4/5 1257/4/5
f 1262/4/5 1258/4/5 1261/4/5
f 1263/4/5 1260/4/5 1259/4/5
f 1264/4/5 1260/4/5 1263/4/5
f 1277/4/5 1266/4/5 1265/4/5
f 1278/4/5 1266/4/5 1277/4/5
f 1279/4/5 1268/4/5 1267/4/5
f 1280/4/5 1268/4/5 1279/4/5
f 1281/4/5 1270/4/5 1269/4/5
f 1282/4/5 1270/4/5 1281/4/5
f 1283/4/5 1272/4/5 1271/4/5
f 1284/4/5 1272/4/5 1283/4/5
f 1285/4/5 1274/4/5 1273/4/5
f 1286/4/5 1274/4/5 1285/4/5
f 1287/4/5 1276/4/5 1275/4/5
f 1288/4/5 1276/4/5 1287/4/5
f 1303/4/5 1290/4/5 1289/4/5
f 1304/4/5 1290/4/5 1303/4/5
f 1305/4/5 1292/4/5 1291/4/5
f 1306/4/5 1292/4/5 1305/4/5
f 1307/4/5 1294/4/5 1293/4/5
f 1308/4/5 1294/4/5 1307/4/5
f 1309/4/5 1296/4/5 1295/4/5
f 1310/4/5 1296/4/5 1309/4/5
f 1311/4/5 1298/4/5 1297/4/5
f 1312/4/5 1298/4/5 1311/4/5
f 1313/4/5 1300/4/5 1299/4/5
f 1314/4/5 1300/4/5 1313/4/5
f 1315/4/5 1302/4/5 1301/4/5
f 1316/4/5 1302/4/5 1315/4/5
f 1329/4/5 1318/4/5 1317/4/5
f 1330/4/5 1318/4/5 1329/4/5
f 1331/4/5 1320/4/5 1319/4/5
f 1332/4/5 1320/4/5 1331/4/5
f 1333/4/5 1322/4/5 1321/4/5
f 1334/4/5 1322/4/5 1333/4/5
f 1335/4/5 1324/4/5 1323/4/5
f 1336/4/5 1324/4/5 1335/4/5
f 1337/4/5 1326/4/5 1325/4/5
f 1338/4/5 1326/4/5 1337/4/5
f 1339/4/5 1328/4/5 1327/4/5
f 1340/4/5 1328/4/5 1339/4/5
f 1345/4/5 1342/4/5 1341/4/5
f 1346/4/5 1342/4/5 1345/4/5
f 1347/4/5 1344/4/5 1343/4/5
f 1348/4/5 1344/4/5 1347/4/5
f 1361/4/5 1350/4/5 1349/4/5
f 1362/4/5 1350/4/5 1361/4/5
f 1363/4/5 1352/4/5 1351/4/5
f 1364/4/5 1352/4/5 1363/4/5
f 1365/4/5 1354/4/5 1353/4/5
f 1366/4/5 1354/4/5 1365/4/5
f 1367/4/5 1356/4/5 1355/4/5
f 1368/4/5 1356/4/5 1367/4/5
f 1369/4/5 1358/4/5 1357/4/5
f 1370/4/5 1358/4/5 1369/4/5
f 1371/4/5 1360/4/5 1359/4/5
f 1372/4/5 1360/4/5 1371/4/5
f 1377/2/5 1374/2/5 1373/2/5
f 1378/2/5 1374/2/5 1377/2/5
f 1379/2/5 1376/2/5 1375/2/5
f 1380/2/5 1376/2/5 1379/2/5
f 1385/2/5 1382/2/5 1381/2/5
f 1386/2/5 1382/2/5 1385/2/5
f 1387/2/5 1384/2/5 1383/2/5
f 1388/2/5 1384/2/5 1387/2/5
f 1391/2/5 1390/2/5 1389/2/5
f 1392/2/5 1390/2/5 1391/2/5
f 1393/2/6 1394/2/6 1395/2/6
f 1395/2/6 1394/2/6 1396/2/6
f 1397/2/6 1398/2/6 1401/2/6
f 1401/2/6 1398/2/6 1402/2/6
f 1399/2/6 1400/2/6 1403/2/6
f 1403/2/6 1400/2/6 1404/2/6
f 1405/2/6 1406/2/6 1409/2/6
f 1409/2/6 1406/2/6 1410/2/6
f 1407/2/6 1408/2/6 1411/2/6
f 1411/2/6 1408/2/6 1412/2/6
f 1413/3/6 1414/3/6 1417/3/6
f 1417/3/6 1414/3/6 1418/3/6
f 1415/3/6 1416/3/6 1419/3/6
f 1419/3/6 1416/3/6 1420/3/6
f 1421/3/6 1422/3/6 1427/3/6
f 1427/3/6 1422/3/6 1428/3/6
f 1423/3/6 1424/3/6 1429/3/6
f 1429/3/6 1424/3/6 1430/3/6
f 1425/3/6 1426/3/6 1431/3/6
f 1431/3/6 1426/3/6 1432/3/6
f 1433/3/6 1434/3/6 1437/3/6
f 1437/3/6 1434/3/6 1438/3/6
f 1435/3/6 1436/3/6 1439/3/6
f 1439/3/6 1436/3/6 1440/3/6
f 1441/3/6 1442/3/6 1443/3/6
f 1443/3/6 1442/3/6 1444/3/6
f 1445/3/6 1446/3/6 1451/3/6
f 1451/3/6 1446/3/6 1452/3/6
f 1447/3/6 1448/3/6 1453/3/6
f 1453/3/6 1448/3/6 1454/3/6
f 1449/3/6 1450/3/6 1455/3/6
f 1455/3/6 1450/3/6 1456/3/6
f 1457/3/6 1458/3/6 1461/3/6
f 1461/3/6 1458/3/6 1462/3/6
f 1459/3/6 1460/3/6 1463/3/6
f 1463/3/6 1460/3/6 1464/3/6
f 1465/3/6 1466/3/6 1467/3/6
f 1467/3/6 1466/3/6 1468/3/6
f 1469/4/6 1470/4/6 1477/4/6
f 1477/4/6 1470/4/6 1478/4/6
f 1471/4/6 1472/4/6 1479/4/6
f 1479/4/6 1472/4/6 1480/4/6
f 1473/4/6 1474/4/6 1481/4/6
f 1481/4/6 1474/4/6 1482/4/6
f 1475/4/6 1476/4/6 1483/4/6
f 1483/4/6 1476/4/6 1484/4/6
f 1485/4/6 1486/4/6 1489/4/6
f 1489/4/6 1486/4/6 1490/4/6
f 1487/4/6 1488/4/6 1491/4/6
f 1491/4/6 1488/4/6 1492/4/6
f 1493/4/6 1494/4/6 1501/4/6
f 1501/4/6 1494/4/6 1502/4/6
f 1495/4/6 1496/4/6 1503/4/6
f 1503/4/6 1496/4/6 1504/4/6
f 1497/4/6 1498/4/6 1505/4/6
f 1505/4/6 1498/4/6 1506/4/6
f 1499/4/6 1500/4/6 1507/4/6
f 1507/4/6 1500/4/6 1508/4/6
f 1509/4/6 1510/4/6 1513/4/6
f 1513/4/6 1510/4/6 1514/4/6
f 1511/4/6 1512/4/6 1515/4/6
f 1515/4/6 1512/4/6 1516/4/6
f 1517/4/6 1518/4/6 1531/4/6
f 1531/4/6 1518/4/6 1532/4/6
f 1519/4/6 1520/4/6 1533/4/6
f 1533/4/6 1520/4/6 1534/4/6
f 1521/4/6 1522/4/6 1535/4/6
f 1535/4/6 1522/4/6 1536/4/6
f 1523/4/6 1524/4/6 1537/4/6
f 1537/4/6 1524/4/6 1538/4/6
f 1525/4/6 1526/4/6 1539/4/6
f 1539/4/6 1526/4/6 1540/4/6
f 1527/4/6 1528/4/6 1541/4/6
f 1541/4/6 1528/4/6 1542/4/6
f 1529/4/6 1530/4/6 1543/4/6
f 1543/4/6 1530/4/6 1544/4/6
f 1545/4/6 1546/4/6 1553/4/6
f 1553/4/6 1546/4/6 1554/4/6
f 1547/4/6 1548/4/6 1555/4/6
f 1555/4/6 1548/4/6 1556/4/6
f 1549/4/6 1550/4/6 1557/4/6
f 1557/4/6 1550/4/6 1558/4/6
f 1551/4/6 1552/4/6 1559/4/6
f 1559/4/6 1552/4/6 1560/4/6
f 1561/4/6 1562/4/6 1565/4/6
f 1565/4/6 1562/4/6 1566/4/6
f 1563/4/6 1564/4/6 1567/4/6
f 1567/4/6 1564/4/6 1568/4/6
f 1569/4/6 1570/4/6 1581/4/6
f 1581/4/6 1570/4/6 1582/4/6
f 1571/4/6 1572/4/6 1583/4/6
f 1583/4/6 1572/4/6 1584/4/6
f 1573/4/6 1574/4/6 1585/4/6
f 1585/4/6 1574/4/6 1586/4/6
f 1575/4/6 1576/4/6 1587/4/6
f 1587/4/6 1576/4/6 1588/4/6
f 1577/4/6 1578/4/6 1589/4/6
f 1589/4/6 1578/4/6 1590/4/6
f 1579/4/6 1580/4/6 1591/4/6
f 1591/4/6 1580/4/6 1592/4/6
f 1593/4/6 1594/4/6 1595/4/6
f 1595/4/6 1594/4/6 1596/4/6
f 1597/2/6 1598/2/6 1601/2/6
f 1601/2/6 1598/2/6 1602/2/6
f 1599/2/6 1600/2/6 1603/2/6
f 1603/2/6 1600/2/6 1604/2/6
f 1605/4/6 1606/4/6 1617/4/6
f 1617/4/6 1606/4/6 1618/4/6
f 1607/4/6 1608/4/6 1619/4/6
f 1619/4/6 1608/4/6 1620/4/6
f 1609/4/6 1610/4/6 1621/4/6
f 1621/4/6 1610/4/6 1622/4/6
f 1611/4/6 1612/4/6 1623/4/6
f 1623/4/6 1612/4/6 1624/4/6
f 1613/4/6 1614/4/6 1625/4/6
f 1625/4/6 1614/4/6 1626/4/6
f 1615/4/6 1616/4/6 1627/4/6
f 1627/4/6 1616/4/6 1628/4/6
f 1629/2/6 1630/2/6 1635/2/6
f 1635/2/6 1630/2/6 1636/2/6
f 1631/2/6 1632/2/6 1637/2/6
f 1637/2/6 1632/2/6 1638/2/6
f 1633/2/6 1634/2/6 1641/2/6
f 1641/2/6 1634/2/6 1642/2/6
f 1639/2/6 1640/2/6 1643/2/6
f 1643/2/6 1640/2/6 1644/2/6
f 1645/2/6 1646/2/6 1647/2/6
f 1647/2/6 1646/2/6 1648/2/6
f 1649/2/6 1650/2/6 1653/2/6
f 1653/2/6 1650/2/6 1654/2/6
f 1651/2/6 1652/2/6 1655/2/6
f 1655/2/6 1652/2/6 1656/2/6
f 1657/2/6 1658/2/6 1661/2/6
f 1661/2/6 1658/2/6 1662/2/6
f 1659/2/6 1660/2/6 1663/2/6
f 1663/2/6 1660/2/6 1664/2/6
f 1665/2/6 1666/2/6 1667/2/6
f 1667/2/6 1666/2/6 1668/2/6
