[gd_scene load_steps=3 format=2]

[ext_resource path="res://Models/ObjType/Podiuns/Podium1.obj" type="ArrayMesh" id=1]


[sub_resource type="BoxShape" id=1]
extents = Vector3( 20, 40, 20 )

[node name="Podium1" type="StaticBody"]
editor/display_folded = true

[node name="MeshInstance" type="MeshInstance" parent="."]
transform = Transform( 1, 0, 0, 0, 1, 0, 0, 0, 1, 0, 0.5, 0 )
mesh = ExtResource( 1 )
material/0 = null

[node name="CollisionShape" type="CollisionShape" parent="."]
transform = Transform( 1, 0, 0, 0, 1, 0, 0, 0, 1, 0, 40, -1 )
shape = SubResource( 1 )
