# Blender MTL File: 'Hero.blend'
# Material Count: 1

newmtl palette
Ns 96.078431
Ka 0.000000 0.000000 0.000000
Kd 1.000000 1.000000 1.000000
Ks 0.000000 0.000000 0.000000
Ke 0.000000 0.000000 0.000000
Ni 1.000000
d 1.000000
illum 2
map_Kd D:\- BitBucket\Voxel Party\Materials\Hero\images\Hero1.png
