# Blender v2.79 (sub 0) OBJ File: 'Hero.blend'
# www.blender.org
mtllib HeroFoot.mtl
o Hero.002_HeroLeg
v -1.999994 -3.525364 -1.800000
v -1.999994 -0.525364 1.200001
v -1.999994 0.475201 -0.799999
v -1.999994 -0.524800 -1.799999
v -1.999994 1.475201 -0.799999
v -1.999994 2.475201 0.200001
v -1.999994 2.475201 -1.799999
v -0.999994 -3.525365 4.200000
v -0.999994 -1.525364 3.200000
v -0.999994 -0.525364 2.200001
v -0.999994 -0.525364 -1.799999
v -0.999994 -0.525363 -2.799999
v -0.999994 0.475201 -1.799999
v -0.999994 -0.524800 -1.799999
v -0.999994 1.475201 0.200001
v -0.999994 2.475706 0.200001
v -0.999994 5.475707 -1.799999
v 1.000006 -3.525364 3.200000
v 1.000006 -0.525364 2.200001
v 1.000006 -0.525363 -2.799999
v 1.000006 -0.524800 -2.799999
v 1.000006 -0.524800 1.200001
v 1.000006 1.475201 0.200001
v 1.000006 2.475200 1.200001
v 1.000006 2.475706 0.200001
v 1.000006 5.475706 0.200002
v 2.000006 -3.525364 3.200000
v 2.000006 -1.525364 3.200000
v 2.000006 -1.525364 1.200000
v 2.000006 -0.525364 1.200001
v 2.000006 -0.524800 -1.799999
v 2.000006 0.475201 -0.799999
v 2.000006 0.475201 -1.799999
v 2.000006 1.475201 0.200001
v 2.000006 1.475201 -0.799999
v 2.000006 2.475201 0.200001
v 1.000006 -3.525365 4.200000
v -0.999994 -1.525365 4.200000
v -1.999994 -1.525364 3.200000
v -0.999994 -0.524800 1.200001
v 1.000006 -1.525364 1.200000
v -0.999994 -0.524800 0.200001
v -1.999994 1.475201 0.200001
v -0.999994 5.475706 0.200002
v 1.000006 -0.524800 0.200001
v 1.000006 2.475201 0.200001
v -1.999994 -0.525364 -1.799999
v -0.999994 -3.525364 -1.800000
v -1.999994 0.475201 -1.799999
v -0.999994 2.475201 -1.799999
v 1.000006 -3.525364 -1.800000
v 2.000006 -3.525364 -1.800000
v 1.000006 -0.524800 -1.799999
v 1.000006 0.475201 -1.799999
v 1.000006 2.475201 -1.799999
v 1.000006 -3.525363 -2.800000
v -0.999994 -0.524800 -2.799999
v -0.999994 2.475201 -2.799999
v 1.000006 2.475201 -2.799999
v -0.999994 -3.525364 3.200000
v -1.999994 -3.525364 3.200000
v -0.999994 -3.525363 -2.800000
v 2.000006 -0.524800 0.200001
v -1.999994 -0.524800 0.200001
v -0.999994 2.475706 -1.799999
v 1.000006 2.475706 -1.799999
v 1.000006 -1.525365 4.200000
v 1.000006 -1.525364 3.200000
v -0.999994 -1.525364 2.200001
v 1.000006 -1.525364 2.200001
v -1.999994 -1.525364 1.200000
v -0.999994 -1.525364 1.200000
v -0.999994 -0.525364 1.200001
v 1.000006 -0.525364 1.200001
v 1.000006 -0.525364 -1.799999
v 2.000006 -0.525364 -1.799999
v -0.999994 2.475200 1.200001
v -0.999994 2.475201 0.200001
v 2.000006 2.475201 -1.799999
v 1.000006 5.475707 -1.799999
vt 0.232422 0.500000
vt 0.232422 0.500000
vt 0.232422 0.500000
vt 0.228516 0.500000
vt 0.228516 0.500000
vt 0.228516 0.500000
vt 0.228516 0.500000
vt 0.228516 0.500000
vt 0.228516 0.500000
vt 0.232422 0.500000
vt 0.232422 0.500000
vt 0.232422 0.500000
vt 0.228516 0.500000
vt 0.228516 0.500000
vt 0.232422 0.500000
vt 0.232422 0.500000
vt 0.982422 0.500000
vt 0.982422 0.500000
vt 0.982422 0.500000
vt 0.982422 0.500000
vt 0.982422 0.500000
vt 0.982422 0.500000
vt 0.982422 0.500000
vt 0.982422 0.500000
vt 0.228516 0.500000
vt 0.228516 0.500000
vt 0.228516 0.500000
vt 0.228516 0.500000
vt 0.228516 0.500000
vt 0.232422 0.500000
vt 0.232422 0.500000
vt 0.228516 0.500000
vt 0.232422 0.500000
vt 0.982422 0.500000
vt 0.982422 0.500000
vt 0.982422 0.500000
vt 0.982422 0.500000
vt 0.982422 0.500000
vt 0.982422 0.500000
vt 0.982422 0.500000
vt 0.982422 0.500000
vt 0.982422 0.500000
vt 0.982422 0.500000
vt 0.232422 0.500000
vt 0.232422 0.500000
vt 0.232422 0.500000
vt 0.228516 0.500000
vt 0.228516 0.500000
vt 0.228516 0.500000
vt 0.228516 0.500000
vt 0.228516 0.500000
vt 0.232422 0.500000
vt 0.232422 0.500000
vt 0.232422 0.500000
vt 0.232422 0.500000
vt 0.232422 0.500000
vt 0.232422 0.500000
vt 0.982422 0.500000
vt 0.982422 0.500000
vt 0.982422 0.500000
vt 0.982422 0.500000
vt 0.982422 0.500000
vt 0.982422 0.500000
vt 0.982422 0.500000
vt 0.982422 0.500000
vt 0.982422 0.500000
vt 0.982422 0.500000
vt 0.982422 0.500000
vt 0.982422 0.500000
vt 0.232422 0.500000
vt 0.232422 0.500000
vt 0.232422 0.500000
vt 0.228516 0.500000
vt 0.228516 0.500000
vt 0.232422 0.500000
vt 0.232422 0.500000
vt 0.232422 0.500000
vt 0.232422 0.500000
vt 0.232422 0.500000
vt 0.232422 0.500000
vt 0.982422 0.500000
vt 0.982422 0.500000
vt 0.982422 0.500000
vt 0.982422 0.500000
vt 0.982422 0.500000
vt 0.982422 0.500000
vt 0.228516 0.500000
vt 0.232422 0.500000
vt 0.232422 0.500000
vt 0.232422 0.500000
vt 0.232422 0.500000
vt 0.232422 0.500000
vt 0.228516 0.500000
vt 0.228516 0.500000
vt 0.228516 0.500000
vt 0.228516 0.500000
vn -1.0000 0.0000 0.0000
vn 1.0000 0.0000 0.0000
vn 0.0000 1.0000 0.0000
vn 0.0000 0.0000 1.0000
vn 0.0000 0.0000 -1.0000
vn 0.0000 -1.0000 -0.0000
usemtl palette
s off
f 7/1/1 5/2/1 6/3/1
f 22/4/2 23/5/2 24/6/2
f 32/7/2 31/8/2 33/9/2
f 32/10/2 33/11/2 35/12/2
f 34/13/2 32/7/2 35/14/2
f 34/15/2 35/12/2 36/16/2
f 71/17/3 69/18/3 72/19/3
f 39/20/1 1/21/1 61/22/1
f 71/17/1 1/21/1 39/20/1
f 2/23/1 1/21/1 71/17/1
f 47/24/1 1/21/1 2/23/1
f 3/25/1 4/26/1 64/27/1
f 49/28/1 4/26/1 3/25/1
f 43/29/1 3/25/1 64/27/1
f 5/2/1 49/30/1 3/31/1
f 5/32/1 3/25/1 43/29/1
f 6/3/1 5/2/1 43/33/1
f 7/1/1 49/30/1 5/2/1
f 38/34/1 60/35/1 8/36/1
f 9/37/1 60/35/1 38/34/1
f 10/38/1 72/19/1 69/18/1
f 73/39/1 72/19/1 10/38/1
f 11/40/1 62/41/1 48/42/1
f 12/43/1 62/41/1 11/40/1
f 13/44/1 57/45/1 14/46/1
f 15/47/1 42/48/1 40/49/1
f 77/50/1 15/47/1 40/49/1
f 78/51/1 15/47/1 77/50/1
f 50/52/1 57/45/1 13/44/1
f 58/53/1 57/45/1 50/52/1
f 44/54/1 65/55/1 16/56/1
f 17/57/1 65/55/1 44/54/1
f 37/58/2 18/59/2 67/60/2
f 67/60/2 18/59/2 68/61/2
f 70/62/2 41/63/2 19/64/2
f 19/64/2 41/63/2 74/65/2
f 51/66/2 56/67/2 75/68/2
f 75/68/2 56/67/2 20/69/2
f 53/70/2 21/71/2 54/72/2
f 22/4/2 45/73/2 23/5/2
f 24/6/2 23/5/2 46/74/2
f 54/72/2 21/71/2 55/75/2
f 55/75/2 21/71/2 59/76/2
f 25/77/2 66/78/2 26/79/2
f 26/79/2 66/78/2 80/80/2
f 27/81/2 52/82/2 28/83/2
f 28/83/2 52/82/2 29/84/2
f 29/84/2 52/82/2 30/85/2
f 30/85/2 52/82/2 76/86/2
f 63/87/2 31/8/2 32/7/2
f 63/87/2 32/7/2 34/13/2
f 35/12/2 33/11/2 79/88/2
f 36/16/2 35/12/2 79/88/2
f 37/58/4 38/34/4 8/36/4
f 67/60/4 38/34/4 37/58/4
f 60/35/4 39/20/4 61/22/4
f 9/37/4 39/20/4 60/35/4
f 27/81/4 68/61/4 18/59/4
f 28/83/4 68/61/4 27/81/4
f 70/62/4 10/38/4 69/18/4
f 19/64/4 10/38/4 70/62/4
f 72/19/4 2/23/4 71/17/4
f 73/39/4 2/23/4 72/19/4
f 22/4/4 77/50/4 40/49/4
f 24/6/4 77/50/4 22/4/4
f 29/84/4 74/65/4 41/63/4
f 30/85/4 74/65/4 29/84/4
f 42/48/4 43/29/4 64/27/4
f 15/89/4 6/3/4 43/33/4
f 15/47/4 43/29/4 42/48/4
f 78/90/4 6/3/4 15/89/4
f 25/77/4 44/54/4 16/56/4
f 26/79/4 44/54/4 25/77/4
f 63/87/4 23/5/4 45/73/4
f 34/15/4 46/91/4 23/92/4
f 34/13/4 23/5/4 63/87/4
f 36/16/4 46/91/4 34/15/4
f 1/21/5 47/24/5 48/42/5
f 48/42/5 47/24/5 11/40/5
f 4/26/5 49/28/5 14/93/5
f 49/30/5 7/1/5 13/44/5
f 14/93/5 49/28/5 13/94/5
f 13/44/5 7/1/5 50/52/5
f 65/55/5 17/57/5 66/78/5
f 66/78/5 17/57/5 80/80/5
f 51/66/5 75/68/5 52/82/5
f 52/82/5 75/68/5 76/86/5
f 53/95/5 54/96/5 31/8/5
f 54/72/5 55/75/5 33/11/5
f 31/8/5 54/96/5 33/9/5
f 33/11/5 55/75/5 79/88/5
f 62/41/5 12/43/5 56/67/5
f 56/67/5 12/43/5 20/69/5
f 57/45/5 58/53/5 21/71/5
f 21/71/5 58/53/5 59/76/5
f 60/35/6 37/58/6 8/36/6
f 18/59/6 37/58/6 60/35/6
f 1/21/6 27/81/6 18/59/6
f 1/21/6 60/35/6 61/22/6
f 1/21/6 18/59/6 60/35/6
f 48/42/6 27/81/6 1/21/6
f 51/66/6 27/81/6 48/42/6
f 52/82/6 27/81/6 51/66/6
f 62/41/6 51/66/6 48/42/6
f 56/67/6 51/66/6 62/41/6
f 42/48/6 22/4/6 40/49/6
f 45/73/6 22/4/6 42/48/6
f 4/26/6 63/87/6 45/73/6
f 4/26/6 42/48/6 64/27/6
f 4/26/6 45/73/6 42/48/6
f 14/93/6 63/87/6 4/26/6
f 53/95/6 63/87/6 14/93/6
f 31/8/6 63/87/6 53/95/6
f 57/45/6 53/70/6 14/46/6
f 21/71/6 53/70/6 57/45/6
f 65/55/6 25/77/6 16/56/6
f 66/78/6 25/77/6 65/55/6
f 38/34/3 67/60/3 9/37/3
f 9/37/3 67/60/3 68/61/3
f 68/61/3 28/83/3 69/18/3
f 39/20/3 9/37/3 69/18/3
f 9/37/3 68/61/3 69/18/3
f 69/18/3 28/83/3 70/62/3
f 39/20/3 69/18/3 71/17/3
f 70/62/3 28/83/3 41/63/3
f 41/63/3 28/83/3 29/84/3
f 10/38/3 19/64/3 73/39/3
f 73/39/3 19/64/3 74/65/3
f 74/65/3 30/85/3 47/24/3
f 2/23/3 73/39/3 47/24/3
f 73/39/3 74/65/3 47/24/3
f 47/24/3 30/85/3 11/40/3
f 11/40/3 30/85/3 75/68/3
f 75/68/3 30/85/3 76/86/3
f 11/40/3 75/68/3 12/43/3
f 12/43/3 75/68/3 20/69/3
f 77/50/3 24/6/3 78/51/3
f 78/51/3 24/6/3 46/74/3
f 46/91/3 36/16/3 7/1/3
f 6/3/3 78/90/3 7/1/3
f 78/90/3 46/91/3 7/1/3
f 7/1/3 36/16/3 50/52/3
f 50/52/3 36/16/3 55/75/3
f 55/75/3 36/16/3 79/88/3
f 50/52/3 55/75/3 58/53/3
f 58/53/3 55/75/3 59/76/3
f 44/54/3 26/79/3 17/57/3
f 17/57/3 26/79/3 80/80/3
