# Blender v2.79 (sub 0) OBJ File: 'Hero.blend'
# www.blender.org
mtllib HeroArm.mtl
o Hero.001_HeroArm
v -1.850746 -5.337062 0.999999
v -1.850746 -4.337062 -1.000001
v -1.850746 -2.337062 2.000000
v -1.850746 -4.337061 -2.000000
v -1.850746 -1.337062 1.000000
v -1.850746 1.626133 1.000000
v -1.850746 1.626133 -1.000000
v -1.850746 1.626939 2.000000
v -1.850746 2.626940 -1.000000
v -1.850746 3.626940 -0.999999
v -1.850746 4.626939 1.000001
v -0.850746 -4.337062 2.000000
v -0.850746 -1.337062 2.000000
v -0.850746 -2.337062 2.000000
v -0.850746 -1.373867 1.000000
v -0.850746 0.626133 -1.000000
v -0.850746 -1.373867 -2.000000
v -0.850746 -1.373867 -1.000000
v -0.850746 1.626133 1.000000
v -0.850746 2.626939 2.000001
v -0.850746 3.626939 1.000001
v -0.850746 3.626940 -1.999999
v -0.850746 4.626939 -0.999999
v -0.850746 5.626939 1.000001
v 1.149254 5.626938 2.000001
v 1.149254 4.626939 1.000001
v 1.149254 5.626939 1.000001
v 1.149254 4.626939 -1.999999
v 1.149254 -5.337062 0.999999
v 1.149254 -4.337062 2.000000
v 1.149254 -5.337061 -2.000001
v 1.149254 -2.337062 1.000000
v 1.149254 -1.337062 2.000000
v 1.149254 -2.337061 -2.000000
v 1.149254 -1.373867 1.000000
v 1.149254 1.626133 2.000000
v 1.149254 1.626133 1.000000
v 1.149254 -1.373867 -1.000000
v 1.149254 -1.373867 -2.000000
v 1.149254 1.626133 -1.000000
v 2.149254 -5.337062 0.999999
v 2.149254 -4.337062 0.999999
v 2.149254 -2.337061 -1.000000
v 2.149254 -1.337062 1.000000
v 2.149254 -1.337061 -1.000000
v 2.149254 -1.373867 -1.000000
v 2.149254 5.626938 2.000001
v -1.850746 -4.337062 2.000000
v -0.850746 0.626133 2.000000
v 0.149254 0.626133 2.000000
v 0.149254 3.626939 2.000001
v -0.850746 4.626938 2.000001
v -0.850746 3.626939 2.000001
v 1.149254 -5.337062 1.999999
v -0.850746 -5.337062 1.999999
v 1.149254 -2.337062 2.000000
v 1.149254 -1.373867 2.000000
v 1.149254 2.626939 2.000001
v 2.149254 -2.337062 2.000000
v -1.850746 -4.337062 0.999999
v -0.850746 -2.337062 1.000000
v -1.850746 -2.337062 1.000000
v -0.850746 -1.337062 1.000000
v -0.850746 0.626133 1.000000
v -1.850746 3.626939 1.000001
v -0.850746 4.626939 1.000001
v 0.149254 4.626939 1.000001
v 0.149254 5.626939 1.000001
v 1.149254 -1.337062 1.000000
v 2.149254 -1.373867 1.000000
v -0.850746 -5.337062 -1.000001
v -0.850746 -4.337062 -1.000001
v -1.850746 -1.337061 -1.000000
v -0.850746 -1.337061 -1.000000
v -1.850746 -1.373867 -1.000000
v -0.850746 2.626940 -1.000000
v -0.850746 3.626940 -0.999999
v -0.850746 5.626939 -0.999999
v 0.149254 4.626939 -0.999999
v 0.149254 5.626939 -0.999999
v 1.149254 5.626939 -0.999999
v 1.149254 -5.337062 -1.000001
v 2.149254 -5.337062 -1.000001
v 1.149254 -1.337061 -1.000000
v 2.149254 1.626133 -1.000000
v -0.850746 -4.337061 -2.000000
v -1.850746 1.626940 -2.000000
v -1.850746 2.626940 -1.999999
v -0.850746 0.626133 -2.000000
v 0.149254 0.626133 -2.000000
v -0.850746 4.626939 -1.999999
v 0.149254 3.626940 -1.999999
v 1.149254 1.626133 -2.000000
v 1.149254 2.626940 -1.999999
v 2.149254 -2.337061 -2.000000
v 1.149254 5.626939 -1.999999
v 2.149254 5.626939 -1.999999
v -0.850746 -5.337062 0.999999
v -1.850746 -5.337062 -1.000001
v -0.850746 -5.337061 -2.000001
v -0.850746 -4.337062 0.999999
v 1.149254 -4.337062 0.999999
v 2.149254 -4.337062 2.000000
v 1.149254 -4.337061 -2.000000
v 2.149254 -4.337062 -1.000001
v 1.149254 -4.337062 -1.000001
v 2.149254 -4.337061 -2.000000
v 0.149254 -1.373867 2.000000
v -0.850746 -1.373867 2.000000
v -1.850746 -1.373867 1.000000
v 0.149254 -1.373867 -2.000000
v 2.149254 1.626939 2.000000
v 2.149254 1.626940 -2.000000
v 2.149254 -2.337062 1.000000
v -1.850746 -2.337061 -1.000000
v -0.850746 -2.337061 -1.000000
v -1.850746 -2.337061 -2.000000
v -0.850746 -2.337061 -2.000000
v 1.149254 -2.337061 -1.000000
v -0.850746 -1.337061 -2.000000
v 1.149254 -1.337061 -2.000000
v -0.850746 1.626133 2.000000
v 2.149254 1.626133 1.000000
v -0.850746 1.626133 -1.000000
v -0.850746 1.626133 -2.000000
v -1.850746 2.626939 2.000001
v -1.850746 2.626939 1.000001
v -0.850746 2.626939 1.000001
v -0.850746 2.626940 -1.999999
v 0.149254 4.626938 2.000001
v 1.149254 4.626938 2.000001
v -1.850746 4.626939 -0.999999
v 1.149254 4.626939 -0.999999
v 0.149254 4.626939 -1.999999
vt 0.982422 0.500000
vt 0.982422 0.500000
vt 0.982422 0.500000
vt 0.228516 0.500000
vt 0.228516 0.500000
vt 0.228516 0.500000
vt 0.982422 0.500000
vt 0.982422 0.500000
vt 0.982422 0.500000
vt 0.232422 0.500000
vt 0.232422 0.500000
vt 0.232422 0.500000
vt 0.232422 0.500000
vt 0.232422 0.500000
vt 0.232422 0.500000
vt 0.982422 0.500000
vt 0.982422 0.500000
vt 0.982422 0.500000
vt 0.232422 0.500000
vt 0.232422 0.500000
vt 0.232422 0.500000
vt 0.232422 0.500000
vt 0.232422 0.500000
vt 0.232422 0.500000
vt 0.982422 0.500000
vt 0.982422 0.500000
vt 0.982422 0.500000
vt 0.982422 0.500000
vt 0.982422 0.500000
vt 0.982422 0.500000
vt 0.982422 0.500000
vt 0.982422 0.500000
vt 0.982422 0.500000
vt 0.982422 0.500000
vt 0.982422 0.500000
vt 0.982422 0.500000
vt 0.982422 0.500000
vt 0.982422 0.500000
vt 0.982422 0.500000
vt 0.228516 0.500000
vt 0.228516 0.500000
vt 0.228516 0.500000
vt 0.228516 0.500000
vt 0.982422 0.500000
vt 0.982422 0.500000
vt 0.982422 0.500000
vt 0.982422 0.500000
vt 0.982422 0.500000
vt 0.982422 0.500000
vt 0.228516 0.500000
vt 0.228516 0.500000
vt 0.228516 0.500000
vt 0.228516 0.500000
vt 0.232422 0.500000
vt 0.232422 0.500000
vt 0.232422 0.500000
vt 0.232422 0.500000
vt 0.982422 0.500000
vt 0.982422 0.500000
vt 0.982422 0.500000
vt 0.982422 0.500000
vt 0.982422 0.500000
vt 0.982422 0.500000
vt 0.982422 0.500000
vt 0.982422 0.500000
vt 0.982422 0.500000
vt 0.982422 0.500000
vt 0.982422 0.500000
vt 0.982422 0.500000
vt 0.982422 0.500000
vt 0.982422 0.500000
vt 0.228516 0.500000
vt 0.228516 0.500000
vt 0.228516 0.500000
vt 0.228516 0.500000
vt 0.228516 0.500000
vt 0.232422 0.500000
vt 0.232422 0.500000
vt 0.232422 0.500000
vt 0.232422 0.500000
vt 0.232422 0.500000
vt 0.232422 0.500000
vt 0.232422 0.500000
vt 0.232422 0.500000
vt 0.228516 0.500000
vt 0.228516 0.500000
vt 0.228516 0.500000
vt 0.228516 0.500000
vt 0.228516 0.500000
vt 0.228516 0.500000
vt 0.228516 0.500000
vt 0.228516 0.500000
vt 0.232422 0.500000
vt 0.232422 0.500000
vt 0.232422 0.500000
vt 0.232422 0.500000
vt 0.232422 0.500000
vt 0.232422 0.500000
vt 0.232422 0.500000
vt 0.982422 0.500000
vt 0.982422 0.500000
vt 0.982422 0.500000
vt 0.982422 0.500000
vt 0.982422 0.500000
vt 0.982422 0.500000
vt 0.982422 0.500000
vt 0.982422 0.500000
vt 0.982422 0.500000
vt 0.982422 0.500000
vt 0.982422 0.500000
vt 0.982422 0.500000
vt 0.982422 0.500000
vt 0.982422 0.500000
vt 0.982422 0.500000
vt 0.982422 0.500000
vt 0.982422 0.500000
vt 0.982422 0.500000
vt 0.982422 0.500000
vt 0.232422 0.500000
vt 0.232422 0.500000
vt 0.982422 0.500000
vt 0.982422 0.500000
vt 0.982422 0.500000
vt 0.982422 0.500000
vt 0.982422 0.500000
vt 0.982422 0.500000
vt 0.982422 0.500000
vt 0.232422 0.500000
vt 0.232422 0.500000
vt 0.232422 0.500000
vt 0.232422 0.500000
vt 0.982422 0.500000
vt 0.982422 0.500000
vt 0.982422 0.500000
vt 0.982422 0.500000
vt 0.982422 0.500000
vt 0.228516 0.500000
vt 0.232422 0.500000
vt 0.228516 0.500000
vt 0.228516 0.500000
vt 0.232422 0.500000
vt 0.232422 0.500000
vt 0.228516 0.500000
vt 0.228516 0.500000
vt 0.982422 0.500000
vt 0.228516 0.500000
vt 0.228516 0.500000
vt 0.232422 0.500000
vt 0.232422 0.500000
vt 0.228516 0.500000
vt 0.228516 0.500000
vt 0.228516 0.500000
vt 0.228516 0.500000
vt 0.228516 0.500000
vt 0.228516 0.500000
vt 0.228516 0.500000
vt 0.228516 0.500000
vt 0.228516 0.500000
vt 0.982422 0.500000
vt 0.228516 0.500000
vt 0.232422 0.500000
vt 0.228516 0.500000
vt 0.232422 0.500000
vt 0.228516 0.500000
vt 0.232422 0.500000
vt 0.232422 0.500000
vt 0.228516 0.500000
vt 0.228516 0.500000
vt 0.982422 0.500000
vt 0.228516 0.500000
vt 0.982422 0.500000
vt 0.982422 0.500000
vn -1.0000 -0.0000 0.0000
vn 1.0000 0.0000 0.0000
vn 0.0000 -0.0000 1.0000
vn 0.0000 0.0000 -1.0000
vn 0.0000 -1.0000 0.0000
vn 0.0000 1.0000 0.0000
usemtl palette
s off
f 3/1/1 4/2/1 2/3/1
f 16/4/1 17/5/1 18/6/1
f 27/7/1 26/8/1 25/9/1
f 36/10/2 35/11/2 37/12/2
f 38/13/2 39/14/2 40/15/2
f 44/16/2 43/17/2 45/18/2
f 51/19/3 52/20/3 53/21/3
f 79/22/4 78/23/4 80/24/4
f 104/25/5 105/26/5 106/27/5
f 107/28/5 105/26/5 104/25/5
f 115/29/6 116/30/6 117/31/6
f 117/31/6 116/30/6 118/32/6
f 60/33/1 99/34/1 1/35/1
f 2/3/1 99/34/1 60/33/1
f 3/1/1 60/33/1 48/36/1
f 3/1/1 2/3/1 60/33/1
f 62/37/1 4/2/1 3/1/1
f 115/29/1 4/2/1 62/37/1
f 117/31/1 4/2/1 115/29/1
f 5/38/1 115/29/1 62/37/1
f 73/39/1 115/29/1 5/38/1
f 6/40/1 75/41/1 110/42/1
f 7/43/1 75/41/1 6/40/1
f 126/44/1 87/45/1 8/46/1
f 127/47/1 87/45/1 126/44/1
f 9/48/1 87/45/1 127/47/1
f 88/49/1 87/45/1 9/48/1
f 65/50/1 9/51/1 127/52/1
f 10/53/1 9/51/1 65/50/1
f 11/54/1 10/55/1 65/56/1
f 132/57/1 10/55/1 11/54/1
f 12/58/1 98/59/1 55/60/1
f 101/61/1 98/59/1 12/58/1
f 72/62/1 100/63/1 71/64/1
f 86/65/1 100/63/1 72/62/1
f 13/66/1 61/67/1 14/68/1
f 63/69/1 61/67/1 13/66/1
f 74/70/1 118/32/1 116/30/1
f 120/71/1 118/32/1 74/70/1
f 49/72/1 15/73/1 109/74/1
f 64/75/1 15/73/1 49/72/1
f 89/76/1 17/5/1 16/4/1
f 122/77/1 64/78/1 49/79/1
f 19/80/1 64/78/1 122/77/1
f 124/81/1 89/82/1 16/83/1
f 125/84/1 89/82/1 124/81/1
f 53/85/1 128/86/1 20/87/1
f 21/88/1 128/86/1 53/85/1
f 77/89/1 129/90/1 76/91/1
f 22/92/1 129/90/1 77/89/1
f 52/20/1 21/93/1 53/21/1
f 66/94/1 21/93/1 52/20/1
f 23/95/1 22/96/1 77/97/1
f 91/98/1 22/96/1 23/95/1
f 24/99/1 23/95/1 66/94/1
f 78/23/1 23/95/1 24/99/1
f 25/9/1 26/8/1 131/100/1
f 81/101/1 28/102/1 133/103/1
f 96/104/1 28/102/1 81/101/1
f 54/105/2 29/106/2 30/107/2
f 30/107/2 29/106/2 102/108/2
f 82/109/2 31/110/2 106/27/2
f 106/27/2 31/110/2 104/25/2
f 56/111/2 32/112/2 33/113/2
f 33/113/2 32/112/2 69/114/2
f 119/115/2 34/116/2 84/117/2
f 84/117/2 34/116/2 121/118/2
f 57/119/2 35/11/2 36/10/2
f 40/15/2 39/14/2 93/120/2
f 41/121/2 83/122/2 42/123/2
f 42/123/2 83/122/2 105/26/2
f 103/124/2 42/123/2 59/125/2
f 105/26/2 107/28/2 59/125/2
f 42/123/2 105/26/2 59/125/2
f 59/125/2 107/28/2 114/126/2
f 114/126/2 107/28/2 43/17/2
f 43/17/2 107/28/2 95/127/2
f 114/126/2 43/17/2 44/16/2
f 70/128/2 46/129/2 123/130/2
f 123/130/2 46/129/2 85/131/2
f 112/132/2 113/133/2 47/134/2
f 47/134/2 113/133/2 97/135/2
f 12/58/3 3/1/3 48/36/3
f 14/68/3 3/1/3 12/58/3
f 20/136/3 126/44/3 8/46/3
f 108/137/3 49/72/3 109/74/3
f 50/138/3 122/77/3 49/79/3
f 50/139/3 49/72/3 108/137/3
f 51/140/3 53/85/3 20/87/3
f 130/141/3 52/20/3 51/19/3
f 54/105/3 12/58/3 55/60/3
f 54/105/3 14/68/3 12/58/3
f 54/105/3 13/66/3 14/68/3
f 30/107/3 13/66/3 54/105/3
f 56/111/3 13/66/3 30/107/3
f 33/113/3 13/66/3 56/111/3
f 57/119/3 50/138/3 108/142/3
f 36/10/3 122/77/3 50/138/3
f 36/10/3 50/138/3 57/119/3
f 58/143/3 130/144/3 51/140/3
f 58/143/3 51/140/3 20/87/3
f 58/145/3 20/136/3 8/46/3
f 131/146/3 130/144/3 58/143/3
f 103/124/3 56/111/3 30/107/3
f 59/125/3 56/111/3 103/124/3
f 112/132/3 131/100/3 58/145/3
f 112/132/3 25/9/3 131/100/3
f 112/132/3 58/145/3 8/46/3
f 47/134/3 25/9/3 112/132/3
f 98/59/3 60/33/3 1/35/3
f 101/61/3 60/33/3 98/59/3
f 61/67/3 5/38/3 62/37/3
f 63/69/3 5/38/3 61/67/3
f 15/73/3 6/40/3 110/42/3
f 64/75/3 6/40/3 15/73/3
f 19/147/3 6/40/3 64/75/3
f 128/86/3 65/50/3 127/52/3
f 21/93/3 11/54/3 65/56/3
f 21/88/3 65/50/3 128/86/3
f 66/94/3 11/54/3 21/93/3
f 67/148/3 24/99/3 66/94/3
f 68/149/3 24/99/3 67/148/3
f 26/150/3 68/151/3 67/152/3
f 27/153/3 68/151/3 26/150/3
f 41/121/3 102/108/3 29/106/3
f 42/123/3 102/108/3 41/121/3
f 114/126/3 69/114/3 32/112/3
f 44/16/3 69/114/3 114/126/3
f 70/128/3 37/12/3 35/11/3
f 123/130/3 37/12/3 70/128/3
f 99/34/4 2/3/4 71/64/4
f 71/64/4 2/3/4 72/62/4
f 115/29/4 73/39/4 116/30/4
f 116/30/4 73/39/4 74/70/4
f 75/41/4 7/43/4 18/6/4
f 18/6/4 7/43/4 16/4/4
f 16/4/4 7/43/4 124/154/4
f 9/51/4 10/53/4 76/91/4
f 10/55/4 132/57/4 77/97/4
f 76/91/4 10/53/4 77/89/4
f 77/97/4 132/57/4 23/95/4
f 23/95/4 78/23/4 79/22/4
f 79/155/4 80/156/4 133/157/4
f 133/157/4 80/156/4 81/158/4
f 82/109/4 106/27/4 83/122/4
f 83/122/4 106/27/4 105/26/4
f 119/115/4 84/117/4 43/17/4
f 43/17/4 84/117/4 45/18/4
f 38/13/4 40/15/4 46/129/4
f 46/129/4 40/15/4 85/131/4
f 4/2/4 117/31/4 86/65/4
f 86/65/4 117/31/4 118/32/4
f 87/45/4 88/49/4 129/159/4
f 17/5/4 89/76/4 111/160/4
f 89/82/4 125/84/4 90/161/4
f 111/160/4 89/76/4 90/162/4
f 22/96/4 91/98/4 92/163/4
f 129/90/4 22/92/4 92/164/4
f 92/163/4 91/98/4 134/165/4
f 100/63/4 86/65/4 31/110/4
f 86/65/4 118/32/4 31/110/4
f 118/32/4 120/71/4 31/110/4
f 31/110/4 120/71/4 104/25/4
f 104/25/4 120/71/4 34/116/4
f 34/116/4 120/71/4 121/118/4
f 111/166/4 90/161/4 39/14/4
f 90/161/4 125/84/4 93/120/4
f 39/14/4 90/161/4 93/120/4
f 92/164/4 134/167/4 94/168/4
f 129/90/4 92/164/4 94/168/4
f 87/45/4 129/159/4 94/169/4
f 94/168/4 134/167/4 28/170/4
f 104/25/4 34/116/4 107/28/4
f 107/28/4 34/116/4 95/127/4
f 94/169/4 28/102/4 113/133/4
f 28/102/4 96/104/4 113/133/4
f 87/45/4 94/169/4 113/133/4
f 113/133/4 96/104/4 97/135/4
f 98/59/5 54/105/5 55/60/5
f 29/106/5 54/105/5 98/59/5
f 99/34/5 98/59/5 1/35/5
f 99/34/5 29/106/5 98/59/5
f 99/34/5 41/121/5 29/106/5
f 71/64/5 41/121/5 99/34/5
f 82/109/5 41/121/5 71/64/5
f 83/122/5 41/121/5 82/109/5
f 100/63/5 82/109/5 71/64/5
f 31/110/5 82/109/5 100/63/5
f 60/33/5 12/58/5 48/36/5
f 101/61/5 12/58/5 60/33/5
f 102/108/5 103/124/5 30/107/5
f 42/123/5 103/124/5 102/108/5
f 4/2/5 72/62/5 2/3/5
f 86/65/5 72/62/5 4/2/5
f 15/73/5 108/137/5 109/74/5
f 35/11/5 57/119/5 108/142/5
f 75/41/5 15/73/5 110/42/5
f 18/6/5 108/137/5 15/73/5
f 18/6/5 15/73/5 75/41/5
f 38/13/5 70/128/5 35/11/5
f 38/13/5 35/11/5 108/142/5
f 46/129/5 70/128/5 38/13/5
f 17/5/5 108/137/5 18/6/5
f 111/166/5 38/13/5 108/142/5
f 111/160/5 108/137/5 17/5/5
f 39/14/5 38/13/5 111/166/5
f 87/45/5 112/132/5 8/46/5
f 113/133/5 112/132/5 87/45/5
f 3/1/6 14/68/6 62/37/6
f 62/37/6 14/68/6 61/67/6
f 56/111/6 59/125/6 32/112/6
f 32/112/6 59/125/6 114/126/6
f 119/115/6 43/17/6 34/116/6
f 34/116/6 43/17/6 95/127/6
f 13/66/6 33/113/6 63/69/6
f 63/69/6 33/113/6 69/114/6
f 69/114/6 44/16/6 73/39/6
f 5/38/6 63/69/6 73/39/6
f 63/69/6 69/114/6 73/39/6
f 73/39/6 44/16/6 74/70/6
f 74/70/6 44/16/6 84/117/6
f 84/117/6 44/16/6 45/18/6
f 74/70/6 84/117/6 120/71/6
f 120/71/6 84/117/6 121/118/6
f 122/77/6 36/10/6 19/80/6
f 19/80/6 36/10/6 37/12/6
f 6/40/6 19/147/6 7/43/6
f 37/12/6 123/130/6 124/81/6
f 7/43/6 19/147/6 124/154/6
f 19/80/6 37/12/6 124/81/6
f 124/81/6 123/130/6 40/15/6
f 40/15/6 123/130/6 85/131/6
f 124/81/6 40/15/6 125/84/6
f 125/84/6 40/15/6 93/120/6
f 126/44/6 20/136/6 127/47/6
f 127/47/6 20/136/6 128/171/6
f 9/48/6 76/172/6 88/49/6
f 88/49/6 76/172/6 129/159/6
f 52/20/6 130/141/6 66/94/6
f 130/144/6 131/146/6 67/152/6
f 66/94/6 130/141/6 67/148/6
f 67/152/6 131/146/6 26/150/6
f 11/54/6 66/94/6 132/57/6
f 132/57/6 66/94/6 23/95/6
f 23/95/6 79/22/6 91/98/6
f 79/155/6 133/157/6 134/167/6
f 91/98/6 79/22/6 134/165/6
f 134/167/6 133/157/6 28/170/6
f 25/9/6 47/134/6 27/7/6
f 24/99/6 68/149/6 78/23/6
f 68/151/6 27/153/6 80/156/6
f 78/23/6 68/149/6 80/24/6
f 27/7/6 47/134/6 81/101/6
f 80/156/6 27/153/6 81/158/6
f 81/101/6 47/134/6 96/104/6
f 96/104/6 47/134/6 97/135/6
