# Blender v2.79 (sub 0) OBJ File: 'Knight.blend'
# www.blender.org
mtllib KnightLeg.mtl
o Knight.003
v -2.000030 0.428652 0.238096
v -2.000030 0.428652 -1.761904
v -2.000030 1.428652 0.238096
v -0.999727 5.429265 0.238097
v -0.999727 2.429265 0.238096
v -1.000030 -0.571670 2.238096
v -1.000030 -3.571669 -1.761905
v -1.000030 0.428652 0.238096
v -1.000030 -0.571348 -2.761904
v -1.000030 1.428652 0.238096
v -1.000030 1.428652 -1.761904
v -1.000030 2.428652 0.238096
v -1.000030 2.428652 -2.761904
v 1.000273 2.429265 0.238096
v 0.999970 -3.571670 4.238096
v 0.999970 -1.571670 4.238096
v 0.999970 -1.571670 3.238095
v 0.999970 -0.571670 1.238096
v 0.999970 -0.571669 -1.761904
v 0.999970 -0.571348 0.238096
v 0.999970 0.428652 0.238096
v 0.999970 -0.571348 -2.761904
v 0.999970 1.428652 0.238096
v 0.999970 1.428652 -1.761904
v 0.999970 2.428652 -2.761904
v 1.999970 -3.571670 3.238095
v 1.999970 -3.571669 -1.761905
v 1.999970 -1.571670 3.238095
v 1.999970 -0.571670 1.238096
v 1.999970 -0.571348 0.238096
v 1.999970 0.428652 0.238096
v 1.999970 0.428652 -1.761904
v 1.999970 1.428652 0.238096
v 1.999970 1.428652 -1.761904
v 1.999970 2.428652 0.238096
v -1.000030 -1.571670 4.238096
v -2.000030 -1.571670 3.238095
v 0.999970 -1.571670 2.238095
v -1.000030 -1.571670 2.238095
v 0.999970 -0.571670 2.238096
v -1.000030 -1.571670 1.238095
v -2.000030 -1.571670 1.238095
v 0.999970 -0.571348 1.238096
v 0.999970 2.428652 1.238096
v 1.999970 -1.571670 1.238095
v -2.000030 -0.571348 0.238096
v 1.000273 5.429265 0.238097
v 0.999970 2.428652 0.238096
v -2.000030 -0.571669 -1.761904
v -1.000030 -0.571669 -1.761904
v -2.000030 -0.571348 -1.761904
v -2.000030 1.428652 -1.761904
v -1.000030 0.428652 -1.761904
v 1.000273 5.429265 -1.761903
v 0.999970 -3.571669 -1.761905
v 1.999970 -0.571669 -1.761904
v 0.999970 0.428652 -1.761904
v 1.999970 -0.571348 -1.761904
v 0.999970 2.428652 -1.761904
v 1.999970 2.428652 -1.761904
v -1.000030 -3.571669 -2.761905
v 0.999970 -3.571669 -2.761905
v 0.999970 -0.571669 -2.761904
v -1.000030 -3.571670 3.238095
v -1.000030 -3.571670 4.238096
v 0.999970 -3.571670 3.238095
v -2.000030 -3.571669 -1.761905
v -2.000030 -3.571670 3.238095
v -1.000030 -0.571348 0.238096
v -1.000030 -0.571348 1.238096
v -1.000030 -0.571348 -1.761904
v 0.999970 -0.571348 -1.761904
v -0.999727 2.429265 -1.761904
v 1.000273 2.429265 -1.761904
v -1.000030 -1.571670 3.238095
v 0.999970 -1.571670 1.238095
v -1.000030 -0.571670 1.238096
v -2.000030 -0.571670 1.238096
v -1.000030 -0.571669 -2.761904
v -1.000030 2.428652 1.238096
v -2.000030 2.428652 0.238096
v -2.000030 2.428652 -1.761904
v -1.000030 2.428652 -1.761904
v -0.999727 5.429265 -1.761903
vt 0.068359 0.500000
vt 0.068359 0.500000
vt 0.068359 0.500000
vt 0.982422 0.500000
vt 0.982422 0.500000
vt 0.982422 0.500000
vt 0.068359 0.500000
vt 0.068359 0.500000
vt 0.068359 0.500000
vt 0.068359 0.500000
vt 0.064453 0.500000
vt 0.064453 0.500000
vt 0.064453 0.500000
vt 0.982422 0.500000
vt 0.982422 0.500000
vt 0.982422 0.500000
vt 0.982422 0.500000
vt 0.982422 0.500000
vt 0.982422 0.500000
vt 0.982422 0.500000
vt 0.982422 0.500000
vt 0.064453 0.500000
vt 0.064453 0.500000
vt 0.064453 0.500000
vt 0.064453 0.500000
vt 0.068359 0.500000
vt 0.064453 0.500000
vt 0.064453 0.500000
vt 0.064453 0.500000
vt 0.064453 0.500000
vt 0.962891 0.500000
vt 0.962891 0.500000
vt 0.962891 0.500000
vt 0.962891 0.500000
vt 0.982422 0.500000
vt 0.982422 0.500000
vt 0.982422 0.500000
vt 0.982422 0.500000
vt 0.982422 0.500000
vt 0.982422 0.500000
vt 0.982422 0.500000
vt 0.982422 0.500000
vt 0.982422 0.500000
vt 0.982422 0.500000
vt 0.982422 0.500000
vt 0.068359 0.500000
vt 0.068359 0.500000
vt 0.068359 0.500000
vt 0.068359 0.500000
vt 0.068359 0.500000
vt 0.068359 0.500000
vt 0.068359 0.500000
vt 0.068359 0.500000
vt 0.068359 0.500000
vt 0.068359 0.500000
vt 0.068359 0.500000
vt 0.068359 0.500000
vt 0.962891 0.500000
vt 0.962891 0.500000
vt 0.962891 0.500000
vt 0.962891 0.500000
vt 0.982422 0.500000
vt 0.982422 0.500000
vt 0.982422 0.500000
vt 0.982422 0.500000
vt 0.982422 0.500000
vt 0.982422 0.500000
vt 0.982422 0.500000
vt 0.982422 0.500000
vt 0.982422 0.500000
vt 0.982422 0.500000
vt 0.982422 0.500000
vt 0.068359 0.500000
vt 0.068359 0.500000
vt 0.068359 0.500000
vt 0.068359 0.500000
vt 0.068359 0.500000
vt 0.068359 0.500000
vt 0.068359 0.500000
vt 0.068359 0.500000
vt 0.068359 0.500000
vt 0.068359 0.500000
vt 0.068359 0.500000
vt 0.068359 0.500000
vt 0.982422 0.500000
vt 0.982422 0.500000
vt 0.982422 0.500000
vt 0.064453 0.500000
vt 0.064453 0.500000
vt 0.064453 0.500000
vt 0.064453 0.500000
vt 0.064453 0.500000
vt 0.064453 0.500000
vt 0.064453 0.500000
vt 0.064453 0.500000
vt 0.064453 0.500000
vt 0.064453 0.500000
vt 0.064453 0.500000
vt 0.064453 0.500000
vt 0.064453 0.500000
vt 0.064453 0.500000
vt 0.064453 0.500000
vt 0.064453 0.500000
vt 0.064453 0.500000
vt 0.064453 0.500000
vt 0.064453 0.500000
vt 0.064453 0.500000
vt 0.064453 0.500000
vn -1.0000 0.0000 0.0000
vn 1.0000 0.0000 0.0000
vn 0.0000 -1.0000 -0.0000
vn 0.0000 0.0000 1.0000
vn 0.0000 0.0000 -1.0000
vn 0.0000 1.0000 0.0000
usemtl palette
s off
f 3/1/1 2/2/1 1/3/1
f 26/4/2 27/5/2 28/6/2
f 31/7/2 32/8/2 33/9/2
f 33/9/2 32/8/2 34/10/2
f 33/11/2 34/12/2 35/13/2
f 67/14/3 66/15/3 64/16/3
f 67/14/3 64/16/3 68/17/3
f 37/18/1 67/14/1 68/17/1
f 42/19/1 67/14/1 37/18/1
f 78/20/1 67/14/1 42/19/1
f 49/21/1 67/14/1 78/20/1
f 1/22/1 51/23/1 46/24/1
f 2/25/1 51/23/1 1/22/1
f 52/26/1 2/2/1 3/1/1
f 81/27/1 52/28/1 3/29/1
f 82/30/1 52/28/1 81/27/1
f 4/31/1 73/32/1 5/33/1
f 84/34/1 73/32/1 4/31/1
f 36/35/1 64/16/1 65/36/1
f 75/37/1 64/16/1 36/35/1
f 6/38/1 41/39/1 39/40/1
f 77/41/1 41/39/1 6/38/1
f 50/42/1 61/43/1 7/44/1
f 79/45/1 61/43/1 50/42/1
f 8/46/1 69/47/1 70/48/1
f 53/49/1 9/50/1 71/51/1
f 10/52/1 8/46/1 70/48/1
f 11/53/1 9/50/1 53/49/1
f 80/54/1 10/52/1 70/48/1
f 12/55/1 10/52/1 80/54/1
f 83/56/1 9/50/1 11/53/1
f 13/57/1 9/50/1 83/56/1
f 14/58/2 74/59/2 47/60/2
f 47/60/2 74/59/2 54/61/2
f 15/62/2 66/15/2 16/63/2
f 16/63/2 66/15/2 17/64/2
f 38/65/2 76/66/2 40/67/2
f 40/67/2 76/66/2 18/68/2
f 55/69/2 62/70/2 19/71/2
f 19/71/2 62/70/2 63/72/2
f 43/73/2 20/74/2 21/75/2
f 72/76/2 22/77/2 57/78/2
f 43/73/2 21/75/2 23/79/2
f 57/78/2 22/77/2 24/80/2
f 43/73/2 23/79/2 44/81/2
f 44/81/2 23/79/2 48/82/2
f 24/80/2 22/77/2 59/83/2
f 59/83/2 22/77/2 25/84/2
f 28/6/2 27/5/2 45/85/2
f 45/85/2 27/5/2 29/86/2
f 29/86/2 27/5/2 56/87/2
f 30/88/2 58/89/2 31/90/2
f 31/90/2 58/89/2 32/91/2
f 35/13/2 34/12/2 60/92/2
f 15/62/4 36/35/4 65/36/4
f 16/63/4 36/35/4 15/62/4
f 64/16/4 37/18/4 68/17/4
f 75/37/4 37/18/4 64/16/4
f 26/4/4 17/64/4 66/15/4
f 28/6/4 17/64/4 26/4/4
f 38/65/4 6/38/4 39/40/4
f 40/67/4 6/38/4 38/65/4
f 41/39/4 78/20/4 42/19/4
f 77/41/4 78/20/4 41/39/4
f 43/73/4 80/54/4 70/48/4
f 44/81/4 80/54/4 43/73/4
f 45/85/4 18/68/4 76/66/4
f 29/86/4 18/68/4 45/85/4
f 69/93/4 1/22/4 46/24/4
f 8/46/4 3/1/4 1/3/4
f 8/94/4 1/22/4 69/93/4
f 10/95/4 81/27/4 3/29/4
f 10/52/4 3/1/4 8/46/4
f 12/96/4 81/27/4 10/95/4
f 14/58/4 4/31/4 5/33/4
f 47/60/4 4/31/4 14/58/4
f 30/88/4 21/97/4 20/98/4
f 31/7/4 23/79/4 21/75/4
f 31/90/4 21/97/4 30/88/4
f 33/11/4 48/99/4 23/100/4
f 33/9/4 23/79/4 31/7/4
f 35/13/4 48/99/4 33/11/4
f 67/14/5 49/21/5 7/44/5
f 7/44/5 49/21/5 50/42/5
f 51/23/5 2/25/5 71/101/5
f 2/2/5 52/26/5 53/49/5
f 71/101/5 2/25/5 53/102/5
f 52/28/5 82/30/5 11/103/5
f 53/49/5 52/26/5 11/53/5
f 11/103/5 82/30/5 83/104/5
f 73/32/5 84/34/5 74/59/5
f 74/59/5 84/34/5 54/61/5
f 55/69/5 19/71/5 27/5/5
f 27/5/5 19/71/5 56/87/5
f 72/105/5 57/106/5 58/89/5
f 57/78/5 24/80/5 32/8/5
f 58/89/5 57/106/5 32/91/5
f 24/107/5 59/108/5 34/12/5
f 32/8/5 24/80/5 34/10/5
f 34/12/5 59/108/5 60/92/5
f 61/43/5 79/45/5 62/70/5
f 62/70/5 79/45/5 63/72/5
f 9/50/5 13/57/5 22/77/5
f 22/77/5 13/57/5 25/84/5
f 64/16/3 15/62/3 65/36/3
f 66/15/3 15/62/3 64/16/3
f 67/14/3 26/4/3 66/15/3
f 7/44/3 26/4/3 67/14/3
f 55/69/3 26/4/3 7/44/3
f 27/5/3 26/4/3 55/69/3
f 61/43/3 55/69/3 7/44/3
f 62/70/3 55/69/3 61/43/3
f 69/47/3 43/73/3 70/48/3
f 20/74/3 43/73/3 69/47/3
f 51/23/3 69/93/3 46/24/3
f 71/51/3 20/74/3 69/47/3
f 71/101/3 69/93/3 51/23/3
f 72/105/3 30/88/3 20/98/3
f 72/76/3 20/74/3 71/51/3
f 58/89/3 30/88/3 72/105/3
f 9/50/3 72/76/3 71/51/3
f 22/77/3 72/76/3 9/50/3
f 73/32/3 14/58/3 5/33/3
f 74/59/3 14/58/3 73/32/3
f 36/35/6 16/63/6 75/37/6
f 75/37/6 16/63/6 17/64/6
f 17/64/6 28/6/6 39/40/6
f 75/37/6 17/64/6 39/40/6
f 37/18/6 75/37/6 39/40/6
f 39/40/6 28/6/6 38/65/6
f 37/18/6 39/40/6 42/19/6
f 42/19/6 39/40/6 41/39/6
f 38/65/6 28/6/6 76/66/6
f 76/66/6 28/6/6 45/85/6
f 6/38/6 40/67/6 77/41/6
f 77/41/6 40/67/6 18/68/6
f 18/68/6 29/86/6 49/21/6
f 77/41/6 18/68/6 49/21/6
f 78/20/6 77/41/6 49/21/6
f 49/21/6 29/86/6 50/42/6
f 50/42/6 29/86/6 19/71/6
f 19/71/6 29/86/6 56/87/6
f 50/42/6 19/71/6 79/45/6
f 79/45/6 19/71/6 63/72/6
f 80/54/6 44/81/6 12/55/6
f 12/55/6 44/81/6 48/82/6
f 81/27/6 12/96/6 82/30/6
f 12/55/6 48/82/6 83/56/6
f 82/30/6 12/96/6 83/104/6
f 48/99/6 35/13/6 59/108/6
f 83/56/6 48/82/6 59/83/6
f 59/108/6 35/13/6 60/92/6
f 83/56/6 59/83/6 13/57/6
f 13/57/6 59/83/6 25/84/6
f 4/31/6 47/60/6 84/34/6
f 84/34/6 47/60/6 54/61/6
