# Blender v2.79 (sub 0) OBJ File: 'Mage.blend'
# www.blender.org
mtllib MageTorso.mtl
o Mage.004
v -4.015874 2.444443 1.134921
v -4.015874 0.444444 1.134920
v -4.015874 2.444444 -1.865079
v -4.015874 2.444444 -2.865079
v -4.015874 3.444444 0.134921
v -4.015874 3.444444 -1.865079
v -3.015874 -2.555556 0.134920
v -3.015874 -2.555557 1.134920
v -3.015874 0.444444 0.134920
v -3.015874 0.444444 -2.865080
v -3.015874 3.444443 1.134921
v -3.015874 3.444444 0.134921
v -3.015874 3.444444 -2.865079
v -2.015874 -3.555556 0.134920
v -2.015874 -3.555556 -2.865080
v -2.015874 -1.555556 1.134920
v -2.015874 2.444443 1.134921
v -2.015874 3.444443 2.134921
v -1.015874 -4.555556 -2.865080
v -1.015874 -0.555557 2.134920
v -1.015874 1.444443 2.134921
v -0.015874 3.444443 3.134921
v -0.015874 3.444443 2.134921
v -0.015874 -0.555557 2.134920
v 0.984126 -2.555557 2.134920
v 0.984126 -2.555557 1.134920
v 0.984126 -1.555556 1.134920
v 0.984126 1.444443 2.134921
v 0.984126 3.444443 2.134921
v 1.984126 -2.555557 1.134920
v 1.984126 -3.555556 -2.865080
v 1.984126 -1.555556 1.134920
v 1.984126 2.444443 2.134921
v 2.984126 -3.555556 0.134920
v 2.984126 -2.555556 0.134920
v 2.984126 -0.555556 0.134920
v 2.984126 -0.555556 -1.865080
v 2.984126 3.444444 -2.865079
v 3.984126 0.444444 0.134920
v 3.984126 0.444444 -1.865080
v 3.984126 2.444443 1.134921
v 3.984126 2.444444 -1.865079
v 3.984126 3.444444 0.134921
v -1.015874 1.444443 3.134921
v -1.015874 -0.555557 3.134920
v 0.984126 1.444443 3.134921
v 0.984126 3.444443 3.134921
v -2.015874 2.444443 2.134921
v -2.015874 -1.555557 2.134920
v -1.015874 -2.555557 2.134920
v -0.015874 1.444443 2.134921
v -0.015874 2.444443 2.134921
v 0.984126 -1.555557 2.134920
v 0.984126 2.444443 2.134921
v 1.984126 3.444443 2.134921
v -3.015874 0.444444 1.134920
v -3.015874 2.444443 1.134921
v -2.015874 -2.555557 1.134920
v -2.015874 3.444443 1.134921
v -1.015874 -3.555557 1.134920
v -1.015874 -1.555556 1.134920
v 0.984126 -3.555557 1.134920
v 1.984126 -3.555557 1.134920
v 2.984126 -2.555557 1.134920
v 1.984126 2.444443 1.134921
v 2.984126 3.444443 1.134921
v 3.984126 0.444444 1.134920
v -3.015874 -0.555556 0.134920
v -4.015874 0.444444 0.134920
v -4.015874 -0.555556 0.134920
v -4.015874 2.444444 0.134921
v 3.984126 2.444444 0.134921
v 2.984126 3.444444 0.134921
v -4.015874 -0.555556 -1.865080
v -4.015874 0.444444 -1.865080
v -3.015874 -0.555556 -1.865080
v -3.015874 0.444444 -1.865080
v -3.015874 2.444444 -1.865079
v -3.015874 3.444444 -1.865079
v -3.015874 -3.555556 -1.865080
v -2.015874 -2.555556 -1.865080
v 1.984126 -2.555556 -1.865080
v 2.984126 -2.555556 -1.865080
v 2.984126 0.444444 -1.865080
v 3.984126 -0.555556 -1.865080
v 2.984126 2.444444 -1.865079
v 2.984126 3.444444 -1.865079
v -4.015874 0.444444 -2.865080
v -3.015874 2.444444 -2.865079
v -2.015874 -2.555556 -2.865080
v -1.015874 -3.555556 -2.865080
v 0.984126 -4.555556 -2.865080
v 0.984126 -3.555556 -2.865080
v 1.984126 -2.555556 -2.865080
v 3.984126 0.444444 -2.865080
v 3.984126 2.444444 -2.865079
v 0.984126 -4.555556 1.134920
v -1.015874 -4.555556 1.134920
v -2.015874 -3.555557 1.134920
v 1.984126 -3.555556 0.134920
v -3.015874 -3.555556 0.134920
v -2.015874 -3.555556 -1.865080
v 1.984126 -3.555556 -1.865080
v 2.984126 -3.555556 -1.865080
v -1.015874 -2.555557 1.134920
v -2.015874 -2.555556 0.134920
v 1.984126 -2.555556 0.134920
v -3.015874 -2.555556 -2.865080
v -3.015874 -2.555556 -1.865080
v 2.984126 -2.555556 -2.865080
v -1.015874 -1.555557 2.134920
v 1.984126 -1.555557 2.134920
v -0.015874 -0.555557 3.134920
v 3.984126 -0.555556 0.134920
v 2.984126 0.444444 0.134920
v 2.984126 0.444444 1.134920
v 2.984126 0.444444 -2.865080
v -0.015874 1.444443 3.134921
v -3.015874 2.444444 0.134921
v 2.984126 2.444443 1.134921
v 2.984126 2.444444 0.134921
v 2.984126 2.444444 -2.865079
v -0.015874 3.444443 1.134921
v 0.984126 3.444443 1.134921
v 1.984126 3.444443 1.134921
v 3.984126 3.444444 -1.865079
vt 0.560547 0.500000
vt 0.560547 0.500000
vt 0.560547 0.500000
vt 0.560547 0.500000
vt 0.560547 0.500000
vt 0.560547 0.500000
vt 0.560547 0.500000
vt 0.560547 0.500000
vt 0.560547 0.500000
vt 0.560547 0.500000
vt 0.560547 0.500000
vt 0.560547 0.500000
vt 0.560547 0.500000
vt 0.560547 0.500000
vt 0.560547 0.500000
vt 0.560547 0.500000
vt 0.560547 0.500000
vt 0.560547 0.500000
vt 0.560547 0.500000
vt 0.560547 0.500000
vt 0.560547 0.500000
vt 0.560547 0.500000
vt 0.560547 0.500000
vt 0.560547 0.500000
vt 0.560547 0.500000
vt 0.560547 0.500000
vt 0.560547 0.500000
vt 0.560547 0.500000
vt 0.560547 0.500000
vt 0.560547 0.500000
vt 0.560547 0.500000
vt 0.560547 0.500000
vt 0.560547 0.500000
vt 0.560547 0.500000
vt 0.560547 0.500000
vt 0.560547 0.500000
vt 0.560547 0.500000
vt 0.560547 0.500000
vt 0.560547 0.500000
vt 0.560547 0.500000
vt 0.560547 0.500000
vt 0.560547 0.500000
vt 0.560547 0.500000
vt 0.560547 0.500000
vt 0.560547 0.500000
vt 0.560547 0.500000
vt 0.560547 0.500000
vt 0.560547 0.500000
vt 0.560547 0.500000
vt 0.560547 0.500000
vt 0.560547 0.500000
vt 0.560547 0.500000
vt 0.556641 0.500000
vt 0.556641 0.500000
vt 0.556641 0.500000
vt 0.556641 0.500000
vt 0.560547 0.500000
vt 0.560547 0.500000
vt 0.560547 0.500000
vt 0.560547 0.500000
vt 0.560547 0.500000
vt 0.560547 0.500000
vt 0.560547 0.500000
vt 0.091797 0.500000
vt 0.091797 0.500000
vt 0.091797 0.500000
vt 0.091797 0.500000
vt 0.091797 0.500000
vt 0.091797 0.500000
vt 0.091797 0.500000
vt 0.091797 0.500000
vt 0.091797 0.500000
vt 0.091797 0.500000
vt 0.091797 0.500000
vt 0.560547 0.500000
vt 0.560547 0.500000
vt 0.560547 0.500000
vt 0.560547 0.500000
vt 0.560547 0.500000
vt 0.560547 0.500000
vt 0.091797 0.500000
vt 0.091797 0.500000
vt 0.091797 0.500000
vt 0.091797 0.500000
vt 0.091797 0.500000
vt 0.560547 0.500000
vt 0.560547 0.500000
vt 0.560547 0.500000
vt 0.560547 0.500000
vt 0.560547 0.500000
vt 0.560547 0.500000
vt 0.560547 0.500000
vt 0.560547 0.500000
vt 0.560547 0.500000
vt 0.560547 0.500000
vt 0.560547 0.500000
vt 0.560547 0.500000
vt 0.556641 0.500000
vt 0.556641 0.500000
vt 0.556641 0.500000
vt 0.556641 0.500000
vt 0.560547 0.500000
vt 0.560547 0.500000
vt 0.560547 0.500000
vt 0.560547 0.500000
vt 0.560547 0.500000
vt 0.560547 0.500000
vt 0.560547 0.500000
vt 0.560547 0.500000
vt 0.560547 0.500000
vt 0.560547 0.500000
vt 0.560547 0.500000
vt 0.560547 0.500000
vt 0.560547 0.500000
vt 0.560547 0.500000
vt 0.560547 0.500000
vt 0.560547 0.500000
vt 0.560547 0.500000
vt 0.560547 0.500000
vt 0.560547 0.500000
vt 0.560547 0.500000
vt 0.560547 0.500000
vt 0.560547 0.500000
vt 0.560547 0.500000
vt 0.560547 0.500000
vt 0.560547 0.500000
vt 0.560547 0.500000
vt 0.560547 0.500000
vt 0.560547 0.500000
vt 0.560547 0.500000
vt 0.560547 0.500000
vt 0.560547 0.500000
vt 0.560547 0.500000
vt 0.556641 0.500000
vt 0.556641 0.500000
vt 0.560547 0.500000
vt 0.560547 0.500000
vt 0.556641 0.500000
vt 0.556641 0.500000
vt 0.560547 0.500000
vt 0.560547 0.500000
vt 0.560547 0.500000
vt 0.560547 0.500000
vt 0.560547 0.500000
vt 0.556641 0.500000
vt 0.556641 0.500000
vt 0.560547 0.500000
vn -1.0000 0.0000 0.0000
vn 1.0000 0.0000 0.0000
vn 0.0000 -0.0000 1.0000
vn 0.0000 0.0000 -1.0000
vn 0.0000 -1.0000 0.0000
vn 0.0000 1.0000 0.0000
usemtl palette.003
s off
f 6/1/1 3/2/1 5/3/1
f 39/4/2 40/5/2 41/6/2
f 52/7/3 48/8/3 51/9/3
f 58/10/3 57/11/3 56/12/3
f 68/13/3 69/14/3 70/15/3
f 74/16/4 75/17/4 76/18/4
f 76/18/4 75/17/4 77/19/4
f 91/20/4 90/21/4 93/22/4
f 92/23/4 91/20/4 93/22/4
f 69/14/1 74/16/1 70/15/1
f 75/17/1 74/16/1 69/14/1
f 1/24/1 75/17/1 69/14/1
f 1/24/1 88/25/1 75/17/1
f 1/24/1 69/14/1 2/26/1
f 71/27/1 88/25/1 1/24/1
f 3/2/1 88/25/1 71/27/1
f 4/28/1 88/25/1 3/2/1
f 5/3/1 3/2/1 71/27/1
f 7/29/1 80/30/1 101/31/1
f 109/32/1 80/30/1 7/29/1
f 68/13/1 7/29/1 8/33/1
f 68/13/1 108/34/1 109/32/1
f 68/13/1 109/32/1 7/29/1
f 76/18/1 108/34/1 68/13/1
f 56/12/1 68/13/1 8/33/1
f 9/35/1 68/13/1 56/12/1
f 77/19/1 108/34/1 76/18/1
f 10/36/1 108/34/1 77/19/1
f 11/37/1 119/38/1 57/11/1
f 12/39/1 119/38/1 11/37/1
f 79/40/1 89/41/1 78/42/1
f 13/43/1 89/41/1 79/40/1
f 58/10/1 14/44/1 99/45/1
f 106/46/1 14/44/1 58/10/1
f 81/47/1 15/48/1 102/49/1
f 90/21/1 15/48/1 81/47/1
f 48/8/1 16/50/1 49/51/1
f 17/52/1 16/50/1 48/8/1
f 18/53/1 17/54/1 48/55/1
f 59/56/1 17/54/1 18/53/1
f 60/57/1 19/58/1 98/59/1
f 91/20/1 19/58/1 60/57/1
f 111/60/1 105/61/1 50/62/1
f 61/63/1 105/61/1 111/60/1
f 44/64/1 20/65/1 45/66/1
f 21/67/1 20/65/1 44/64/1
f 52/68/1 51/69/1 118/70/1
f 22/71/1 52/68/1 118/70/1
f 23/72/1 52/68/1 22/71/1
f 113/73/2 24/74/2 118/70/2
f 118/70/2 24/74/2 51/69/2
f 97/75/2 92/23/2 62/76/2
f 62/76/2 92/23/2 93/22/2
f 25/77/2 26/78/2 53/79/2
f 53/79/2 26/78/2 27/80/2
f 46/81/2 28/82/2 54/83/2
f 46/81/2 54/83/2 47/84/2
f 47/84/2 54/83/2 29/85/2
f 63/86/2 100/87/2 30/88/2
f 30/88/2 100/87/2 107/89/2
f 103/90/2 31/91/2 82/92/2
f 82/92/2 31/91/2 94/93/2
f 112/94/2 32/95/2 33/96/2
f 33/96/2 32/95/2 65/97/2
f 33/98/2 65/99/2 55/100/2
f 55/100/2 65/99/2 125/101/2
f 34/102/2 104/103/2 35/104/2
f 35/104/2 104/103/2 83/105/2
f 64/106/2 35/104/2 36/107/2
f 83/105/2 110/108/2 36/107/2
f 35/104/2 83/105/2 36/107/2
f 36/107/2 110/108/2 37/109/2
f 64/106/2 36/107/2 116/110/2
f 116/110/2 36/107/2 115/111/2
f 37/109/2 110/108/2 84/112/2
f 84/112/2 110/108/2 117/113/2
f 120/114/2 121/115/2 66/116/2
f 66/116/2 121/115/2 73/117/2
f 86/118/2 122/119/2 87/120/2
f 87/120/2 122/119/2 38/121/2
f 114/122/2 85/123/2 39/4/2
f 39/4/2 85/123/2 40/5/2
f 40/5/2 95/124/2 41/6/2
f 67/125/2 39/4/2 41/6/2
f 41/6/2 95/124/2 72/126/2
f 72/126/2 95/124/2 42/127/2
f 42/127/2 95/124/2 96/128/2
f 72/126/2 42/127/2 43/129/2
f 43/129/2 42/127/2 126/130/2
f 113/73/3 44/64/3 45/66/3
f 118/70/3 44/64/3 113/73/3
f 46/81/3 22/71/3 118/70/3
f 47/84/3 22/71/3 46/81/3
f 111/60/3 48/8/3 49/51/3
f 20/131/3 48/8/3 111/60/3
f 21/132/3 48/8/3 20/131/3
f 24/133/3 111/60/3 50/62/3
f 24/133/3 20/131/3 111/60/3
f 51/9/3 48/8/3 21/132/3
f 52/134/3 18/53/3 48/55/3
f 23/135/3 18/53/3 52/134/3
f 25/77/3 51/9/3 24/133/3
f 25/77/3 24/133/3 50/62/3
f 53/79/3 51/9/3 25/77/3
f 28/136/3 51/9/3 53/79/3
f 112/94/3 54/137/3 28/136/3
f 112/94/3 28/136/3 53/79/3
f 33/98/3 29/138/3 54/139/3
f 33/96/3 54/137/3 112/94/3
f 55/100/3 29/138/3 33/98/3
f 56/12/3 1/24/3 2/26/3
f 57/11/3 1/24/3 56/12/3
f 58/10/3 11/37/3 57/11/3
f 58/10/3 56/12/3 8/33/3
f 16/50/3 11/37/3 58/10/3
f 17/52/3 11/37/3 16/50/3
f 59/140/3 11/37/3 17/52/3
f 60/57/3 16/50/3 58/10/3
f 60/57/3 58/10/3 99/45/3
f 105/61/3 16/50/3 60/57/3
f 61/63/3 16/50/3 105/61/3
f 97/75/3 60/57/3 98/59/3
f 97/75/3 105/61/3 60/57/3
f 62/76/3 105/61/3 97/75/3
f 26/78/3 105/61/3 62/76/3
f 63/86/3 27/80/3 26/78/3
f 63/86/3 26/78/3 62/76/3
f 30/88/3 27/80/3 63/86/3
f 32/95/3 27/80/3 30/88/3
f 64/106/3 32/95/3 30/88/3
f 64/106/3 125/141/3 65/97/3
f 64/106/3 65/97/3 32/95/3
f 116/110/3 125/141/3 64/106/3
f 120/114/3 125/141/3 116/110/3
f 66/116/3 125/141/3 120/114/3
f 67/125/3 120/114/3 116/110/3
f 41/6/3 120/114/3 67/125/3
f 9/35/3 69/14/3 68/13/3
f 119/38/3 5/3/3 71/27/3
f 12/39/3 5/3/3 119/38/3
f 14/44/3 7/29/3 101/31/3
f 106/46/3 7/29/3 14/44/3
f 34/102/3 107/89/3 100/87/3
f 35/104/3 107/89/3 34/102/3
f 114/122/3 115/111/3 36/107/3
f 39/4/3 115/111/3 114/122/3
f 72/126/3 73/117/3 121/115/3
f 43/129/3 73/117/3 72/126/3
f 3/2/4 6/1/4 78/42/4
f 78/42/4 6/1/4 79/40/4
f 80/30/4 109/32/4 102/49/4
f 102/49/4 109/32/4 81/47/4
f 103/90/4 82/92/4 104/103/4
f 104/103/4 82/92/4 83/105/4
f 37/109/4 84/112/4 85/123/4
f 85/123/4 84/112/4 40/5/4
f 86/118/4 87/120/4 42/127/4
f 42/127/4 87/120/4 126/130/4
f 88/25/4 4/28/4 10/36/4
f 10/36/4 4/28/4 89/41/4
f 89/41/4 13/43/4 90/21/4
f 108/34/4 10/36/4 90/21/4
f 10/36/4 89/41/4 90/21/4
f 15/48/4 90/21/4 91/20/4
f 19/58/4 91/20/4 92/23/4
f 93/22/4 90/21/4 31/91/4
f 90/21/4 13/43/4 94/93/4
f 31/91/4 90/21/4 94/93/4
f 94/93/4 13/43/4 110/108/4
f 110/108/4 13/43/4 117/113/4
f 117/113/4 13/43/4 122/119/4
f 122/119/4 13/43/4 38/121/4
f 117/113/4 122/119/4 95/124/4
f 95/124/4 122/119/4 96/128/4
f 19/58/5 97/75/5 98/59/5
f 92/23/5 97/75/5 19/58/5
f 14/44/5 60/57/5 99/45/5
f 100/87/5 63/86/5 62/76/5
f 80/30/5 14/44/5 101/31/5
f 102/49/5 60/57/5 14/44/5
f 102/49/5 14/44/5 80/30/5
f 103/90/5 34/102/5 100/87/5
f 103/90/5 100/87/5 62/76/5
f 104/103/5 34/102/5 103/90/5
f 15/48/5 60/57/5 102/49/5
f 91/20/5 60/57/5 15/48/5
f 93/22/5 103/90/5 62/76/5
f 31/91/5 103/90/5 93/22/5
f 105/61/5 25/77/5 50/62/5
f 26/78/5 25/77/5 105/61/5
f 7/29/5 58/10/5 8/33/5
f 106/46/5 58/10/5 7/29/5
f 107/89/5 64/106/5 30/88/5
f 35/104/5 64/106/5 107/89/5
f 108/34/5 81/47/5 109/32/5
f 90/21/5 81/47/5 108/34/5
f 94/93/5 83/105/5 82/92/5
f 110/108/5 83/105/5 94/93/5
f 16/50/5 111/60/5 49/51/5
f 61/63/5 111/60/5 16/50/5
f 27/80/5 112/94/5 53/79/5
f 32/95/5 112/94/5 27/80/5
f 20/65/5 113/73/5 45/66/5
f 24/74/5 113/73/5 20/65/5
f 74/16/5 68/13/5 70/15/5
f 76/18/5 68/13/5 74/16/5
f 37/109/5 114/122/5 36/107/5
f 85/123/5 114/122/5 37/109/5
f 69/14/5 56/12/5 2/26/5
f 9/35/5 56/12/5 69/14/5
f 115/111/5 67/125/5 116/110/5
f 39/4/5 67/125/5 115/111/5
f 88/25/5 77/19/5 75/17/5
f 10/36/5 77/19/5 88/25/5
f 117/113/5 40/5/5 84/112/5
f 95/124/5 40/5/5 117/113/5
f 51/69/5 46/81/5 118/70/5
f 28/82/5 46/81/5 51/69/5
f 44/64/6 118/70/6 21/67/6
f 21/67/6 118/70/6 51/69/6
f 1/24/6 57/11/6 71/27/6
f 71/27/6 57/11/6 119/38/6
f 120/114/6 41/6/6 121/115/6
f 121/115/6 41/6/6 72/126/6
f 3/2/6 78/42/6 4/28/6
f 4/28/6 78/42/6 89/41/6
f 86/118/6 42/127/6 122/119/6
f 122/119/6 42/127/6 96/128/6
f 22/71/6 47/84/6 23/72/6
f 23/72/6 47/84/6 29/85/6
f 18/53/6 23/135/6 59/56/6
f 23/142/6 29/143/6 123/144/6
f 59/56/6 23/135/6 123/145/6
f 29/138/6 55/100/6 124/146/6
f 123/144/6 29/143/6 124/147/6
f 124/146/6 55/100/6 125/101/6
f 59/140/6 123/144/6 12/39/6
f 125/141/6 66/116/6 12/39/6
f 124/147/6 125/141/6 12/39/6
f 123/144/6 124/147/6 12/39/6
f 11/37/6 59/140/6 12/39/6
f 12/39/6 66/116/6 73/117/6
f 5/3/6 12/39/6 6/1/6
f 73/117/6 43/129/6 6/1/6
f 12/39/6 73/117/6 6/1/6
f 6/1/6 43/129/6 79/40/6
f 79/40/6 43/129/6 87/120/6
f 87/120/6 43/129/6 126/130/6
f 79/40/6 87/120/6 13/43/6
f 13/43/6 87/120/6 38/121/6
