# Blender v2.79 (sub 0) OBJ File: 'RedSkull.blend'
# www.blender.org
mtllib RedSkullTorso.mtl
o RedSkull.004
v -5.000005 1.166666 2.000000
v -3.000005 -0.833334 2.000000
v -3.000005 -0.833334 1.000000
v -3.000005 -0.833333 -1.000000
v -3.000005 -0.833333 -2.000000
v -3.000005 0.166666 2.000000
v -3.000005 0.166667 -1.000000
v -2.000005 -2.833333 2.000000
v -2.000005 -3.833333 -2.000000
v -2.000005 -1.833334 2.000000
v -2.000005 -1.833333 -2.000000
v -1.000005 -4.833333 -1.000001
v 2.999995 3.166667 -1.999999
v 2.999995 4.166667 -1.999999
v 3.999995 5.166667 1.000001
v -4.000005 4.166667 1.000001
v -4.000005 4.166667 -0.999999
v -3.000005 4.166667 1.000001
v -3.000005 3.166667 -0.999999
v 0.999995 -4.833333 -1.000001
v 1.999995 -2.833333 1.000000
v 1.999995 -2.833333 -1.000000
v 1.999995 -1.833333 -2.000000
v 2.999995 -1.833333 -1.000000
v 2.999995 -0.833334 2.000000
v 2.999995 0.166666 2.000000
v 2.999995 0.166667 -1.000000
v 2.999995 0.166667 -2.000000
v 3.999995 -1.833333 -1.000000
v 3.999995 1.166666 2.000000
v 3.999995 1.166667 1.000000
v 3.999995 1.166667 -1.000000
v 4.999995 4.166666 2.000001
v 4.999995 4.166667 1.000001
v 4.999995 5.166667 -0.999999
v -5.000005 4.166666 2.000001
v -3.000005 1.166666 2.000000
v -3.000005 3.166667 2.000001
v -3.000005 4.166666 2.000001
v -2.000005 -0.833334 2.000000
v -1.000005 -3.833333 2.000000
v -2.000005 -3.833333 2.000000
v -1.000005 -2.833333 2.000000
v 0.999995 -3.833333 2.000000
v 0.999995 -2.833333 2.000000
v 1.999995 -3.833333 2.000000
v 1.999995 -2.833333 2.000000
v 1.999995 -0.833334 2.000000
v 2.999995 -1.833334 2.000000
v 2.999995 1.166666 2.000000
v 3.999995 0.166666 2.000000
v 2.999995 4.166666 2.000001
v -4.000005 0.166666 1.000000
v -5.000005 1.166667 1.000000
v -5.000005 0.166666 1.000000
v -4.000005 1.166667 1.000000
v -5.000005 5.166667 1.000001
v -4.000005 5.166667 1.000001
v -4.000005 -1.833333 1.000000
v -3.000005 0.166666 1.000000
v -2.000005 -3.833333 1.000000
v -3.000005 -3.833333 1.000000
v -2.000005 -2.833333 1.000000
v 0.999995 -4.833333 0.999999
v -1.000005 -3.833333 1.000000
v -1.000005 -4.833333 0.999999
v 1.999995 -1.833333 1.000000
v 1.999995 -3.833333 1.000000
v 2.999995 -1.833333 1.000000
v -3.000005 3.166667 1.000001
v 2.999995 -0.833334 1.000000
v 3.999995 0.166666 1.000000
v 4.999995 1.166667 1.000000
v 4.999995 5.166667 1.000001
v -5.000005 1.166667 -1.000000
v -4.000005 0.166667 -1.000000
v -3.000005 -1.833333 -1.000000
v -3.000005 -3.833333 -1.000000
v -2.000005 -3.833333 -1.000000
v -2.000005 -2.833333 -1.000000
v 1.999995 -1.833333 -1.000000
v -3.000005 4.166667 -0.999999
v 2.999995 3.166667 -0.999999
v 2.999995 4.166667 -0.999999
v 2.999995 -0.833333 -1.000000
v 3.999995 0.166667 -1.000000
v 4.999995 0.166667 -1.000000
v 4.999995 1.166667 -1.000000
v 3.999995 5.166667 -0.999999
v -5.000005 1.166667 -2.000000
v -4.000005 1.166667 -2.000000
v -3.000005 0.166667 -2.000000
v -3.000005 1.166667 -2.000000
v -2.000005 -0.833333 -2.000000
v -2.000005 -2.833333 -2.000000
v -1.000005 -2.833333 -2.000000
v 0.999995 -3.833333 -2.000000
v 0.999995 -2.833333 -2.000000
v 1.999995 -3.833333 -2.000000
v 1.999995 -2.833333 -2.000000
v 1.999995 -0.833333 -2.000000
v 2.999995 -0.833333 -2.000000
v 2.999995 1.166667 -2.000000
v 0.999995 -3.833333 1.000000
v -1.000005 -3.833333 -1.000000
v 0.999995 -3.833333 -1.000000
v 2.999995 -3.833333 1.000000
v 1.999995 -3.833333 -1.000000
v 2.999995 -3.833333 -1.000000
v -1.000005 -3.833333 -2.000000
v -3.000005 -1.833333 1.000000
v -3.000005 -1.833334 2.000000
v -2.000005 -1.833333 1.000000
v 1.999995 -1.833334 2.000000
v -4.000005 -1.833333 -1.000000
v 3.999995 -1.833333 1.000000
v -3.000005 -1.833333 -2.000000
v -2.000005 -1.833333 -1.000000
v 2.999995 -1.833333 -2.000000
v -4.000005 0.166666 2.000000
v 2.999995 0.166666 1.000000
v -5.000005 0.166667 -1.000000
v 4.999995 0.166666 1.000000
v -4.000005 0.166667 -2.000000
v 3.999995 0.166667 -2.000000
v -4.000005 1.166666 2.000000
v 4.999995 1.166666 2.000000
v -4.000005 1.166667 -1.000000
v 3.999995 1.166667 -2.000000
v 4.999995 1.166667 -2.000000
v 2.999995 3.166667 2.000001
v 2.999995 3.166667 1.000001
v -3.000005 3.166667 -1.999999
v -5.000005 4.166667 1.000001
v 2.999995 4.166667 1.000001
v 3.999995 4.166667 1.000001
v 3.999995 4.166667 -0.999999
v -5.000005 4.166667 -0.999999
v -5.000005 4.166667 -1.999999
v -3.000005 4.166667 -1.999999
v 4.999995 4.166667 -0.999999
v 4.999995 4.166667 -1.999999
v -5.000005 5.166667 -0.999999
v -4.000005 5.166667 -0.999999
vt 0.521484 0.500000
vt 0.521484 0.500000
vt 0.521484 0.500000
vt 0.521484 0.500000
vt 0.521484 0.500000
vt 0.521484 0.500000
vt 0.521484 0.500000
vt 0.521484 0.500000
vt 0.521484 0.500000
vt 0.521484 0.500000
vt 0.521484 0.500000
vt 0.521484 0.500000
vt 0.521484 0.500000
vt 0.521484 0.500000
vt 0.521484 0.500000
vt 0.982422 0.500000
vt 0.982422 0.500000
vt 0.982422 0.500000
vt 0.521484 0.500000
vt 0.982422 0.500000
vt 0.521484 0.500000
vt 0.982422 0.500000
vt 0.982422 0.500000
vt 0.982422 0.500000
vt 0.982422 0.500000
vt 0.982422 0.500000
vt 0.982422 0.500000
vt 0.982422 0.500000
vt 0.982422 0.500000
vt 0.982422 0.500000
vt 0.982422 0.500000
vt 0.982422 0.500000
vt 0.521484 0.500000
vt 0.521484 0.500000
vt 0.521484 0.500000
vt 0.982422 0.500000
vt 0.982422 0.500000
vt 0.982422 0.500000
vt 0.521484 0.500000
vt 0.521484 0.500000
vt 0.521484 0.500000
vt 0.521484 0.500000
vt 0.521484 0.500000
vt 0.521484 0.500000
vt 0.982422 0.500000
vt 0.982422 0.500000
vt 0.982422 0.500000
vt 0.521484 0.500000
vt 0.982422 0.500000
vt 0.982422 0.500000
vt 0.982422 0.500000
vt 0.982422 0.500000
vt 0.982422 0.500000
vt 0.521484 0.500000
vt 0.521484 0.500000
vt 0.521484 0.500000
vt 0.982422 0.500000
vt 0.982422 0.500000
vt 0.521484 0.500000
vt 0.521484 0.500000
vt 0.521484 0.500000
vt 0.521484 0.500000
vt 0.521484 0.500000
vt 0.521484 0.500000
vt 0.521484 0.500000
vt 0.521484 0.500000
vt 0.521484 0.500000
vt 0.982422 0.500000
vt 0.982422 0.500000
vt 0.982422 0.500000
vt 0.982422 0.500000
vt 0.982422 0.500000
vt 0.982422 0.500000
vt 0.982422 0.500000
vt 0.982422 0.500000
vt 0.982422 0.500000
vt 0.982422 0.500000
vt 0.982422 0.500000
vt 0.982422 0.500000
vt 0.982422 0.500000
vt 0.982422 0.500000
vt 0.982422 0.500000
vt 0.521484 0.500000
vt 0.982422 0.500000
vt 0.982422 0.500000
vt 0.982422 0.500000
vt 0.982422 0.500000
vt 0.982422 0.500000
vt 0.982422 0.500000
vt 0.521484 0.500000
vt 0.521484 0.500000
vt 0.521484 0.500000
vt 0.521484 0.500000
vt 0.521484 0.500000
vt 0.521484 0.500000
vt 0.521484 0.500000
vt 0.521484 0.500000
vt 0.982422 0.500000
vt 0.982422 0.500000
vt 0.521484 0.500000
vt 0.521484 0.500000
vt 0.521484 0.500000
vt 0.521484 0.500000
vt 0.521484 0.500000
vt 0.521484 0.500000
vt 0.521484 0.500000
vt 0.521484 0.500000
vt 0.521484 0.500000
vt 0.521484 0.500000
vt 0.521484 0.500000
vt 0.521484 0.500000
vt 0.521484 0.500000
vt 0.521484 0.500000
vt 0.521484 0.500000
vt 0.521484 0.500000
vt 0.521484 0.500000
vt 0.521484 0.500000
vt 0.521484 0.500000
vt 0.982422 0.500000
vt 0.982422 0.500000
vt 0.982422 0.500000
vt 0.982422 0.500000
vt 0.982422 0.500000
vt 0.521484 0.500000
vt 0.521484 0.500000
vt 0.521484 0.500000
vt 0.521484 0.500000
vt 0.521484 0.500000
vt 0.521484 0.500000
vt 0.982422 0.500000
vt 0.982422 0.500000
vt 0.982422 0.500000
vt 0.982422 0.500000
vt 0.982422 0.500000
vt 0.982422 0.500000
vt 0.982422 0.500000
vt 0.982422 0.500000
vt 0.521484 0.500000
vt 0.521484 0.500000
vt 0.521484 0.500000
vt 0.521484 0.500000
vt 0.521484 0.500000
vt 0.521484 0.500000
vt 0.521484 0.500000
vt 0.521484 0.500000
vt 0.982422 0.500000
vt 0.982422 0.500000
vt 0.982422 0.500000
vt 0.982422 0.500000
vt 0.982422 0.500000
vt 0.982422 0.500000
vt 0.982422 0.500000
vt 0.982422 0.500000
vt 0.982422 0.500000
vt 0.982422 0.500000
vt 0.982422 0.500000
vt 0.982422 0.500000
vt 0.982422 0.500000
vt 0.982422 0.500000
vt 0.521484 0.500000
vt 0.521484 0.500000
vt 0.521484 0.500000
vt 0.521484 0.500000
vt 0.521484 0.500000
vt 0.521484 0.500000
vt 0.521484 0.500000
vt 0.521484 0.500000
vt 0.521484 0.500000
vt 0.521484 0.500000
vt 0.521484 0.500000
vt 0.982422 0.500000
vt 0.982422 0.500000
vt 0.982422 0.500000
vt 0.982422 0.500000
vt 0.982422 0.500000
vt 0.982422 0.500000
vt 0.982422 0.500000
vt 0.982422 0.500000
vt 0.521484 0.500000
vt 0.982422 0.500000
vt 0.982422 0.500000
vt 0.521484 0.500000
vt 0.982422 0.500000
vt 0.982422 0.500000
vt 0.982422 0.500000
vt 0.982422 0.500000
vt 0.982422 0.500000
vt 0.982422 0.500000
vt 0.982422 0.500000
vt 0.982422 0.500000
vt 0.521484 0.500000
vt 0.982422 0.500000
vt 0.982422 0.500000
vt 0.982422 0.500000
vt 0.982422 0.500000
vt 0.521484 0.500000
vt 0.982422 0.500000
vt 0.982422 0.500000
vt 0.521484 0.500000
vt 0.982422 0.500000
vt 0.982422 0.500000
vt 0.521484 0.500000
vt 0.521484 0.500000
vt 0.521484 0.500000
vt 0.521484 0.500000
vt 0.521484 0.500000
vt 0.521484 0.500000
vt 0.521484 0.500000
vn -1.0000 0.0000 0.0000
vn 0.0000 -0.0000 1.0000
vn 0.0000 0.0000 -1.0000
vn 0.0000 -1.0000 -0.0000
vn 1.0000 -0.0000 0.0000
vn 0.0000 1.0000 0.0000
usemtl palette.002
s off
f 6/1/1 3/2/1 2/3/1
f 7/4/1 5/5/1 4/6/1
f 38/7/2 36/8/2 37/9/2
f 39/10/2 36/8/2 38/7/2
f 40/11/2 38/7/2 37/9/2
f 44/12/2 43/13/2 41/14/2
f 45/15/2 40/11/2 43/13/2
f 45/15/2 43/13/2 44/12/2
f 46/16/2 45/17/2 44/18/2
f 47/19/2 40/11/2 45/15/2
f 47/20/2 45/17/2 46/16/2
f 48/21/2 38/7/2 40/11/2
f 53/22/2 54/23/2 55/24/2
f 56/25/2 54/23/2 53/22/2
f 64/26/2 65/27/2 66/28/2
f 78/29/3 77/30/3 79/31/3
f 79/31/3 77/30/3 80/32/3
f 83/33/3 82/34/3 84/35/3
f 92/36/3 91/37/3 93/38/3
f 92/39/3 93/40/3 94/41/3
f 96/42/3 94/41/3 98/43/3
f 97/44/3 96/42/3 98/43/3
f 97/45/3 98/46/3 99/47/3
f 98/43/3 94/41/3 100/48/3
f 99/47/3 98/46/3 100/49/3
f 108/50/4 107/51/4 106/52/4
f 109/53/4 107/51/4 108/50/4
f 110/54/4 106/55/4 105/56/4
f 54/23/1 122/57/1 55/24/1
f 75/58/1 122/57/1 54/23/1
f 36/8/1 75/59/1 54/60/1
f 36/8/1 90/61/1 75/59/1
f 36/8/1 54/60/1 1/62/1
f 134/63/1 90/61/1 36/8/1
f 138/64/1 90/61/1 134/63/1
f 139/65/1 90/61/1 138/64/1
f 57/66/1 138/64/1 134/63/1
f 143/67/1 138/64/1 57/66/1
f 53/22/1 115/68/1 59/69/1
f 76/70/1 115/68/1 53/22/1
f 126/71/1 53/22/1 120/72/1
f 56/25/1 53/22/1 126/71/1
f 128/73/1 124/74/1 76/70/1
f 91/37/1 124/74/1 128/73/1
f 111/75/1 78/29/1 62/76/1
f 77/30/1 78/29/1 111/75/1
f 2/77/1 111/75/1 112/78/1
f 3/79/1 111/75/1 2/77/1
f 4/80/1 117/81/1 77/30/1
f 5/82/1 117/81/1 4/80/1
f 60/83/1 3/2/1 6/1/1
f 92/39/1 5/5/1 7/4/1
f 8/84/1 61/85/1 42/86/1
f 63/87/1 61/85/1 8/84/1
f 80/32/1 9/88/1 79/31/1
f 95/89/1 9/88/1 80/32/1
f 10/90/1 63/91/1 8/92/1
f 113/93/1 63/91/1 10/90/1
f 118/94/1 95/95/1 80/96/1
f 11/97/1 95/95/1 118/94/1
f 65/27/1 12/98/1 66/28/1
f 105/99/1 12/98/1 65/27/1
f 52/100/1 132/101/1 131/102/1
f 135/103/1 132/101/1 52/100/1
f 84/35/1 13/104/1 83/33/1
f 14/105/1 13/104/1 84/35/1
f 15/106/1 137/107/1 136/108/1
f 89/109/1 137/107/1 15/106/1
f 16/110/5 17/111/5 58/112/5
f 58/112/5 17/111/5 144/113/5
f 38/7/5 70/114/5 39/10/5
f 39/10/5 70/114/5 18/115/5
f 19/116/5 133/117/5 82/34/5
f 82/34/5 133/117/5 140/118/5
f 64/26/5 20/119/5 104/120/5
f 104/120/5 20/119/5 106/52/5
f 46/16/5 68/121/5 47/20/5
f 47/20/5 68/121/5 21/122/5
f 108/50/5 99/47/5 22/123/5
f 22/123/5 99/47/5 100/49/5
f 47/19/5 21/124/5 114/125/5
f 114/125/5 21/124/5 67/126/5
f 22/127/5 100/48/5 81/128/5
f 81/128/5 100/48/5 23/129/5
f 107/51/5 109/53/5 69/130/5
f 69/130/5 109/53/5 24/131/5
f 49/132/5 69/130/5 25/133/5
f 25/133/5 69/130/5 71/134/5
f 24/131/5 119/135/5 85/136/5
f 85/136/5 119/135/5 102/137/5
f 25/138/5 71/139/5 26/140/5
f 26/140/5 71/139/5 121/141/5
f 85/142/5 102/143/5 27/144/5
f 27/144/5 102/143/5 28/145/5
f 116/146/5 29/147/5 72/148/5
f 72/148/5 29/147/5 86/149/5
f 51/150/5 72/148/5 30/151/5
f 30/151/5 72/148/5 31/152/5
f 86/149/5 125/153/5 32/154/5
f 32/154/5 125/153/5 129/155/5
f 123/156/5 87/157/5 73/158/5
f 73/158/5 87/157/5 88/159/5
f 73/160/5 88/161/5 33/162/5
f 88/161/5 130/163/5 33/162/5
f 127/164/5 73/160/5 33/162/5
f 33/162/5 130/163/5 34/165/5
f 34/165/5 130/163/5 141/166/5
f 141/166/5 130/163/5 142/167/5
f 34/165/5 141/166/5 74/168/5
f 74/168/5 141/166/5 35/169/5
f 126/170/2 36/8/2 1/62/2
f 6/171/2 126/71/2 120/72/2
f 37/9/2 36/8/2 126/170/2
f 37/172/2 126/71/2 6/171/2
f 10/173/2 2/77/2 112/78/2
f 40/11/2 6/1/2 2/3/2
f 40/11/2 37/9/2 6/1/2
f 40/174/2 2/77/2 10/173/2
f 41/175/2 8/84/2 42/86/2
f 43/13/2 10/90/2 8/92/2
f 43/176/2 8/84/2 41/175/2
f 43/13/2 40/11/2 10/90/2
f 114/125/2 40/11/2 47/19/2
f 48/21/2 40/11/2 114/125/2
f 49/132/2 48/177/2 114/178/2
f 25/138/2 38/7/2 48/21/2
f 25/133/2 48/177/2 49/132/2
f 26/140/2 38/7/2 25/138/2
f 50/179/2 38/7/2 26/140/2
f 131/102/2 38/7/2 50/179/2
f 51/150/2 50/180/2 26/181/2
f 30/182/2 131/102/2 50/179/2
f 30/151/2 50/180/2 51/150/2
f 30/182/2 52/100/2 131/102/2
f 127/164/2 52/100/2 30/182/2
f 33/162/2 52/100/2 127/164/2
f 16/110/2 57/66/2 134/63/2
f 58/112/2 57/66/2 16/110/2
f 111/75/2 53/22/2 59/69/2
f 3/79/2 53/22/2 111/75/2
f 60/183/2 53/22/2 3/79/2
f 61/85/2 111/75/2 62/76/2
f 63/87/2 111/75/2 61/85/2
f 113/184/2 111/75/2 63/87/2
f 104/120/2 65/27/2 64/26/2
f 107/51/2 67/185/2 21/122/2
f 107/51/2 21/122/2 68/121/2
f 69/130/2 67/185/2 107/51/2
f 132/101/2 18/115/2 70/114/2
f 135/103/2 18/115/2 132/101/2
f 116/146/2 121/186/2 71/134/2
f 116/146/2 71/134/2 69/130/2
f 72/148/2 121/186/2 116/146/2
f 123/156/2 31/152/2 72/148/2
f 73/158/2 31/152/2 123/156/2
f 34/165/2 15/106/2 136/108/2
f 74/168/2 15/106/2 34/165/2
f 122/57/3 75/58/3 76/70/3
f 76/70/3 75/58/3 128/73/3
f 138/64/3 143/67/3 17/111/3
f 17/111/3 143/67/3 144/113/3
f 115/68/3 76/70/3 77/30/3
f 77/30/3 76/70/3 4/80/3
f 4/80/3 76/70/3 7/187/3
f 80/32/3 77/30/3 118/188/3
f 12/98/3 105/99/3 20/119/3
f 20/119/3 105/99/3 106/52/3
f 22/123/3 81/189/3 109/53/3
f 108/50/3 22/123/3 109/53/3
f 109/53/3 81/189/3 24/131/3
f 19/116/3 82/34/3 83/33/3
f 85/136/3 27/190/3 29/147/3
f 24/131/3 85/136/3 29/147/3
f 29/147/3 27/190/3 86/149/3
f 86/149/3 32/154/3 87/157/3
f 87/157/3 32/154/3 88/159/3
f 137/107/3 89/109/3 141/166/3
f 141/166/3 89/109/3 35/169/3
f 90/61/3 139/65/3 91/191/3
f 124/74/3 91/37/3 92/36/3
f 91/191/3 139/65/3 93/40/3
f 93/40/3 139/65/3 133/117/3
f 133/117/3 139/65/3 140/118/3
f 117/81/3 5/82/3 11/192/3
f 5/5/3 92/39/3 94/41/3
f 11/192/3 5/82/3 94/193/3
f 93/40/3 133/117/3 94/41/3
f 9/88/3 95/89/3 110/194/3
f 95/95/3 11/97/3 96/42/3
f 110/194/3 95/89/3 96/195/3
f 11/97/3 94/41/3 96/42/3
f 110/54/3 96/42/3 97/44/3
f 100/48/3 94/41/3 23/129/3
f 94/41/3 133/117/3 101/196/3
f 23/129/3 94/41/3 101/196/3
f 23/197/3 101/198/3 119/135/3
f 101/196/3 133/117/3 102/143/3
f 119/135/3 101/198/3 102/137/3
f 102/143/3 133/117/3 28/145/3
f 28/145/3 133/117/3 103/199/3
f 103/199/3 133/117/3 13/104/3
f 28/200/3 103/201/3 125/153/3
f 13/104/3 14/105/3 129/202/3
f 125/153/3 103/201/3 129/155/3
f 103/199/3 13/104/3 129/202/3
f 129/202/3 14/105/3 130/163/3
f 130/163/3 14/105/3 142/167/3
f 12/98/4 64/26/4 66/28/4
f 20/119/4 64/26/4 12/98/4
f 61/85/4 41/175/4 42/86/4
f 65/203/4 44/12/4 41/14/4
f 65/27/4 41/175/4 61/85/4
f 104/120/4 46/16/4 44/18/4
f 104/204/4 44/12/4 65/203/4
f 68/121/4 46/16/4 104/120/4
f 78/29/4 61/85/4 62/76/4
f 78/29/4 65/27/4 61/85/4
f 79/31/4 65/27/4 78/29/4
f 105/99/4 65/27/4 79/31/4
f 106/52/4 107/51/4 68/121/4
f 106/52/4 68/121/4 104/120/4
f 9/88/4 105/99/4 79/31/4
f 110/194/4 105/99/4 9/88/4
f 97/45/4 108/50/4 106/52/4
f 97/44/4 106/55/4 110/54/4
f 99/47/4 108/50/4 97/45/4
f 111/75/4 10/173/4 112/78/4
f 113/184/4 10/173/4 111/75/4
f 67/185/4 49/132/4 114/178/4
f 69/130/4 49/132/4 67/185/4
f 115/68/4 111/75/4 59/69/4
f 77/30/4 111/75/4 115/68/4
f 24/131/4 116/146/4 69/130/4
f 29/147/4 116/146/4 24/131/4
f 117/81/4 118/188/4 77/30/4
f 11/192/4 118/188/4 117/81/4
f 23/197/4 24/131/4 81/189/4
f 119/135/4 24/131/4 23/197/4
f 53/22/4 6/171/4 120/72/4
f 60/183/4 6/171/4 53/22/4
f 121/186/4 51/150/4 26/181/4
f 72/148/4 51/150/4 121/186/4
f 122/57/4 53/22/4 55/24/4
f 76/70/4 53/22/4 122/57/4
f 86/149/4 123/156/4 72/148/4
f 87/157/4 123/156/4 86/149/4
f 124/74/4 7/187/4 76/70/4
f 92/36/4 7/187/4 124/74/4
f 28/200/4 86/149/4 27/190/4
f 125/153/4 86/149/4 28/200/4
f 54/60/4 126/170/4 1/62/4
f 56/205/4 126/170/4 54/60/4
f 31/206/4 127/164/4 30/182/4
f 73/160/4 127/164/4 31/206/4
f 90/61/4 128/207/4 75/59/4
f 91/191/4 128/207/4 90/61/4
f 129/202/4 88/161/4 32/208/4
f 130/163/4 88/161/4 129/202/4
f 38/7/6 131/102/6 70/114/6
f 70/114/6 131/102/6 132/101/6
f 19/116/6 83/33/6 133/117/6
f 133/117/6 83/33/6 13/104/6
f 36/8/6 39/10/6 134/63/6
f 134/63/6 39/10/6 16/110/6
f 16/110/6 39/10/6 18/115/6
f 52/100/6 33/162/6 135/103/6
f 135/103/6 33/162/6 136/108/6
f 136/108/6 33/162/6 34/165/6
f 16/110/6 18/115/6 17/111/6
f 135/103/6 136/108/6 17/111/6
f 18/115/6 135/103/6 17/111/6
f 17/111/6 136/108/6 82/34/6
f 82/34/6 136/108/6 84/35/6
f 84/35/6 136/108/6 137/107/6
f 138/64/6 17/111/6 139/65/6
f 17/111/6 82/34/6 139/65/6
f 139/65/6 82/34/6 140/118/6
f 137/107/6 141/166/6 14/105/6
f 84/35/6 137/107/6 14/105/6
f 14/105/6 141/166/6 142/167/6
f 57/66/6 58/112/6 143/67/6
f 143/67/6 58/112/6 144/113/6
f 15/106/6 74/168/6 89/109/6
f 89/109/6 74/168/6 35/169/6
