# Blender MTL File: 'RedSkull.blend'
# Material Count: 1

newmtl palette.002
Ns 96.078431
Ka 0.000000 0.000000 0.000000
Kd 1.000000 1.000000 1.000000
Ks 0.000000 0.000000 0.000000
Ke 0.000000 0.000000 0.000000
Ni 1.000000
d 1.000000
illum 2
map_Kd C:\Users\Pedro\Downloads\RedSkull.png
