# Blender v2.79 (sub 0) OBJ File: 'Zombie.blend'
# www.blender.org
mtllib ZombieHead.mtl
o Zombie.002
v -3.999999 0.896801 3.682539
v -3.999999 0.896802 -1.317461
v -2.999999 -4.103199 2.682538
v -2.999999 -2.103198 0.682538
v -2.999999 -3.103198 -0.317462
v -2.999999 -1.103199 2.682538
v -2.999999 -1.103198 -1.317462
v -2.999999 -0.103198 -0.317462
v -2.999999 0.896802 -1.317461
v -2.999999 0.896802 2.682539
v -2.999999 1.896801 3.682539
v -2.999999 1.896801 2.682539
v -2.999999 0.896802 -0.317461
v -2.999999 1.896802 -1.317461
v -1.999999 -2.103198 0.682538
v -1.999999 -3.103198 -1.317462
v -1.999999 -2.103198 -1.317462
v -1.999999 -1.103198 -2.317462
v -1.999999 -0.103197 -5.317461
v -1.999999 -0.103197 -4.317461
v -1.999999 2.896802 -1.317461
v -1.999999 3.896803 -0.317461
v -0.999999 -3.103199 2.682538
v -0.999999 -2.103198 -1.317462
v -0.999999 -3.103198 -1.317462
v -0.999999 -2.103198 -2.317462
v -0.999999 -1.103197 -3.317461
v -0.999999 -0.103197 -4.317461
v -0.999999 -1.103197 -6.317461
v -0.999999 -0.103197 -5.317461
v -0.999999 0.896803 -4.317461
v -0.999999 1.896802 -2.317461
v -0.999999 3.896802 2.682539
v -0.999999 2.896802 -1.317461
v -0.999999 2.896802 -0.317461
v 0.000001 -0.103197 -5.317461
v 1.000001 0.896801 4.682539
v 2.000001 -1.103199 3.682538
v 2.000001 0.896801 3.682539
v -1.999999 -2.103199 2.682538
v -1.999999 -1.103199 3.682538
v -1.999999 -0.103199 3.682539
v -1.999999 0.896801 3.682539
v -0.999999 0.896801 4.682539
v -0.999999 1.896801 3.682539
v 0.000001 -2.103197 -4.317461
v 0.000001 -0.103197 -6.317461
v 1.000001 -3.103199 2.682538
v 1.000001 -2.103198 1.682538
v 1.000001 -3.103198 -1.317462
v 1.000001 -1.103197 -3.317461
v 1.000001 -0.103197 -4.317461
v 1.000001 0.896802 -3.317461
v 1.000001 0.896803 -4.317461
v 1.000001 1.896802 -2.317461
v 1.000001 2.896801 3.682539
v 1.000001 3.896802 2.682539
v 1.000001 2.896802 -0.317461
v 1.000001 3.896803 -1.317461
v 2.000001 -3.103198 1.682538
v 2.000001 -2.103198 1.682538
v 2.000001 -2.103198 -1.317462
v 2.000001 -0.103197 -4.317461
v 2.000001 -0.103197 -5.317461
v 2.000001 1.896801 3.682539
v 2.000001 2.896801 2.682539
v 3.000001 -2.103198 -1.317462
v 3.000001 -0.103199 3.682539
v 3.000001 -1.103199 4.682539
v 3.000001 -0.103198 -1.317462
v 3.000001 1.896801 4.682539
v 3.000001 1.896802 -0.317461
v 3.000001 2.896801 3.682539
v 3.000001 2.896802 -1.317461
v 4.000001 -1.103199 2.682538
v 4.000001 -1.103198 -0.317462
v 4.000001 -0.103198 -1.317462
v 4.000001 0.896802 2.682539
v 4.000001 0.896802 -0.317461
v 4.000001 0.896802 -1.317461
v -1.999999 -1.103199 4.682539
v -2.999999 1.896801 4.682539
v -1.999999 1.896801 4.682539
v -1.999999 2.896801 4.682539
v -3.999999 -0.103199 3.682539
v -2.999999 -1.103199 3.682538
v -0.999999 -1.103199 3.682538
v -0.999999 -0.103199 3.682539
v -0.999999 0.896801 3.682539
v 1.000001 -1.103199 3.682538
v 1.000001 -0.103199 3.682539
v -0.999999 3.896802 3.682539
v 1.000001 3.896802 3.682539
v 2.000001 -2.103199 3.682538
v 2.000001 -0.103199 3.682539
v 3.000001 -4.103199 3.682538
v 3.000001 -1.103199 3.682538
v 3.000001 1.896801 3.682539
v 4.000001 -0.103199 3.682539
v -3.999999 -1.103199 2.682538
v -2.999999 -0.103198 2.682539
v -3.999999 0.896802 2.682539
v -1.999999 2.896801 2.682539
v -0.999999 -2.103199 2.682538
v 1.000001 2.896801 2.682539
v 2.000001 3.896802 2.682539
v 4.000001 -0.103198 2.682539
v 3.000001 0.896802 2.682539
v 4.000001 1.896801 2.682539
v -1.999999 -3.103198 1.682538
v -0.999999 -2.103198 1.682538
v -1.999999 -3.103198 0.682538
v -2.999999 -3.103198 0.682538
v 3.000001 -3.103198 0.682538
v 2.000001 -2.103198 0.682538
v -0.999999 -2.103197 -4.317461
v 0.000001 -1.103197 -4.317461
v 1.000001 1.896803 -4.317461
v 2.000001 0.896803 -4.317461
v 2.000001 -4.103199 2.682538
v 2.000001 -2.103199 2.682538
v 3.000001 -2.103199 2.682538
v -3.999999 -1.103198 -0.317462
v -3.999999 -0.103198 -0.317462
v -2.999999 1.896802 -0.317461
v -2.999999 -2.103198 -0.317462
v -1.999999 -3.103198 -0.317462
v -1.999999 2.896802 -0.317461
v -0.999999 3.896803 -0.317461
v 1.000001 3.896803 -0.317461
v 2.000001 -3.103198 -0.317462
v 3.000001 -2.103198 -0.317462
v 3.000001 -0.103198 -0.317462
v 3.000001 0.896802 -0.317461
v -2.999999 -0.103198 -1.317462
v -2.999999 -2.103198 -1.317462
v -2.999999 2.896802 -1.317461
v 1.000001 2.896802 -1.317461
v 1.000001 -2.103198 -1.317462
v 2.000001 -1.103198 -1.317462
v 2.000001 1.896802 -1.317461
v 3.000001 1.896802 -1.317461
v -2.999999 1.896802 -2.317461
v -1.999999 0.896802 -2.317461
v -1.999999 1.896802 -2.317461
v -0.999999 0.896802 -2.317461
v -1.999999 2.896802 -2.317461
v -0.999999 -3.103198 -2.317462
v 1.000001 -2.103198 -2.317462
v 1.000001 -1.103198 -2.317462
v 2.000001 -2.103198 -2.317462
v 1.000001 0.896802 -2.317461
v 2.000001 1.896802 -2.317461
v 2.000001 2.896802 -2.317461
v 3.000001 -1.103198 -2.317462
v -0.999999 0.896802 -3.317461
v -0.999999 -2.103198 -3.317461
v -0.999999 1.896803 -3.317461
v 1.000001 1.896803 -3.317461
v 2.000001 -1.103197 -3.317461
v 2.000001 0.896802 -3.317461
v -0.999999 -1.103197 -5.317461
v 0.000001 -2.103197 -5.317461
v 1.000001 -1.103197 -5.317461
v 1.000001 0.896803 -5.317461
v 1.000001 1.896803 -5.317461
v 2.000001 0.896803 -5.317461
v 0.000001 -1.103197 -6.317461
v 0.000001 0.896803 -6.317461
v 1.000001 -0.103197 -6.317461
v -1.999999 -4.103199 3.682538
v -2.999999 -4.103199 3.682538
v -1.999999 -4.103199 2.682538
v 2.000001 -4.103199 3.682538
v 3.000001 -4.103199 2.682538
v -0.999999 -3.103198 1.682538
v 1.000001 -3.103198 1.682538
v 2.000001 -3.103198 0.682538
v -0.999999 -3.103198 -0.317462
v 1.000001 -3.103198 -0.317462
v 3.000001 -3.103198 -0.317462
v 2.000001 -3.103198 -1.317462
v 1.000001 -3.103198 -2.317462
v -1.999999 -2.103199 3.682538
v 1.000001 -2.103199 2.682538
v -1.999999 -2.103198 1.682538
v -2.999999 -2.103199 2.682538
v 3.000001 -2.103198 0.682538
v -1.999999 -2.103198 -0.317462
v 2.000001 -2.103198 -0.317462
v -1.999999 -2.103198 -2.317462
v 1.000001 -2.103198 -3.317461
v -0.999999 -2.103197 -5.317461
v -2.999999 -1.103199 4.682539
v 2.000001 -1.103199 4.682539
v -2.999999 -1.103198 -0.317462
v 3.000001 -1.103198 -0.317462
v 3.000001 -1.103199 2.682538
v -2.999999 -1.103198 -2.317462
v -1.999999 -1.103198 -1.317462
v 2.000001 -1.103198 -2.317462
v 3.000001 -1.103198 -1.317462
v -1.999999 -1.103197 -3.317461
v -0.999999 -1.103198 -2.317462
v -0.999999 -1.103197 -4.317461
v 0.000001 -1.103197 -5.317461
v -3.999999 -0.103198 2.682539
v -2.999999 -0.103199 3.682539
v 3.000001 -0.103198 2.682539
v -3.999999 -0.103198 -1.317462
v 4.000001 -0.103198 -0.317462
v 1.000001 -0.103197 -5.317461
v -1.999999 0.896801 4.682539
v 1.000001 0.896801 3.682539
v 2.000001 0.896801 4.682539
v 1.000001 1.896801 4.682539
v -0.999999 1.896801 4.682539
v 1.000001 1.896801 3.682539
v -0.999999 -0.103197 -6.317461
v -2.999999 0.896801 3.682539
v 3.000001 0.896801 3.682539
v 4.000001 0.896801 3.682539
v -3.999999 0.896802 -0.317461
v 3.000001 0.896802 -1.317461
v -1.999999 0.896802 -3.317461
v 2.000001 0.896802 -2.317461
v 0.000001 0.896803 -4.317461
v -1.999999 0.896803 -4.317461
v -1.999999 0.896803 -5.317461
v 0.000001 0.896803 -5.317461
v 1.000001 0.896803 -6.317461
v -1.999999 1.896801 3.682539
v 2.000001 1.896801 4.682539
v -3.999999 1.896801 2.682539
v -3.999999 1.896802 -0.317461
v 3.000001 1.896801 2.682539
v 4.000001 1.896802 -0.317461
v -1.999999 1.896802 -1.317461
v 3.000001 1.896802 -2.317461
v 0.000001 1.896803 -4.317461
v 0.000001 1.896803 -5.317461
v 2.000001 2.896801 4.682539
v -1.999999 2.896801 3.682539
v -0.999999 2.896801 3.682539
v 2.000001 2.896801 3.682539
v -2.999999 2.896801 3.682539
v -0.999999 2.896801 2.682539
v 2.000001 2.896802 -0.317461
v 2.000001 2.896802 -1.317461
v -1.999999 3.896802 2.682539
v 2.000001 3.896803 -0.317461
v -0.999999 3.896803 -1.317461
vt 0.529297 0.500000
vt 0.529297 0.500000
vt 0.529297 0.500000
vt 0.529297 0.500000
vt 0.529297 0.500000
vt 0.529297 0.500000
vt 0.529297 0.500000
vt 0.529297 0.500000
vt 0.529297 0.500000
vt 0.529297 0.500000
vt 0.529297 0.500000
vt 0.529297 0.500000
vt 0.529297 0.500000
vt 0.529297 0.500000
vt 0.978516 0.500000
vt 0.978516 0.500000
vt 0.978516 0.500000
vt 0.978516 0.500000
vt 0.529297 0.500000
vt 0.529297 0.500000
vt 0.529297 0.500000
vt 0.529297 0.500000
vt 0.529297 0.500000
vt 0.529297 0.500000
vt 0.529297 0.500000
vt 0.529297 0.500000
vt 0.529297 0.500000
vt 0.529297 0.500000
vt 0.974609 0.500000
vt 0.974609 0.500000
vt 0.974609 0.500000
vt 0.529297 0.500000
vt 0.529297 0.500000
vt 0.529297 0.500000
vt 0.529297 0.500000
vt 0.529297 0.500000
vt 0.529297 0.500000
vt 0.529297 0.500000
vt 0.529297 0.500000
vt 0.529297 0.500000
vt 0.529297 0.500000
vt 0.529297 0.500000
vt 0.529297 0.500000
vt 0.529297 0.500000
vt 0.529297 0.500000
vt 0.529297 0.500000
vt 0.529297 0.500000
vt 0.529297 0.500000
vt 0.529297 0.500000
vt 0.529297 0.500000
vt 0.529297 0.500000
vt 0.529297 0.500000
vt 0.529297 0.500000
vt 0.529297 0.500000
vt 0.529297 0.500000
vt 0.529297 0.500000
vt 0.529297 0.500000
vt 0.529297 0.500000
vt 0.529297 0.500000
vt 0.529297 0.500000
vt 0.529297 0.500000
vt 0.529297 0.500000
vt 0.529297 0.500000
vt 0.529297 0.500000
vt 0.529297 0.500000
vt 0.529297 0.500000
vt 0.529297 0.500000
vt 0.529297 0.500000
vt 0.529297 0.500000
vt 0.529297 0.500000
vt 0.529297 0.500000
vt 0.529297 0.500000
vt 0.529297 0.500000
vt 0.529297 0.500000
vt 0.529297 0.500000
vt 0.974609 0.500000
vt 0.974609 0.500000
vt 0.974609 0.500000
vt 0.974609 0.500000
vt 0.529297 0.500000
vt 0.529297 0.500000
vt 0.529297 0.500000
vt 0.529297 0.500000
vt 0.529297 0.500000
vt 0.529297 0.500000
vt 0.529297 0.500000
vt 0.134766 0.500000
vt 0.134766 0.500000
vt 0.134766 0.500000
vt 0.134766 0.500000
vt 0.529297 0.500000
vt 0.529297 0.500000
vt 0.529297 0.500000
vt 0.529297 0.500000
vt 0.529297 0.500000
vt 0.529297 0.500000
vt 0.529297 0.500000
vt 0.529297 0.500000
vt 0.529297 0.500000
vt 0.529297 0.500000
vt 0.529297 0.500000
vt 0.529297 0.500000
vt 0.974609 0.500000
vt 0.974609 0.500000
vt 0.974609 0.500000
vt 0.974609 0.500000
vt 0.529297 0.500000
vt 0.529297 0.500000
vt 0.529297 0.500000
vt 0.529297 0.500000
vt 0.134766 0.500000
vt 0.134766 0.500000
vt 0.134766 0.500000
vt 0.134766 0.500000
vt 0.529297 0.500000
vt 0.529297 0.500000
vt 0.529297 0.500000
vt 0.529297 0.500000
vt 0.529297 0.500000
vt 0.529297 0.500000
vt 0.529297 0.500000
vt 0.529297 0.500000
vt 0.134766 0.500000
vt 0.134766 0.500000
vt 0.134766 0.500000
vt 0.134766 0.500000
vt 0.529297 0.500000
vt 0.529297 0.500000
vt 0.529297 0.500000
vt 0.529297 0.500000
vt 0.529297 0.500000
vt 0.529297 0.500000
vt 0.529297 0.500000
vt 0.529297 0.500000
vt 0.529297 0.500000
vt 0.529297 0.500000
vt 0.529297 0.500000
vt 0.529297 0.500000
vt 0.529297 0.500000
vt 0.529297 0.500000
vt 0.529297 0.500000
vt 0.529297 0.500000
vt 0.529297 0.500000
vt 0.529297 0.500000
vt 0.529297 0.500000
vt 0.529297 0.500000
vt 0.529297 0.500000
vt 0.529297 0.500000
vt 0.529297 0.500000
vt 0.529297 0.500000
vt 0.529297 0.500000
vt 0.529297 0.500000
vt 0.529297 0.500000
vt 0.529297 0.500000
vt 0.529297 0.500000
vt 0.529297 0.500000
vt 0.529297 0.500000
vt 0.529297 0.500000
vt 0.529297 0.500000
vt 0.529297 0.500000
vt 0.529297 0.500000
vt 0.529297 0.500000
vt 0.529297 0.500000
vt 0.529297 0.500000
vt 0.529297 0.500000
vt 0.529297 0.500000
vt 0.529297 0.500000
vt 0.529297 0.500000
vt 0.529297 0.500000
vt 0.974609 0.500000
vt 0.974609 0.500000
vt 0.974609 0.500000
vt 0.974609 0.500000
vt 0.529297 0.500000
vt 0.529297 0.500000
vt 0.529297 0.500000
vt 0.134766 0.500000
vt 0.134766 0.500000
vt 0.134766 0.500000
vt 0.134766 0.500000
vt 0.529297 0.500000
vt 0.529297 0.500000
vt 0.529297 0.500000
vt 0.529297 0.500000
vt 0.529297 0.500000
vt 0.134766 0.500000
vt 0.134766 0.500000
vt 0.134766 0.500000
vt 0.134766 0.500000
vt 0.529297 0.500000
vt 0.529297 0.500000
vt 0.529297 0.500000
vt 0.529297 0.500000
vt 0.529297 0.500000
vt 0.529297 0.500000
vt 0.529297 0.500000
vt 0.529297 0.500000
vt 0.529297 0.500000
vt 0.529297 0.500000
vt 0.974609 0.500000
vt 0.974609 0.500000
vt 0.974609 0.500000
vt 0.529297 0.500000
vt 0.529297 0.500000
vt 0.529297 0.500000
vt 0.529297 0.500000
vt 0.529297 0.500000
vt 0.529297 0.500000
vt 0.134766 0.500000
vt 0.134766 0.500000
vt 0.134766 0.500000
vt 0.134766 0.500000
vt 0.529297 0.500000
vt 0.529297 0.500000
vt 0.529297 0.500000
vt 0.529297 0.500000
vt 0.529297 0.500000
vt 0.529297 0.500000
vt 0.529297 0.500000
vt 0.529297 0.500000
vt 0.529297 0.500000
vt 0.529297 0.500000
vt 0.529297 0.500000
vt 0.529297 0.500000
vt 0.529297 0.500000
vt 0.529297 0.500000
vt 0.529297 0.500000
vt 0.529297 0.500000
vt 0.529297 0.500000
vt 0.529297 0.500000
vt 0.529297 0.500000
vt 0.529297 0.500000
vt 0.529297 0.500000
vt 0.529297 0.500000
vt 0.529297 0.500000
vt 0.529297 0.500000
vt 0.529297 0.500000
vt 0.529297 0.500000
vt 0.529297 0.500000
vt 0.529297 0.500000
vt 0.529297 0.500000
vt 0.529297 0.500000
vt 0.529297 0.500000
vt 0.529297 0.500000
vt 0.529297 0.500000
vt 0.529297 0.500000
vt 0.529297 0.500000
vt 0.529297 0.500000
vt 0.529297 0.500000
vt 0.529297 0.500000
vt 0.529297 0.500000
vt 0.529297 0.500000
vt 0.529297 0.500000
vt 0.529297 0.500000
vt 0.529297 0.500000
vt 0.529297 0.500000
vt 0.529297 0.500000
vt 0.529297 0.500000
vt 0.529297 0.500000
vt 0.529297 0.500000
vt 0.529297 0.500000
vt 0.529297 0.500000
vt 0.529297 0.500000
vt 0.419922 0.500000
vt 0.419922 0.500000
vt 0.419922 0.500000
vt 0.978516 0.500000
vt 0.978516 0.500000
vt 0.306641 0.500000
vt 0.306641 0.500000
vt 0.306641 0.500000
vt 0.419922 0.500000
vt 0.306641 0.500000
vt 0.978516 0.500000
vt 0.978516 0.500000
vt 0.978516 0.500000
vt 0.978516 0.500000
vt 0.978516 0.500000
vt 0.419922 0.500000
vt 0.419922 0.500000
vt 0.419922 0.500000
vt 0.978516 0.500000
vt 0.306641 0.500000
vt 0.306641 0.500000
vt 0.306641 0.500000
vt 0.419922 0.500000
vt 0.306641 0.500000
vt 0.529297 0.500000
vt 0.529297 0.500000
vt 0.529297 0.500000
vt 0.529297 0.500000
vt 0.529297 0.500000
vt 0.529297 0.500000
vt 0.529297 0.500000
vt 0.529297 0.500000
vt 0.529297 0.500000
vt 0.974609 0.500000
vt 0.974609 0.500000
vt 0.529297 0.500000
vt 0.974609 0.500000
vt 0.529297 0.500000
vt 0.974609 0.500000
vt 0.978516 0.500000
vt 0.978516 0.500000
vt 0.978516 0.500000
vt 0.978516 0.500000
vt 0.529297 0.500000
vt 0.978516 0.500000
vt 0.978516 0.500000
vt 0.978516 0.500000
vt 0.529297 0.500000
vt 0.978516 0.500000
vn -1.0000 0.0000 0.0000
vn 1.0000 0.0000 0.0000
vn 0.0000 -0.0000 1.0000
vn 0.0000 0.0000 -1.0000
vn 0.0000 -1.0000 0.0000
vn 0.0000 1.0000 0.0000
usemtl palette
s off
f 12/1/1 10/2/1 11/3/1
f 30/4/1 29/5/1 28/6/1
f 51/7/2 52/8/2 53/9/2
f 53/9/2 52/8/2 54/10/2
f 78/11/2 77/12/2 79/13/2
f 79/13/2 77/12/2 80/14/2
f 90/15/3 89/16/3 88/17/3
f 90/15/3 88/17/3 87/18/3
f 144/19/4 143/20/4 145/21/4
f 144/19/4 145/21/4 146/22/4
f 145/21/4 147/23/4 146/22/4
f 149/24/4 150/25/4 151/26/4
f 153/27/4 147/23/4 154/28/4
f 180/29/5 178/30/5 179/31/5
f 229/32/6 227/33/6 230/34/6
f 243/35/6 242/36/6 244/37/6
f 207/38/1 123/39/1 100/40/1
f 124/41/1 123/39/1 207/38/1
f 1/42/1 124/41/1 207/38/1
f 1/42/1 210/43/1 124/41/1
f 1/42/1 207/38/1 85/44/1
f 102/45/1 210/43/1 1/42/1
f 223/46/1 210/43/1 102/45/1
f 2/47/1 210/43/1 223/46/1
f 234/48/1 223/46/1 102/45/1
f 235/49/1 223/46/1 234/48/1
f 187/50/1 3/51/1 172/52/1
f 4/53/1 5/54/1 113/55/1
f 126/56/1 5/54/1 4/53/1
f 86/57/1 126/56/1 4/53/1
f 86/57/1 136/58/1 126/56/1
f 86/57/1 4/53/1 187/50/1
f 86/57/1 187/50/1 172/52/1
f 6/59/1 136/58/1 86/57/1
f 196/60/1 136/58/1 6/59/1
f 7/61/1 136/58/1 196/60/1
f 208/62/1 6/59/1 86/57/1
f 208/62/1 86/57/1 194/63/1
f 101/64/1 6/59/1 208/62/1
f 8/65/1 7/61/1 196/60/1
f 8/65/1 199/66/1 7/61/1
f 135/67/1 199/66/1 8/65/1
f 220/68/1 208/62/1 194/63/1
f 9/69/1 199/66/1 135/67/1
f 82/70/1 10/2/1 220/68/1
f 82/70/1 220/68/1 194/63/1
f 11/3/1 10/2/1 82/70/1
f 125/71/1 9/69/1 13/72/1
f 14/73/1 199/66/1 9/69/1
f 14/73/1 9/69/1 125/71/1
f 143/20/1 199/66/1 14/73/1
f 246/74/1 12/1/1 11/3/1
f 246/74/1 125/71/1 12/1/1
f 246/74/1 14/73/1 125/71/1
f 137/75/1 14/73/1 246/74/1
f 186/76/1 112/77/1 110/78/1
f 15/79/1 112/77/1 186/76/1
f 189/80/1 16/81/1 127/82/1
f 17/83/1 16/81/1 189/80/1
f 200/84/1 191/85/1 17/83/1
f 18/86/1 191/85/1 200/84/1
f 144/87/1 203/88/1 18/89/1
f 225/90/1 203/88/1 144/87/1
f 228/91/1 19/92/1 20/93/1
f 229/32/1 19/92/1 228/91/1
f 84/94/1 232/95/1 83/96/1
f 243/35/1 232/95/1 84/94/1
f 21/97/1 145/21/1 238/98/1
f 147/23/1 145/21/1 21/97/1
f 250/99/1 128/100/1 103/101/1
f 22/102/1 128/100/1 250/99/1
f 104/103/1 176/104/1 23/105/1
f 111/106/1 176/104/1 104/103/1
f 24/107/1 148/108/1 25/109/1
f 26/110/1 148/108/1 24/107/1
f 204/111/1 157/112/1 26/113/1
f 27/114/1 157/112/1 204/111/1
f 205/115/1 193/116/1 116/117/1
f 162/118/1 193/116/1 205/115/1
f 28/6/1 29/5/1 162/118/1
f 28/6/1 162/118/1 205/115/1
f 28/6/1 205/115/1 27/119/1
f 219/120/1 29/5/1 30/4/1
f 156/121/1 28/6/1 27/119/1
f 31/122/1 28/6/1 156/121/1
f 32/123/1 156/124/1 146/125/1
f 158/126/1 156/124/1 32/123/1
f 92/127/1 247/128/1 244/37/1
f 33/129/1 247/128/1 92/127/1
f 129/130/1 34/131/1 35/132/1
f 252/133/1 34/131/1 129/130/1
f 230/34/1 47/134/1 36/135/1
f 169/136/1 47/134/1 230/34/1
f 240/137/1 230/34/1 227/33/1
f 241/138/1 230/34/1 240/137/1
f 216/139/1 214/140/1 37/141/1
f 218/142/1 214/140/1 216/139/1
f 94/143/1 120/144/1 174/145/1
f 121/146/1 120/144/1 94/143/1
f 95/147/1 38/148/1 195/149/1
f 215/150/1 95/147/1 195/149/1
f 39/151/1 95/147/1 215/150/1
f 171/152/2 173/153/2 184/154/2
f 184/154/2 173/153/2 40/155/2
f 81/156/2 41/157/2 42/158/2
f 81/156/2 42/158/2 213/159/2
f 213/159/2 42/158/2 43/160/2
f 44/161/2 89/162/2 217/163/2
f 217/163/2 89/162/2 45/164/2
f 46/165/2 163/166/2 117/167/2
f 117/167/2 163/166/2 206/168/2
f 206/168/2 168/169/2 36/135/2
f 36/135/2 168/169/2 47/134/2
f 48/170/2 177/171/2 185/172/2
f 185/172/2 177/171/2 49/173/2
f 50/174/2 183/175/2 139/176/2
f 139/176/2 183/175/2 149/24/2
f 149/177/2 192/178/2 150/179/2
f 150/179/2 192/178/2 51/180/2
f 51/7/2 164/181/2 52/8/2
f 52/8/2 164/181/2 212/182/2
f 212/182/2 170/183/2 165/184/2
f 165/184/2 170/183/2 231/185/2
f 152/186/2 53/187/2 55/188/2
f 55/188/2 53/187/2 159/189/2
f 54/10/2 165/184/2 118/190/2
f 118/190/2 165/184/2 166/191/2
f 56/192/2 105/193/2 93/194/2
f 93/194/2 105/193/2 57/195/2
f 58/196/2 138/197/2 130/198/2
f 130/198/2 138/197/2 59/199/2
f 60/200/2 178/30/2 61/201/2
f 61/201/2 178/30/2 115/202/2
f 131/203/2 182/204/2 190/205/2
f 190/205/2 182/204/2 62/206/2
f 62/206/2 151/26/2 140/207/2
f 140/207/2 151/26/2 201/208/2
f 201/209/2 160/210/2 226/211/2
f 226/211/2 160/210/2 161/212/2
f 63/213/2 64/214/2 119/215/2
f 119/215/2 64/214/2 167/216/2
f 233/217/2 65/218/2 242/36/2
f 242/36/2 65/218/2 245/219/2
f 141/220/2 153/27/2 249/221/2
f 249/221/2 153/27/2 154/28/2
f 66/222/2 248/223/2 106/224/2
f 106/224/2 248/223/2 251/225/2
f 96/226/2 175/227/2 122/228/2
f 114/229/2 181/230/2 188/231/2
f 188/231/2 181/230/2 132/232/2
f 188/231/2 132/232/2 97/233/2
f 132/232/2 67/234/2 97/233/2
f 122/228/2 188/231/2 97/233/2
f 96/226/2 122/228/2 97/233/2
f 97/233/2 67/234/2 198/235/2
f 198/235/2 67/234/2 197/236/2
f 197/236/2 67/234/2 202/237/2
f 97/233/2 198/235/2 68/238/2
f 69/239/2 97/233/2 68/238/2
f 68/238/2 198/235/2 209/240/2
f 197/236/2 202/237/2 133/241/2
f 202/237/2 155/242/2 133/241/2
f 133/241/2 155/242/2 70/243/2
f 69/239/2 68/238/2 221/244/2
f 70/243/2 155/242/2 224/245/2
f 221/244/2 108/246/2 71/247/2
f 69/239/2 221/244/2 71/247/2
f 71/247/2 108/246/2 98/248/2
f 98/248/2 108/246/2 236/249/2
f 134/250/2 224/245/2 72/251/2
f 224/245/2 155/242/2 142/252/2
f 72/251/2 224/245/2 142/252/2
f 142/252/2 155/242/2 239/253/2
f 98/248/2 236/249/2 73/254/2
f 236/249/2 72/251/2 73/254/2
f 72/251/2 142/252/2 73/254/2
f 73/254/2 142/252/2 74/255/2
f 75/256/2 76/257/2 107/258/2
f 107/258/2 76/257/2 211/259/2
f 107/258/2 211/259/2 222/260/2
f 211/259/2 77/12/2 222/260/2
f 99/261/2 107/258/2 222/260/2
f 222/260/2 77/12/2 78/11/2
f 78/11/2 79/13/2 109/262/2
f 109/262/2 79/13/2 237/263/2
f 81/156/3 82/70/3 194/63/3
f 213/159/3 82/70/3 81/156/3
f 83/96/3 82/70/3 213/159/3
f 44/161/3 84/94/3 83/96/3
f 44/161/3 83/96/3 213/159/3
f 217/163/3 84/94/3 44/161/3
f 216/139/3 84/94/3 217/163/3
f 215/150/3 216/139/3 37/141/3
f 233/217/3 84/94/3 216/139/3
f 233/217/3 216/139/3 215/150/3
f 242/36/3 84/94/3 233/217/3
f 69/239/3 215/150/3 195/149/3
f 69/239/3 233/217/3 215/150/3
f 71/247/3 233/217/3 69/239/3
f 208/62/3 1/42/3 85/44/3
f 220/68/3 1/42/3 208/62/3
f 171/152/3 86/57/3 172/52/3
f 184/154/3 86/57/3 171/152/3
f 41/157/3 86/57/3 184/154/3
f 232/95/3 246/74/3 11/3/3
f 243/35/3 246/74/3 232/95/3
f 87/264/3 42/265/3 41/266/3
f 87/18/3 41/267/3 184/268/3
f 88/269/3 43/270/3 42/271/3
f 88/272/3 42/265/3 87/264/3
f 89/273/3 43/270/3 88/269/3
f 90/15/3 87/18/3 184/268/3
f 90/15/3 45/274/3 89/16/3
f 91/275/3 45/274/3 90/15/3
f 214/276/3 45/274/3 91/275/3
f 218/277/3 45/274/3 214/276/3
f 56/192/3 92/127/3 244/37/3
f 93/194/3 92/127/3 56/192/3
f 94/278/3 90/15/3 184/268/3
f 38/279/3 91/280/3 90/281/3
f 38/282/3 90/15/3 94/278/3
f 95/283/3 214/284/3 91/285/3
f 95/286/3 91/280/3 38/279/3
f 39/287/3 214/284/3 95/283/3
f 96/226/3 94/143/3 174/145/3
f 96/226/3 38/148/3 94/143/3
f 97/233/3 38/148/3 96/226/3
f 98/248/3 245/219/3 65/218/3
f 73/254/3 245/219/3 98/248/3
f 99/261/3 221/244/3 68/238/3
f 222/260/3 221/244/3 99/261/3
f 6/59/3 207/38/3 100/40/3
f 101/64/3 207/38/3 6/59/3
f 10/2/3 234/48/3 102/45/3
f 12/1/3 234/48/3 10/2/3
f 247/128/3 250/99/3 103/101/3
f 33/129/3 250/99/3 247/128/3
f 48/170/3 104/103/3 23/105/3
f 185/172/3 104/103/3 48/170/3
f 66/222/3 57/195/3 105/193/3
f 106/224/3 57/195/3 66/222/3
f 75/256/3 209/240/3 198/235/3
f 107/258/3 209/240/3 75/256/3
f 78/11/3 236/249/3 108/246/3
f 109/262/3 236/249/3 78/11/3
f 176/104/3 186/76/3 110/78/3
f 111/106/3 186/76/3 176/104/3
f 60/200/3 49/173/3 177/171/3
f 61/201/3 49/173/3 60/200/3
f 112/288/3 4/53/3 113/55/3
f 15/289/3 4/53/3 112/288/3
f 114/229/3 115/290/3 178/291/3
f 188/231/3 115/290/3 114/229/3
f 28/6/3 228/91/3 20/93/3
f 31/122/3 228/91/3 28/6/3
f 46/165/3 205/115/3 116/117/3
f 117/167/3 205/115/3 46/165/3
f 54/10/3 240/137/3 227/33/3
f 118/190/3 240/137/3 54/10/3
f 63/213/3 54/10/3 52/8/3
f 119/215/3 54/10/3 63/213/3
f 3/51/4 187/50/4 173/153/4
f 173/153/4 187/50/4 40/155/4
f 120/144/4 121/146/4 175/227/4
f 175/227/4 121/146/4 122/228/4
f 123/39/4 124/41/4 196/60/4
f 196/60/4 124/41/4 8/65/4
f 223/46/4 235/49/4 13/72/4
f 13/72/4 235/49/4 125/71/4
f 5/54/4 126/56/4 127/82/4
f 127/82/4 126/56/4 189/80/4
f 128/100/4 22/102/4 35/132/4
f 35/132/4 22/102/4 129/130/4
f 58/196/4 130/198/4 248/223/4
f 248/223/4 130/198/4 251/225/4
f 131/203/4 190/205/4 181/230/4
f 181/230/4 190/205/4 132/232/4
f 197/236/4 133/241/4 76/257/4
f 76/257/4 133/241/4 211/259/4
f 134/250/4 72/251/4 79/13/4
f 79/13/4 72/251/4 237/263/4
f 210/43/4 2/47/4 135/67/4
f 135/67/4 2/47/4 9/69/4
f 136/58/4 7/61/4 17/83/4
f 17/83/4 7/61/4 200/84/4
f 14/73/4 137/75/4 238/98/4
f 238/98/4 137/75/4 21/97/4
f 16/81/4 17/83/4 25/109/4
f 25/109/4 17/83/4 24/107/4
f 34/131/4 252/133/4 138/197/4
f 138/197/4 252/133/4 59/199/4
f 50/174/4 139/176/4 182/204/4
f 182/204/4 139/176/4 62/206/4
f 62/206/4 140/207/4 67/234/4
f 67/234/4 140/207/4 202/237/4
f 141/220/4 249/221/4 142/252/4
f 142/252/4 249/221/4 74/255/4
f 70/243/4 224/245/4 77/12/4
f 77/12/4 224/245/4 80/14/4
f 199/66/4 143/20/4 18/86/4
f 18/86/4 143/20/4 144/19/4
f 191/85/4 18/86/4 26/110/4
f 26/110/4 18/86/4 204/292/4
f 146/22/4 147/23/4 32/293/4
f 148/108/4 26/110/4 183/175/4
f 183/175/4 26/110/4 149/24/4
f 32/293/4 147/23/4 55/294/4
f 151/26/4 150/25/4 201/208/4
f 152/295/4 55/294/4 226/296/4
f 55/294/4 147/23/4 153/27/4
f 226/296/4 55/294/4 153/27/4
f 226/296/4 153/27/4 155/242/4
f 201/208/4 226/296/4 155/242/4
f 155/242/4 153/27/4 239/253/4
f 203/88/4 225/90/4 27/114/4
f 27/114/4 225/90/4 156/124/4
f 157/112/4 27/114/4 192/178/4
f 192/178/4 27/114/4 51/180/4
f 156/124/4 158/126/4 53/187/4
f 53/187/4 158/126/4 159/189/4
f 51/180/4 53/187/4 160/210/4
f 160/210/4 53/187/4 161/212/4
f 19/92/4 229/32/4 30/4/4
f 193/116/4 162/118/4 163/166/4
f 163/166/4 162/118/4 206/168/4
f 30/4/4 229/32/4 36/135/4
f 36/135/4 229/32/4 230/34/4
f 206/168/4 36/135/4 164/181/4
f 164/181/4 36/135/4 212/182/4
f 230/34/4 241/138/4 165/184/4
f 165/184/4 241/138/4 166/191/4
f 212/182/4 165/184/4 64/214/4
f 64/214/4 165/184/4 167/216/4
f 29/5/4 219/120/4 168/169/4
f 168/169/4 219/120/4 47/134/4
f 47/134/4 169/136/4 170/183/4
f 170/183/4 169/136/4 231/185/4
f 3/51/5 171/152/5 172/52/5
f 173/153/5 171/152/5 3/51/5
f 120/144/5 96/226/5 174/145/5
f 175/227/5 96/226/5 120/144/5
f 176/104/5 48/170/5 23/105/5
f 177/171/5 48/170/5 176/104/5
f 112/77/5 176/104/5 110/78/5
f 112/77/5 60/200/5 177/171/5
f 112/77/5 177/171/5 176/104/5
f 178/30/5 60/200/5 112/77/5
f 5/54/5 112/288/5 113/55/5
f 127/297/5 178/30/5 112/77/5
f 127/82/5 112/288/5 5/54/5
f 179/31/5 178/30/5 127/297/5
f 131/203/5 114/229/5 178/291/5
f 131/298/5 178/30/5 180/29/5
f 181/230/5 114/229/5 131/203/5
f 16/81/5 179/299/5 127/82/5
f 25/300/5 180/29/5 179/31/5
f 25/109/5 179/299/5 16/81/5
f 50/174/5 131/203/5 180/301/5
f 50/302/5 180/29/5 25/300/5
f 182/204/5 131/203/5 50/174/5
f 148/108/5 50/174/5 25/109/5
f 183/175/5 50/174/5 148/108/5
f 40/303/5 94/278/5 184/268/5
f 104/304/5 94/278/5 40/303/5
f 185/305/5 94/278/5 104/304/5
f 121/306/5 94/278/5 185/305/5
f 186/307/5 40/155/5 187/50/5
f 186/308/5 104/304/5 40/303/5
f 111/309/5 104/304/5 186/308/5
f 49/310/5 121/306/5 185/305/5
f 61/311/5 122/228/5 121/146/5
f 61/312/5 121/306/5 49/310/5
f 4/53/5 186/307/5 187/50/5
f 15/289/5 186/307/5 4/53/5
f 115/290/5 122/228/5 61/311/5
f 188/231/5 122/228/5 115/290/5
f 136/58/5 189/80/5 126/56/5
f 17/83/5 189/80/5 136/58/5
f 62/206/5 132/232/5 190/205/5
f 67/234/5 132/232/5 62/206/5
f 191/85/5 24/107/5 17/83/5
f 26/110/5 24/107/5 191/85/5
f 149/24/5 62/206/5 139/176/5
f 151/26/5 62/206/5 149/24/5
f 157/112/5 149/177/5 26/113/5
f 192/178/5 149/177/5 157/112/5
f 193/116/5 46/165/5 116/117/5
f 163/166/5 46/165/5 193/116/5
f 86/57/5 81/156/5 194/63/5
f 41/157/5 81/156/5 86/57/5
f 38/148/5 69/239/5 195/149/5
f 97/233/5 69/239/5 38/148/5
f 123/39/5 6/59/5 100/40/5
f 196/60/5 6/59/5 123/39/5
f 197/236/5 75/256/5 198/235/5
f 76/257/5 75/256/5 197/236/5
f 199/66/5 200/84/5 7/61/5
f 18/86/5 200/84/5 199/66/5
f 201/208/5 202/237/5 140/207/5
f 155/242/5 202/237/5 201/208/5
f 203/88/5 204/111/5 18/89/5
f 27/114/5 204/111/5 203/88/5
f 51/180/5 201/209/5 150/179/5
f 160/210/5 201/209/5 51/180/5
f 205/115/5 51/7/5 27/119/5
f 117/167/5 51/7/5 205/115/5
f 206/168/5 51/7/5 117/167/5
f 164/181/5 51/7/5 206/168/5
f 29/5/5 206/168/5 162/118/5
f 168/169/5 206/168/5 29/5/5
f 207/38/5 208/62/5 85/44/5
f 101/64/5 208/62/5 207/38/5
f 209/240/5 99/261/5 68/238/5
f 107/258/5 99/261/5 209/240/5
f 210/43/5 8/65/5 124/41/5
f 135/67/5 8/65/5 210/43/5
f 70/243/5 211/259/5 133/241/5
f 77/12/5 211/259/5 70/243/5
f 19/92/5 28/6/5 20/93/5
f 30/4/5 28/6/5 19/92/5
f 212/182/5 63/213/5 52/8/5
f 64/214/5 63/213/5 212/182/5
f 47/134/5 212/182/5 36/135/5
f 170/183/5 212/182/5 47/134/5
f 43/160/5 44/161/5 213/159/5
f 89/162/5 44/161/5 43/160/5
f 214/140/5 215/150/5 37/141/5
f 39/151/5 215/150/5 214/140/5
f 45/164/5 216/139/5 217/163/5
f 218/142/5 216/139/5 45/164/5
f 30/4/6 36/135/6 219/120/6
f 219/120/6 36/135/6 47/134/6
f 1/42/6 220/68/6 102/45/6
f 102/45/6 220/68/6 10/2/6
f 221/244/6 222/260/6 108/246/6
f 108/246/6 222/260/6 78/11/6
f 223/46/6 13/72/6 2/47/6
f 2/47/6 13/72/6 9/69/6
f 134/250/6 79/13/6 224/245/6
f 224/245/6 79/13/6 80/14/6
f 144/87/6 146/125/6 225/90/6
f 225/90/6 146/125/6 156/124/6
f 152/186/6 226/211/6 53/187/6
f 53/187/6 226/211/6 161/212/6
f 156/121/6 53/9/6 31/122/6
f 31/122/6 53/9/6 227/33/6
f 227/33/6 53/9/6 54/10/6
f 228/91/6 31/122/6 229/32/6
f 31/122/6 227/33/6 229/32/6
f 54/10/6 119/215/6 165/184/6
f 165/184/6 119/215/6 167/216/6
f 230/34/6 165/184/6 169/136/6
f 169/136/6 165/184/6 231/185/6
f 82/70/6 83/96/6 11/3/6
f 11/3/6 83/96/6 232/95/6
f 233/217/6 71/247/6 65/218/6
f 65/218/6 71/247/6 98/248/6
f 234/48/6 12/1/6 235/49/6
f 235/49/6 12/1/6 125/71/6
f 236/249/6 109/262/6 72/251/6
f 72/251/6 109/262/6 237/263/6
f 14/73/6 238/98/6 143/20/6
f 143/20/6 238/98/6 145/21/6
f 141/220/6 142/252/6 153/27/6
f 153/27/6 142/252/6 239/253/6
f 32/123/6 55/188/6 158/126/6
f 158/126/6 55/188/6 159/189/6
f 240/137/6 118/190/6 241/138/6
f 241/138/6 118/190/6 166/191/6
f 84/94/6 242/36/6 243/35/6
f 244/37/6 242/36/6 56/192/6
f 56/192/6 242/36/6 245/219/6
f 246/74/6 243/35/6 103/101/6
f 243/35/6 244/37/6 103/101/6
f 103/101/6 244/37/6 247/128/6
f 245/219/6 73/254/6 105/193/6
f 56/192/6 245/219/6 105/193/6
f 105/193/6 73/254/6 66/222/6
f 246/74/6 103/101/6 128/100/6
f 66/222/6 73/254/6 248/223/6
f 128/100/6 35/132/6 137/75/6
f 246/74/6 128/100/6 137/75/6
f 137/75/6 35/132/6 21/97/6
f 21/97/6 35/132/6 34/131/6
f 58/196/6 248/223/6 138/197/6
f 248/223/6 73/254/6 249/221/6
f 138/197/6 248/223/6 249/221/6
f 249/221/6 73/254/6 74/255/6
f 21/97/6 34/131/6 147/23/6
f 34/131/6 138/197/6 147/23/6
f 138/197/6 249/221/6 147/23/6
f 147/23/6 249/221/6 154/28/6
f 92/127/6 93/194/6 33/129/6
f 33/129/6 93/194/6 57/195/6
f 250/99/6 33/129/6 22/102/6
f 57/195/6 106/224/6 22/102/6
f 33/129/6 57/195/6 22/102/6
f 22/102/6 106/224/6 129/130/6
f 129/130/6 106/224/6 130/198/6
f 130/198/6 106/224/6 251/225/6
f 129/130/6 130/198/6 252/133/6
f 252/133/6 130/198/6 59/199/6
