# Blender v2.79 (sub 0) OBJ File: 'Zombie.blend'
# www.blender.org
mtllib ZombieTorso.mtl
o Zombie.001
v -4.000009 -4.241380 -1.000001
v -3.000009 -4.241380 -1.000001
v -3.000009 1.758620 1.000000
v -3.000009 -0.241380 -2.000000
v -3.000009 1.758620 -1.000000
v -3.000009 2.758620 1.000000
v -3.000009 2.758621 -1.000000
v -3.000009 3.758620 1.000000
v -3.000009 3.758621 -1.000000
v -3.000009 3.758621 -2.000000
v -3.000009 4.758620 1.000001
v -3.000009 4.758620 -0.999999
v -2.000009 -2.241380 2.999999
v -2.000009 -4.241380 2.999999
v -2.000009 -4.241379 -3.000001
v -2.000009 -1.241380 2.000000
v -2.000009 -2.241379 -1.000000
v -2.000009 -0.241380 1.000000
v -2.000009 -0.241380 -2.000000
v -2.000009 3.758621 -1.000000
v -2.000009 4.758621 -1.999999
v 1.999991 -2.241379 -2.000001
v 1.999991 -2.241379 -3.000001
v 1.999991 -1.241380 1.000000
v 1.999991 -1.241380 -1.000000
v 1.999991 -0.241380 -1.000000
v 1.999991 3.758620 2.000000
v 1.999991 4.758620 -0.999999
v 2.999991 -4.241380 1.999999
v 2.999991 -2.241380 0.999999
v 2.999991 -4.241380 -1.000001
v 2.999991 -1.241380 -1.000000
v 2.999991 1.758620 1.000000
v 2.999991 -0.241380 -2.000000
v 2.999991 -0.241380 2.000000
v 2.999991 1.758620 -1.000000
v 2.999991 2.758620 1.000000
v 2.999991 2.758621 -1.000000
v 2.999991 2.758621 -2.000000
v 2.999991 3.758620 2.000000
v 2.999991 3.758621 -1.000000
v 2.999991 4.758620 -0.999999
v 3.999991 -4.241380 0.999999
v 3.999991 -4.241380 -1.000001
v 3.999991 -2.241380 0.999999
v 3.999991 -2.241379 -1.000000
v 1.999991 -4.241380 2.999999
v 1.999991 -2.241380 2.999999
v -2.000009 -4.241380 1.999999
v -3.000009 -2.241380 2.000000
v -3.000009 2.758620 2.000000
v -3.000009 -0.241380 2.000000
v -2.000009 2.758620 2.000000
v 1.999991 -1.241380 2.000000
v 1.999991 2.758620 2.000000
v 1.999991 -4.241380 1.999999
v 2.999991 2.758620 2.000000
v -3.000009 -4.241380 0.999999
v -3.000009 -1.241380 1.000000
v -2.000009 -1.241380 1.000000
v -3.000009 -0.241380 1.000000
v 2.999991 -1.241380 1.000000
v 2.999991 -0.241380 1.000000
v 2.999991 3.758620 1.000000
v 1.999991 4.758620 1.000001
v 2.999991 -4.241380 0.999999
v -4.000009 -2.241379 -1.000000
v -3.000009 -1.241380 -1.000000
v -3.000009 -0.241380 -1.000000
v -2.000009 -1.241380 -1.000000
v -2.000009 4.758620 -0.999999
v 1.999991 -2.241379 -1.000000
v 2.999991 -2.241379 -1.000000
v -3.000009 -2.241379 -2.000001
v -2.000009 -4.241379 -2.000001
v -3.000009 2.758621 -2.000000
v -2.000009 2.758621 -2.000000
v -2.000009 -1.241379 -2.000000
v 1.999991 -1.241379 -2.000000
v 1.999991 -0.241380 -2.000000
v 1.999991 2.758621 -2.000000
v 1.999991 4.758621 -1.999999
v 2.999991 -4.241379 -2.000001
v 2.999991 -2.241379 -2.000001
v 1.999991 -4.241379 -3.000001
v -3.000009 -4.241380 1.999999
v -4.000009 -4.241380 0.999999
v -3.000009 -4.241379 -2.000001
v 1.999991 -4.241379 -2.000001
v -2.000009 -0.241380 2.000000
v 1.999991 -0.241380 1.000000
v 1.999991 -0.241380 2.000000
v -2.000009 -0.241380 -1.000000
v 2.999991 -0.241380 -1.000000
v -2.000009 -2.241380 2.000000
v 1.999991 -2.241380 2.000000
v -3.000009 -2.241380 0.999999
v -2.000009 -2.241380 0.999999
v 2.999991 -2.241380 2.000000
v 1.999991 -2.241380 0.999999
v -4.000009 -2.241380 0.999999
v -3.000009 -2.241379 -1.000000
v -2.000009 -2.241379 -2.000001
v -2.000009 -2.241379 -3.000001
v -3.000009 3.758620 2.000000
v -2.000009 3.758620 2.000000
v -2.000009 3.758620 1.000000
v 1.999991 3.758620 1.000000
v -2.000009 3.758621 -2.000000
v 1.999991 3.758621 -1.000000
v 1.999991 3.758621 -2.000000
v 2.999991 3.758621 -2.000000
v -2.000009 4.758620 2.000001
v 1.999991 4.758620 2.000001
v -2.000009 4.758620 1.000001
v 2.999991 4.758620 1.000001
vt 0.982422 0.500000
vt 0.982422 0.500000
vt 0.982422 0.500000
vt 0.978516 0.500000
vt 0.978516 0.500000
vt 0.978516 0.500000
vt 0.982422 0.500000
vt 0.978516 0.500000
vt 0.978516 0.500000
vt 0.978516 0.500000
vt 0.978516 0.500000
vt 0.978516 0.500000
vt 0.982422 0.500000
vt 0.982422 0.500000
vt 0.982422 0.500000
vt 0.978516 0.500000
vt 0.978516 0.500000
vt 0.978516 0.500000
vt 0.982422 0.500000
vt 0.978516 0.500000
vt 0.982422 0.500000
vt 0.978516 0.500000
vt 0.978516 0.500000
vt 0.134766 0.500000
vt 0.134766 0.500000
vt 0.134766 0.500000
vt 0.134766 0.500000
vt 0.982422 0.500000
vt 0.982422 0.500000
vt 0.982422 0.500000
vt 0.982422 0.500000
vt 0.982422 0.500000
vt 0.982422 0.500000
vt 0.134766 0.500000
vt 0.134766 0.500000
vt 0.134766 0.500000
vt 0.134766 0.500000
vt 0.134766 0.500000
vt 0.134766 0.500000
vt 0.982422 0.500000
vt 0.982422 0.500000
vt 0.982422 0.500000
vt 0.134766 0.500000
vt 0.134766 0.500000
vt 0.134766 0.500000
vt 0.134766 0.500000
vt 0.134766 0.500000
vt 0.134766 0.500000
vt 0.134766 0.500000
vt 0.134766 0.500000
vt 0.134766 0.500000
vt 0.134766 0.500000
vt 0.134766 0.500000
vt 0.134766 0.500000
vt 0.134766 0.500000
vt 0.982422 0.500000
vt 0.982422 0.500000
vt 0.982422 0.500000
vt 0.982422 0.500000
vt 0.978516 0.500000
vt 0.978516 0.500000
vt 0.978516 0.500000
vt 0.978516 0.500000
vt 0.134766 0.500000
vt 0.134766 0.500000
vt 0.134766 0.500000
vt 0.134766 0.500000
vt 0.134766 0.500000
vt 0.134766 0.500000
vt 0.134766 0.500000
vt 0.134766 0.500000
vt 0.134766 0.500000
vt 0.134766 0.500000
vt 0.134766 0.500000
vt 0.134766 0.500000
vt 0.982422 0.500000
vt 0.982422 0.500000
vt 0.982422 0.500000
vt 0.982422 0.500000
vt 0.982422 0.500000
vt 0.982422 0.500000
vt 0.982422 0.500000
vt 0.982422 0.500000
vt 0.982422 0.500000
vt 0.982422 0.500000
vt 0.982422 0.500000
vt 0.982422 0.500000
vt 0.134766 0.500000
vt 0.134766 0.500000
vt 0.134766 0.500000
vt 0.134766 0.500000
vt 0.134766 0.500000
vt 0.134766 0.500000
vt 0.134766 0.500000
vt 0.134766 0.500000
vt 0.134766 0.500000
vt 0.134766 0.500000
vt 0.134766 0.500000
vt 0.134766 0.500000
vt 0.982422 0.500000
vt 0.982422 0.500000
vt 0.982422 0.500000
vt 0.982422 0.500000
vt 0.982422 0.500000
vt 0.982422 0.500000
vt 0.982422 0.500000
vt 0.982422 0.500000
vt 0.982422 0.500000
vt 0.982422 0.500000
vt 0.982422 0.500000
vt 0.982422 0.500000
vt 0.982422 0.500000
vt 0.982422 0.500000
vt 0.982422 0.500000
vt 0.134766 0.500000
vt 0.134766 0.500000
vt 0.134766 0.500000
vt 0.134766 0.500000
vt 0.134766 0.500000
vt 0.134766 0.500000
vt 0.134766 0.500000
vt 0.134766 0.500000
vt 0.134766 0.500000
vt 0.982422 0.500000
vt 0.982422 0.500000
vt 0.982422 0.500000
vt 0.982422 0.500000
vt 0.982422 0.500000
vt 0.982422 0.500000
vt 0.982422 0.500000
vt 0.978516 0.500000
vt 0.978516 0.500000
vt 0.978516 0.500000
vt 0.978516 0.500000
vt 0.978516 0.500000
vt 0.978516 0.500000
vt 0.978516 0.500000
vt 0.982422 0.500000
vt 0.978516 0.500000
vt 0.982422 0.500000
vt 0.978516 0.500000
vt 0.978516 0.500000
vt 0.978516 0.500000
vt 0.978516 0.500000
vt 0.978516 0.500000
vt 0.978516 0.500000
vt 0.978516 0.500000
vt 0.978516 0.500000
vt 0.978516 0.500000
vt 0.978516 0.500000
vt 0.978516 0.500000
vt 0.982422 0.500000
vt 0.978516 0.500000
vt 0.982422 0.500000
vt 0.978516 0.500000
vt 0.978516 0.500000
vn -1.0000 0.0000 0.0000
vn 1.0000 0.0000 0.0000
vn 0.0000 -0.0000 1.0000
vn 0.0000 0.0000 -1.0000
vn 0.0000 1.0000 0.0000
vn 0.0000 -1.0000 0.0000
usemtl palette
s off
f 5/1/1 4/2/1 3/3/1
f 6/4/1 5/5/1 3/6/1
f 7/7/1 4/2/1 5/1/1
f 7/8/1 5/5/1 6/4/1
f 11/9/1 9/10/1 8/11/1
f 12/12/1 9/10/1 11/9/1
f 33/13/2 34/14/2 36/15/2
f 33/16/2 36/17/2 37/18/2
f 36/15/2 34/14/2 38/19/2
f 37/18/2 36/17/2 38/20/2
f 38/19/2 34/14/2 39/21/2
f 37/18/2 38/20/2 40/22/2
f 38/20/2 39/23/2 40/22/2
f 43/24/2 44/25/2 45/26/2
f 45/26/2 44/25/2 46/27/2
f 60/28/3 61/29/3 59/30/3
f 68/31/4 69/32/4 70/33/4
f 97/34/5 95/35/5 98/36/5
f 96/37/5 99/38/5 100/39/5
f 113/40/5 114/41/5 115/42/5
f 101/43/1 1/44/1 87/45/1
f 67/46/1 1/44/1 101/43/1
f 50/47/1 58/48/1 86/49/1
f 97/34/1 58/48/1 50/47/1
f 102/50/1 88/51/1 2/52/1
f 74/53/1 88/51/1 102/50/1
f 59/54/1 102/50/1 97/34/1
f 68/55/1 102/50/1 59/54/1
f 61/29/1 68/31/1 59/30/1
f 69/32/1 68/31/1 61/29/1
f 3/3/1 69/32/1 61/29/1
f 3/3/1 4/2/1 69/32/1
f 3/3/1 61/29/1 52/56/1
f 51/57/1 3/3/1 52/56/1
f 6/58/1 3/3/1 51/57/1
f 76/59/1 4/2/1 7/7/1
f 105/60/1 6/4/1 51/61/1
f 105/60/1 7/8/1 6/4/1
f 105/60/1 76/62/1 7/8/1
f 8/11/1 76/62/1 105/60/1
f 9/10/1 76/62/1 8/11/1
f 10/63/1 76/62/1 9/10/1
f 13/64/1 49/65/1 14/66/1
f 95/35/1 49/65/1 13/64/1
f 103/67/1 15/68/1 75/69/1
f 104/70/1 15/68/1 103/67/1
f 16/71/1 98/36/1 95/35/1
f 60/72/1 98/36/1 16/71/1
f 70/73/1 103/67/1 17/74/1
f 78/75/1 103/67/1 70/73/1
f 90/76/1 60/28/1 16/77/1
f 18/78/1 60/28/1 90/76/1
f 93/79/1 78/80/1 70/33/1
f 19/81/1 78/80/1 93/79/1
f 113/40/1 107/82/1 106/83/1
f 115/42/1 107/82/1 113/40/1
f 71/84/1 109/85/1 20/86/1
f 21/87/1 109/85/1 71/84/1
f 47/88/2 56/89/2 48/90/2
f 48/90/2 56/89/2 96/37/2
f 89/91/2 85/92/2 22/93/2
f 22/93/2 85/92/2 23/94/2
f 96/37/2 100/39/2 54/95/2
f 54/95/2 100/39/2 24/96/2
f 72/97/2 22/93/2 25/98/2
f 25/98/2 22/93/2 79/99/2
f 54/100/2 24/101/2 92/102/2
f 92/102/2 24/101/2 91/103/2
f 25/104/2 79/105/2 26/106/2
f 26/106/2 79/105/2 80/107/2
f 27/108/2 108/109/2 114/41/2
f 114/41/2 108/109/2 65/110/2
f 110/111/2 111/112/2 28/113/2
f 28/113/2 111/112/2 82/114/2
f 29/115/2 66/116/2 99/38/2
f 99/38/2 66/116/2 30/117/2
f 31/118/2 83/119/2 73/120/2
f 73/120/2 83/119/2 84/121/2
f 30/117/2 73/120/2 62/122/2
f 62/122/2 73/120/2 32/123/2
f 62/124/2 32/125/2 63/126/2
f 63/126/2 32/125/2 94/127/2
f 63/126/2 94/127/2 33/13/2
f 94/127/2 34/14/2 33/13/2
f 35/128/2 63/126/2 33/13/2
f 35/128/2 33/13/2 57/129/2
f 57/129/2 33/13/2 37/130/2
f 57/131/2 37/18/2 40/22/2
f 40/22/2 39/23/2 64/132/2
f 64/132/2 39/23/2 41/133/2
f 41/133/2 39/23/2 112/134/2
f 64/132/2 41/133/2 116/135/2
f 116/135/2 41/133/2 42/136/2
f 47/88/3 13/64/3 14/66/3
f 48/90/3 13/64/3 47/88/3
f 49/65/3 50/47/3 86/49/3
f 95/35/3 50/47/3 49/65/3
f 90/76/3 51/57/3 52/56/3
f 53/137/3 105/60/3 51/61/3
f 53/138/3 51/57/3 90/76/3
f 106/139/3 105/60/3 53/137/3
f 96/37/3 16/71/3 95/35/3
f 54/100/3 113/40/3 106/83/3
f 54/100/3 90/76/3 16/77/3
f 54/95/3 16/71/3 96/37/3
f 54/100/3 106/83/3 53/138/3
f 54/100/3 53/138/3 90/76/3
f 92/102/3 113/40/3 54/100/3
f 55/140/3 113/40/3 92/102/3
f 27/108/3 113/40/3 55/140/3
f 114/41/3 113/40/3 27/108/3
f 29/115/3 96/37/3 56/89/3
f 99/38/3 96/37/3 29/115/3
f 35/128/3 55/140/3 92/102/3
f 57/131/3 27/141/3 55/142/3
f 57/129/3 55/140/3 35/128/3
f 40/22/3 27/141/3 57/131/3
f 58/48/3 101/43/3 87/45/3
f 97/34/3 101/43/3 58/48/3
f 98/36/3 59/54/3 97/34/3
f 60/72/3 59/54/3 98/36/3
f 18/78/3 61/29/3 60/28/3
f 107/143/3 11/9/3 8/11/3
f 115/144/3 11/9/3 107/143/3
f 30/117/3 24/96/3 100/39/3
f 62/124/3 91/103/3 24/101/3
f 62/122/3 24/96/3 30/117/3
f 63/126/3 91/103/3 62/124/3
f 64/132/3 65/145/3 108/146/3
f 116/135/3 65/145/3 64/132/3
f 43/24/3 30/117/3 66/116/3
f 45/26/3 30/117/3 43/24/3
f 1/44/4 67/46/4 2/52/4
f 2/52/4 67/46/4 102/50/4
f 102/50/4 68/55/4 17/74/4
f 17/74/4 68/55/4 70/73/4
f 70/33/4 69/32/4 93/79/4
f 9/10/4 12/12/4 20/147/4
f 20/147/4 12/12/4 71/148/4
f 72/97/4 25/98/4 73/120/4
f 25/104/4 26/106/4 32/125/4
f 73/120/4 25/98/4 32/123/4
f 32/125/4 26/106/4 94/127/4
f 110/149/4 28/150/4 41/133/4
f 41/133/4 28/150/4 42/136/4
f 31/118/4 73/120/4 44/25/4
f 44/25/4 73/120/4 46/27/4
f 88/51/4 74/53/4 75/69/4
f 75/69/4 74/53/4 103/67/4
f 4/2/4 76/59/4 19/81/4
f 76/62/4 10/63/4 77/151/4
f 19/81/4 76/59/4 77/152/4
f 77/151/4 10/63/4 109/153/4
f 103/67/4 78/75/4 22/93/4
f 109/85/4 21/87/4 79/105/4
f 78/80/4 19/81/4 79/105/4
f 22/93/4 78/75/4 79/99/4
f 77/152/4 109/85/4 79/105/4
f 19/81/4 77/152/4 79/105/4
f 79/105/4 21/87/4 80/107/4
f 80/107/4 21/87/4 81/154/4
f 81/154/4 21/87/4 111/112/4
f 111/112/4 21/87/4 82/114/4
f 89/91/4 22/93/4 83/119/4
f 83/119/4 22/93/4 84/121/4
f 80/107/4 81/154/4 34/14/4
f 81/155/4 111/156/4 39/23/4
f 34/14/4 81/154/4 39/21/4
f 39/23/4 111/156/4 112/134/4
f 15/68/4 104/70/4 85/92/4
f 85/92/4 104/70/4 23/94/4
f 49/65/6 47/88/6 14/66/6
f 56/89/6 47/88/6 49/65/6
f 58/48/6 49/65/6 86/49/6
f 58/48/6 29/115/6 56/89/6
f 58/48/6 56/89/6 49/65/6
f 66/116/6 29/115/6 58/48/6
f 1/44/6 58/48/6 87/45/6
f 1/44/6 43/24/6 66/116/6
f 1/44/6 66/116/6 58/48/6
f 2/52/6 43/24/6 1/44/6
f 31/118/6 43/24/6 2/52/6
f 44/25/6 43/24/6 31/118/6
f 88/51/6 31/118/6 2/52/6
f 75/69/6 31/118/6 88/51/6
f 89/91/6 31/118/6 75/69/6
f 83/119/6 31/118/6 89/91/6
f 15/68/6 89/91/6 75/69/6
f 85/92/6 89/91/6 15/68/6
f 61/29/6 90/76/6 52/56/6
f 18/78/6 90/76/6 61/29/6
f 91/103/6 35/128/6 92/102/6
f 63/126/6 35/128/6 91/103/6
f 4/2/6 93/79/6 69/32/6
f 19/81/6 93/79/6 4/2/6
f 80/107/6 94/127/6 26/106/6
f 34/14/6 94/127/6 80/107/6
f 13/64/5 48/90/5 95/35/5
f 95/35/5 48/90/5 96/37/5
f 50/47/5 95/35/5 97/34/5
f 100/39/5 99/38/5 30/117/5
f 101/43/5 97/34/5 67/46/5
f 67/46/5 97/34/5 102/50/5
f 30/117/5 45/26/5 73/120/5
f 73/120/5 45/26/5 46/27/5
f 102/50/5 17/74/5 74/53/5
f 74/53/5 17/74/5 103/67/5
f 72/97/5 73/120/5 22/93/5
f 22/93/5 73/120/5 84/121/5
f 103/67/5 22/93/5 104/70/5
f 104/70/5 22/93/5 23/94/5
f 105/60/5 106/139/5 8/11/5
f 8/11/5 106/139/5 107/143/5
f 27/141/5 40/22/5 108/146/5
f 108/146/5 40/22/5 64/132/5
f 9/10/5 20/147/5 10/63/5
f 10/63/5 20/147/5 109/153/5
f 110/149/5 41/133/5 111/156/5
f 111/156/5 41/133/5 112/134/5
f 115/42/5 114/41/5 65/110/5
f 11/9/5 115/144/5 12/12/5
f 115/42/5 65/110/5 71/84/5
f 12/12/5 115/144/5 71/148/5
f 65/145/5 116/135/5 28/150/5
f 71/84/5 65/110/5 28/113/5
f 28/150/5 116/135/5 42/136/5
f 71/84/5 28/113/5 21/87/5
f 21/87/5 28/113/5 82/114/5
