# MagicaVoxel @ Ephtracy

# group
g A

# material
mtllib A.mtl
usemtl palette

# normals
vn -1 0 0
vn 1 0 0
vn 0 0 1
vn 0 0 -1
vn 0 -1 0
vn 0 1 0

# texcoords
vt 0.740234 0.5
vt 0.771484 0.5
vt 0.794922 0.5

# verts
v -10 8 1.5
v -10 8 -1.5
v -10 12 1.5
v -10 12 -1.5
v -9 5 1.5
v -9 5 -1.5
v -9 8 2.5
v -9 8 1.5
v -9 8 -1.5
v -9 8 -2.5
v -9 12 2.5
v -9 12 1.5
v -9 12 -1.5
v -9 12 -2.5
v -9 15 1.5
v -9 15 -1.5
v -8 3 1.5
v -8 3 -1.5
v -8 5 2.5
v -8 5 1.5
v -8 5 -1.5
v -8 5 -2.5
v -8 8 2.5
v -8 8 1.5
v -8 8 -1.5
v -8 8 -2.5
v -8 12 2.5
v -8 12 1.5
v -8 12 -1.5
v -8 12 -2.5
v -8 15 2.5
v -8 15 1.5
v -8 15 -1.5
v -8 15 -2.5
v -8 17 1.5
v -8 17 -1.5
v -7 2 1.5
v -7 2 -1.5
v -7 3 2.5
v -7 3 1.5
v -7 3 -1.5
v -7 3 -2.5
v -7 5 2.5
v -7 5 1.5
v -7 5 -1.5
v -7 5 -2.5
v -7 15 2.5
v -7 15 1.5
v -7 15 -1.5
v -7 15 -2.5
v -7 17 2.5
v -7 17 1.5
v -7 17 -1.5
v -7 17 -2.5
v -7 18 1.5
v -7 18 -1.5
v -5 1 1.5
v -5 1 -1.5
v -5 2 2.5
v -5 2 1.5
v -5 2 -1.5
v -5 2 -2.5
v -5 3 2.5
v -5 3 1.5
v -5 3 -1.5
v -5 3 -2.5
v -5 17 2.5
v -5 17 1.5
v -5 17 -1.5
v -5 17 -2.5
v -5 18 2.5
v -5 18 1.5
v -5 18 -1.5
v -5 18 -2.5
v -5 19 1.5
v -5 19 -1.5
v -2 0 1.5
v -2 0 -1.5
v -2 1 2.5
v -2 1 1.5
v -2 1 -1.5
v -2 1 -2.5
v -2 2 2.5
v -2 2 1.5
v -2 2 -1.5
v -2 2 -2.5
v -2 18 2.5
v -2 18 1.5
v -2 18 -1.5
v -2 18 -2.5
v -2 19 2.5
v -2 19 1.5
v -2 19 -1.5
v -2 19 -2.5
v -2 20 1.5
v -2 20 -1.5
v 2 0 1.5
v 2 0 -1.5
v 2 1 2.5
v 2 1 1.5
v 2 1 -1.5
v 2 1 -2.5
v 2 2 2.5
v 2 2 1.5
v 2 2 -1.5
v 2 2 -2.5
v 2 18 2.5
v 2 18 1.5
v 2 18 -1.5
v 2 18 -2.5
v 2 19 2.5
v 2 19 1.5
v 2 19 -1.5
v 2 19 -2.5
v 2 20 1.5
v 2 20 -1.5
v 5 1 1.5
v 5 1 -1.5
v 5 2 2.5
v 5 2 1.5
v 5 2 -1.5
v 5 2 -2.5
v 5 3 2.5
v 5 3 1.5
v 5 3 -1.5
v 5 3 -2.5
v 5 17 2.5
v 5 17 1.5
v 5 17 -1.5
v 5 17 -2.5
v 5 18 2.5
v 5 18 1.5
v 5 18 -1.5
v 5 18 -2.5
v 5 19 1.5
v 5 19 -1.5
v 7 2 1.5
v 7 2 -1.5
v 7 3 2.5
v 7 3 1.5
v 7 3 -1.5
v 7 3 -2.5
v 7 5 2.5
v 7 5 1.5
v 7 5 -1.5
v 7 5 -2.5
v 7 15 2.5
v 7 15 1.5
v 7 15 -1.5
v 7 15 -2.5
v 7 17 2.5
v 7 17 1.5
v 7 17 -1.5
v 7 17 -2.5
v 7 18 1.5
v 7 18 -1.5
v 8 3 1.5
v 8 3 -1.5
v 8 5 2.5
v 8 5 1.5
v 8 5 -1.5
v 8 5 -2.5
v 8 8 2.5
v 8 8 1.5
v 8 8 -1.5
v 8 8 -2.5
v 8 12 2.5
v 8 12 1.5
v 8 12 -1.5
v 8 12 -2.5
v 8 15 2.5
v 8 15 1.5
v 8 15 -1.5
v 8 15 -2.5
v 8 17 1.5
v 8 17 -1.5
v 9 5 1.5
v 9 5 -1.5
v 9 8 2.5
v 9 8 1.5
v 9 8 -1.5
v 9 8 -2.5
v 9 12 2.5
v 9 12 1.5
v 9 12 -1.5
v 9 12 -2.5
v 9 15 1.5
v 9 15 -1.5
v 10 8 1.5
v 10 8 -1.5
v 10 12 1.5
v 10 12 -1.5
v -9 8 2.5
v -9 12 2.5
v -8 5 2.5
v -8 8 2.5
v -8 12 2.5
v -8 15 2.5
v -7 3 2.5
v -7 5 2.5
v -7 15 2.5
v -7 17 2.5
v -6 4 2.5
v -6 9 2.5
v -5 2 2.5
v -5 3 2.5
v -5 5 2.5
v -5 9 2.5
v -5 12 2.5
v -5 17 2.5
v -5 18 2.5
v -4 9 2.5
v -4 12 2.5
v -4 14 2.5
v -3 5 2.5
v -3 6 2.5
v -3 12 2.5
v -3 14 2.5
v -3 16 2.5
v -2 1 2.5
v -2 2 2.5
v -2 4 2.5
v -2 6 2.5
v -2 7 2.5
v -2 9 2.5
v -2 12 2.5
v -2 14 2.5
v -2 16 2.5
v -2 17 2.5
v -2 18 2.5
v -2 19 2.5
v -1 10 2.5
v -1 12 2.5
v -1 13 2.5
v 1 10 2.5
v 1 12 2.5
v 1 13 2.5
v 2 1 2.5
v 2 2 2.5
v 2 4 2.5
v 2 6 2.5
v 2 7 2.5
v 2 9 2.5
v 2 12 2.5
v 2 14 2.5
v 2 16 2.5
v 2 17 2.5
v 2 18 2.5
v 2 19 2.5
v 3 5 2.5
v 3 6 2.5
v 3 12 2.5
v 3 14 2.5
v 3 16 2.5
v 4 9 2.5
v 4 12 2.5
v 4 14 2.5
v 5 2 2.5
v 5 3 2.5
v 5 5 2.5
v 5 9 2.5
v 5 12 2.5
v 5 17 2.5
v 5 18 2.5
v 6 4 2.5
v 6 9 2.5
v 7 3 2.5
v 7 5 2.5
v 7 15 2.5
v 7 17 2.5
v 8 5 2.5
v 8 8 2.5
v 8 12 2.5
v 8 15 2.5
v 9 8 2.5
v 9 12 2.5
v -10 8 1.5
v -10 12 1.5
v -9 5 1.5
v -9 8 1.5
v -9 12 1.5
v -9 15 1.5
v -8 3 1.5
v -8 5 1.5
v -8 8 1.5
v -8 12 1.5
v -8 15 1.5
v -8 17 1.5
v -7 2 1.5
v -7 3 1.5
v -7 5 1.5
v -7 15 1.5
v -7 17 1.5
v -7 18 1.5
v -5 1 1.5
v -5 2 1.5
v -5 3 1.5
v -5 17 1.5
v -5 18 1.5
v -5 19 1.5
v -2 0 1.5
v -2 1 1.5
v -2 2 1.5
v -2 18 1.5
v -2 19 1.5
v -2 20 1.5
v 2 0 1.5
v 2 1 1.5
v 2 2 1.5
v 2 18 1.5
v 2 19 1.5
v 2 20 1.5
v 5 1 1.5
v 5 2 1.5
v 5 3 1.5
v 5 17 1.5
v 5 18 1.5
v 5 19 1.5
v 7 2 1.5
v 7 3 1.5
v 7 5 1.5
v 7 15 1.5
v 7 17 1.5
v 7 18 1.5
v 8 3 1.5
v 8 5 1.5
v 8 8 1.5
v 8 12 1.5
v 8 15 1.5
v 8 17 1.5
v 9 5 1.5
v 9 8 1.5
v 9 12 1.5
v 9 15 1.5
v 10 8 1.5
v 10 12 1.5
v -10 8 -1.5
v -10 12 -1.5
v -9 5 -1.5
v -9 8 -1.5
v -9 12 -1.5
v -9 15 -1.5
v -8 3 -1.5
v -8 5 -1.5
v -8 8 -1.5
v -8 12 -1.5
v -8 15 -1.5
v -8 17 -1.5
v -7 2 -1.5
v -7 3 -1.5
v -7 5 -1.5
v -7 15 -1.5
v -7 17 -1.5
v -7 18 -1.5
v -5 1 -1.5
v -5 2 -1.5
v -5 3 -1.5
v -5 17 -1.5
v -5 18 -1.5
v -5 19 -1.5
v -2 0 -1.5
v -2 1 -1.5
v -2 2 -1.5
v -2 18 -1.5
v -2 19 -1.5
v -2 20 -1.5
v 2 0 -1.5
v 2 1 -1.5
v 2 2 -1.5
v 2 18 -1.5
v 2 19 -1.5
v 2 20 -1.5
v 5 1 -1.5
v 5 2 -1.5
v 5 3 -1.5
v 5 17 -1.5
v 5 18 -1.5
v 5 19 -1.5
v 7 2 -1.5
v 7 3 -1.5
v 7 5 -1.5
v 7 15 -1.5
v 7 17 -1.5
v 7 18 -1.5
v 8 3 -1.5
v 8 5 -1.5
v 8 8 -1.5
v 8 12 -1.5
v 8 15 -1.5
v 8 17 -1.5
v 9 5 -1.5
v 9 8 -1.5
v 9 12 -1.5
v 9 15 -1.5
v 10 8 -1.5
v 10 12 -1.5
v -9 8 -2.5
v -9 12 -2.5
v -8 5 -2.5
v -8 8 -2.5
v -8 12 -2.5
v -8 15 -2.5
v -7 3 -2.5
v -7 5 -2.5
v -7 15 -2.5
v -7 17 -2.5
v -6 4 -2.5
v -6 9 -2.5
v -5 2 -2.5
v -5 3 -2.5
v -5 5 -2.5
v -5 9 -2.5
v -5 12 -2.5
v -5 17 -2.5
v -5 18 -2.5
v -4 9 -2.5
v -4 12 -2.5
v -4 14 -2.5
v -3 5 -2.5
v -3 6 -2.5
v -3 12 -2.5
v -3 14 -2.5
v -3 16 -2.5
v -2 1 -2.5
v -2 2 -2.5
v -2 4 -2.5
v -2 6 -2.5
v -2 7 -2.5
v -2 9 -2.5
v -2 12 -2.5
v -2 14 -2.5
v -2 16 -2.5
v -2 17 -2.5
v -2 18 -2.5
v -2 19 -2.5
v -1 10 -2.5
v -1 12 -2.5
v -1 13 -2.5
v 1 10 -2.5
v 1 12 -2.5
v 1 13 -2.5
v 2 1 -2.5
v 2 2 -2.5
v 2 4 -2.5
v 2 6 -2.5
v 2 7 -2.5
v 2 9 -2.5
v 2 12 -2.5
v 2 14 -2.5
v 2 16 -2.5
v 2 17 -2.5
v 2 18 -2.5
v 2 19 -2.5
v 3 5 -2.5
v 3 6 -2.5
v 3 12 -2.5
v 3 14 -2.5
v 3 16 -2.5
v 4 9 -2.5
v 4 12 -2.5
v 4 14 -2.5
v 5 2 -2.5
v 5 3 -2.5
v 5 5 -2.5
v 5 9 -2.5
v 5 12 -2.5
v 5 17 -2.5
v 5 18 -2.5
v 6 4 -2.5
v 6 9 -2.5
v 7 3 -2.5
v 7 5 -2.5
v 7 15 -2.5
v 7 17 -2.5
v 8 5 -2.5
v 8 8 -2.5
v 8 12 -2.5
v 8 15 -2.5
v 9 8 -2.5
v 9 12 -2.5
v -2 0 1.5
v 2 0 1.5
v -2 0 -1.5
v 2 0 -1.5
v -2 1 2.5
v 2 1 2.5
v -5 1 1.5
v -2 1 1.5
v 2 1 1.5
v 5 1 1.5
v -5 1 -1.5
v -2 1 -1.5
v 2 1 -1.5
v 5 1 -1.5
v -2 1 -2.5
v 2 1 -2.5
v -5 2 2.5
v -2 2 2.5
v 2 2 2.5
v 5 2 2.5
v -7 2 1.5
v -5 2 1.5
v -2 2 1.5
v 2 2 1.5
v 5 2 1.5
v 7 2 1.5
v -7 2 -1.5
v -5 2 -1.5
v -2 2 -1.5
v 2 2 -1.5
v 5 2 -1.5
v 7 2 -1.5
v -5 2 -2.5
v -2 2 -2.5
v 2 2 -2.5
v 5 2 -2.5
v -7 3 2.5
v -5 3 2.5
v 5 3 2.5
v 7 3 2.5
v -8 3 1.5
v -7 3 1.5
v -5 3 1.5
v 5 3 1.5
v 7 3 1.5
v 8 3 1.5
v -8 3 -1.5
v -7 3 -1.5
v -5 3 -1.5
v 5 3 -1.5
v 7 3 -1.5
v 8 3 -1.5
v -7 3 -2.5
v -5 3 -2.5
v 5 3 -2.5
v 7 3 -2.5
v -8 5 2.5
v -7 5 2.5
v 7 5 2.5
v 8 5 2.5
v -9 5 1.5
v -8 5 1.5
v -7 5 1.5
v 7 5 1.5
v 8 5 1.5
v 9 5 1.5
v -9 5 -1.5
v -8 5 -1.5
v -7 5 -1.5
v 7 5 -1.5
v 8 5 -1.5
v 9 5 -1.5
v -8 5 -2.5
v -7 5 -2.5
v 7 5 -2.5
v 8 5 -2.5
v -9 8 2.5
v -8 8 2.5
v 8 8 2.5
v 9 8 2.5
v -10 8 1.5
v -9 8 1.5
v -8 8 1.5
v 8 8 1.5
v 9 8 1.5
v 10 8 1.5
v -10 8 -1.5
v -9 8 -1.5
v -8 8 -1.5
v 8 8 -1.5
v 9 8 -1.5
v 10 8 -1.5
v -9 8 -2.5
v -8 8 -2.5
v 8 8 -2.5
v 9 8 -2.5
v -9 12 2.5
v -8 12 2.5
v 8 12 2.5
v 9 12 2.5
v -10 12 1.5
v -9 12 1.5
v -8 12 1.5
v 8 12 1.5
v 9 12 1.5
v 10 12 1.5
v -10 12 -1.5
v -9 12 -1.5
v -8 12 -1.5
v 8 12 -1.5
v 9 12 -1.5
v 10 12 -1.5
v -9 12 -2.5
v -8 12 -2.5
v 8 12 -2.5
v 9 12 -2.5
v -8 15 2.5
v -7 15 2.5
v 7 15 2.5
v 8 15 2.5
v -9 15 1.5
v -8 15 1.5
v -7 15 1.5
v 7 15 1.5
v 8 15 1.5
v 9 15 1.5
v -9 15 -1.5
v -8 15 -1.5
v -7 15 -1.5
v 7 15 -1.5
v 8 15 -1.5
v 9 15 -1.5
v -8 15 -2.5
v -7 15 -2.5
v 7 15 -2.5
v 8 15 -2.5
v -7 17 2.5
v -5 17 2.5
v 5 17 2.5
v 7 17 2.5
v -8 17 1.5
v -7 17 1.5
v -5 17 1.5
v 5 17 1.5
v 7 17 1.5
v 8 17 1.5
v -8 17 -1.5
v -7 17 -1.5
v -5 17 -1.5
v 5 17 -1.5
v 7 17 -1.5
v 8 17 -1.5
v -7 17 -2.5
v -5 17 -2.5
v 5 17 -2.5
v 7 17 -2.5
v -5 18 2.5
v -2 18 2.5
v 2 18 2.5
v 5 18 2.5
v -7 18 1.5
v -5 18 1.5
v -2 18 1.5
v 2 18 1.5
v 5 18 1.5
v 7 18 1.5
v -7 18 -1.5
v -5 18 -1.5
v -2 18 -1.5
v 2 18 -1.5
v 5 18 -1.5
v 7 18 -1.5
v -5 18 -2.5
v -2 18 -2.5
v 2 18 -2.5
v 5 18 -2.5
v -2 19 2.5
v 2 19 2.5
v -5 19 1.5
v -2 19 1.5
v 2 19 1.5
v 5 19 1.5
v -5 19 -1.5
v -2 19 -1.5
v 2 19 -1.5
v 5 19 -1.5
v -2 19 -2.5
v 2 19 -2.5
v -2 20 1.5
v 2 20 1.5
v -2 20 -1.5
v 2 20 -1.5

# faces
f 3/3/1 2/3/1 1/3/1
f 4/3/1 2/3/1 3/3/1
f 8/3/1 6/3/1 5/3/1
f 9/3/1 6/3/1 8/3/1
f 11/2/1 8/2/1 7/2/1
f 12/2/1 8/2/1 11/2/1
f 13/2/1 10/2/1 9/2/1
f 14/2/1 10/2/1 13/2/1
f 15/3/1 13/3/1 12/3/1
f 16/3/1 13/3/1 15/3/1
f 20/3/1 18/3/1 17/3/1
f 21/3/1 18/3/1 20/3/1
f 23/2/1 20/2/1 19/2/1
f 24/2/1 20/2/1 23/2/1
f 25/2/1 22/2/1 21/2/1
f 26/2/1 22/2/1 25/2/1
f 31/2/1 28/2/1 27/2/1
f 32/2/1 28/2/1 31/2/1
f 33/2/1 30/2/1 29/2/1
f 34/2/1 30/2/1 33/2/1
f 35/3/1 33/3/1 32/3/1
f 36/3/1 33/3/1 35/3/1
f 40/3/1 38/3/1 37/3/1
f 41/3/1 38/3/1 40/3/1
f 43/2/1 40/2/1 39/2/1
f 44/2/1 40/2/1 43/2/1
f 45/2/1 42/2/1 41/2/1
f 46/2/1 42/2/1 45/2/1
f 51/2/1 48/2/1 47/2/1
f 52/2/1 48/2/1 51/2/1
f 53/2/1 50/2/1 49/2/1
f 54/2/1 50/2/1 53/2/1
f 55/3/1 53/3/1 52/3/1
f 56/3/1 53/3/1 55/3/1
f 60/3/1 58/3/1 57/3/1
f 61/3/1 58/3/1 60/3/1
f 63/2/1 60/2/1 59/2/1
f 64/2/1 60/2/1 63/2/1
f 65/2/1 62/2/1 61/2/1
f 66/2/1 62/2/1 65/2/1
f 71/2/1 68/2/1 67/2/1
f 72/2/1 68/2/1 71/2/1
f 73/2/1 70/2/1 69/2/1
f 74/2/1 70/2/1 73/2/1
f 75/3/1 73/3/1 72/3/1
f 76/3/1 73/3/1 75/3/1
f 80/3/1 78/3/1 77/3/1
f 81/3/1 78/3/1 80/3/1
f 83/2/1 80/2/1 79/2/1
f 84/2/1 80/2/1 83/2/1
f 85/2/1 82/2/1 81/2/1
f 86/2/1 82/2/1 85/2/1
f 91/2/1 88/2/1 87/2/1
f 92/2/1 88/2/1 91/2/1
f 93/2/1 90/2/1 89/2/1
f 94/2/1 90/2/1 93/2/1
f 95/3/1 93/3/1 92/3/1
f 96/3/1 93/3/1 95/3/1
f 97/3/2 98/3/2 100/3/2
f 100/3/2 98/3/2 101/3/2
f 99/2/2 100/2/2 103/2/2
f 103/2/2 100/2/2 104/2/2
f 101/2/2 102/2/2 105/2/2
f 105/2/2 102/2/2 106/2/2
f 107/2/2 108/2/2 111/2/2
f 111/2/2 108/2/2 112/2/2
f 109/2/2 110/2/2 113/2/2
f 113/2/2 110/2/2 114/2/2
f 112/3/2 113/3/2 115/3/2
f 115/3/2 113/3/2 116/3/2
f 117/3/2 118/3/2 120/3/2
f 120/3/2 118/3/2 121/3/2
f 119/2/2 120/2/2 123/2/2
f 123/2/2 120/2/2 124/2/2
f 121/2/2 122/2/2 125/2/2
f 125/2/2 122/2/2 126/2/2
f 127/2/2 128/2/2 131/2/2
f 131/2/2 128/2/2 132/2/2
f 129/2/2 130/2/2 133/2/2
f 133/2/2 130/2/2 134/2/2
f 132/3/2 133/3/2 135/3/2
f 135/3/2 133/3/2 136/3/2
f 137/3/2 138/3/2 140/3/2
f 140/3/2 138/3/2 141/3/2
f 139/2/2 140/2/2 143/2/2
f 143/2/2 140/2/2 144/2/2
f 141/2/2 142/2/2 145/2/2
f 145/2/2 142/2/2 146/2/2
f 147/2/2 148/2/2 151/2/2
f 151/2/2 148/2/2 152/2/2
f 149/2/2 150/2/2 153/2/2
f 153/2/2 150/2/2 154/2/2
f 152/3/2 153/3/2 155/3/2
f 155/3/2 153/3/2 156/3/2
f 157/3/2 158/3/2 160/3/2
f 160/3/2 158/3/2 161/3/2
f 159/2/2 160/2/2 163/2/2
f 163/2/2 160/2/2 164/2/2
f 161/2/2 162/2/2 165/2/2
f 165/2/2 162/2/2 166/2/2
f 167/2/2 168/2/2 171/2/2
f 171/2/2 168/2/2 172/2/2
f 169/2/2 170/2/2 173/2/2
f 173/2/2 170/2/2 174/2/2
f 172/3/2 173/3/2 175/3/2
f 175/3/2 173/3/2 176/3/2
f 177/3/2 178/3/2 180/3/2
f 180/3/2 178/3/2 181/3/2
f 179/2/2 180/2/2 183/2/2
f 183/2/2 180/2/2 184/2/2
f 181/2/2 182/2/2 185/2/2
f 185/2/2 182/2/2 186/2/2
f 184/3/2 185/3/2 187/3/2
f 187/3/2 185/3/2 188/3/2
f 189/3/2 190/3/2 191/3/2
f 191/3/2 190/3/2 192/3/2
f 196/2/3 194/2/3 193/2/3
f 197/2/3 194/2/3 196/2/3
f 200/2/3 196/2/3 195/2/3
f 200/2/3 198/2/3 197/2/3
f 200/2/3 197/2/3 196/2/3
f 201/2/3 198/2/3 200/2/3
f 203/2/3 200/2/3 199/2/3
f 203/2/3 202/2/3 201/2/3
f 203/2/3 201/2/3 200/2/3
f 204/2/3 202/2/3 203/2/3
f 206/2/3 203/2/3 199/2/3
f 207/3/3 204/3/3 203/3/3
f 208/2/3 202/2/3 204/2/3
f 208/3/3 204/3/3 207/3/3
f 209/2/3 202/2/3 208/2/3
f 210/2/3 202/2/3 209/2/3
f 212/1/3 208/1/3 207/1/3
f 212/3/3 209/3/3 208/3/3
f 213/2/3 211/2/3 210/2/3
f 213/3/3 209/3/3 212/3/3
f 213/2/3 210/2/3 209/2/3
f 214/2/3 211/2/3 213/2/3
f 215/3/3 207/3/3 203/3/3
f 215/1/3 212/1/3 207/1/3
f 215/1/3 213/1/3 212/1/3
f 216/1/3 213/1/3 215/1/3
f 217/3/3 214/3/3 213/3/3
f 217/1/3 213/1/3 216/1/3
f 218/2/3 211/2/3 214/2/3
f 218/3/3 214/3/3 217/3/3
f 219/2/3 211/2/3 218/2/3
f 221/2/3 206/2/3 205/2/3
f 222/2/3 203/2/3 206/2/3
f 222/3/3 216/3/3 215/3/3
f 222/2/3 206/2/3 221/2/3
f 222/3/3 215/3/3 203/3/3
f 223/1/3 217/1/3 216/1/3
f 223/3/3 216/3/3 222/3/3
f 223/1/3 218/1/3 217/1/3
f 224/1/3 218/1/3 223/1/3
f 225/1/3 218/1/3 224/1/3
f 226/1/3 218/1/3 225/1/3
f 227/3/3 219/3/3 218/3/3
f 227/1/3 218/1/3 226/1/3
f 228/2/3 211/2/3 219/2/3
f 228/3/3 219/3/3 227/3/3
f 229/2/3 211/2/3 228/2/3
f 230/2/3 211/2/3 229/2/3
f 232/3/3 226/3/3 225/3/3
f 233/1/3 227/1/3 226/1/3
f 233/3/3 226/3/3 232/3/3
f 233/1/3 228/1/3 227/1/3
f 234/1/3 228/1/3 233/1/3
f 235/3/3 232/3/3 225/3/3
f 235/2/3 233/2/3 232/2/3
f 236/3/3 234/3/3 233/3/3
f 236/2/3 233/2/3 235/2/3
f 237/1/3 228/1/3 234/1/3
f 237/3/3 234/3/3 236/3/3
f 238/2/3 222/2/3 221/2/3
f 238/2/3 221/2/3 220/2/3
f 238/2/3 223/2/3 222/2/3
f 239/2/3 223/2/3 238/2/3
f 240/2/3 223/2/3 239/2/3
f 241/3/3 224/3/3 223/3/3
f 241/2/3 223/2/3 240/2/3
f 242/1/3 225/1/3 224/1/3
f 242/3/3 224/3/3 241/3/3
f 243/3/3 236/3/3 235/3/3
f 243/1/3 225/1/3 242/1/3
f 243/3/3 235/3/3 225/3/3
f 244/1/3 237/1/3 236/1/3
f 244/3/3 236/3/3 243/3/3
f 245/1/3 228/1/3 237/1/3
f 245/1/3 237/1/3 244/1/3
f 246/3/3 229/3/3 228/3/3
f 246/1/3 228/1/3 245/1/3
f 247/2/3 231/2/3 230/2/3
f 247/3/3 229/3/3 246/3/3
f 247/2/3 230/2/3 229/2/3
f 248/2/3 231/2/3 247/2/3
f 249/2/3 231/2/3 248/2/3
f 250/3/3 241/3/3 240/3/3
f 251/1/3 244/1/3 243/1/3
f 251/3/3 241/3/3 250/3/3
f 251/1/3 242/1/3 241/1/3
f 251/1/3 243/1/3 242/1/3
f 251/1/3 245/1/3 244/1/3
f 252/1/3 245/1/3 251/1/3
f 253/3/3 246/3/3 245/3/3
f 253/1/3 245/1/3 252/1/3
f 254/2/3 247/2/3 246/2/3
f 254/3/3 246/3/3 253/3/3
f 254/2/3 248/2/3 247/2/3
f 255/1/3 252/1/3 251/1/3
f 255/1/3 251/1/3 250/1/3
f 256/3/3 253/3/3 252/3/3
f 256/1/3 252/1/3 255/1/3
f 257/2/3 254/2/3 253/2/3
f 257/3/3 253/3/3 256/3/3
f 258/2/3 240/2/3 239/2/3
f 259/2/3 240/2/3 258/2/3
f 260/3/3 250/3/3 240/3/3
f 260/1/3 255/1/3 250/1/3
f 261/3/3 256/3/3 255/3/3
f 261/1/3 255/1/3 260/1/3
f 262/2/3 257/2/3 256/2/3
f 262/3/3 256/3/3 261/3/3
f 263/2/3 248/2/3 254/2/3
f 263/2/3 257/2/3 262/2/3
f 263/2/3 254/2/3 257/2/3
f 264/2/3 248/2/3 263/2/3
f 265/2/3 240/2/3 259/2/3
f 265/3/3 260/3/3 240/3/3
f 265/3/3 261/3/3 260/3/3
f 266/2/3 263/2/3 262/2/3
f 266/3/3 261/3/3 265/3/3
f 266/2/3 262/2/3 261/2/3
f 267/2/3 265/2/3 259/2/3
f 267/2/3 266/2/3 265/2/3
f 268/2/3 266/2/3 267/2/3
f 269/2/3 263/2/3 266/2/3
f 269/2/3 266/2/3 268/2/3
f 270/2/3 263/2/3 269/2/3
f 271/2/3 269/2/3 268/2/3
f 272/2/3 269/2/3 271/2/3
f 273/2/3 269/2/3 272/2/3
f 274/2/3 269/2/3 273/2/3
f 275/2/3 273/2/3 272/2/3
f 276/2/3 273/2/3 275/2/3
f 280/3/3 278/3/3 277/3/3
f 281/3/3 278/3/3 280/3/3
f 284/3/3 280/3/3 279/3/3
f 285/3/3 280/3/3 284/3/3
f 286/3/3 282/3/3 281/3/3
f 287/3/3 282/3/3 286/3/3
f 290/3/3 284/3/3 283/3/3
f 291/3/3 284/3/3 290/3/3
f 292/3/3 288/3/3 287/3/3
f 293/3/3 288/3/3 292/3/3
f 296/3/3 290/3/3 289/3/3
f 297/3/3 290/3/3 296/3/3
f 298/3/3 294/3/3 293/3/3
f 299/3/3 294/3/3 298/3/3
f 302/3/3 296/3/3 295/3/3
f 303/3/3 296/3/3 302/3/3
f 304/3/3 300/3/3 299/3/3
f 305/3/3 300/3/3 304/3/3
f 307/3/3 302/3/3 301/3/3
f 308/3/3 302/3/3 307/3/3
f 311/3/3 306/3/3 305/3/3
f 312/3/3 306/3/3 311/3/3
f 313/3/3 309/3/3 308/3/3
f 314/3/3 309/3/3 313/3/3
f 317/3/3 311/3/3 310/3/3
f 318/3/3 311/3/3 317/3/3
f 319/3/3 315/3/3 314/3/3
f 320/3/3 315/3/3 319/3/3
f 323/3/3 317/3/3 316/3/3
f 324/3/3 317/3/3 323/3/3
f 325/3/3 321/3/3 320/3/3
f 326/3/3 321/3/3 325/3/3
f 329/3/3 323/3/3 322/3/3
f 330/3/3 323/3/3 329/3/3
f 331/3/3 327/3/3 326/3/3
f 332/3/3 327/3/3 331/3/3
f 333/3/3 329/3/3 328/3/3
f 334/3/3 329/3/3 333/3/3
f 335/3/3 333/3/3 332/3/3
f 336/3/3 333/3/3 335/3/3
f 337/3/4 338/3/4 340/3/4
f 340/3/4 338/3/4 341/3/4
f 339/3/4 340/3/4 344/3/4
f 344/3/4 340/3/4 345/3/4
f 341/3/4 342/3/4 346/3/4
f 346/3/4 342/3/4 347/3/4
f 343/3/4 344/3/4 350/3/4
f 350/3/4 344/3/4 351/3/4
f 347/3/4 348/3/4 352/3/4
f 352/3/4 348/3/4 353/3/4
f 349/3/4 350/3/4 356/3/4
f 356/3/4 350/3/4 357/3/4
f 353/3/4 354/3/4 358/3/4
f 358/3/4 354/3/4 359/3/4
f 355/3/4 356/3/4 362/3/4
f 362/3/4 356/3/4 363/3/4
f 359/3/4 360/3/4 364/3/4
f 364/3/4 360/3/4 365/3/4
f 361/3/4 362/3/4 367/3/4
f 367/3/4 362/3/4 368/3/4
f 365/3/4 366/3/4 371/3/4
f 371/3/4 366/3/4 372/3/4
f 368/3/4 369/3/4 373/3/4
f 373/3/4 369/3/4 374/3/4
f 370/3/4 371/3/4 377/3/4
f 377/3/4 371/3/4 378/3/4
f 374/3/4 375/3/4 379/3/4
f 379/3/4 375/3/4 380/3/4
f 376/3/4 377/3/4 383/3/4
f 383/3/4 377/3/4 384/3/4
f 380/3/4 381/3/4 385/3/4
f 385/3/4 381/3/4 386/3/4
f 382/3/4 383/3/4 389/3/4
f 389/3/4 383/3/4 390/3/4
f 386/3/4 387/3/4 391/3/4
f 391/3/4 387/3/4 392/3/4
f 388/3/4 389/3/4 393/3/4
f 393/3/4 389/3/4 394/3/4
f 392/3/4 393/3/4 395/3/4
f 395/3/4 393/3/4 396/3/4
f 397/2/4 398/2/4 400/2/4
f 400/2/4 398/2/4 401/2/4
f 399/2/4 400/2/4 404/2/4
f 401/2/4 402/2/4 404/2/4
f 400/2/4 401/2/4 404/2/4
f 404/2/4 402/2/4 405/2/4
f 403/2/4 404/2/4 407/2/4
f 405/2/4 406/2/4 407/2/4
f 404/2/4 405/2/4 407/2/4
f 407/2/4 406/2/4 408/2/4
f 403/2/4 407/2/4 410/2/4
f 407/3/4 408/3/4 411/3/4
f 408/2/4 406/2/4 412/2/4
f 411/3/4 408/3/4 412/3/4
f 412/2/4 406/2/4 413/2/4
f 413/2/4 406/2/4 414/2/4
f 411/1/4 412/1/4 416/1/4
f 412/3/4 413/3/4 416/3/4
f 414/2/4 415/2/4 417/2/4
f 416/3/4 413/3/4 417/3/4
f 413/2/4 414/2/4 417/2/4
f 417/2/4 415/2/4 418/2/4
f 407/3/4 411/3/4 419/3/4
f 411/1/4 416/1/4 419/1/4
f 416/1/4 417/1/4 419/1/4
f 419/1/4 417/1/4 420/1/4
f 417/3/4 418/3/4 421/3/4
f 420/1/4 417/1/4 421/1/4
f 418/2/4 415/2/4 422/2/4
f 421/3/4 418/3/4 422/3/4
f 422/2/4 415/2/4 423/2/4
f 409/2/4 410/2/4 425/2/4
f 410/2/4 407/2/4 426/2/4
f 419/3/4 420/3/4 426/3/4
f 425/2/4 410/2/4 426/2/4
f 407/3/4 419/3/4 426/3/4
f 420/1/4 421/1/4 427/1/4
f 426/3/4 420/3/4 427/3/4
f 421/1/4 422/1/4 427/1/4
f 427/1/4 422/1/4 428/1/4
f 428/1/4 422/1/4 429/1/4
f 429/1/4 422/1/4 430/1/4
f 422/3/4 423/3/4 431/3/4
f 430/1/4 422/1/4 431/1/4
f 423/2/4 415/2/4 432/2/4
f 431/3/4 423/3/4 432/3/4
f 432/2/4 415/2/4 433/2/4
f 433/2/4 415/2/4 434/2/4
f 429/3/4 430/3/4 436/3/4
f 430/1/4 431/1/4 437/1/4
f 436/3/4 430/3/4 437/3/4
f 431/1/4 432/1/4 437/1/4
f 437/1/4 432/1/4 438/1/4
f 429/3/4 436/3/4 439/3/4
f 436/2/4 437/2/4 439/2/4
f 437/3/4 438/3/4 440/3/4
f 439/2/4 437/2/4 440/2/4
f 438/1/4 432/1/4 441/1/4
f 440/3/4 438/3/4 441/3/4
f 425/2/4 426/2/4 442/2/4
f 424/2/4 425/2/4 442/2/4
f 426/2/4 427/2/4 442/2/4
f 442/2/4 427/2/4 443/2/4
f 443/2/4 427/2/4 444/2/4
f 427/3/4 428/3/4 445/3/4
f 444/2/4 427/2/4 445/2/4
f 428/1/4 429/1/4 446/1/4
f 445/3/4 428/3/4 446/3/4
f 439/3/4 440/3/4 447/3/4
f 446/1/4 429/1/4 447/1/4
f 429/3/4 439/3/4 447/3/4
f 440/1/4 441/1/4 448/1/4
f 447/3/4 440/3/4 448/3/4
f 441/1/4 432/1/4 449/1/4
f 448/1/4 441/1/4 449/1/4
f 432/3/4 433/3/4 450/3/4
f 449/1/4 432/1/4 450/1/4
f 434/2/4 435/2/4 451/2/4
f 450/3/4 433/3/4 451/3/4
f 433/2/4 434/2/4 451/2/4
f 451/2/4 435/2/4 452/2/4
f 452/2/4 435/2/4 453/2/4
f 444/3/4 445/3/4 454/3/4
f 447/1/4 448/1/4 455/1/4
f 454/3/4 445/3/4 455/3/4
f 445/1/4 446/1/4 455/1/4
f 446/1/4 447/1/4 455/1/4
f 448/1/4 449/1/4 455/1/4
f 455/1/4 449/1/4 456/1/4
f 449/3/4 450/3/4 457/3/4
f 456/1/4 449/1/4 457/1/4
f 450/2/4 451/2/4 458/2/4
f 457/3/4 450/3/4 458/3/4
f 451/2/4 452/2/4 458/2/4
f 455/1/4 456/1/4 459/1/4
f 454/1/4 455/1/4 459/1/4
f 456/3/4 457/3/4 460/3/4
f 459/1/4 456/1/4 460/1/4
f 457/2/4 458/2/4 461/2/4
f 460/3/4 457/3/4 461/3/4
f 443/2/4 444/2/4 462/2/4
f 462/2/4 444/2/4 463/2/4
f 444/3/4 454/3/4 464/3/4
f 454/1/4 459/1/4 464/1/4
f 459/3/4 460/3/4 465/3/4
f 464/1/4 459/1/4 465/1/4
f 460/2/4 461/2/4 466/2/4
f 465/3/4 460/3/4 466/3/4
f 458/2/4 452/2/4 467/2/4
f 466/2/4 461/2/4 467/2/4
f 461/2/4 458/2/4 467/2/4
f 467/2/4 452/2/4 468/2/4
f 463/2/4 444/2/4 469/2/4
f 444/3/4 464/3/4 469/3/4
f 464/3/4 465/3/4 469/3/4
f 466/2/4 467/2/4 470/2/4
f 469/3/4 465/3/4 470/3/4
f 465/2/4 466/2/4 470/2/4
f 463/2/4 469/2/4 471/2/4
f 469/2/4 470/2/4 471/2/4
f 471/2/4 470/2/4 472/2/4
f 470/2/4 467/2/4 473/2/4
f 472/2/4 470/2/4 473/2/4
f 473/2/4 467/2/4 474/2/4
f 472/2/4 473/2/4 475/2/4
f 475/2/4 473/2/4 476/2/4
f 476/2/4 473/2/4 477/2/4
f 477/2/4 473/2/4 478/2/4
f 476/2/4 477/2/4 479/2/4
f 479/2/4 477/2/4 480/2/4
f 483/3/5 482/3/5 481/3/5
f 484/3/5 482/3/5 483/3/5
f 488/2/5 486/2/5 485/2/5
f 489/2/5 486/2/5 488/2/5
f 491/3/5 488/3/5 487/3/5
f 492/3/5 488/3/5 491/3/5
f 493/3/5 490/3/5 489/3/5
f 494/3/5 490/3/5 493/3/5
f 495/2/5 493/2/5 492/2/5
f 496/2/5 493/2/5 495/2/5
f 502/2/5 498/2/5 497/2/5
f 503/2/5 498/2/5 502/2/5
f 504/2/5 500/2/5 499/2/5
f 505/2/5 500/2/5 504/2/5
f 507/3/5 502/3/5 501/3/5
f 508/3/5 502/3/5 507/3/5
f 511/3/5 506/3/5 505/3/5
f 512/3/5 506/3/5 511/3/5
f 513/2/5 509/2/5 508/2/5
f 514/2/5 509/2/5 513/2/5
f 515/2/5 511/2/5 510/2/5
f 516/2/5 511/2/5 515/2/5
f 522/2/5 518/2/5 517/2/5
f 523/2/5 518/2/5 522/2/5
f 524/2/5 520/2/5 519/2/5
f 525/2/5 520/2/5 524/2/5
f 527/3/5 522/3/5 521/3/5
f 528/3/5 522/3/5 527/3/5
f 531/3/5 526/3/5 525/3/5
f 532/3/5 526/3/5 531/3/5
f 533/2/5 529/2/5 528/2/5
f 534/2/5 529/2/5 533/2/5
f 535/2/5 531/2/5 530/2/5
f 536/2/5 531/2/5 535/2/5
f 542/2/5 538/2/5 537/2/5
f 543/2/5 538/2/5 542/2/5
f 544/2/5 540/2/5 539/2/5
f 545/2/5 540/2/5 544/2/5
f 547/3/5 542/3/5 541/3/5
f 548/3/5 542/3/5 547/3/5
f 551/3/5 546/3/5 545/3/5
f 552/3/5 546/3/5 551/3/5
f 553/2/5 549/2/5 548/2/5
f 554/2/5 549/2/5 553/2/5
f 555/2/5 551/2/5 550/2/5
f 556/2/5 551/2/5 555/2/5
f 562/2/5 558/2/5 557/2/5
f 563/2/5 558/2/5 562/2/5
f 564/2/5 560/2/5 559/2/5
f 565/2/5 560/2/5 564/2/5
f 567/3/5 562/3/5 561/3/5
f 568/3/5 562/3/5 567/3/5
f 571/3/5 566/3/5 565/3/5
f 572/3/5 566/3/5 571/3/5
f 573/2/5 569/2/5 568/2/5
f 574/2/5 569/2/5 573/2/5
f 575/2/5 571/2/5 570/2/5
f 576/2/5 571/2/5 575/2/5
f 577/2/6 578/2/6 582/2/6
f 582/2/6 578/2/6 583/2/6
f 579/2/6 580/2/6 584/2/6
f 584/2/6 580/2/6 585/2/6
f 581/3/6 582/3/6 587/3/6
f 587/3/6 582/3/6 588/3/6
f 585/3/6 586/3/6 591/3/6
f 591/3/6 586/3/6 592/3/6
f 588/2/6 589/2/6 593/2/6
f 593/2/6 589/2/6 594/2/6
f 590/2/6 591/2/6 595/2/6
f 595/2/6 591/2/6 596/2/6
f 597/2/6 598/2/6 602/2/6
f 602/2/6 598/2/6 603/2/6
f 599/2/6 600/2/6 604/2/6
f 604/2/6 600/2/6 605/2/6
f 601/3/6 602/3/6 607/3/6
f 607/3/6 602/3/6 608/3/6
f 605/3/6 606/3/6 611/3/6
f 611/3/6 606/3/6 612/3/6
f 608/2/6 609/2/6 613/2/6
f 613/2/6 609/2/6 614/2/6
f 610/2/6 611/2/6 615/2/6
f 615/2/6 611/2/6 616/2/6
f 617/2/6 618/2/6 622/2/6
f 622/2/6 618/2/6 623/2/6
f 619/2/6 620/2/6 624/2/6
f 624/2/6 620/2/6 625/2/6
f 621/3/6 622/3/6 627/3/6
f 627/3/6 622/3/6 628/3/6
f 625/3/6 626/3/6 631/3/6
f 631/3/6 626/3/6 632/3/6
f 628/2/6 629/2/6 633/2/6
f 633/2/6 629/2/6 634/2/6
f 630/2/6 631/2/6 635/2/6
f 635/2/6 631/2/6 636/2/6
f 637/2/6 638/2/6 642/2/6
f 642/2/6 638/2/6 643/2/6
f 639/2/6 640/2/6 644/2/6
f 644/2/6 640/2/6 645/2/6
f 641/3/6 642/3/6 647/3/6
f 647/3/6 642/3/6 648/3/6
f 645/3/6 646/3/6 651/3/6
f 651/3/6 646/3/6 652/3/6
f 648/2/6 649/2/6 653/2/6
f 653/2/6 649/2/6 654/2/6
f 650/2/6 651/2/6 655/2/6
f 655/2/6 651/2/6 656/2/6
f 657/2/6 658/2/6 660/2/6
f 660/2/6 658/2/6 661/2/6
f 659/3/6 660/3/6 663/3/6
f 663/3/6 660/3/6 664/3/6
f 661/3/6 662/3/6 665/3/6
f 665/3/6 662/3/6 666/3/6
f 664/2/6 665/2/6 667/2/6
f 667/2/6 665/2/6 668/2/6
f 669/3/6 670/3/6 671/3/6
f 671/3/6 670/3/6 672/3/6
