# Blender v2.76 (sub 0) OBJ File: ''
# www.blender.org
mtllib Gear.mtl
o Gear_Gear2.001
v -22.000000 3.999998 2.500006
v -22.000000 -4.000002 2.500004
v -22.000000 3.999999 -2.499994
v -21.000000 -4.000002 2.500004
v -21.000000 -5.000001 -2.499996
v -21.000000 4.999998 2.500006
v -21.000000 3.999999 -2.499994
v -21.000000 3.999998 2.500006
v -21.000000 4.999999 -2.499994
v -14.000000 5.999999 -2.499994
v -13.000000 -6.000001 -2.499996
v -13.000000 5.999998 2.500006
v -12.000000 -8.000002 2.500004
v -12.000000 9.999998 2.500007
v -12.000000 7.999999 -2.499994
v -11.000000 -11.000002 2.500003
v -11.000000 -10.000002 -2.499997
v -11.000000 9.999998 -2.499993
v -10.000000 -12.000002 2.500003
v -10.000000 11.999998 2.500007
v -8.000000 -13.000002 2.500003
v -8.000000 -12.000002 -2.499997
v -6.000000 -14.000002 -2.499997
v -6.000000 13.999998 2.500007
v -6.000000 12.999998 -2.499993
v -5.000000 -21.000002 -2.499998
v -5.000000 -21.000002 2.500002
v -5.000000 20.999998 2.500008
v -4.000000 -21.000002 -2.499998
v 1.000000 -2.000002 2.500005
v 1.000000 -2.000001 -2.499995
v 1.000000 2.999998 2.500005
v 2.000000 -2.000002 2.500005
v 2.000000 0.999999 -2.499995
v 3.000000 0.999998 2.500005
v 3.000000 -1.000002 2.500005
v -3.000000 0.999998 2.500005
v -2.000000 -2.000002 2.500005
v -2.000000 0.999998 2.500005
v -2.000000 1.999998 2.500005
v -2.000000 1.999998 -2.499995
v -1.000000 -3.000002 2.500005
v -1.000000 -3.000001 -2.499995
v -1.000000 -2.000001 -2.499995
v -1.000000 1.999998 -2.499995
v 4.000000 -21.000002 2.500002
v 4.000000 21.999998 -2.499991
v 5.000000 -21.000002 2.500002
v 5.000000 -21.000002 -2.499998
v 6.000000 -14.000002 2.500003
v 6.000000 13.999998 2.500007
v 6.000000 13.999998 -2.499993
v 8.000000 -13.000002 2.500003
v 8.000000 -13.000002 -2.499997
v 8.000000 11.999998 -2.499993
v 8.000000 12.999998 -2.499993
v 10.000000 -12.000002 2.500003
v 11.000000 -11.000002 -2.499997
v 11.000000 9.999998 2.500007
v 11.000000 10.999998 2.500007
v 12.000000 -10.000002 -2.499997
v 12.000000 -8.000002 -2.499996
v 12.000000 7.999998 2.500006
v 12.000000 9.999998 2.500007
v 13.000000 -6.000002 2.500004
v 13.000000 -6.000001 -2.499996
v 13.000000 5.999998 2.500006
v 14.000000 -5.000002 2.500004
v 14.000000 4.999999 -2.499994
v 14.000000 5.999998 2.500006
v 21.000000 -4.000002 2.500004
v 21.000000 -4.000001 -2.499996
v 21.000000 4.999998 2.500006
v 21.000000 4.999999 -2.499994
v 22.000000 3.999999 -2.499994
v -20.000000 -3.000002 2.500005
v -20.000000 2.999998 2.500005
v -19.000000 -2.000002 2.500005
v -19.000000 1.999998 2.500005
v -14.000000 -5.000002 2.500004
v -14.000000 4.999998 2.500006
v -14.000000 -6.000002 2.500004
v -13.000000 -5.000002 2.500004
v -13.000000 -4.000002 2.500004
v -13.000000 3.999998 2.500006
v -14.000000 5.999998 2.500006
v -13.000000 4.999998 2.500006
v -13.000000 -8.000002 2.500004
v -12.000000 -7.000002 2.500004
v -12.000000 -5.000002 2.500004
v -12.000000 -3.000002 2.500005
v -12.000000 -2.000002 2.500005
v -12.000000 1.999998 2.500005
v -12.000000 2.999998 2.500005
v -12.000000 4.999998 2.500006
v -13.000000 7.999998 2.500006
v -12.000000 6.999998 2.500006
v -12.000000 7.999998 2.500006
v -11.000000 -10.000002 2.500003
v -12.000000 -10.000002 2.500003
v -11.000000 -9.000002 2.500004
v -11.000000 -7.000002 2.500004
v -11.000000 -5.000002 2.500004
v -11.000000 -3.000002 2.500005
v -11.000000 2.999998 2.500005
v -11.000000 4.999998 2.500006
v -11.000000 6.999998 2.500006
v -11.000000 8.999998 2.500006
v -11.000000 9.999998 2.500007
v -10.000000 -10.000002 2.500003
v -10.000000 -9.000002 2.500004
v -10.000000 -7.000002 2.500004
v -10.000000 -5.000002 2.500004
v -10.000000 4.999998 2.500006
v -10.000000 6.999998 2.500006
v -10.000000 8.999998 2.500006
v -11.000000 10.999998 2.500007
v -10.000000 9.999998 2.500007
v -10.000000 10.999998 2.500007
v -9.000000 -11.000002 2.500003
v -9.000000 -10.000002 2.500003
v -9.000000 -9.000002 2.500004
v -9.000000 -7.000002 2.500004
v -9.000000 6.999998 2.500006
v -9.000000 8.999998 2.500006
v -9.000000 9.999998 2.500007
v -9.000000 10.999998 2.500007
v -8.000000 -12.000002 2.500003
v -8.000000 11.999998 2.500007
v -7.000000 -12.000002 2.500003
v -7.000000 -11.000002 2.500003
v -7.000000 -10.000002 2.500003
v -7.000000 -9.000002 2.500004
v -7.000000 8.999998 2.500006
v -7.000000 9.999998 2.500007
v -7.000000 10.999998 2.500007
v -7.000000 11.999998 2.500007
v -6.000000 -13.000002 2.500003
v -6.000000 -1.000002 2.500005
v -6.000000 0.999998 2.500005
v -6.000000 12.999998 2.500007
v -5.000000 -14.000002 2.500003
v -5.000000 -13.000002 2.500003
v -5.000000 -12.000002 2.500003
v -5.000000 -11.000002 2.500003
v -5.000000 -10.000002 2.500003
v -5.000000 -3.000002 2.500005
v -5.000000 -1.000002 2.500005
v -5.000000 0.999998 2.500005
v -5.000000 2.999998 2.500005
v -5.000000 9.999998 2.500007
v -5.000000 10.999998 2.500007
v -5.000000 11.999998 2.500007
v -5.000000 12.999998 2.500007
v -5.000000 13.999998 2.500007
v -4.000000 -13.000002 2.500003
v -4.000000 -4.000002 2.500004
v -4.000000 -3.000002 2.500005
v -4.000000 -1.000002 2.500005
v -4.000000 0.999998 2.500005
v -4.000000 2.999998 2.500005
v -4.000000 3.999998 2.500006
v -4.000000 12.999998 2.500007
v -3.000000 -20.000002 2.500002
v -3.000000 -12.000002 2.500003
v -3.000000 -11.000002 2.500003
v -3.000000 -5.000002 2.500004
v -3.000000 -4.000002 2.500004
v -3.000000 -3.000002 2.500005
v -3.000000 -1.000002 2.500005
v -3.000000 2.999998 2.500005
v -3.000000 3.999998 2.500006
v -3.000000 4.999998 2.500006
v -3.000000 10.999998 2.500007
v -3.000000 11.999998 2.500007
v -3.000000 19.999998 2.500008
v -2.000000 -19.000002 2.500002
v -2.000000 -12.000002 2.500003
v -2.000000 -1.000002 2.500005
v -2.000000 11.999998 2.500007
v -2.000000 18.999998 2.500008
v -1.000000 -6.000002 2.500004
v -1.000000 -5.000002 2.500004
v -1.000000 -4.000002 2.500004
v -1.000000 1.999998 2.500005
v -1.000000 3.999998 2.500006
v -1.000000 4.999998 2.500006
v -1.000000 5.999998 2.500006
v 1.000000 -6.000002 2.500004
v 1.000000 -5.000002 2.500004
v 1.000000 -4.000002 2.500004
v 1.000000 -3.000002 2.500005
v 1.000000 3.999998 2.500006
v 1.000000 4.999998 2.500006
v 1.000000 5.999998 2.500006
v 2.000000 -19.000002 2.500002
v 2.000000 -12.000002 2.500003
v 1.000000 1.999998 2.500005
v 2.000000 11.999998 2.500007
v 2.000000 18.999998 2.500008
v 3.000000 -20.000002 2.500002
v 3.000000 -12.000002 2.500003
v 3.000000 -11.000002 2.500003
v 3.000000 -5.000002 2.500004
v 3.000000 -4.000002 2.500004
v 3.000000 -3.000002 2.500005
v 2.000000 -1.000002 2.500005
v 2.000000 0.999998 2.500005
v 3.000000 2.999998 2.500005
v 3.000000 3.999998 2.500006
v 3.000000 4.999998 2.500006
v 3.000000 10.999998 2.500007
v 3.000000 11.999998 2.500007
v 3.000000 19.999998 2.500008
v -4.000000 -22.000002 2.500001
v 4.000000 -13.000002 2.500003
v 4.000000 -4.000002 2.500004
v 4.000000 -3.000002 2.500005
v 4.000000 -1.000002 2.500005
v 4.000000 0.999998 2.500005
v 4.000000 2.999998 2.500005
v 4.000000 3.999998 2.500006
v 4.000000 12.999998 2.500007
v 4.000000 21.999998 2.500009
v 5.000000 -13.000002 2.500003
v 5.000000 -12.000002 2.500003
v 5.000000 -11.000002 2.500003
v 5.000000 -10.000002 2.500003
v 5.000000 -3.000002 2.500005
v 5.000000 -1.000002 2.500005
v 5.000000 0.999998 2.500005
v 5.000000 2.999998 2.500005
v 5.000000 9.999998 2.500007
v 5.000000 10.999998 2.500007
v 5.000000 11.999998 2.500007
v 5.000000 12.999998 2.500007
v 5.000000 13.999998 2.500007
v 6.000000 -13.000002 2.500003
v 6.000000 -1.000002 2.500005
v 6.000000 0.999998 2.500005
v 6.000000 12.999998 2.500007
v 7.000000 -12.000002 2.500003
v 7.000000 -11.000002 2.500003
v 7.000000 -10.000002 2.500003
v 7.000000 -9.000002 2.500004
v 7.000000 8.999998 2.500006
v 7.000000 9.999998 2.500007
v 7.000000 10.999998 2.500007
v 7.000000 11.999998 2.500007
v 9.000000 -11.000002 2.500003
v 9.000000 -10.000002 2.500003
v 9.000000 -9.000002 2.500004
v 9.000000 -7.000002 2.500004
v 9.000000 6.999998 2.500006
v 9.000000 8.999998 2.500006
v 9.000000 9.999998 2.500007
v 9.000000 10.999998 2.500007
v 10.000000 -10.000002 2.500003
v 10.000000 -9.000002 2.500004
v 10.000000 -7.000002 2.500004
v 10.000000 -5.000002 2.500004
v 10.000000 4.999998 2.500006
v 10.000000 6.999998 2.500006
v 10.000000 8.999998 2.500006
v 10.000000 9.999998 2.500007
v 10.000000 10.999998 2.500007
v 11.000000 -11.000002 2.500003
v 11.000000 -9.000002 2.500004
v 11.000000 -7.000002 2.500004
v 11.000000 -5.000002 2.500004
v 11.000000 -3.000002 2.500005
v 11.000000 2.999998 2.500005
v 11.000000 4.999998 2.500006
v 11.000000 6.999998 2.500006
v 11.000000 8.999998 2.500006
v 12.000000 -8.000002 2.500004
v 12.000000 -7.000002 2.500004
v 12.000000 -5.000002 2.500004
v 12.000000 -3.000002 2.500005
v 12.000000 -2.000002 2.500005
v 12.000000 1.999998 2.500005
v 12.000000 2.999998 2.500005
v 12.000000 4.999998 2.500006
v 12.000000 6.999998 2.500006
v 13.000000 -8.000002 2.500004
v 13.000000 -5.000002 2.500004
v 13.000000 -4.000002 2.500004
v 13.000000 3.999998 2.500006
v 13.000000 4.999998 2.500006
v 14.000000 4.999998 2.500006
v 19.000000 -2.000002 2.500005
v 19.000000 1.999998 2.500005
v 20.000000 -3.000002 2.500005
v 20.000000 2.999998 2.500005
v 21.000000 -5.000002 2.500004
v 21.000000 3.999998 2.500006
v 22.000000 3.999998 2.500006
v -22.000000 -4.000001 -2.499996
v -21.000000 -4.000001 -2.499996
v -20.000000 -3.000001 -2.499995
v -20.000000 2.999999 -2.499995
v -19.000000 -2.000001 -2.499995
v -19.000000 1.999998 -2.499995
v -14.000000 -5.000001 -2.499996
v -14.000000 4.999999 -2.499994
v -13.000000 -5.000001 -2.499996
v -13.000000 -4.000001 -2.499996
v -13.000000 3.999999 -2.499994
v -13.000000 4.999999 -2.499994
v -12.000000 -8.000002 -2.499996
v -13.000000 -8.000002 -2.499996
v -12.000000 -7.000001 -2.499996
v -12.000000 -5.000001 -2.499996
v -12.000000 -3.000001 -2.499995
v -12.000000 -2.000001 -2.499995
v -12.000000 1.999998 -2.499995
v -12.000000 2.999999 -2.499995
v -13.000000 7.999999 -2.499994
v -12.000000 4.999999 -2.499994
v -12.000000 6.999999 -2.499994
v -11.000000 -9.000002 -2.499996
v -11.000000 -7.000001 -2.499996
v -11.000000 -5.000001 -2.499996
v -11.000000 -3.000001 -2.499995
v -11.000000 2.999999 -2.499995
v -11.000000 4.999999 -2.499994
v -11.000000 6.999999 -2.499994
v -11.000000 8.999998 -2.499994
v -10.000000 -11.000002 -2.499997
v -10.000000 -10.000002 -2.499997
v -10.000000 -9.000002 -2.499996
v -10.000000 -7.000001 -2.499996
v -10.000000 -5.000001 -2.499996
v -10.000000 4.999999 -2.499994
v -10.000000 6.999999 -2.499994
v -11.000000 10.999998 -2.499993
v -10.000000 8.999998 -2.499994
v -10.000000 9.999998 -2.499993
v -9.000000 -11.000002 -2.499997
v -9.000000 -10.000002 -2.499997
v -9.000000 -9.000002 -2.499996
v -9.000000 -7.000001 -2.499996
v -9.000000 6.999999 -2.499994
v -9.000000 8.999998 -2.499994
v -10.000000 11.999998 -2.499993
v -9.000000 9.999998 -2.499993
v -9.000000 10.999998 -2.499993
v -7.000000 -12.000002 -2.499997
v -7.000000 -11.000002 -2.499997
v -7.000000 -10.000002 -2.499997
v -7.000000 -9.000002 -2.499996
v -7.000000 8.999998 -2.499994
v -7.000000 9.999998 -2.499993
v -7.000000 10.999998 -2.499993
v -7.000000 11.999998 -2.499993
v -6.000000 -1.000002 -2.499995
v -6.000000 0.999999 -2.499995
v -5.000000 -14.000002 -2.499997
v -5.000000 -13.000002 -2.499997
v -5.000000 -12.000002 -2.499997
v -5.000000 -11.000002 -2.499997
v -5.000000 -10.000002 -2.499997
v -5.000000 -3.000001 -2.499995
v -5.000000 -1.000002 -2.499995
v -5.000000 0.999999 -2.499995
v -5.000000 2.999999 -2.499995
v -5.000000 9.999998 -2.499993
v -5.000000 10.999998 -2.499993
v -6.000000 13.999998 -2.499993
v -5.000000 11.999998 -2.499993
v -5.000000 12.999998 -2.499993
v -5.000000 13.999998 -2.499993
v -4.000000 -13.000002 -2.499997
v -4.000000 -4.000001 -2.499996
v -4.000000 -3.000001 -2.499995
v -4.000000 -1.000002 -2.499995
v -4.000000 0.999999 -2.499995
v -4.000000 2.999999 -2.499995
v -4.000000 3.999999 -2.499994
v -5.000000 20.999998 -2.499992
v -4.000000 12.999998 -2.499993
v -4.000000 20.999998 -2.499992
v -3.000000 -20.000002 -2.499998
v -3.000000 -12.000002 -2.499997
v -3.000000 -11.000002 -2.499997
v -3.000000 -5.000001 -2.499996
v -3.000000 -4.000001 -2.499996
v -3.000000 -3.000001 -2.499995
v -3.000000 2.999999 -2.499995
v -3.000000 3.999999 -2.499994
v -3.000000 4.999999 -2.499994
v -3.000000 10.999998 -2.499993
v -3.000000 11.999998 -2.499993
v -3.000000 19.999998 -2.499992
v -2.000000 -19.000002 -2.499998
v -2.000000 -12.000002 -2.499997
v -2.000000 -2.000001 -2.499995
v -2.000000 0.999999 -2.499995
v -2.000000 11.999998 -2.499993
v -2.000000 18.999998 -2.499992
v -1.000000 -6.000001 -2.499996
v -1.000000 -5.000001 -2.499996
v -1.000000 -4.000001 -2.499996
v -1.000000 2.999999 -2.499995
v -1.000000 3.999999 -2.499994
v -1.000000 4.999999 -2.499994
v -1.000000 5.999999 -2.499994
v 1.000000 -6.000001 -2.499996
v 1.000000 -5.000001 -2.499996
v 1.000000 -4.000001 -2.499996
v 1.000000 -3.000001 -2.499995
v 1.000000 3.999999 -2.499994
v 1.000000 4.999999 -2.499994
v 1.000000 5.999999 -2.499994
v 2.000000 -19.000002 -2.499998
v 2.000000 -12.000002 -2.499997
v 2.000000 11.999998 -2.499993
v 2.000000 18.999998 -2.499992
v 3.000000 -20.000002 -2.499998
v 3.000000 -12.000002 -2.499997
v 3.000000 -11.000002 -2.499997
v 3.000000 -5.000001 -2.499996
v 3.000000 -4.000001 -2.499996
v 2.000000 -1.000002 -2.499995
v 3.000000 -3.000001 -2.499995
v 3.000000 -1.000002 -2.499995
v 3.000000 0.999999 -2.499995
v 3.000000 2.999999 -2.499995
v 3.000000 3.999999 -2.499994
v 3.000000 4.999999 -2.499994
v 3.000000 10.999998 -2.499993
v 3.000000 11.999998 -2.499993
v 3.000000 19.999998 -2.499992
v 4.000000 -21.000002 -2.499998
v 4.000000 -13.000002 -2.499997
v 4.000000 -4.000001 -2.499996
v 4.000000 -3.000001 -2.499995
v 4.000000 -1.000002 -2.499995
v 4.000000 0.999999 -2.499995
v 4.000000 2.999999 -2.499995
v 4.000000 3.999999 -2.499994
v 4.000000 12.999998 -2.499993
v -4.000000 21.999998 -2.499991
v 5.000000 -13.000002 -2.499997
v 5.000000 -12.000002 -2.499997
v 5.000000 -11.000002 -2.499997
v 5.000000 -10.000002 -2.499997
v 5.000000 -3.000001 -2.499995
v 5.000000 -1.000002 -2.499995
v 5.000000 0.999999 -2.499995
v 5.000000 2.999999 -2.499995
v 5.000000 9.999998 -2.499993
v 5.000000 10.999998 -2.499993
v 5.000000 11.999998 -2.499993
v 5.000000 12.999998 -2.499993
v 5.000000 13.999998 -2.499993
v 6.000000 -13.000002 -2.499997
v 6.000000 -1.000002 -2.499995
v 6.000000 0.999999 -2.499995
v 6.000000 12.999998 -2.499993
v 7.000000 -12.000002 -2.499997
v 7.000000 -11.000002 -2.499997
v 7.000000 -10.000002 -2.499997
v 7.000000 -9.000002 -2.499996
v 7.000000 8.999998 -2.499994
v 7.000000 9.999998 -2.499993
v 7.000000 10.999998 -2.499993
v 7.000000 11.999998 -2.499993
v 9.000000 -11.000002 -2.499997
v 9.000000 -10.000002 -2.499997
v 9.000000 -9.000002 -2.499996
v 9.000000 -7.000001 -2.499996
v 9.000000 6.999999 -2.499994
v 9.000000 8.999998 -2.499994
v 9.000000 9.999998 -2.499993
v 9.000000 10.999998 -2.499993
v 10.000000 -12.000002 -2.499997
v 10.000000 -10.000002 -2.499997
v 10.000000 -9.000002 -2.499996
v 10.000000 -7.000001 -2.499996
v 10.000000 -5.000001 -2.499996
v 10.000000 4.999999 -2.499994
v 10.000000 6.999999 -2.499994
v 10.000000 8.999998 -2.499994
v 10.000000 9.999998 -2.499993
v 10.000000 11.999998 -2.499993
v 11.000000 -10.000002 -2.499997
v 11.000000 -9.000002 -2.499996
v 11.000000 -7.000001 -2.499996
v 11.000000 -5.000001 -2.499996
v 11.000000 -3.000001 -2.499995
v 11.000000 2.999999 -2.499995
v 11.000000 4.999999 -2.499994
v 11.000000 6.999999 -2.499994
v 11.000000 8.999998 -2.499994
v 12.000000 -7.000001 -2.499996
v 12.000000 -5.000001 -2.499996
v 12.000000 -3.000001 -2.499995
v 12.000000 -2.000001 -2.499995
v 12.000000 1.999998 -2.499995
v 12.000000 2.999999 -2.499995
v 12.000000 4.999999 -2.499994
v 12.000000 6.999999 -2.499994
v 13.000000 -8.000002 -2.499996
v 13.000000 -5.000001 -2.499996
v 13.000000 -4.000001 -2.499996
v 13.000000 3.999999 -2.499994
v 13.000000 4.999999 -2.499994
v 13.000000 5.999999 -2.499994
v 13.000000 7.999999 -2.499994
v 14.000000 -6.000001 -2.499996
v 14.000000 -5.000001 -2.499996
v 14.000000 5.999999 -2.499994
v 19.000000 -2.000001 -2.499995
v 19.000000 1.999998 -2.499995
v 20.000000 -3.000001 -2.499995
v 20.000000 2.999999 -2.499995
v 21.000000 -5.000001 -2.499996
v 22.000000 -4.000001 -2.499996
v -4.000000 -22.000002 -2.499999
v 4.000000 -22.000002 2.500001
v 4.000000 -22.000002 -2.499999
v -4.000000 -21.000002 2.500002
v -6.000000 -14.000002 2.500003
v 5.000000 -14.000002 -2.499997
v 5.000000 -14.000002 2.500003
v 6.000000 -14.000002 -2.499997
v -8.000000 -13.000002 -2.499997
v -6.000000 -13.000002 -2.499997
v -10.000000 -12.000002 -2.499997
v 8.000000 -12.000002 -2.499997
v 8.000000 -12.000002 2.500003
v -11.000000 -11.000002 -2.499997
v -10.000000 -11.000002 2.500003
v 10.000000 -11.000002 -2.499997
v 10.000000 -11.000002 2.500003
v -12.000000 -10.000002 -2.499997
v 12.000000 -10.000002 2.500003
v 11.000000 -10.000002 2.500003
v -14.000000 -6.000001 -2.499996
v -13.000000 -6.000002 2.500004
v 14.000000 -6.000002 2.500004
v -21.000000 -5.000002 2.500004
v 22.000000 -4.000002 2.500004
v -3.000000 0.999999 -2.499995
v 1.000000 1.999998 -2.499995
v 2.000000 1.999998 2.500005
v 2.000000 1.999998 -2.499995
v -1.000000 2.999998 2.500005
v 1.000000 2.999999 -2.499995
v -1.000000 -2.000002 2.500005
v 2.000000 -2.000001 -2.499995
v -3.000000 -1.000002 -2.499995
v -2.000000 -1.000002 -2.499995
v 21.000000 3.999999 -2.499994
v -13.000000 5.999999 -2.499994
v 13.000000 7.999998 2.500006
v 12.000000 7.999999 -2.499994
v -12.000000 9.999998 -2.499993
v 11.000000 9.999998 -2.499993
v 12.000000 9.999998 -2.499993
v -10.000000 10.999998 -2.499993
v 10.000000 10.999998 -2.499993
v 11.000000 10.999998 -2.499993
v -8.000000 11.999998 -2.499993
v 8.000000 11.999998 2.500007
v 10.000000 11.999998 2.500007
v -8.000000 12.999998 2.500007
v -8.000000 12.999998 -2.499993
v 8.000000 12.999998 2.500007
v -4.000000 20.999998 2.500008
v 4.000000 20.999998 2.500008
v 5.000000 20.999998 2.500008
v 4.000000 20.999998 -2.499992
v 5.000000 20.999998 -2.499992
v -4.000000 21.999998 2.500009
vt 0.076172 0.500000
vt 0.072266 0.500000
vt 0.064453 0.500000
vt 0.107422 0.500000
vn -1.000000 0.000000 0.000000
vn -0.000000 -0.000000 1.000000
vn 0.000000 0.000000 -1.000000
vn 0.000000 -1.000000 0.000000
vn 0.000000 1.000000 0.000000
vn 1.000000 0.000000 0.000000
usemtl palette.001
s off
f 6/1/1 7/1/1 8/1/1
f 9/1/1 7/1/1 6/1/1
f 78/2/2 77/2/2 76/2/2
f 79/2/2 77/2/2 78/2/2
f 85/1/2 86/1/2 81/1/2
f 87/1/2 86/1/2 85/1/2
f 90/3/2 84/3/2 83/3/2
f 90/1/2 83/1/2 89/1/2
f 91/3/2 76/3/2 84/3/2
f 91/3/2 84/3/2 90/3/2
f 91/2/2 78/2/2 76/2/2
f 92/4/2 79/4/2 78/4/2
f 92/2/2 78/2/2 91/2/2
f 93/2/2 77/2/2 79/2/2
f 93/4/2 79/4/2 92/4/2
f 94/3/2 85/3/2 77/3/2
f 94/2/2 77/2/2 93/2/2
f 94/3/2 87/3/2 85/3/2
f 95/3/2 87/3/2 94/3/2
f 97/1/2 96/1/2 95/1/2
f 98/1/2 96/1/2 97/1/2
f 101/1/2 89/1/2 99/1/2
f 102/3/2 90/3/2 89/3/2
f 102/1/2 89/1/2 101/1/2
f 103/2/2 91/2/2 90/2/2
f 103/3/2 90/3/2 102/3/2
f 104/4/2 92/4/2 91/4/2
f 104/2/2 91/2/2 103/2/2
f 104/4/2 94/4/2 93/4/2
f 104/4/2 93/4/2 92/4/2
f 105/2/2 95/2/2 94/2/2
f 105/4/2 94/4/2 104/4/2
f 106/3/2 97/3/2 95/3/2
f 106/2/2 95/2/2 105/2/2
f 107/3/2 97/3/2 106/3/2
f 107/1/2 98/1/2 97/1/2
f 111/3/2 102/3/2 101/3/2
f 111/1/2 101/1/2 110/1/2
f 112/2/2 103/2/2 102/2/2
f 112/3/2 102/3/2 111/3/2
f 113/4/2 106/4/2 105/4/2
f 113/2/2 103/2/2 112/2/2
f 113/4/2 105/4/2 104/4/2
f 113/4/2 104/4/2 103/4/2
f 114/2/2 107/2/2 106/2/2
f 114/4/2 106/4/2 113/4/2
f 115/3/2 108/3/2 107/3/2
f 115/2/2 107/2/2 114/2/2
f 116/1/2 117/1/2 109/1/2
f 116/3/2 108/3/2 115/3/2
f 116/1/2 109/1/2 108/1/2
f 118/1/2 117/1/2 116/1/2
f 119/1/2 117/1/2 118/1/2
f 121/3/2 111/3/2 110/3/2
f 121/1/2 110/1/2 120/1/2
f 122/2/2 112/2/2 111/2/2
f 122/3/2 111/3/2 121/3/2
f 123/4/2 115/4/2 114/4/2
f 123/2/2 112/2/2 122/2/2
f 123/4/2 114/4/2 113/4/2
f 123/4/2 113/4/2 112/4/2
f 124/2/2 116/2/2 115/2/2
f 124/4/2 115/4/2 123/4/2
f 125/3/2 118/3/2 116/3/2
f 125/2/2 116/2/2 124/2/2
f 126/3/2 118/3/2 125/3/2
f 126/1/2 119/1/2 118/1/2
f 130/1/2 120/1/2 128/1/2
f 131/3/2 121/3/2 120/3/2
f 131/1/2 120/1/2 130/1/2
f 132/2/2 122/2/2 121/2/2
f 132/3/2 121/3/2 131/3/2
f 133/4/2 124/4/2 123/4/2
f 133/2/2 122/2/2 132/2/2
f 133/4/2 125/4/2 124/4/2
f 133/4/2 123/4/2 122/4/2
f 134/2/2 126/2/2 125/2/2
f 134/4/2 125/4/2 133/4/2
f 135/3/2 127/3/2 126/3/2
f 135/2/2 126/2/2 134/2/2
f 136/3/2 127/3/2 135/3/2
f 136/1/2 129/1/2 127/1/2
f 139/4/2 135/4/2 134/4/2
f 139/4/2 134/4/2 133/4/2
f 139/4/2 133/4/2 132/4/2
f 140/4/2 135/4/2 139/4/2
f 143/1/2 130/1/2 138/1/2
f 143/1/2 138/1/2 142/1/2
f 144/3/2 131/3/2 130/3/2
f 144/1/2 130/1/2 143/1/2
f 145/2/2 132/2/2 131/2/2
f 145/3/2 131/3/2 144/3/2
f 146/4/2 139/4/2 132/4/2
f 146/2/2 132/2/2 145/2/2
f 147/4/2 139/4/2 146/4/2
f 148/2/2 140/2/2 139/2/2
f 148/4/2 139/4/2 147/4/2
f 149/4/2 135/4/2 140/4/2
f 149/2/2 140/2/2 148/2/2
f 150/4/2 135/4/2 149/4/2
f 151/2/2 136/2/2 135/2/2
f 151/4/2 135/4/2 150/4/2
f 152/3/2 137/3/2 136/3/2
f 152/2/2 136/2/2 151/2/2
f 153/3/2 137/3/2 152/3/2
f 153/1/2 141/1/2 137/1/2
f 156/3/2 144/3/2 143/3/2
f 157/4/2 147/4/2 146/4/2
f 157/4/2 146/4/2 145/4/2
f 158/2/2 148/2/2 147/2/2
f 158/4/2 147/4/2 157/4/2
f 159/3/2 149/3/2 148/3/2
f 159/2/2 148/2/2 158/2/2
f 160/2/2 150/2/2 149/2/2
f 160/3/2 149/3/2 159/3/2
f 161/4/2 152/4/2 151/4/2
f 161/2/2 150/2/2 160/2/2
f 161/4/2 151/4/2 150/4/2
f 162/4/2 152/4/2 161/4/2
f 163/1/2 155/1/2 154/1/2
f 163/3/2 154/3/2 153/3/2
f 165/2/2 145/2/2 144/2/2
f 165/3/2 156/3/2 164/3/2
f 165/3/2 144/3/2 156/3/2
f 166/4/2 157/4/2 145/4/2
f 166/2/2 145/2/2 165/2/2
f 167/4/2 157/4/2 166/4/2
f 168/2/2 158/2/2 157/2/2
f 168/4/2 157/4/2 167/4/2
f 169/3/2 159/3/2 158/3/2
f 169/2/2 158/2/2 168/2/2
f 170/1/2 160/1/2 159/1/2
f 170/3/2 159/3/2 169/3/2
f 171/2/2 162/2/2 161/2/2
f 172/4/2 152/4/2 162/4/2
f 172/2/2 162/2/2 171/2/2
f 173/4/2 152/4/2 172/4/2
f 174/2/2 153/2/2 152/2/2
f 174/4/2 152/4/2 173/4/2
f 175/2/2 153/2/2 174/2/2
f 175/3/2 163/3/2 153/3/2
f 177/2/2 165/2/2 164/2/2
f 178/4/2 167/4/2 166/4/2
f 178/2/2 165/2/2 177/2/2
f 178/4/2 166/4/2 165/4/2
f 180/2/2 176/2/2 175/2/2
f 180/4/2 174/4/2 173/4/2
f 180/4/2 175/4/2 174/4/2
f 181/2/2 176/2/2 180/2/2
f 182/4/2 167/4/2 178/4/2
f 182/4/2 178/4/2 177/4/2
f 183/2/2 168/2/2 167/2/2
f 183/4/2 167/4/2 182/4/2
f 184/3/2 169/3/2 168/3/2
f 184/2/2 168/2/2 183/2/2
f 186/2/2 173/2/2 172/2/2
f 187/4/2 181/4/2 180/4/2
f 187/2/2 173/2/2 186/2/2
f 187/4/2 180/4/2 173/4/2
f 188/4/2 181/4/2 187/4/2
f 189/2/2 183/2/2 182/2/2
f 189/4/2 182/4/2 177/4/2
f 190/3/2 184/3/2 183/3/2
f 190/2/2 183/2/2 189/2/2
f 191/3/2 184/3/2 190/3/2
f 193/3/2 187/3/2 186/3/2
f 194/2/2 188/2/2 187/2/2
f 194/3/2 187/3/2 193/3/2
f 195/4/2 181/4/2 188/4/2
f 195/2/2 188/2/2 194/2/2
f 196/2/2 177/2/2 164/2/2
f 196/4/2 189/4/2 177/4/2
f 196/4/2 190/4/2 189/4/2
f 197/4/2 190/4/2 196/4/2
f 199/4/2 181/4/2 195/4/2
f 199/4/2 195/4/2 194/4/2
f 200/2/2 176/2/2 181/2/2
f 200/4/2 181/4/2 199/4/2
f 201/2/2 196/2/2 164/2/2
f 201/2/2 197/2/2 196/2/2
f 202/4/2 190/4/2 197/4/2
f 202/2/2 197/2/2 201/2/2
f 203/4/2 190/4/2 202/4/2
f 204/2/2 191/2/2 190/2/2
f 204/4/2 190/4/2 203/4/2
f 205/3/2 192/3/2 191/3/2
f 205/2/2 191/2/2 204/2/2
f 206/3/2 192/3/2 205/3/2
f 210/2/2 194/2/2 193/2/2
f 210/3/2 193/3/2 209/3/2
f 211/4/2 199/4/2 194/4/2
f 211/2/2 194/2/2 210/2/2
f 212/4/2 199/4/2 211/4/2
f 213/2/2 200/2/2 199/2/2
f 213/4/2 199/4/2 212/4/2
f 214/2/2 200/2/2 213/2/2
f 214/2/2 176/2/2 200/2/2
f 217/4/2 205/4/2 204/4/2
f 217/4/2 204/4/2 203/4/2
f 217/2/2 206/2/2 205/2/2
f 218/2/2 206/2/2 217/2/2
f 221/2/2 210/2/2 209/2/2
f 221/3/2 209/3/2 220/3/2
f 222/4/2 211/4/2 210/4/2
f 222/2/2 210/2/2 221/2/2
f 222/4/2 212/4/2 211/4/2
f 223/3/2 214/3/2 213/3/2
f 225/3/2 202/3/2 216/3/2
f 226/2/2 203/2/2 202/2/2
f 226/3/2 202/3/2 225/3/2
f 227/4/2 218/4/2 217/4/2
f 227/2/2 203/2/2 226/2/2
f 227/4/2 217/4/2 203/4/2
f 228/4/2 218/4/2 227/4/2
f 229/2/2 219/2/2 218/2/2
f 229/4/2 218/4/2 228/4/2
f 230/3/2 220/3/2 219/3/2
f 230/2/2 219/2/2 229/2/2
f 231/2/2 221/2/2 220/2/2
f 231/3/2 220/3/2 230/3/2
f 232/4/2 222/4/2 221/4/2
f 232/2/2 221/2/2 231/2/2
f 233/4/2 212/4/2 222/4/2
f 233/4/2 222/4/2 232/4/2
f 234/2/2 213/2/2 212/2/2
f 234/4/2 212/4/2 233/4/2
f 235/3/2 223/3/2 213/3/2
f 235/2/2 213/2/2 234/2/2
f 236/3/2 223/3/2 235/3/2
f 239/4/2 229/4/2 228/4/2
f 239/4/2 230/4/2 229/4/2
f 239/2/2 231/2/2 230/2/2
f 240/4/2 233/4/2 232/4/2
f 240/2/2 231/2/2 239/2/2
f 240/4/2 232/4/2 231/4/2
f 241/1/2 237/1/2 236/1/2
f 241/1/2 236/1/2 235/1/2
f 242/1/2 226/1/2 238/1/2
f 242/3/2 227/3/2 226/3/2
f 243/2/2 228/2/2 227/2/2
f 243/3/2 227/3/2 242/3/2
f 244/4/2 239/4/2 228/4/2
f 244/2/2 228/2/2 243/2/2
f 244/4/2 240/4/2 239/4/2
f 245/4/2 240/4/2 244/4/2
f 246/4/2 233/4/2 240/4/2
f 246/4/2 240/4/2 245/4/2
f 247/2/2 234/2/2 233/2/2
f 247/4/2 233/4/2 246/4/2
f 248/3/2 235/3/2 234/3/2
f 248/2/2 234/2/2 247/2/2
f 249/1/2 241/1/2 235/1/2
f 249/3/2 235/3/2 248/3/2
f 250/3/2 244/3/2 243/3/2
f 251/2/2 245/2/2 244/2/2
f 251/3/2 244/3/2 250/3/2
f 252/4/2 246/4/2 245/4/2
f 252/2/2 245/2/2 251/2/2
f 253/4/2 246/4/2 252/4/2
f 254/4/2 246/4/2 253/4/2
f 255/2/2 247/2/2 246/2/2
f 255/4/2 246/4/2 254/4/2
f 256/3/2 248/3/2 247/3/2
f 256/2/2 247/2/2 255/2/2
f 257/3/2 248/3/2 256/3/2
f 258/3/2 252/3/2 251/3/2
f 259/2/2 253/2/2 252/2/2
f 259/3/2 252/3/2 258/3/2
f 260/4/2 254/4/2 253/4/2
f 260/2/2 253/2/2 259/2/2
f 261/4/2 254/4/2 260/4/2
f 262/4/2 254/4/2 261/4/2
f 263/2/2 255/2/2 254/2/2
f 263/4/2 254/4/2 262/4/2
f 264/3/2 256/3/2 255/3/2
f 264/2/2 255/2/2 263/2/2
f 265/1/2 257/1/2 256/1/2
f 265/3/2 256/3/2 264/3/2
f 266/1/2 257/1/2 265/1/2
f 267/1/2 259/1/2 258/1/2
f 268/3/2 260/3/2 259/3/2
f 269/2/2 261/2/2 260/2/2
f 269/3/2 260/3/2 268/3/2
f 270/4/2 262/4/2 261/4/2
f 270/2/2 261/2/2 269/2/2
f 271/4/2 262/4/2 270/4/2
f 272/4/2 262/4/2 271/4/2
f 273/2/2 263/2/2 262/2/2
f 273/4/2 262/4/2 272/4/2
f 274/3/2 264/3/2 263/3/2
f 274/2/2 263/2/2 273/2/2
f 275/1/2 265/1/2 264/1/2
f 275/3/2 264/3/2 274/3/2
f 275/1/2 266/1/2 265/1/2
f 277/3/2 270/3/2 269/3/2
f 277/1/2 269/1/2 276/1/2
f 278/2/2 271/2/2 270/2/2
f 278/3/2 270/3/2 277/3/2
f 279/4/2 272/4/2 271/4/2
f 279/2/2 271/2/2 278/2/2
f 280/4/2 272/4/2 279/4/2
f 281/4/2 272/4/2 280/4/2
f 282/2/2 273/2/2 272/2/2
f 282/4/2 272/4/2 281/4/2
f 283/3/2 274/3/2 273/3/2
f 283/2/2 273/2/2 282/2/2
f 284/3/2 274/3/2 283/3/2
f 284/1/2 275/1/2 274/1/2
f 285/1/2 278/1/2 277/1/2
f 285/1/2 277/1/2 276/1/2
f 286/3/2 279/3/2 278/3/2
f 287/3/2 279/3/2 286/3/2
f 288/3/2 283/3/2 282/3/2
f 289/3/2 283/3/2 288/3/2
f 289/1/2 284/1/2 283/1/2
f 290/1/2 289/1/2 288/1/2
f 291/4/2 281/4/2 280/4/2
f 291/2/2 280/2/2 279/2/2
f 292/2/2 282/2/2 281/2/2
f 292/4/2 281/4/2 291/4/2
f 293/2/2 291/2/2 279/2/2
f 293/3/2 279/3/2 287/3/2
f 293/2/2 292/2/2 291/2/2
f 294/2/2 282/2/2 292/2/2
f 294/2/2 292/2/2 293/2/2
f 294/3/2 288/3/2 282/3/2
f 296/1/2 290/1/2 288/1/2
f 296/3/2 288/3/2 294/3/2
f 300/2/3 301/2/3 302/2/3
f 302/2/3 301/2/3 303/2/3
f 304/1/3 299/1/3 306/1/3
f 299/3/3 300/3/3 307/3/3
f 306/1/3 299/1/3 307/1/3
f 310/1/3 306/1/3 312/1/3
f 306/3/3 307/3/3 313/3/3
f 312/1/3 306/1/3 313/1/3
f 307/3/3 300/3/3 314/3/3
f 313/3/3 307/3/3 314/3/3
f 300/2/3 302/2/3 314/2/3
f 302/4/3 303/4/3 315/4/3
f 314/2/3 302/2/3 315/2/3
f 303/2/3 301/2/3 316/2/3
f 315/4/3 303/4/3 316/4/3
f 301/3/3 308/3/3 317/3/3
f 316/2/3 301/2/3 317/2/3
f 308/3/3 309/3/3 317/3/3
f 317/3/3 309/3/3 319/3/3
f 319/1/3 318/1/3 320/1/3
f 312/3/3 313/3/3 322/3/3
f 321/1/3 312/1/3 322/1/3
f 313/2/3 314/2/3 323/2/3
f 322/3/3 313/3/3 323/3/3
f 314/4/3 315/4/3 324/4/3
f 323/2/3 314/2/3 324/2/3
f 316/4/3 317/4/3 324/4/3
f 315/4/3 316/4/3 324/4/3
f 317/2/3 319/2/3 325/2/3
f 324/4/3 317/4/3 325/4/3
f 319/3/3 320/3/3 326/3/3
f 325/2/3 319/2/3 326/2/3
f 326/3/3 320/3/3 327/3/3
f 329/1/3 321/1/3 330/1/3
f 321/3/3 322/3/3 331/3/3
f 330/1/3 321/1/3 331/1/3
f 322/2/3 323/2/3 332/2/3
f 331/3/3 322/3/3 332/3/3
f 325/4/3 326/4/3 333/4/3
f 332/2/3 323/2/3 333/2/3
f 324/4/3 325/4/3 333/4/3
f 323/4/3 324/4/3 333/4/3
f 326/2/3 327/2/3 334/2/3
f 333/4/3 326/4/3 334/4/3
f 327/3/3 328/3/3 335/3/3
f 334/2/3 327/2/3 335/2/3
f 335/3/3 328/3/3 337/3/3
f 337/1/3 336/1/3 338/1/3
f 329/1/3 330/1/3 339/1/3
f 330/3/3 331/3/3 340/3/3
f 339/1/3 330/1/3 340/1/3
f 331/2/3 332/2/3 341/2/3
f 340/3/3 331/3/3 341/3/3
f 334/4/3 335/4/3 342/4/3
f 341/2/3 332/2/3 342/2/3
f 333/4/3 334/4/3 342/4/3
f 332/4/3 333/4/3 342/4/3
f 335/2/3 337/2/3 343/2/3
f 342/4/3 335/4/3 343/4/3
f 337/3/3 338/3/3 344/3/3
f 343/2/3 337/2/3 344/2/3
f 344/3/3 338/3/3 346/3/3
f 346/1/3 345/1/3 347/1/3
f 339/3/3 340/3/3 349/3/3
f 348/1/3 339/1/3 349/1/3
f 340/2/3 341/2/3 350/2/3
f 349/3/3 340/3/3 350/3/3
f 342/4/3 343/4/3 351/4/3
f 350/2/3 341/2/3 351/2/3
f 343/4/3 344/4/3 351/4/3
f 341/4/3 342/4/3 351/4/3
f 344/2/3 346/2/3 352/2/3
f 351/4/3 344/4/3 352/4/3
f 346/3/3 347/3/3 353/3/3
f 352/2/3 346/2/3 353/2/3
f 353/3/3 347/3/3 354/3/3
f 352/4/3 353/4/3 356/4/3
f 351/4/3 352/4/3 356/4/3
f 350/4/3 351/4/3 356/4/3
f 356/4/3 353/4/3 357/4/3
f 348/3/3 349/3/3 360/3/3
f 359/1/3 348/1/3 360/1/3
f 349/2/3 350/2/3 361/2/3
f 360/3/3 349/3/3 361/3/3
f 350/4/3 356/4/3 362/4/3
f 361/2/3 350/2/3 362/2/3
f 362/4/3 356/4/3 363/4/3
f 356/2/3 357/2/3 364/2/3
f 363/4/3 356/4/3 364/4/3
f 357/4/3 353/4/3 365/4/3
f 364/2/3 357/2/3 365/2/3
f 365/4/3 353/4/3 366/4/3
f 353/2/3 354/2/3 367/2/3
f 366/4/3 353/4/3 367/4/3
f 354/3/3 355/3/3 368/3/3
f 367/2/3 354/2/3 368/2/3
f 368/3/3 355/3/3 370/3/3
f 370/1/3 369/1/3 371/1/3
f 371/1/3 369/1/3 372/1/3
f 359/3/3 360/3/3 373/3/3
f 362/4/3 363/4/3 374/4/3
f 361/4/3 362/4/3 374/4/3
f 363/2/3 364/2/3 375/2/3
f 374/4/3 363/4/3 375/4/3
f 364/3/3 365/3/3 376/3/3
f 375/2/3 364/2/3 376/2/3
f 365/2/3 366/2/3 377/2/3
f 376/3/3 365/3/3 377/3/3
f 367/4/3 368/4/3 378/4/3
f 377/2/3 366/2/3 378/2/3
f 366/4/3 367/4/3 378/4/3
f 378/4/3 368/4/3 379/4/3
f 372/1/3 380/1/3 381/1/3
f 371/1/3 372/1/3 381/1/3
f 370/3/3 371/3/3 381/3/3
f 381/1/3 380/1/3 382/1/3
f 360/2/3 361/2/3 384/2/3
f 383/3/3 373/3/3 384/3/3
f 373/3/3 360/3/3 384/3/3
f 361/4/3 374/4/3 385/4/3
f 384/2/3 361/2/3 385/2/3
f 385/4/3 374/4/3 386/4/3
f 374/2/3 375/2/3 387/2/3
f 386/4/3 374/4/3 387/4/3
f 375/3/3 376/3/3 388/3/3
f 387/2/3 375/2/3 388/2/3
f 378/2/3 379/2/3 389/2/3
f 379/4/3 368/4/3 390/4/3
f 389/2/3 379/2/3 390/2/3
f 390/4/3 368/4/3 391/4/3
f 368/2/3 370/2/3 392/2/3
f 391/4/3 368/4/3 392/4/3
f 381/3/3 382/3/3 393/3/3
f 392/2/3 370/2/3 393/2/3
f 370/3/3 381/3/3 393/3/3
f 393/3/3 382/3/3 394/3/3
f 383/2/3 384/2/3 395/2/3
f 385/4/3 386/4/3 396/4/3
f 395/2/3 384/2/3 396/2/3
f 384/4/3 385/4/3 396/4/3
f 393/2/3 394/2/3 399/2/3
f 391/4/3 392/4/3 399/4/3
f 392/4/3 393/4/3 399/4/3
f 399/2/3 394/2/3 400/2/3
f 396/4/3 386/4/3 401/4/3
f 395/4/3 396/4/3 401/4/3
f 386/2/3 387/2/3 402/2/3
f 401/4/3 386/4/3 402/4/3
f 387/3/3 388/3/3 403/3/3
f 402/2/3 387/2/3 403/2/3
f 389/3/3 390/3/3 404/3/3
f 390/2/3 391/2/3 405/2/3
f 404/3/3 390/3/3 405/3/3
f 399/4/3 400/4/3 406/4/3
f 405/2/3 391/2/3 406/2/3
f 391/4/3 399/4/3 406/4/3
f 406/4/3 400/4/3 407/4/3
f 401/2/3 402/2/3 408/2/3
f 395/4/3 401/4/3 408/4/3
f 402/3/3 403/3/3 409/3/3
f 408/2/3 402/2/3 409/2/3
f 409/3/3 403/3/3 410/3/3
f 405/3/3 406/3/3 412/3/3
f 406/2/3 407/2/3 413/2/3
f 412/3/3 406/3/3 413/3/3
f 407/4/3 400/4/3 414/4/3
f 413/2/3 407/2/3 414/2/3
f 383/2/3 395/2/3 415/2/3
f 395/4/3 408/4/3 415/4/3
f 408/4/3 409/4/3 415/4/3
f 415/4/3 409/4/3 416/4/3
f 414/4/3 400/4/3 417/4/3
f 413/4/3 414/4/3 417/4/3
f 400/2/3 394/2/3 418/2/3
f 417/4/3 400/4/3 418/4/3
f 383/2/3 415/2/3 419/2/3
f 415/2/3 416/2/3 419/2/3
f 416/4/3 409/4/3 420/4/3
f 419/2/3 416/2/3 420/2/3
f 420/4/3 409/4/3 421/4/3
f 409/2/3 410/2/3 422/2/3
f 421/4/3 409/4/3 422/4/3
f 410/3/3 411/3/3 423/3/3
f 422/2/3 410/2/3 423/2/3
f 423/3/3 411/3/3 425/3/3
f 425/1/3 424/1/3 426/1/3
f 412/2/3 413/2/3 429/2/3
f 428/3/3 412/3/3 429/3/3
f 413/4/3 417/4/3 430/4/3
f 429/2/3 413/2/3 430/2/3
f 430/4/3 417/4/3 431/4/3
f 417/2/3 418/2/3 432/2/3
f 431/4/3 417/4/3 432/4/3
f 394/3/3 382/3/3 433/3/3
f 432/2/3 418/2/3 433/2/3
f 418/2/3 394/2/3 433/2/3
f 419/3/3 420/3/3 434/3/3
f 434/3/3 420/3/3 435/3/3
f 422/4/3 423/4/3 436/4/3
f 421/4/3 422/4/3 436/4/3
f 423/2/3 425/2/3 436/2/3
f 425/3/3 426/3/3 437/3/3
f 436/2/3 425/2/3 437/2/3
f 426/1/3 427/1/3 438/1/3
f 437/3/3 426/3/3 438/3/3
f 427/3/3 428/3/3 439/3/3
f 438/1/3 427/1/3 439/1/3
f 428/2/3 429/2/3 440/2/3
f 439/3/3 428/3/3 440/3/3
f 429/4/3 430/4/3 441/4/3
f 440/2/3 429/2/3 441/2/3
f 430/4/3 431/4/3 441/4/3
f 432/3/3 433/3/3 442/3/3
f 435/3/3 420/3/3 444/3/3
f 420/2/3 421/2/3 445/2/3
f 444/3/3 420/3/3 445/3/3
f 436/4/3 437/4/3 446/4/3
f 445/2/3 421/2/3 446/2/3
f 421/4/3 436/4/3 446/4/3
f 446/4/3 437/4/3 447/4/3
f 437/2/3 438/2/3 448/2/3
f 447/4/3 437/4/3 448/4/3
f 438/3/3 439/3/3 449/3/3
f 448/2/3 438/2/3 449/2/3
f 439/2/3 440/2/3 450/2/3
f 449/3/3 439/3/3 450/3/3
f 440/4/3 441/4/3 451/4/3
f 450/2/3 440/2/3 451/2/3
f 441/4/3 431/4/3 452/4/3
f 451/4/3 441/4/3 452/4/3
f 431/2/3 432/2/3 453/2/3
f 452/4/3 431/4/3 453/4/3
f 432/3/3 442/3/3 454/3/3
f 453/2/3 432/2/3 454/2/3
f 454/3/3 442/3/3 455/3/3
f 447/4/3 448/4/3 458/4/3
f 448/4/3 449/4/3 458/4/3
f 449/2/3 450/2/3 458/2/3
f 451/4/3 452/4/3 459/4/3
f 458/2/3 450/2/3 459/2/3
f 450/4/3 451/4/3 459/4/3
f 455/1/3 456/1/3 460/1/3
f 454/1/3 455/1/3 460/1/3
f 457/1/3 445/1/3 461/1/3
f 445/3/3 446/3/3 461/3/3
f 446/2/3 447/2/3 462/2/3
f 461/3/3 446/3/3 462/3/3
f 447/4/3 458/4/3 463/4/3
f 462/2/3 447/2/3 463/2/3
f 458/4/3 459/4/3 463/4/3
f 463/4/3 459/4/3 464/4/3
f 459/4/3 452/4/3 465/4/3
f 464/4/3 459/4/3 465/4/3
f 452/2/3 453/2/3 466/2/3
f 465/4/3 452/4/3 466/4/3
f 453/3/3 454/3/3 467/3/3
f 466/2/3 453/2/3 467/2/3
f 454/1/3 460/1/3 468/1/3
f 467/3/3 454/3/3 468/3/3
f 462/3/3 463/3/3 469/3/3
f 463/2/3 464/2/3 470/2/3
f 469/3/3 463/3/3 470/3/3
f 464/4/3 465/4/3 471/4/3
f 470/2/3 464/2/3 471/2/3
f 471/4/3 465/4/3 472/4/3
f 472/4/3 465/4/3 473/4/3
f 465/2/3 466/2/3 474/2/3
f 473/4/3 465/4/3 474/4/3
f 466/3/3 467/3/3 475/3/3
f 474/2/3 466/2/3 475/2/3
f 475/3/3 467/3/3 476/3/3
f 469/1/3 470/1/3 477/1/3
f 470/3/3 471/3/3 478/3/3
f 471/2/3 472/2/3 479/2/3
f 478/3/3 471/3/3 479/3/3
f 472/4/3 473/4/3 480/4/3
f 479/2/3 472/2/3 480/2/3
f 480/4/3 473/4/3 481/4/3
f 481/4/3 473/4/3 482/4/3
f 473/2/3 474/2/3 483/2/3
f 482/4/3 473/4/3 483/4/3
f 474/3/3 475/3/3 484/3/3
f 483/2/3 474/2/3 484/2/3
f 475/1/3 476/1/3 485/1/3
f 484/3/3 475/3/3 485/3/3
f 479/3/3 480/3/3 488/3/3
f 487/1/3 479/1/3 488/1/3
f 480/2/3 481/2/3 489/2/3
f 488/3/3 480/3/3 489/3/3
f 481/4/3 482/4/3 490/4/3
f 489/2/3 481/2/3 490/2/3
f 490/4/3 482/4/3 491/4/3
f 491/4/3 482/4/3 492/4/3
f 482/2/3 483/2/3 493/2/3
f 492/4/3 482/4/3 493/4/3
f 483/3/3 484/3/3 494/3/3
f 493/2/3 483/2/3 494/2/3
f 484/1/3 485/1/3 495/1/3
f 494/3/3 484/3/3 495/3/3
f 489/3/3 490/3/3 496/3/3
f 490/2/3 491/2/3 497/2/3
f 496/3/3 490/3/3 497/3/3
f 491/4/3 492/4/3 498/4/3
f 497/2/3 491/2/3 498/2/3
f 498/4/3 492/4/3 499/4/3
f 499/4/3 492/4/3 500/4/3
f 492/2/3 493/2/3 501/2/3
f 500/4/3 492/4/3 501/4/3
f 493/3/3 494/3/3 502/3/3
f 501/2/3 493/2/3 502/2/3
f 502/3/3 494/3/3 503/3/3
f 494/1/3 495/1/3 503/1/3
f 496/1/3 497/1/3 504/1/3
f 497/3/3 498/3/3 505/3/3
f 505/3/3 498/3/3 506/3/3
f 501/3/3 502/3/3 507/3/3
f 507/3/3 502/3/3 508/3/3
f 502/1/3 503/1/3 508/1/3
f 505/1/3 506/1/3 511/1/3
f 511/1/3 506/1/3 512/1/3
f 499/4/3 500/4/3 514/4/3
f 498/2/3 499/2/3 514/2/3
f 500/2/3 501/2/3 515/2/3
f 514/4/3 500/4/3 515/4/3
f 498/2/3 514/2/3 516/2/3
f 506/3/3 498/3/3 516/3/3
f 514/2/3 515/2/3 516/2/3
f 515/2/3 501/2/3 517/2/3
f 516/2/3 515/2/3 517/2/3
f 501/3/3 507/3/3 517/3/3
f 512/1/3 506/1/3 518/1/3
f 522/1/4 521/1/4 520/1/4
f 548/1/4 547/1/4 546/1/4
f 572/1/5 573/1/5 574/1/5
f 574/1/5 573/1/5 575/1/5
f 1/1/1 298/1/1 2/1/1
f 3/1/1 298/1/1 1/1/1
f 4/1/1 5/1/1 543/1/1
f 299/1/1 5/1/1 4/1/1
f 80/1/1 540/1/1 82/1/1
f 304/1/1 540/1/1 80/1/1
f 86/1/1 305/1/1 81/1/1
f 10/1/1 305/1/1 86/1/1
f 541/1/1 311/1/1 88/1/1
f 11/1/1 311/1/1 541/1/1
f 96/1/1 556/1/1 12/1/1
f 318/1/1 556/1/1 96/1/1
f 13/1/1 537/1/1 100/1/1
f 310/1/1 537/1/1 13/1/1
f 14/1/1 15/1/1 98/1/1
f 559/1/1 15/1/1 14/1/1
f 99/1/1 533/1/1 16/1/1
f 17/1/1 533/1/1 99/1/1
f 117/1/1 18/1/1 109/1/1
f 336/1/1 18/1/1 117/1/1
f 534/1/1 530/1/1 19/1/1
f 329/1/1 530/1/1 534/1/1
f 20/1/1 562/1/1 119/1/1
f 345/1/1 562/1/1 20/1/1
f 128/1/1 528/1/1 21/1/1
f 22/1/1 528/1/1 128/1/1
f 568/1/1 565/1/1 129/1/1
f 569/1/1 565/1/1 568/1/1
f 138/1/1 23/1/1 524/1/1
f 529/1/1 23/1/1 138/1/1
f 24/1/1 25/1/1 141/1/1
f 369/1/1 25/1/1 24/1/1
f 142/1/1 26/1/1 27/1/1
f 358/1/1 26/1/1 142/1/1
f 28/1/1 372/1/1 155/1/1
f 380/1/1 372/1/1 28/1/1
f 523/1/1 520/1/1 215/1/1
f 29/1/1 520/1/1 523/1/1
f 576/1/1 382/1/1 571/1/1
f 443/1/1 382/1/1 576/1/1
f 30/1/1 411/1/1 192/1/1
f 31/1/1 411/1/1 30/1/1
f 32/1/1 546/1/1 198/1/1
f 550/1/1 546/1/1 32/1/1
f 207/1/1 552/1/1 33/1/1
f 424/1/1 552/1/1 207/1/1
f 547/1/1 34/1/1 208/1/1
f 548/1/1 34/1/1 547/1/1
f 35/1/1 426/1/1 36/1/1
f 427/1/1 426/1/1 35/1/1
f 170/1/6 553/1/6 37/1/6
f 37/1/6 553/1/6 545/1/6
f 38/1/6 397/1/6 179/1/6
f 179/1/6 397/1/6 554/1/6
f 39/1/6 398/1/6 40/1/6
f 40/1/6 398/1/6 41/1/6
f 42/1/6 43/1/6 551/1/6
f 551/1/6 43/1/6 44/1/6
f 185/1/6 45/1/6 549/1/6
f 549/1/6 45/1/6 404/1/6
f 521/1/6 522/1/6 46/1/6
f 46/1/6 522/1/6 434/1/6
f 572/1/6 574/1/6 224/1/6
f 224/1/6 574/1/6 47/1/6
f 48/1/6 49/1/6 526/1/6
f 526/1/6 49/1/6 525/1/6
f 237/1/6 456/1/6 573/1/6
f 573/1/6 456/1/6 575/1/6
f 50/1/6 527/1/6 238/1/6
f 238/1/6 527/1/6 457/1/6
f 241/1/6 460/1/6 51/1/6
f 51/1/6 460/1/6 52/1/6
f 53/1/6 54/1/6 532/1/6
f 532/1/6 54/1/6 531/1/6
f 566/1/6 55/1/6 570/1/6
f 570/1/6 55/1/6 56/1/6
f 57/1/6 477/1/6 536/1/6
f 536/1/6 477/1/6 535/1/6
f 266/1/6 563/1/6 567/1/6
f 567/1/6 563/1/6 486/1/6
f 267/1/6 58/1/6 539/1/6
f 539/1/6 58/1/6 487/1/6
f 59/1/6 560/1/6 60/1/6
f 60/1/6 560/1/6 564/1/6
f 538/1/6 61/1/6 276/1/6
f 276/1/6 61/1/6 62/1/6
f 63/1/6 558/1/6 64/1/6
f 64/1/6 558/1/6 561/1/6
f 285/1/6 504/1/6 65/1/6
f 65/1/6 504/1/6 66/1/6
f 67/1/6 509/1/6 557/1/6
f 557/1/6 509/1/6 510/1/6
f 542/1/6 511/1/6 68/1/6
f 68/1/6 511/1/6 512/1/6
f 290/1/6 69/1/6 70/1/6
f 70/1/6 69/1/6 513/1/6
f 295/1/6 518/1/6 71/1/6
f 71/1/6 518/1/6 72/1/6
f 296/1/6 555/1/6 73/1/6
f 73/1/6 555/1/6 74/1/6
f 544/1/6 519/1/6 297/1/6
f 297/1/6 519/1/6 75/1/6
f 4/1/2 1/1/2 2/1/2
f 8/1/2 1/1/2 4/1/2
f 76/3/2 8/3/2 4/3/2
f 77/3/2 8/3/2 76/3/2
f 80/1/2 4/1/2 543/1/2
f 81/1/2 6/1/2 8/1/2
f 541/1/2 80/1/2 82/1/2
f 83/1/2 4/1/2 80/1/2
f 83/1/2 80/1/2 541/1/2
f 84/3/2 76/3/2 4/3/2
f 84/1/2 4/1/2 83/1/2
f 85/3/2 8/3/2 77/3/2
f 85/1/2 81/1/2 8/1/2
f 12/1/2 86/1/2 87/1/2
f 13/1/2 83/1/2 541/1/2
f 13/1/2 541/1/2 88/1/2
f 89/1/2 83/1/2 13/1/2
f 95/1/2 96/1/2 12/1/2
f 95/1/2 12/1/2 87/1/2
f 99/1/2 89/1/2 13/1/2
f 99/1/2 13/1/2 100/1/2
f 107/1/2 14/1/2 98/1/2
f 108/1/2 14/1/2 107/1/2
f 109/1/2 14/1/2 108/1/2
f 534/1/2 101/1/2 99/1/2
f 534/1/2 99/1/2 16/1/2
f 110/1/2 101/1/2 534/1/2
f 120/1/2 534/1/2 19/1/2
f 120/1/2 110/1/2 534/1/2
f 126/1/2 20/1/2 119/1/2
f 127/1/2 20/1/2 126/1/2
f 128/1/2 120/1/2 19/1/2
f 129/1/2 20/1/2 127/1/2
f 130/1/2 128/1/2 21/1/2
f 136/1/2 568/1/2 129/1/2
f 137/1/2 568/1/2 136/1/2
f 138/1/2 130/1/2 21/1/2
f 141/1/2 568/1/2 137/1/2
f 142/1/2 138/1/2 524/1/2
f 153/1/2 24/1/2 141/1/2
f 154/1/2 24/1/2 153/1/2
f 155/1/2 24/1/2 154/1/2
f 523/1/2 143/1/2 142/1/2
f 523/1/2 142/1/2 27/1/2
f 156/1/2 143/1/2 523/1/2
f 163/1/2 28/1/2 155/1/2
f 571/1/2 28/1/2 163/1/2
f 164/3/2 156/3/2 523/3/2
f 37/3/2 161/3/2 160/3/2
f 37/1/2 160/1/2 170/1/2
f 171/3/2 161/3/2 37/3/2
f 175/3/2 571/3/2 163/3/2
f 176/3/2 571/3/2 175/3/2
f 38/1/2 170/1/2 169/1/2
f 179/1/2 170/1/2 38/1/2
f 39/1/2 171/1/2 37/1/2
f 40/1/2 171/1/2 39/1/2
f 42/1/2 38/1/2 169/1/2
f 42/3/2 169/3/2 184/3/2
f 551/1/2 38/1/2 42/1/2
f 185/1/2 171/1/2 40/1/2
f 549/3/2 172/3/2 171/3/2
f 549/1/2 171/1/2 185/1/2
f 186/3/2 172/3/2 549/3/2
f 191/1/2 42/1/2 184/1/2
f 192/1/2 42/1/2 191/1/2
f 32/1/2 186/1/2 549/1/2
f 193/1/2 186/1/2 32/1/2
f 33/1/2 30/1/2 192/1/2
f 547/1/2 32/1/2 198/1/2
f 201/3/2 164/3/2 523/3/2
f 206/1/2 207/1/2 33/1/2
f 206/1/2 33/1/2 192/1/2
f 36/1/2 207/1/2 206/1/2
f 35/1/2 547/1/2 208/1/2
f 209/3/2 193/3/2 32/3/2
f 209/1/2 32/1/2 547/1/2
f 209/1/2 547/1/2 35/1/2
f 214/3/2 571/3/2 176/3/2
f 521/1/2 523/1/2 215/1/2
f 46/3/2 201/3/2 523/3/2
f 46/1/2 523/1/2 521/1/2
f 46/3/2 202/3/2 201/3/2
f 216/3/2 202/3/2 46/3/2
f 218/3/2 36/3/2 206/3/2
f 219/1/2 35/1/2 36/1/2
f 219/3/2 36/3/2 218/3/2
f 220/3/2 209/3/2 35/3/2
f 220/1/2 35/1/2 219/1/2
f 572/3/2 571/3/2 214/3/2
f 572/3/2 214/3/2 223/3/2
f 572/1/2 576/1/2 571/1/2
f 224/1/2 576/1/2 572/1/2
f 48/1/2 216/1/2 46/1/2
f 526/1/2 216/1/2 48/1/2
f 225/1/2 216/1/2 526/1/2
f 236/1/2 572/1/2 223/1/2
f 237/1/2 572/1/2 236/1/2
f 573/1/2 572/1/2 237/1/2
f 50/1/2 226/1/2 225/1/2
f 50/1/2 225/1/2 526/1/2
f 238/1/2 226/1/2 50/1/2
f 51/1/2 237/1/2 241/1/2
f 53/1/2 242/1/2 238/1/2
f 53/1/2 243/1/2 242/1/2
f 532/1/2 243/1/2 53/1/2
f 566/1/2 241/1/2 249/1/2
f 566/1/2 249/1/2 248/1/2
f 570/1/2 241/1/2 566/1/2
f 250/1/2 243/1/2 532/1/2
f 257/1/2 566/1/2 248/1/2
f 57/1/2 251/1/2 250/1/2
f 57/1/2 250/1/2 532/1/2
f 536/1/2 251/1/2 57/1/2
f 258/1/2 251/1/2 536/1/2
f 266/1/2 566/1/2 257/1/2
f 567/1/2 566/1/2 266/1/2
f 267/1/2 258/1/2 536/1/2
f 539/1/2 259/1/2 267/1/2
f 268/1/2 259/1/2 539/1/2
f 59/1/2 266/1/2 275/1/2
f 60/1/2 266/1/2 59/1/2
f 538/1/2 269/1/2 268/1/2
f 538/1/2 268/1/2 539/1/2
f 276/1/2 269/1/2 538/1/2
f 284/1/2 59/1/2 275/1/2
f 63/1/2 59/1/2 284/1/2
f 64/1/2 59/1/2 63/1/2
f 65/1/2 278/1/2 285/1/2
f 286/1/2 278/1/2 65/1/2
f 289/1/2 63/1/2 284/1/2
f 67/1/2 63/1/2 289/1/2
f 557/1/2 63/1/2 67/1/2
f 542/1/2 287/1/2 286/1/2
f 542/1/2 286/1/2 65/1/2
f 68/1/2 287/1/2 542/1/2
f 290/1/2 67/1/2 289/1/2
f 70/1/2 67/1/2 290/1/2
f 295/1/2 287/1/2 68/1/2
f 71/3/2 293/3/2 287/3/2
f 71/1/2 287/1/2 295/1/2
f 71/3/2 294/3/2 293/3/2
f 296/3/2 294/3/2 71/3/2
f 73/1/2 290/1/2 296/1/2
f 544/1/2 296/1/2 71/1/2
f 297/1/2 296/1/2 544/1/2
f 298/1/3 3/1/3 299/1/3
f 299/1/3 3/1/3 7/1/3
f 299/3/3 7/3/3 300/3/3
f 300/3/3 7/3/3 301/3/3
f 5/1/3 299/1/3 304/1/3
f 7/1/3 9/1/3 305/1/3
f 540/1/3 304/1/3 11/1/3
f 11/1/3 304/1/3 306/1/3
f 305/1/3 10/1/3 308/1/3
f 301/3/3 7/3/3 308/3/3
f 7/1/3 305/1/3 308/1/3
f 308/1/3 10/1/3 309/1/3
f 309/1/3 10/1/3 556/1/3
f 11/1/3 306/1/3 310/1/3
f 311/1/3 11/1/3 310/1/3
f 556/1/3 318/1/3 319/1/3
f 309/1/3 556/1/3 319/1/3
f 320/1/3 318/1/3 15/1/3
f 310/1/3 312/1/3 17/1/3
f 537/1/3 310/1/3 17/1/3
f 17/1/3 312/1/3 321/1/3
f 15/1/3 559/1/3 327/1/3
f 320/1/3 15/1/3 327/1/3
f 327/1/3 559/1/3 328/1/3
f 328/1/3 559/1/3 18/1/3
f 17/1/3 321/1/3 329/1/3
f 533/1/3 17/1/3 329/1/3
f 18/1/3 336/1/3 337/1/3
f 328/1/3 18/1/3 337/1/3
f 338/1/3 336/1/3 562/1/3
f 530/1/3 329/1/3 339/1/3
f 562/1/3 345/1/3 346/1/3
f 338/1/3 562/1/3 346/1/3
f 530/1/3 339/1/3 22/1/3
f 347/1/3 345/1/3 565/1/3
f 528/1/3 22/1/3 348/1/3
f 22/1/3 339/1/3 348/1/3
f 565/1/3 569/1/3 354/1/3
f 347/1/3 565/1/3 354/1/3
f 354/1/3 569/1/3 355/1/3
f 528/1/3 348/1/3 529/1/3
f 355/1/3 569/1/3 25/1/3
f 23/1/3 529/1/3 358/1/3
f 529/1/3 348/1/3 359/1/3
f 358/1/3 529/1/3 359/1/3
f 25/1/3 369/1/3 370/1/3
f 355/1/3 25/1/3 370/1/3
f 358/1/3 359/1/3 29/1/3
f 26/1/3 358/1/3 29/1/3
f 29/1/3 359/1/3 373/1/3
f 29/3/3 373/3/3 383/3/3
f 376/1/3 377/1/3 553/1/3
f 388/3/3 376/3/3 553/3/3
f 377/3/3 378/3/3 545/3/3
f 553/1/3 377/1/3 545/1/3
f 545/3/3 378/3/3 389/3/3
f 388/1/3 553/1/3 397/1/3
f 397/1/3 553/1/3 554/1/3
f 545/1/3 389/1/3 398/1/3
f 398/1/3 389/1/3 41/1/3
f 388/1/3 397/1/3 43/1/3
f 403/3/3 388/3/3 43/3/3
f 43/1/3 397/1/3 44/1/3
f 41/1/3 389/1/3 45/1/3
f 45/1/3 389/1/3 404/1/3
f 403/1/3 43/1/3 410/1/3
f 410/1/3 43/1/3 411/1/3
f 404/1/3 405/1/3 550/1/3
f 550/1/3 405/1/3 412/1/3
f 411/1/3 31/1/3 552/1/3
f 546/1/3 550/1/3 548/1/3
f 29/3/3 383/3/3 419/3/3
f 552/1/3 424/1/3 425/1/3
f 411/1/3 552/1/3 425/1/3
f 34/1/3 548/1/3 427/1/3
f 550/3/3 412/3/3 428/3/3
f 548/1/3 550/1/3 428/1/3
f 427/1/3 548/1/3 428/1/3
f 520/1/3 29/1/3 522/1/3
f 29/3/3 419/3/3 434/3/3
f 522/1/3 29/1/3 434/1/3
f 433/3/3 382/3/3 574/3/3
f 442/3/3 433/3/3 574/3/3
f 382/1/3 443/1/3 574/1/3
f 574/1/3 443/1/3 47/1/3
f 434/1/3 435/1/3 49/1/3
f 49/1/3 435/1/3 525/1/3
f 525/1/3 435/1/3 444/1/3
f 442/1/3 574/1/3 455/1/3
f 455/1/3 574/1/3 456/1/3
f 456/1/3 574/1/3 575/1/3
f 444/1/3 445/1/3 527/1/3
f 525/1/3 444/1/3 527/1/3
f 527/1/3 445/1/3 457/1/3
f 460/1/3 456/1/3 52/1/3
f 457/1/3 461/1/3 54/1/3
f 461/1/3 462/1/3 54/1/3
f 54/1/3 462/1/3 531/1/3
f 468/1/3 460/1/3 55/1/3
f 467/1/3 468/1/3 55/1/3
f 55/1/3 460/1/3 56/1/3
f 531/1/3 462/1/3 469/1/3
f 467/1/3 55/1/3 476/1/3
f 531/1/3 469/1/3 477/1/3
f 477/1/3 470/1/3 535/1/3
f 535/1/3 470/1/3 478/1/3
f 476/1/3 55/1/3 563/1/3
f 485/1/3 476/1/3 563/1/3
f 563/1/3 55/1/3 486/1/3
f 478/1/3 479/1/3 58/1/3
f 535/1/3 478/1/3 58/1/3
f 58/1/3 479/1/3 487/1/3
f 485/1/3 563/1/3 495/1/3
f 495/1/3 563/1/3 560/1/3
f 560/1/3 563/1/3 564/1/3
f 488/1/3 489/1/3 61/1/3
f 487/1/3 488/1/3 61/1/3
f 61/1/3 489/1/3 62/1/3
f 62/1/3 489/1/3 496/1/3
f 495/1/3 560/1/3 503/1/3
f 503/1/3 560/1/3 558/1/3
f 558/1/3 560/1/3 561/1/3
f 62/1/3 496/1/3 504/1/3
f 504/1/3 497/1/3 66/1/3
f 66/1/3 497/1/3 505/1/3
f 503/1/3 558/1/3 508/1/3
f 508/1/3 558/1/3 509/1/3
f 509/1/3 558/1/3 510/1/3
f 66/1/3 505/1/3 511/1/3
f 508/1/3 509/1/3 69/1/3
f 507/1/3 508/1/3 69/1/3
f 69/1/3 509/1/3 513/1/3
f 506/3/3 516/3/3 72/3/3
f 518/1/3 506/1/3 72/1/3
f 516/3/3 517/3/3 72/3/3
f 507/1/3 69/1/3 555/1/3
f 72/3/3 517/3/3 555/3/3
f 517/3/3 507/3/3 555/3/3
f 555/1/3 69/1/3 74/1/3
f 72/1/3 555/1/3 519/1/3
f 519/1/3 555/1/3 75/1/3
f 520/1/4 521/1/4 215/1/4
f 26/1/4 523/1/4 27/1/4
f 29/1/4 523/1/4 26/1/4
f 434/1/4 48/1/4 46/1/4
f 49/1/4 48/1/4 434/1/4
f 23/1/4 142/1/4 524/1/4
f 358/1/4 142/1/4 23/1/4
f 525/1/4 50/1/4 526/1/4
f 527/1/4 50/1/4 525/1/4
f 528/1/4 138/1/4 21/1/4
f 529/1/4 138/1/4 528/1/4
f 457/1/4 53/1/4 238/1/4
f 54/1/4 53/1/4 457/1/4
f 530/1/4 128/1/4 19/1/4
f 22/1/4 128/1/4 530/1/4
f 531/1/4 57/1/4 532/1/4
f 477/1/4 57/1/4 531/1/4
f 533/1/4 534/1/4 16/1/4
f 329/1/4 534/1/4 533/1/4
f 535/1/4 267/1/4 536/1/4
f 58/1/4 267/1/4 535/1/4
f 537/1/4 99/1/4 100/1/4
f 17/1/4 99/1/4 537/1/4
f 487/1/4 538/1/4 539/1/4
f 61/1/4 538/1/4 487/1/4
f 311/1/4 13/1/4 88/1/4
f 310/1/4 13/1/4 311/1/4
f 62/1/4 285/1/4 276/1/4
f 504/1/4 285/1/4 62/1/4
f 540/1/4 541/1/4 82/1/4
f 11/1/4 541/1/4 540/1/4
f 66/1/4 542/1/4 65/1/4
f 511/1/4 542/1/4 66/1/4
f 5/1/4 80/1/4 543/1/4
f 304/1/4 80/1/4 5/1/4
f 512/1/4 295/1/4 68/1/4
f 518/1/4 295/1/4 512/1/4
f 298/1/4 4/1/4 2/1/4
f 299/1/4 4/1/4 298/1/4
f 72/1/4 544/1/4 71/1/4
f 519/1/4 544/1/4 72/1/4
f 545/1/4 39/1/4 37/1/4
f 398/1/4 39/1/4 545/1/4
f 34/1/4 35/1/4 208/1/4
f 427/1/4 35/1/4 34/1/4
f 41/1/4 185/1/4 40/1/4
f 45/1/4 185/1/4 41/1/4
f 546/1/4 547/1/4 198/1/4
f 404/1/4 32/1/4 549/1/4
f 550/1/4 32/1/4 404/1/4
f 42/1/5 192/1/5 43/1/5
f 43/1/5 192/1/5 411/1/5
f 38/1/5 551/1/5 397/1/5
f 397/1/5 551/1/5 44/1/5
f 30/1/5 33/1/5 31/1/5
f 31/1/5 33/1/5 552/1/5
f 170/1/5 179/1/5 553/1/5
f 553/1/5 179/1/5 554/1/5
f 207/1/5 36/1/5 424/1/5
f 424/1/5 36/1/5 426/1/5
f 1/1/5 8/1/5 3/1/5
f 3/1/5 8/1/5 7/1/5
f 296/1/5 297/1/5 555/1/5
f 555/1/5 297/1/5 75/1/5
f 6/1/5 81/1/5 9/1/5
f 9/1/5 81/1/5 305/1/5
f 290/1/5 73/1/5 69/1/5
f 69/1/5 73/1/5 74/1/5
f 86/1/5 12/1/5 10/1/5
f 10/1/5 12/1/5 556/1/5
f 67/1/5 70/1/5 509/1/5
f 509/1/5 70/1/5 513/1/5
f 96/1/5 98/1/5 318/1/5
f 318/1/5 98/1/5 15/1/5
f 63/1/5 557/1/5 558/1/5
f 558/1/5 557/1/5 510/1/5
f 14/1/5 109/1/5 559/1/5
f 559/1/5 109/1/5 18/1/5
f 59/1/5 64/1/5 560/1/5
f 560/1/5 64/1/5 561/1/5
f 117/1/5 119/1/5 336/1/5
f 336/1/5 119/1/5 562/1/5
f 266/1/5 60/1/5 563/1/5
f 563/1/5 60/1/5 564/1/5
f 20/1/5 129/1/5 345/1/5
f 345/1/5 129/1/5 565/1/5
f 566/1/5 567/1/5 55/1/5
f 55/1/5 567/1/5 486/1/5
f 568/1/5 141/1/5 569/1/5
f 569/1/5 141/1/5 25/1/5
f 241/1/5 570/1/5 460/1/5
f 460/1/5 570/1/5 56/1/5
f 24/1/5 155/1/5 369/1/5
f 369/1/5 155/1/5 372/1/5
f 237/1/5 51/1/5 456/1/5
f 456/1/5 51/1/5 52/1/5
f 28/1/5 571/1/5 380/1/5
f 380/1/5 571/1/5 382/1/5
f 576/1/5 224/1/5 443/1/5
f 443/1/5 224/1/5 47/1/5
