# MagicaVoxel @ Ephtracy

# group
g BrownLeavesTile4

# material
mtllib BrownLeavesTile4.mtl
usemtl palette

# normals
vn -1 0 0
vn 1 0 0
vn 0 0 1
vn 0 0 -1
vn 0 -1 0
vn 0 1 0

# texcoords
vt 0.181641 0.5
vt 0.208984 0.5
vt 0.232422 0.5
vt 0.677734 0.5

# verts
v -10 0 8
v -10 0 -10
v -10 5 9
v -10 5 8
v -10 7 10
v -10 7 9
v -10 7 8
v -10 7 -10
v -10 10 10
v -10 10 -10
v -9 10 -1
v -9 10 -2
v -9 11 -1
v -9 11 -2
v -8 9 10
v -8 9 9
v -8 10 10
v -8 10 9
v -7 6 9
v -7 6 8
v -7 7 10
v -7 7 9
v -7 7 8
v -7 9 10
v -7 9 9
v -6 4 9
v -6 4 8
v -6 6 10
v -6 6 9
v -6 6 8
v -6 7 10
v -6 7 9
v -5 10 -7
v -5 10 -8
v -5 11 -7
v -5 11 -8
v -4 10 5
v -4 10 4
v -4 11 5
v -4 11 4
v -3 9 10
v -3 9 9
v -3 10 10
v -3 10 9
v -2 7 9
v -2 7 8
v -2 8 9
v -2 8 8
v -1 6 9
v -1 6 8
v -1 7 9
v -1 7 8
v -1 8 10
v -1 8 9
v -1 9 10
v -1 9 9
v -1 10 -2
v -1 10 -3
v -1 11 -2
v -1 11 -3
v 2 6 9
v 2 6 8
v 2 7 10
v 2 7 9
v 2 8 9
v 2 8 8
v 2 10 10
v 2 10 9
v 3 4 9
v 3 4 8
v 3 6 10
v 3 6 9
v 3 6 8
v 3 7 10
v 3 7 9
v 4 10 7
v 4 10 6
v 4 10 -3
v 4 10 -4
v 4 11 7
v 4 11 6
v 4 11 -3
v 4 11 -4
v 6 10 3
v 6 10 2
v 6 11 3
v 6 11 2
v 7 7 9
v 7 7 8
v 7 8 9
v 7 8 8
v 7 9 10
v 7 9 9
v 7 10 10
v 7 10 9
v 8 6 9
v 8 6 8
v 8 7 9
v 8 7 8
v 8 8 10
v 8 8 9
v 8 9 10
v 8 9 9
v 9 5 9
v 9 5 8
v 9 6 10
v 9 6 9
v 9 6 8
v 9 8 10
v 9 8 9
v -9 5 9
v -9 5 8
v -9 7 10
v -9 7 9
v -9 7 8
v -9 10 10
v -9 10 9
v -8 10 -1
v -8 10 -2
v -8 11 -1
v -8 11 -2
v -5 4 9
v -5 4 8
v -5 6 10
v -5 6 9
v -5 6 8
v -5 7 10
v -5 7 9
v -4 6 9
v -4 6 8
v -4 7 10
v -4 7 9
v -4 8 9
v -4 8 8
v -4 10 10
v -4 10 9
v -4 10 -7
v -4 10 -8
v -4 11 -7
v -4 11 -8
v -3 10 5
v -3 10 4
v -3 11 5
v -3 11 4
v 0 10 -2
v 0 10 -3
v 0 11 -2
v 0 11 -3
v 1 6 9
v 1 6 8
v 1 8 10
v 1 8 9
v 1 8 8
v 1 10 10
v 1 10 9
v 4 4 9
v 4 4 8
v 4 6 10
v 4 6 9
v 4 7 9
v 4 7 8
v 4 8 10
v 4 8 9
v 5 7 9
v 5 7 8
v 5 8 10
v 5 8 9
v 5 8 8
v 5 9 10
v 5 9 9
v 5 10 7
v 5 10 6
v 5 10 -3
v 5 10 -4
v 5 11 7
v 5 11 6
v 5 11 -3
v 5 11 -4
v 6 9 10
v 6 9 9
v 6 10 10
v 6 10 9
v 7 10 3
v 7 10 2
v 7 11 3
v 7 11 2
v 10 0 8
v 10 0 -10
v 10 5 9
v 10 5 8
v 10 6 10
v 10 6 9
v 10 7 8
v 10 7 -10
v 10 10 10
v 10 10 -10
v -10 7 10
v -10 10 10
v -9 7 10
v -9 10 10
v -8 9 10
v -8 10 10
v -7 7 10
v -7 9 10
v -6 6 10
v -6 7 10
v -5 6 10
v -5 7 10
v -4 7 10
v -4 10 10
v -3 9 10
v -3 10 10
v -1 8 10
v -1 9 10
v 1 8 10
v 1 10 10
v 2 7 10
v 2 10 10
v 3 6 10
v 3 7 10
v 4 6 10
v 4 8 10
v 5 8 10
v 5 9 10
v 6 9 10
v 6 10 10
v 7 9 10
v 7 10 10
v 8 8 10
v 8 9 10
v 9 6 10
v 9 8 10
v 10 6 10
v 10 10 10
v -10 5 9
v -10 7 9
v -9 5 9
v -9 7 9
v -9 10 9
v -8 9 9
v -8 10 9
v -7 6 9
v -7 7 9
v -7 9 9
v -6 4 9
v -6 6 9
v -6 7 9
v -5 4 9
v -5 6 9
v -5 7 9
v -4 6 9
v -4 7 9
v -4 8 9
v -4 10 9
v -3 9 9
v -3 10 9
v -2 7 9
v -2 8 9
v -1 6 9
v -1 7 9
v -1 8 9
v -1 9 9
v 1 6 9
v 1 8 9
v 1 10 9
v 2 6 9
v 2 7 9
v 2 8 9
v 2 10 9
v 3 4 9
v 3 6 9
v 3 7 9
v 4 4 9
v 4 6 9
v 4 7 9
v 4 8 9
v 5 7 9
v 5 8 9
v 5 9 9
v 6 9 9
v 6 10 9
v 7 7 9
v 7 8 9
v 7 9 9
v 7 10 9
v 8 6 9
v 8 7 9
v 8 8 9
v 8 9 9
v 9 5 9
v 9 6 9
v 9 8 9
v 10 5 9
v 10 6 9
v -10 0 8
v -10 5 8
v -9 5 8
v -9 7 8
v -7 6 8
v -7 7 8
v -6 4 8
v -6 6 8
v -5 4 8
v -5 6 8
v -4 6 8
v -4 8 8
v -2 7 8
v -2 8 8
v -1 6 8
v -1 7 8
v 1 6 8
v 1 8 8
v 2 6 8
v 2 8 8
v 3 4 8
v 3 6 8
v 4 4 8
v 4 7 8
v 5 7 8
v 5 8 8
v 7 7 8
v 7 8 8
v 8 6 8
v 8 7 8
v 9 5 8
v 9 6 8
v 10 0 8
v 10 5 8
v 4 10 7
v 4 11 7
v 5 10 7
v 5 11 7
v -4 10 5
v -4 11 5
v -3 10 5
v -3 11 5
v 6 10 3
v 6 11 3
v 7 10 3
v 7 11 3
v -9 10 -1
v -9 11 -1
v -8 10 -1
v -8 11 -1
v -1 10 -2
v -1 11 -2
v 0 10 -2
v 0 11 -2
v 4 10 -3
v 4 11 -3
v 5 10 -3
v 5 11 -3
v -5 10 -7
v -5 11 -7
v -4 10 -7
v -4 11 -7
v 4 10 6
v 4 11 6
v 5 10 6
v 5 11 6
v -4 10 4
v -4 11 4
v -3 10 4
v -3 11 4
v 6 10 2
v 6 11 2
v 7 10 2
v 7 11 2
v -9 10 -2
v -9 11 -2
v -8 10 -2
v -8 11 -2
v -1 10 -3
v -1 11 -3
v 0 10 -3
v 0 11 -3
v 4 10 -4
v 4 11 -4
v 5 10 -4
v 5 11 -4
v -5 10 -8
v -5 11 -8
v -4 10 -8
v -4 11 -8
v -10 0 -10
v -10 7 -10
v -10 10 -10
v 10 0 -10
v 10 7 -10
v 10 10 -10
v -10 0 8
v 10 0 8
v -10 0 -10
v 10 0 -10
v -6 4 9
v -5 4 9
v 3 4 9
v 4 4 9
v -6 4 8
v -5 4 8
v 3 4 8
v 4 4 8
v -10 5 9
v -9 5 9
v 9 5 9
v 10 5 9
v -10 5 8
v -9 5 8
v 9 5 8
v 10 5 8
v -6 6 10
v -5 6 10
v 3 6 10
v 4 6 10
v 9 6 10
v 10 6 10
v -7 6 9
v -6 6 9
v -5 6 9
v -4 6 9
v -1 6 9
v 1 6 9
v 2 6 9
v 3 6 9
v 4 6 9
v 8 6 9
v 9 6 9
v 10 6 9
v -7 6 8
v -6 6 8
v -5 6 8
v -4 6 8
v -1 6 8
v 1 6 8
v 2 6 8
v 3 6 8
v 8 6 8
v 9 6 8
v -10 7 10
v -9 7 10
v -7 7 10
v -6 7 10
v -5 7 10
v -4 7 10
v 2 7 10
v 3 7 10
v -10 7 9
v -9 7 9
v -7 7 9
v -6 7 9
v -5 7 9
v -4 7 9
v -2 7 9
v -1 7 9
v 2 7 9
v 3 7 9
v 4 7 9
v 5 7 9
v 7 7 9
v 8 7 9
v -9 7 8
v -7 7 8
v -2 7 8
v -1 7 8
v 4 7 8
v 5 7 8
v 7 7 8
v 8 7 8
v -1 8 10
v 1 8 10
v 4 8 10
v 5 8 10
v 8 8 10
v 9 8 10
v -4 8 9
v -2 8 9
v -1 8 9
v 1 8 9
v 2 8 9
v 4 8 9
v 5 8 9
v 7 8 9
v 8 8 9
v 9 8 9
v -4 8 8
v -2 8 8
v 1 8 8
v 2 8 8
v 5 8 8
v 7 8 8
v -8 9 10
v -7 9 10
v -3 9 10
v -1 9 10
v 5 9 10
v 6 9 10
v 7 9 10
v 8 9 10
v -8 9 9
v -7 9 9
v -3 9 9
v -1 9 9
v 5 9 9
v 6 9 9
v 7 9 9
v 8 9 9
v -10 10 10
v -9 10 10
v -8 10 10
v -4 10 10
v -3 10 10
v 1 10 10
v 2 10 10
v 6 10 10
v 7 10 10
v 10 10 10
v -9 10 9
v -8 10 9
v -4 10 9
v -3 10 9
v 1 10 9
v 2 10 9
v 6 10 9
v 7 10 9
v 4 10 7
v 5 10 7
v 4 10 6
v 5 10 6
v -4 10 5
v -3 10 5
v -4 10 4
v -3 10 4
v 6 10 3
v 7 10 3
v 6 10 2
v 7 10 2
v -9 10 -1
v -8 10 -1
v -9 10 -2
v -8 10 -2
v -1 10 -2
v 0 10 -2
v -1 10 -3
v 0 10 -3
v 4 10 -3
v 5 10 -3
v 4 10 -4
v 5 10 -4
v -5 10 -7
v -4 10 -7
v -5 10 -8
v -4 10 -8
v -10 10 -10
v 10 10 -10
v 4 11 7
v 5 11 7
v 4 11 6
v 5 11 6
v -4 11 5
v -3 11 5
v -4 11 4
v -3 11 4
v 6 11 3
v 7 11 3
v 6 11 2
v 7 11 2
v -9 11 -1
v -8 11 -1
v -9 11 -2
v -8 11 -2
v -1 11 -2
v 0 11 -2
v -1 11 -3
v 0 11 -3
v 4 11 -3
v 5 11 -3
v 4 11 -4
v 5 11 -4
v -5 11 -7
v -4 11 -7
v -5 11 -8
v -4 11 -8

# faces
f 4/4/1 2/4/1 1/4/1
f 6/1/1 4/1/1 3/1/1
f 7/4/1 2/4/1 4/4/1
f 7/1/1 4/1/1 6/1/1
f 8/4/1 2/4/1 7/4/1
f 9/1/1 6/1/1 5/1/1
f 9/1/1 7/1/1 6/1/1
f 9/1/1 8/1/1 7/1/1
f 10/1/1 8/1/1 9/1/1
f 13/3/1 12/3/1 11/3/1
f 14/3/1 12/3/1 13/3/1
f 17/1/1 16/1/1 15/1/1
f 18/1/1 16/1/1 17/1/1
f 22/1/1 20/1/1 19/1/1
f 23/1/1 20/1/1 22/1/1
f 24/1/1 22/1/1 21/1/1
f 25/1/1 22/1/1 24/1/1
f 29/1/1 27/1/1 26/1/1
f 30/1/1 27/1/1 29/1/1
f 31/1/1 29/1/1 28/1/1
f 32/1/1 29/1/1 31/1/1
f 35/2/1 34/2/1 33/2/1
f 36/2/1 34/2/1 35/2/1
f 39/2/1 38/2/1 37/2/1
f 40/2/1 38/2/1 39/2/1
f 43/1/1 42/1/1 41/1/1
f 44/1/1 42/1/1 43/1/1
f 47/1/1 46/1/1 45/1/1
f 48/1/1 46/1/1 47/1/1
f 51/1/1 50/1/1 49/1/1
f 52/1/1 50/1/1 51/1/1
f 55/1/1 54/1/1 53/1/1
f 56/1/1 54/1/1 55/1/1
f 59/3/1 58/3/1 57/3/1
f 60/3/1 58/3/1 59/3/1
f 64/1/1 62/1/1 61/1/1
f 65/1/1 62/1/1 64/1/1
f 65/1/1 64/1/1 63/1/1
f 66/1/1 62/1/1 65/1/1
f 67/1/1 65/1/1 63/1/1
f 68/1/1 65/1/1 67/1/1
f 72/1/1 70/1/1 69/1/1
f 73/1/1 70/1/1 72/1/1
f 74/1/1 72/1/1 71/1/1
f 75/1/1 72/1/1 74/1/1
f 80/2/1 77/2/1 76/2/1
f 81/2/1 77/2/1 80/2/1
f 82/2/1 79/2/1 78/2/1
f 83/2/1 79/2/1 82/2/1
f 86/3/1 85/3/1 84/3/1
f 87/3/1 85/3/1 86/3/1
f 90/1/1 89/1/1 88/1/1
f 91/1/1 89/1/1 90/1/1
f 94/1/1 93/1/1 92/1/1
f 95/1/1 93/1/1 94/1/1
f 98/1/1 97/1/1 96/1/1
f 99/1/1 97/1/1 98/1/1
f 102/1/1 101/1/1 100/1/1
f 103/1/1 101/1/1 102/1/1
f 107/1/1 105/1/1 104/1/1
f 108/1/1 105/1/1 107/1/1
f 109/1/1 107/1/1 106/1/1
f 110/1/1 107/1/1 109/1/1
f 111/1/2 112/1/2 114/1/2
f 114/1/2 112/1/2 115/1/2
f 113/1/2 114/1/2 116/1/2
f 116/1/2 114/1/2 117/1/2
f 118/3/2 119/3/2 120/3/2
f 120/3/2 119/3/2 121/3/2
f 122/1/2 123/1/2 125/1/2
f 125/1/2 123/1/2 126/1/2
f 124/1/2 125/1/2 127/1/2
f 127/1/2 125/1/2 128/1/2
f 129/1/2 130/1/2 132/1/2
f 132/1/2 130/1/2 133/1/2
f 131/1/2 132/1/2 133/1/2
f 133/1/2 130/1/2 134/1/2
f 131/1/2 133/1/2 135/1/2
f 135/1/2 133/1/2 136/1/2
f 137/2/2 138/2/2 139/2/2
f 139/2/2 138/2/2 140/2/2
f 141/2/2 142/2/2 143/2/2
f 143/2/2 142/2/2 144/2/2
f 145/3/2 146/3/2 147/3/2
f 147/3/2 146/3/2 148/3/2
f 149/1/2 150/1/2 152/1/2
f 152/1/2 150/1/2 153/1/2
f 151/1/2 152/1/2 154/1/2
f 154/1/2 152/1/2 155/1/2
f 156/1/2 157/1/2 159/1/2
f 159/1/2 157/1/2 160/1/2
f 158/1/2 159/1/2 160/1/2
f 160/1/2 157/1/2 161/1/2
f 158/1/2 160/1/2 162/1/2
f 162/1/2 160/1/2 163/1/2
f 164/1/2 165/1/2 167/1/2
f 167/1/2 165/1/2 168/1/2
f 166/1/2 167/1/2 169/1/2
f 169/1/2 167/1/2 170/1/2
f 171/2/2 172/2/2 175/2/2
f 175/2/2 172/2/2 176/2/2
f 173/2/2 174/2/2 177/2/2
f 177/2/2 174/2/2 178/2/2
f 179/1/2 180/1/2 181/1/2
f 181/1/2 180/1/2 182/1/2
f 183/3/2 184/3/2 185/3/2
f 185/3/2 184/3/2 186/3/2
f 187/4/2 188/4/2 190/4/2
f 189/1/2 190/1/2 192/1/2
f 190/4/2 188/4/2 193/4/2
f 191/1/2 192/1/2 193/1/2
f 192/1/2 190/1/2 193/1/2
f 193/4/2 188/4/2 194/4/2
f 191/1/2 193/1/2 195/1/2
f 193/1/2 194/1/2 195/1/2
f 195/1/2 194/1/2 196/1/2
f 199/1/3 198/1/3 197/1/3
f 200/1/3 198/1/3 199/1/3
f 204/1/3 202/1/3 201/1/3
f 206/1/3 204/1/3 203/1/3
f 207/1/3 206/1/3 205/1/3
f 208/1/3 204/1/3 206/1/3
f 208/1/3 206/1/3 207/1/3
f 209/1/3 204/1/3 208/1/3
f 210/1/3 202/1/3 204/1/3
f 210/1/3 204/1/3 209/1/3
f 214/1/3 212/1/3 211/1/3
f 215/1/3 214/1/3 213/1/3
f 216/1/3 212/1/3 214/1/3
f 216/1/3 214/1/3 215/1/3
f 220/1/3 218/1/3 217/1/3
f 221/1/3 220/1/3 219/1/3
f 222/1/3 218/1/3 220/1/3
f 222/1/3 220/1/3 221/1/3
f 223/1/3 218/1/3 222/1/3
f 224/1/3 218/1/3 223/1/3
f 225/1/3 218/1/3 224/1/3
f 226/1/3 218/1/3 225/1/3
f 230/1/3 228/1/3 227/1/3
f 232/1/3 230/1/3 229/1/3
f 233/1/3 232/1/3 231/1/3
f 234/1/3 228/1/3 230/1/3
f 234/1/3 232/1/3 233/1/3
f 234/1/3 230/1/3 232/1/3
f 237/1/3 236/1/3 235/1/3
f 238/1/3 236/1/3 237/1/3
f 240/1/3 239/1/3 238/1/3
f 241/1/3 239/1/3 240/1/3
f 243/1/3 240/1/3 238/1/3
f 244/1/3 240/1/3 243/1/3
f 246/1/3 243/1/3 242/1/3
f 247/1/3 243/1/3 246/1/3
f 248/1/3 246/1/3 245/1/3
f 249/1/3 246/1/3 248/1/3
f 251/1/3 250/1/3 249/1/3
f 252/1/3 250/1/3 251/1/3
f 255/1/3 254/1/3 253/1/3
f 256/1/3 254/1/3 255/1/3
f 258/1/3 255/1/3 253/1/3
f 260/1/3 258/1/3 257/1/3
f 261/1/3 255/1/3 258/1/3
f 261/1/3 258/1/3 260/1/3
f 262/1/3 255/1/3 261/1/3
f 263/1/3 260/1/3 259/1/3
f 263/1/3 261/1/3 260/1/3
f 264/1/3 261/1/3 263/1/3
f 268/1/3 265/1/3 264/1/3
f 269/1/3 265/1/3 268/1/3
f 271/1/3 267/1/3 266/1/3
f 272/1/3 267/1/3 271/1/3
f 273/1/3 271/1/3 270/1/3
f 274/1/3 271/1/3 273/1/3
f 277/1/3 276/1/3 275/1/3
f 278/1/3 276/1/3 277/1/3
f 280/1/3 279/1/3 278/1/3
f 283/1/3 280/1/3 278/1/3
f 283/1/3 281/1/3 280/1/3
f 284/1/3 281/1/3 283/1/3
f 285/1/3 281/1/3 284/1/3
f 287/1/3 283/1/3 282/1/3
f 287/1/3 284/1/3 283/1/3
f 288/1/3 284/1/3 287/1/3
f 289/1/3 284/1/3 288/1/3
f 291/1/3 287/1/3 286/1/3
f 291/1/3 288/1/3 287/1/3
f 292/1/3 288/1/3 291/1/3
f 293/1/3 291/1/3 290/1/3
f 294/1/3 291/1/3 293/1/3
f 297/4/3 296/4/3 295/4/3
f 299/4/3 298/4/3 297/4/3
f 300/4/3 298/4/3 299/4/3
f 301/4/3 297/4/3 295/4/3
f 301/4/3 299/4/3 297/4/3
f 302/4/3 299/4/3 301/4/3
f 303/4/3 301/4/3 295/4/3
f 305/4/3 304/4/3 303/4/3
f 307/4/3 306/4/3 305/4/3
f 308/4/3 306/4/3 307/4/3
f 309/4/3 305/4/3 303/4/3
f 309/4/3 307/4/3 305/4/3
f 310/4/3 307/4/3 309/4/3
f 311/4/3 309/4/3 303/4/3
f 313/4/3 311/4/3 303/4/3
f 313/4/3 312/4/3 311/4/3
f 314/4/3 312/4/3 313/4/3
f 315/4/3 303/4/3 295/4/3
f 315/4/3 313/4/3 303/4/3
f 316/4/3 313/4/3 315/4/3
f 317/4/3 315/4/3 295/4/3
f 319/4/3 318/4/3 317/4/3
f 321/4/3 319/4/3 317/4/3
f 321/4/3 320/4/3 319/4/3
f 322/4/3 320/4/3 321/4/3
f 323/4/3 321/4/3 317/4/3
f 324/4/3 321/4/3 323/4/3
f 325/4/3 323/4/3 317/4/3
f 326/4/3 323/4/3 325/4/3
f 327/4/3 317/4/3 295/4/3
f 327/4/3 325/4/3 317/4/3
f 328/4/3 325/4/3 327/4/3
f 331/2/3 330/2/3 329/2/3
f 332/2/3 330/2/3 331/2/3
f 335/2/3 334/2/3 333/2/3
f 336/2/3 334/2/3 335/2/3
f 339/3/3 338/3/3 337/3/3
f 340/3/3 338/3/3 339/3/3
f 343/3/3 342/3/3 341/3/3
f 344/3/3 342/3/3 343/3/3
f 347/3/3 346/3/3 345/3/3
f 348/3/3 346/3/3 347/3/3
f 351/2/3 350/2/3 349/2/3
f 352/2/3 350/2/3 351/2/3
f 355/2/3 354/2/3 353/2/3
f 356/2/3 354/2/3 355/2/3
f 357/2/4 358/2/4 359/2/4
f 359/2/4 358/2/4 360/2/4
f 361/2/4 362/2/4 363/2/4
f 363/2/4 362/2/4 364/2/4
f 365/3/4 366/3/4 367/3/4
f 367/3/4 366/3/4 368/3/4
f 369/3/4 370/3/4 371/3/4
f 371/3/4 370/3/4 372/3/4
f 373/3/4 374/3/4 375/3/4
f 375/3/4 374/3/4 376/3/4
f 377/2/4 378/2/4 379/2/4
f 379/2/4 378/2/4 380/2/4
f 381/2/4 382/2/4 383/2/4
f 383/2/4 382/2/4 384/2/4
f 385/4/4 386/4/4 388/4/4
f 386/1/4 387/1/4 389/1/4
f 388/4/4 386/4/4 389/4/4
f 389/1/4 387/1/4 390/1/4
f 393/4/5 392/4/5 391/4/5
f 394/4/5 392/4/5 393/4/5
f 399/1/5 396/1/5 395/1/5
f 400/1/5 396/1/5 399/1/5
f 401/1/5 398/1/5 397/1/5
f 402/1/5 398/1/5 401/1/5
f 407/1/5 404/1/5 403/1/5
f 408/1/5 404/1/5 407/1/5
f 409/1/5 406/1/5 405/1/5
f 410/1/5 406/1/5 409/1/5
f 418/1/5 412/1/5 411/1/5
f 419/1/5 412/1/5 418/1/5
f 424/1/5 414/1/5 413/1/5
f 425/1/5 414/1/5 424/1/5
f 427/1/5 416/1/5 415/1/5
f 428/1/5 416/1/5 427/1/5
f 429/1/5 418/1/5 417/1/5
f 430/1/5 418/1/5 429/1/5
f 431/1/5 420/1/5 419/1/5
f 432/1/5 420/1/5 431/1/5
f 433/1/5 422/1/5 421/1/5
f 434/1/5 422/1/5 433/1/5
f 435/1/5 424/1/5 423/1/5
f 436/1/5 424/1/5 435/1/5
f 437/1/5 427/1/5 426/1/5
f 438/1/5 427/1/5 437/1/5
f 447/1/5 440/1/5 439/1/5
f 448/1/5 440/1/5 447/1/5
f 449/1/5 442/1/5 441/1/5
f 450/1/5 442/1/5 449/1/5
f 451/1/5 444/1/5 443/1/5
f 452/1/5 444/1/5 451/1/5
f 455/1/5 446/1/5 445/1/5
f 456/1/5 446/1/5 455/1/5
f 461/1/5 449/1/5 448/1/5
f 462/1/5 449/1/5 461/1/5
f 463/1/5 454/1/5 453/1/5
f 464/1/5 454/1/5 463/1/5
f 465/1/5 458/1/5 457/1/5
f 466/1/5 458/1/5 465/1/5
f 467/1/5 460/1/5 459/1/5
f 468/1/5 460/1/5 467/1/5
f 477/1/5 470/1/5 469/1/5
f 478/1/5 470/1/5 477/1/5
f 480/1/5 472/1/5 471/1/5
f 481/1/5 472/1/5 480/1/5
f 483/1/5 474/1/5 473/1/5
f 484/1/5 474/1/5 483/1/5
f 485/1/5 476/1/5 475/1/5
f 486/1/5 476/1/5 485/1/5
f 487/1/5 479/1/5 478/1/5
f 488/1/5 479/1/5 487/1/5
f 489/1/5 482/1/5 481/1/5
f 490/1/5 482/1/5 489/1/5
f 499/1/5 492/1/5 491/1/5
f 500/1/5 492/1/5 499/1/5
f 501/1/5 494/1/5 493/1/5
f 502/1/5 494/1/5 501/1/5
f 503/1/5 496/1/5 495/1/5
f 504/1/5 496/1/5 503/1/5
f 505/1/5 498/1/5 497/1/5
f 506/1/5 498/1/5 505/1/5
f 507/1/6 508/1/6 517/1/6
f 509/1/6 510/1/6 518/1/6
f 518/1/6 510/1/6 519/1/6
f 511/1/6 512/1/6 520/1/6
f 520/1/6 512/1/6 521/1/6
f 513/1/6 514/1/6 522/1/6
f 522/1/6 514/1/6 523/1/6
f 515/1/6 516/1/6 524/1/6
f 522/1/6 523/1/6 525/1/6
f 523/1/6 524/1/6 525/1/6
f 518/1/6 519/1/6 525/1/6
f 520/1/6 521/1/6 525/1/6
f 521/1/6 522/1/6 525/1/6
f 517/1/6 518/1/6 525/1/6
f 519/1/6 520/1/6 525/1/6
f 525/1/6 524/1/6 526/1/6
f 517/1/6 525/1/6 527/1/6
f 526/1/6 524/1/6 528/1/6
f 517/1/6 527/1/6 529/1/6
f 527/1/6 528/1/6 529/1/6
f 529/1/6 528/1/6 530/1/6
f 517/1/6 529/1/6 531/1/6
f 530/1/6 528/1/6 532/1/6
f 528/1/6 524/1/6 533/1/6
f 531/1/6 532/1/6 533/1/6
f 532/1/6 528/1/6 533/1/6
f 524/1/6 516/1/6 534/1/6
f 533/1/6 524/1/6 534/1/6
f 531/1/6 533/1/6 535/1/6
f 534/1/6 516/1/6 536/1/6
f 531/1/6 535/1/6 537/1/6
f 535/1/6 536/1/6 537/1/6
f 507/1/6 517/1/6 537/1/6
f 517/1/6 531/1/6 537/1/6
f 537/1/6 536/1/6 538/1/6
f 507/1/6 537/1/6 539/1/6
f 538/1/6 536/1/6 540/1/6
f 540/1/6 536/1/6 541/1/6
f 541/1/6 536/1/6 542/1/6
f 539/1/6 540/1/6 543/1/6
f 540/1/6 541/1/6 543/1/6
f 542/1/6 536/1/6 544/1/6
f 544/1/6 536/1/6 545/1/6
f 545/1/6 536/1/6 546/1/6
f 543/1/6 544/1/6 547/1/6
f 544/1/6 545/1/6 547/1/6
f 546/1/6 536/1/6 548/1/6
f 539/1/6 543/1/6 549/1/6
f 547/1/6 548/1/6 549/1/6
f 543/1/6 547/1/6 549/1/6
f 549/1/6 548/1/6 550/1/6
f 539/1/6 549/1/6 551/1/6
f 550/1/6 548/1/6 552/1/6
f 507/1/6 539/1/6 553/1/6
f 551/1/6 552/1/6 553/1/6
f 539/1/6 551/1/6 553/1/6
f 536/1/6 516/1/6 554/1/6
f 553/1/6 552/1/6 554/1/6
f 552/1/6 548/1/6 554/1/6
f 548/1/6 536/1/6 554/1/6
f 555/2/6 556/2/6 557/2/6
f 557/2/6 556/2/6 558/2/6
f 559/2/6 560/2/6 561/2/6
f 561/2/6 560/2/6 562/2/6
f 563/3/6 564/3/6 565/3/6
f 565/3/6 564/3/6 566/3/6
f 567/3/6 568/3/6 569/3/6
f 569/3/6 568/3/6 570/3/6
f 571/3/6 572/3/6 573/3/6
f 573/3/6 572/3/6 574/3/6
f 575/2/6 576/2/6 577/2/6
f 577/2/6 576/2/6 578/2/6
f 579/2/6 580/2/6 581/2/6
f 581/2/6 580/2/6 582/2/6
