# MagicaVoxel @ Ephtracy

# group
g BrownLeavesTile5

# material
mtllib BrownLeavesTile5.mtl
usemtl palette

# normals
vn -1 0 0
vn 1 0 0
vn 0 0 1
vn 0 0 -1
vn 0 -1 0
vn 0 1 0

# texcoords
vt 0.181641 0.5
vt 0.208984 0.5
vt 0.232422 0.5
vt 0.677734 0.5

# verts
v -10 0 8
v -10 0 -10
v -10 5 9
v -10 5 8
v -10 7 10
v -10 7 9
v -10 7 8
v -10 7 -10
v -10 10 10
v -10 10 -10
v -8 9 10
v -8 9 9
v -8 10 10
v -8 10 9
v -7 6 9
v -7 6 8
v -7 7 10
v -7 7 9
v -7 7 8
v -7 9 10
v -7 9 9
v -6 4 9
v -6 4 8
v -6 6 10
v -6 6 9
v -6 6 8
v -6 7 10
v -6 7 9
v -6 10 -3
v -6 10 -4
v -6 11 -3
v -6 11 -4
v -5 10 4
v -5 10 3
v -5 11 4
v -5 11 3
v -3 9 10
v -3 9 9
v -3 10 10
v -3 10 9
v -3 10 -8
v -3 10 -9
v -3 11 -8
v -3 11 -9
v -2 7 9
v -2 7 8
v -2 8 9
v -2 8 8
v -1 6 9
v -1 6 8
v -1 7 9
v -1 7 8
v -1 8 10
v -1 8 9
v -1 9 10
v -1 9 9
v 0 10 -0
v 0 10 -1
v 0 11 -0
v 0 11 -1
v 2 6 9
v 2 6 8
v 2 7 10
v 2 7 9
v 2 8 10
v 2 8 8
v 3 4 9
v 3 4 8
v 3 6 10
v 3 6 9
v 3 6 8
v 3 7 10
v 3 7 9
v 3 10 4
v 3 10 3
v 3 11 4
v 3 11 3
v 4 10 -6
v 4 10 -7
v 4 11 -6
v 4 11 -7
v 6 6 8
v 6 6 7
v 6 7 8
v 6 7 7
v -9 5 9
v -9 5 8
v -9 7 10
v -9 7 9
v -9 7 8
v -9 10 10
v -9 10 9
v -5 4 9
v -5 4 8
v -5 6 10
v -5 6 9
v -5 6 8
v -5 7 10
v -5 7 9
v -5 10 -3
v -5 10 -4
v -5 11 -3
v -5 11 -4
v -4 6 9
v -4 6 8
v -4 7 10
v -4 7 9
v -4 8 9
v -4 8 8
v -4 10 10
v -4 10 9
v -4 10 4
v -4 10 3
v -4 11 4
v -4 11 3
v -2 10 -8
v -2 10 -9
v -2 11 -8
v -2 11 -9
v 1 6 9
v 1 6 8
v 1 8 9
v 1 8 8
v 1 10 -0
v 1 10 -1
v 1 11 -0
v 1 11 -1
v 3 9 10
v 3 9 9
v 3 10 10
v 3 10 9
v 4 4 9
v 4 4 8
v 4 6 10
v 4 6 9
v 4 7 9
v 4 7 8
v 4 9 10
v 4 9 9
v 4 10 4
v 4 10 3
v 4 11 4
v 4 11 3
v 5 0 8
v 5 0 7
v 5 7 9
v 5 7 8
v 5 7 7
v 5 10 9
v 5 10 8
v 5 10 -6
v 5 10 -7
v 5 11 -6
v 5 11 -7
v 7 0 7
v 7 0 5
v 7 4 7
v 7 4 6
v 7 7 6
v 7 7 5
v 7 8 8
v 7 8 7
v 7 10 8
v 7 10 7
v 8 0 5
v 8 0 -10
v 8 4 7
v 8 4 6
v 8 4 -3
v 8 4 -4
v 8 5 -9
v 8 5 -10
v 8 6 8
v 8 6 7
v 8 6 5
v 8 6 4
v 8 6 1
v 8 6 -1
v 8 6 -2
v 8 6 -3
v 8 6 -8
v 8 6 -9
v 8 7 6
v 8 7 5
v 8 7 2
v 8 7 1
v 8 7 -4
v 8 7 -5
v 8 7 -7
v 8 7 -8
v 8 8 8
v 8 8 7
v 8 8 4
v 8 8 2
v 8 8 -1
v 8 8 -2
v 8 8 -5
v 8 8 -7
v 8 10 7
v 8 10 5
v 9 4 -3
v 9 4 -4
v 9 5 -9
v 9 5 -10
v 9 6 5
v 9 6 4
v 9 6 1
v 9 6 -1
v 9 6 -2
v 9 6 -3
v 9 6 -4
v 9 6 -8
v 9 6 -9
v 9 6 -10
v 9 7 2
v 9 7 1
v 9 7 -2
v 9 7 -3
v 9 7 -4
v 9 7 -5
v 9 7 -7
v 9 7 -8
v 9 8 4
v 9 8 2
v 9 8 1
v 9 8 -1
v 9 8 -2
v 9 8 -4
v 9 8 -5
v 9 8 -7
v 9 8 -8
v 9 8 -9
v 9 9 3
v 9 9 1
v 9 9 -5
v 9 9 -6
v 9 9 -7
v 9 9 -8
v 9 10 5
v 9 10 3
v 9 10 -1
v 9 10 -2
v 9 10 -6
v 9 10 -7
v 10 6 -3
v 10 6 -4
v 10 6 -9
v 10 6 -10
v 10 7 -2
v 10 7 -3
v 10 8 1
v 10 8 -1
v 10 8 -4
v 10 8 -5
v 10 8 -8
v 10 8 -9
v 10 9 3
v 10 9 1
v 10 9 -5
v 10 9 -6
v 10 9 -7
v 10 9 -8
v 10 10 3
v 10 10 -1
v 10 10 -2
v 10 10 -6
v 10 10 -7
v 10 10 -10
v -10 7 10
v -10 10 10
v -9 7 10
v -9 10 10
v -8 9 10
v -8 10 10
v -7 7 10
v -7 9 10
v -6 6 10
v -6 7 10
v -5 6 10
v -5 7 10
v -4 7 10
v -4 10 10
v -3 9 10
v -3 10 10
v -1 8 10
v -1 9 10
v 2 7 10
v 2 8 10
v 3 6 10
v 3 7 10
v 3 9 10
v 3 10 10
v 4 6 10
v 4 9 10
v -10 5 9
v -10 7 9
v -9 5 9
v -9 7 9
v -9 10 9
v -8 9 9
v -8 10 9
v -7 6 9
v -7 7 9
v -7 9 9
v -6 4 9
v -6 6 9
v -6 7 9
v -5 4 9
v -5 6 9
v -5 7 9
v -4 6 9
v -4 7 9
v -4 8 9
v -4 10 9
v -3 9 9
v -3 10 9
v -2 7 9
v -2 8 9
v -1 6 9
v -1 7 9
v -1 8 9
v -1 9 9
v 1 6 9
v 1 8 9
v 2 6 9
v 2 7 9
v 3 4 9
v 3 6 9
v 3 7 9
v 3 9 9
v 3 10 9
v 4 4 9
v 4 6 9
v 4 7 9
v 4 9 9
v 5 7 9
v 5 10 9
v -10 0 8
v -10 5 8
v -9 5 8
v -9 7 8
v -7 6 8
v -7 7 8
v -6 4 8
v -6 6 8
v -5 4 8
v -5 6 8
v -4 6 8
v -4 8 8
v -2 7 8
v -2 8 8
v -1 6 8
v -1 7 8
v 1 6 8
v 1 8 8
v 2 6 8
v 2 8 8
v 3 4 8
v 3 6 8
v 4 4 8
v 4 7 8
v 5 0 8
v 5 7 8
v 5 10 8
v 6 6 8
v 6 7 8
v 7 8 8
v 7 10 8
v 8 6 8
v 8 8 8
v 5 0 7
v 5 7 7
v 6 6 7
v 6 7 7
v 7 0 7
v 7 4 7
v 7 6 7
v 7 8 7
v 7 10 7
v 8 4 7
v 8 6 7
v 8 8 7
v 8 10 7
v 7 0 5
v 7 7 5
v 8 0 5
v 8 6 5
v 8 7 5
v 8 10 5
v 9 6 5
v 9 10 5
v -5 10 4
v -5 11 4
v -4 10 4
v -4 11 4
v 3 10 4
v 3 11 4
v 4 10 4
v 4 11 4
v 9 9 3
v 9 10 3
v 10 9 3
v 10 10 3
v 8 7 2
v 8 8 2
v 9 7 2
v 9 8 2
v 8 6 1
v 8 7 1
v 9 6 1
v 9 7 1
v 9 8 1
v 9 9 1
v 10 8 1
v 10 9 1
v 0 10 -0
v 0 11 -0
v 1 10 -0
v 1 11 -0
v 8 6 -2
v 8 8 -2
v 9 6 -2
v 9 7 -2
v 9 8 -2
v 9 10 -2
v 10 7 -2
v 10 10 -2
v -6 10 -3
v -6 11 -3
v -5 10 -3
v -5 11 -3
v 8 4 -3
v 8 6 -3
v 9 4 -3
v 9 6 -3
v 9 7 -3
v 10 6 -3
v 10 7 -3
v 4 10 -6
v 4 11 -6
v 5 10 -6
v 5 11 -6
v 8 7 -7
v 8 8 -7
v 9 7 -7
v 9 8 -7
v 9 9 -7
v 9 10 -7
v 10 9 -7
v 10 10 -7
v -3 10 -8
v -3 11 -8
v -2 10 -8
v -2 11 -8
v 8 6 -8
v 8 7 -8
v 9 6 -8
v 9 7 -8
v 9 8 -8
v 9 9 -8
v 10 8 -8
v 10 9 -8
v 8 5 -9
v 8 6 -9
v 9 5 -9
v 9 6 -9
v 9 8 -9
v 10 6 -9
v 10 8 -9
v 7 4 6
v 7 7 6
v 8 4 6
v 8 7 6
v 8 6 4
v 8 8 4
v 9 6 4
v 9 8 4
v -5 10 3
v -5 11 3
v -4 10 3
v -4 11 3
v 3 10 3
v 3 11 3
v 4 10 3
v 4 11 3
v 0 10 -1
v 0 11 -1
v 1 10 -1
v 1 11 -1
v 8 6 -1
v 8 8 -1
v 9 6 -1
v 9 8 -1
v 9 10 -1
v 10 8 -1
v 10 10 -1
v -6 10 -4
v -6 11 -4
v -5 10 -4
v -5 11 -4
v 8 4 -4
v 8 7 -4
v 9 4 -4
v 9 6 -4
v 9 7 -4
v 9 8 -4
v 10 6 -4
v 10 8 -4
v 8 7 -5
v 8 8 -5
v 9 7 -5
v 9 8 -5
v 9 9 -5
v 10 8 -5
v 10 9 -5
v 9 9 -6
v 9 10 -6
v 10 9 -6
v 10 10 -6
v 4 10 -7
v 4 11 -7
v 5 10 -7
v 5 11 -7
v -3 10 -9
v -3 11 -9
v -2 10 -9
v -2 11 -9
v -10 0 -10
v -10 7 -10
v -10 10 -10
v 8 0 -10
v 8 5 -10
v 8 7 -10
v 9 5 -10
v 9 6 -10
v 10 6 -10
v 10 10 -10
v -10 0 8
v 5 0 8
v 5 0 7
v 7 0 7
v 7 0 5
v 8 0 5
v -10 0 -10
v 8 0 -10
v -6 4 9
v -5 4 9
v 3 4 9
v 4 4 9
v -6 4 8
v -5 4 8
v 3 4 8
v 4 4 8
v 7 4 7
v 8 4 7
v 7 4 6
v 8 4 6
v 8 4 -3
v 9 4 -3
v 8 4 -4
v 9 4 -4
v -10 5 9
v -9 5 9
v -10 5 8
v -9 5 8
v 8 5 -9
v 9 5 -9
v 8 5 -10
v 9 5 -10
v -6 6 10
v -5 6 10
v 3 6 10
v 4 6 10
v -7 6 9
v -6 6 9
v -5 6 9
v -4 6 9
v -1 6 9
v 1 6 9
v 2 6 9
v 3 6 9
v 4 6 9
v -7 6 8
v -6 6 8
v -5 6 8
v -4 6 8
v -1 6 8
v 1 6 8
v 2 6 8
v 3 6 8
v 6 6 8
v 8 6 8
v 6 6 7
v 7 6 7
v 8 6 7
v 8 6 5
v 9 6 5
v 8 6 4
v 9 6 4
v 8 6 1
v 9 6 1
v 8 6 -1
v 9 6 -1
v 8 6 -2
v 9 6 -2
v 8 6 -3
v 9 6 -3
v 10 6 -3
v 9 6 -4
v 10 6 -4
v 8 6 -8
v 9 6 -8
v 8 6 -9
v 9 6 -9
v 10 6 -9
v 9 6 -10
v 10 6 -10
v -10 7 10
v -9 7 10
v -7 7 10
v -6 7 10
v -5 7 10
v -4 7 10
v 2 7 10
v 3 7 10
v -10 7 9
v -9 7 9
v -7 7 9
v -6 7 9
v -5 7 9
v -4 7 9
v -2 7 9
v -1 7 9
v 2 7 9
v 3 7 9
v 4 7 9
v 5 7 9
v -9 7 8
v -7 7 8
v -2 7 8
v -1 7 8
v 4 7 8
v 5 7 8
v 6 7 8
v 5 7 7
v 6 7 7
v 7 7 6
v 8 7 6
v 7 7 5
v 8 7 5
v 8 7 2
v 9 7 2
v 8 7 1
v 9 7 1
v 9 7 -2
v 10 7 -2
v 9 7 -3
v 10 7 -3
v 8 7 -4
v 9 7 -4
v 8 7 -5
v 9 7 -5
v 8 7 -7
v 9 7 -7
v 8 7 -8
v 9 7 -8
v -1 8 10
v 2 8 10
v -4 8 9
v -2 8 9
v -1 8 9
v 1 8 9
v -4 8 8
v -2 8 8
v 1 8 8
v 2 8 8
v 8 8 4
v 9 8 4
v 8 8 2
v 9 8 2
v 9 8 1
v 10 8 1
v 8 8 -1
v 9 8 -1
v 10 8 -1
v 8 8 -2
v 9 8 -2
v 9 8 -4
v 10 8 -4
v 8 8 -5
v 9 8 -5
v 10 8 -5
v 8 8 -7
v 9 8 -7
v 9 8 -8
v 10 8 -8
v 9 8 -9
v 10 8 -9
v -8 9 10
v -7 9 10
v -3 9 10
v -1 9 10
v -8 9 9
v -7 9 9
v -3 9 9
v -1 9 9
v 9 9 3
v 10 9 3
v 9 9 1
v 10 9 1
v 9 9 -5
v 10 9 -5
v 9 9 -6
v 10 9 -6
v 9 9 -7
v 10 9 -7
v 9 9 -8
v 10 9 -8
v 7 8 8
v 8 8 8
v 7 8 7
v 8 8 7
v 3 9 10
v 4 9 10
v 3 9 9
v 4 9 9
v -10 10 10
v -9 10 10
v -8 10 10
v -4 10 10
v -3 10 10
v 3 10 10
v -9 10 9
v -8 10 9
v -4 10 9
v -3 10 9
v 3 10 9
v 5 10 9
v 5 10 8
v 7 10 8
v 7 10 7
v 8 10 7
v 8 10 5
v 9 10 5
v -5 10 4
v -4 10 4
v 3 10 4
v 4 10 4
v -5 10 3
v -4 10 3
v 3 10 3
v 4 10 3
v 9 10 3
v 10 10 3
v 0 10 -0
v 1 10 -0
v 0 10 -1
v 1 10 -1
v 9 10 -1
v 10 10 -1
v 9 10 -2
v 10 10 -2
v -6 10 -3
v -5 10 -3
v -6 10 -4
v -5 10 -4
v 4 10 -6
v 5 10 -6
v 9 10 -6
v 10 10 -6
v 4 10 -7
v 5 10 -7
v 9 10 -7
v 10 10 -7
v -3 10 -8
v -2 10 -8
v -3 10 -9
v -2 10 -9
v -10 10 -10
v 10 10 -10
v -5 11 4
v -4 11 4
v 3 11 4
v 4 11 4
v -5 11 3
v -4 11 3
v 3 11 3
v 4 11 3
v 0 11 -0
v 1 11 -0
v 0 11 -1
v 1 11 -1
v -6 11 -3
v -5 11 -3
v -6 11 -4
v -5 11 -4
v 4 11 -6
v 5 11 -6
v 4 11 -7
v 5 11 -7
v -3 11 -8
v -2 11 -8
v -3 11 -9
v -2 11 -9

# faces
f 4/4/1 2/4/1 1/4/1
f 6/1/1 4/1/1 3/1/1
f 7/4/1 2/4/1 4/4/1
f 7/1/1 4/1/1 6/1/1
f 8/4/1 2/4/1 7/4/1
f 9/1/1 6/1/1 5/1/1
f 9/1/1 7/1/1 6/1/1
f 9/1/1 8/1/1 7/1/1
f 10/1/1 8/1/1 9/1/1
f 13/1/1 12/1/1 11/1/1
f 14/1/1 12/1/1 13/1/1
f 18/1/1 16/1/1 15/1/1
f 19/1/1 16/1/1 18/1/1
f 20/1/1 18/1/1 17/1/1
f 21/1/1 18/1/1 20/1/1
f 25/1/1 23/1/1 22/1/1
f 26/1/1 23/1/1 25/1/1
f 27/1/1 25/1/1 24/1/1
f 28/1/1 25/1/1 27/1/1
f 31/2/1 30/2/1 29/2/1
f 32/2/1 30/2/1 31/2/1
f 35/3/1 34/3/1 33/3/1
f 36/3/1 34/3/1 35/3/1
f 39/1/1 38/1/1 37/1/1
f 40/1/1 38/1/1 39/1/1
f 43/3/1 42/3/1 41/3/1
f 44/3/1 42/3/1 43/3/1
f 47/1/1 46/1/1 45/1/1
f 48/1/1 46/1/1 47/1/1
f 51/1/1 50/1/1 49/1/1
f 52/1/1 50/1/1 51/1/1
f 55/1/1 54/1/1 53/1/1
f 56/1/1 54/1/1 55/1/1
f 59/3/1 58/3/1 57/3/1
f 60/3/1 58/3/1 59/3/1
f 64/1/1 62/1/1 61/1/1
f 65/1/1 64/1/1 63/1/1
f 66/1/1 62/1/1 64/1/1
f 66/1/1 64/1/1 65/1/1
f 70/1/1 68/1/1 67/1/1
f 71/1/1 68/1/1 70/1/1
f 72/1/1 70/1/1 69/1/1
f 73/1/1 70/1/1 72/1/1
f 76/2/1 75/2/1 74/2/1
f 77/2/1 75/2/1 76/2/1
f 80/2/1 79/2/1 78/2/1
f 81/2/1 79/2/1 80/2/1
f 84/1/1 83/1/1 82/1/1
f 85/1/1 83/1/1 84/1/1
f 86/1/2 87/1/2 89/1/2
f 89/1/2 87/1/2 90/1/2
f 88/1/2 89/1/2 91/1/2
f 91/1/2 89/1/2 92/1/2
f 93/1/2 94/1/2 96/1/2
f 96/1/2 94/1/2 97/1/2
f 95/1/2 96/1/2 98/1/2
f 98/1/2 96/1/2 99/1/2
f 100/2/2 101/2/2 102/2/2
f 102/2/2 101/2/2 103/2/2
f 104/1/2 105/1/2 107/1/2
f 107/1/2 105/1/2 108/1/2
f 106/1/2 107/1/2 108/1/2
f 108/1/2 105/1/2 109/1/2
f 106/1/2 108/1/2 110/1/2
f 110/1/2 108/1/2 111/1/2
f 112/3/2 113/3/2 114/3/2
f 114/3/2 113/3/2 115/3/2
f 116/3/2 117/3/2 118/3/2
f 118/3/2 117/3/2 119/3/2
f 120/1/2 121/1/2 122/1/2
f 122/1/2 121/1/2 123/1/2
f 124/3/2 125/3/2 126/3/2
f 126/3/2 125/3/2 127/3/2
f 128/1/2 129/1/2 130/1/2
f 130/1/2 129/1/2 131/1/2
f 132/1/2 133/1/2 135/1/2
f 135/1/2 133/1/2 136/1/2
f 134/1/2 135/1/2 136/1/2
f 136/1/2 133/1/2 137/1/2
f 134/1/2 136/1/2 138/1/2
f 138/1/2 136/1/2 139/1/2
f 140/2/2 141/2/2 142/2/2
f 142/2/2 141/2/2 143/2/2
f 144/4/2 145/4/2 147/4/2
f 147/4/2 145/4/2 148/4/2
f 146/1/2 147/1/2 149/1/2
f 149/1/2 147/1/2 150/1/2
f 151/2/2 152/2/2 153/2/2
f 153/2/2 152/2/2 154/2/2
f 155/4/2 156/4/2 157/4/2
f 157/4/2 156/4/2 158/4/2
f 158/4/2 156/4/2 159/4/2
f 159/4/2 156/4/2 160/4/2
f 161/1/2 162/1/2 163/1/2
f 163/1/2 162/1/2 164/1/2
f 165/4/2 166/4/2 169/4/2
f 169/4/2 166/4/2 170/4/2
f 170/4/2 166/4/2 171/4/2
f 171/4/2 166/4/2 172/4/2
f 167/1/2 168/1/2 174/1/2
f 165/4/2 169/4/2 175/4/2
f 175/4/2 169/4/2 176/4/2
f 176/4/2 169/4/2 177/4/2
f 177/4/2 169/4/2 178/4/2
f 178/4/2 169/4/2 179/4/2
f 179/4/2 169/4/2 180/4/2
f 170/4/2 171/4/2 181/4/2
f 181/4/2 171/4/2 182/4/2
f 173/1/2 174/1/2 183/1/2
f 174/1/2 168/1/2 183/1/2
f 176/4/2 177/4/2 185/4/2
f 185/4/2 177/4/2 186/4/2
f 170/4/2 181/4/2 187/4/2
f 187/4/2 181/4/2 188/4/2
f 188/4/2 181/4/2 189/4/2
f 189/4/2 181/4/2 190/4/2
f 183/1/2 184/1/2 191/1/2
f 173/1/2 183/1/2 191/1/2
f 191/1/2 184/1/2 192/1/2
f 176/4/2 185/4/2 193/4/2
f 193/4/2 185/4/2 194/4/2
f 178/4/2 179/4/2 195/4/2
f 195/4/2 179/4/2 196/4/2
f 188/4/2 189/4/2 197/4/2
f 197/4/2 189/4/2 198/4/2
f 192/1/2 184/1/2 199/1/2
f 199/1/2 184/1/2 200/1/2
f 201/1/2 202/1/2 210/1/2
f 210/1/2 202/1/2 211/1/2
f 203/1/2 204/1/2 213/1/2
f 213/1/2 204/1/2 214/1/2
f 207/1/2 208/1/2 216/1/2
f 209/1/2 210/1/2 217/1/2
f 217/1/2 210/1/2 218/1/2
f 212/1/2 213/1/2 222/1/2
f 205/1/2 206/1/2 223/1/2
f 215/1/2 216/1/2 224/1/2
f 216/1/2 208/1/2 225/1/2
f 224/1/2 216/1/2 225/1/2
f 225/1/2 208/1/2 226/1/2
f 219/1/2 220/1/2 228/1/2
f 228/1/2 220/1/2 229/1/2
f 221/1/2 222/1/2 230/1/2
f 222/1/2 213/1/2 231/1/2
f 230/1/2 222/1/2 231/1/2
f 231/1/2 213/1/2 232/1/2
f 223/1/2 224/1/2 233/1/2
f 224/1/2 225/1/2 233/1/2
f 233/1/2 225/1/2 234/1/2
f 230/1/2 231/1/2 235/1/2
f 229/1/2 230/1/2 235/1/2
f 235/1/2 231/1/2 236/1/2
f 236/1/2 231/1/2 237/1/2
f 237/1/2 231/1/2 238/1/2
f 205/1/2 223/1/2 239/1/2
f 223/1/2 233/1/2 239/1/2
f 239/1/2 233/1/2 240/1/2
f 226/1/2 227/1/2 241/1/2
f 241/1/2 227/1/2 242/1/2
f 236/1/2 237/1/2 243/1/2
f 243/1/2 237/1/2 244/1/2
f 245/1/2 246/1/2 250/1/2
f 250/1/2 246/1/2 253/1/2
f 249/1/2 250/1/2 253/1/2
f 247/1/2 248/1/2 256/1/2
f 251/1/2 252/1/2 258/1/2
f 253/1/2 254/1/2 259/1/2
f 255/1/2 256/1/2 262/1/2
f 257/1/2 258/1/2 263/1/2
f 258/1/2 252/1/2 264/1/2
f 263/1/2 258/1/2 264/1/2
f 259/1/2 260/1/2 265/1/2
f 249/1/2 253/1/2 265/1/2
f 253/1/2 259/1/2 265/1/2
f 265/1/2 260/1/2 266/1/2
f 261/1/2 262/1/2 267/1/2
f 262/1/2 256/1/2 268/1/2
f 267/1/2 262/1/2 268/1/2
f 256/1/2 248/1/2 268/1/2
f 271/1/3 270/1/3 269/1/3
f 272/1/3 270/1/3 271/1/3
f 276/1/3 274/1/3 273/1/3
f 278/1/3 276/1/3 275/1/3
f 279/1/3 278/1/3 277/1/3
f 280/1/3 276/1/3 278/1/3
f 280/1/3 278/1/3 279/1/3
f 281/1/3 276/1/3 280/1/3
f 282/1/3 274/1/3 276/1/3
f 282/1/3 276/1/3 281/1/3
f 286/1/3 284/1/3 283/1/3
f 288/1/3 286/1/3 285/1/3
f 290/1/3 288/1/3 287/1/3
f 291/1/3 284/1/3 286/1/3
f 291/1/3 286/1/3 288/1/3
f 291/1/3 288/1/3 290/1/3
f 292/1/3 284/1/3 291/1/3
f 293/1/3 290/1/3 289/1/3
f 293/1/3 291/1/3 290/1/3
f 294/1/3 291/1/3 293/1/3
f 297/1/3 296/1/3 295/1/3
f 298/1/3 296/1/3 297/1/3
f 300/1/3 299/1/3 298/1/3
f 301/1/3 299/1/3 300/1/3
f 303/1/3 300/1/3 298/1/3
f 304/1/3 300/1/3 303/1/3
f 306/1/3 303/1/3 302/1/3
f 307/1/3 303/1/3 306/1/3
f 308/1/3 306/1/3 305/1/3
f 309/1/3 306/1/3 308/1/3
f 311/1/3 310/1/3 309/1/3
f 312/1/3 310/1/3 311/1/3
f 315/1/3 314/1/3 313/1/3
f 316/1/3 314/1/3 315/1/3
f 318/1/3 315/1/3 313/1/3
f 320/1/3 318/1/3 317/1/3
f 321/1/3 315/1/3 318/1/3
f 321/1/3 318/1/3 320/1/3
f 322/1/3 315/1/3 321/1/3
f 323/1/3 320/1/3 319/1/3
f 323/1/3 321/1/3 320/1/3
f 324/1/3 321/1/3 323/1/3
f 328/1/3 326/1/3 325/1/3
f 329/1/3 326/1/3 328/1/3
f 332/1/3 328/1/3 327/1/3
f 333/1/3 328/1/3 332/1/3
f 335/1/3 331/1/3 330/1/3
f 336/1/3 335/1/3 334/1/3
f 337/1/3 331/1/3 335/1/3
f 337/1/3 335/1/3 336/1/3
f 340/4/3 339/4/3 338/4/3
f 342/4/3 341/4/3 340/4/3
f 343/4/3 341/4/3 342/4/3
f 344/4/3 340/4/3 338/4/3
f 344/4/3 342/4/3 340/4/3
f 345/4/3 342/4/3 344/4/3
f 346/4/3 344/4/3 338/4/3
f 348/4/3 347/4/3 346/4/3
f 350/4/3 349/4/3 348/4/3
f 351/4/3 349/4/3 350/4/3
f 352/4/3 348/4/3 346/4/3
f 352/4/3 350/4/3 348/4/3
f 353/4/3 350/4/3 352/4/3
f 354/4/3 352/4/3 346/4/3
f 356/4/3 354/4/3 346/4/3
f 356/4/3 355/4/3 354/4/3
f 357/4/3 355/4/3 356/4/3
f 358/4/3 346/4/3 338/4/3
f 358/4/3 356/4/3 346/4/3
f 359/4/3 356/4/3 358/4/3
f 360/4/3 358/4/3 338/4/3
f 362/4/3 360/4/3 338/4/3
f 362/4/3 361/4/3 360/4/3
f 363/4/3 361/4/3 362/4/3
f 366/1/3 364/1/3 363/1/3
f 367/1/3 364/1/3 366/1/3
f 367/1/3 366/1/3 365/1/3
f 368/1/3 364/1/3 367/1/3
f 369/1/3 367/1/3 365/1/3
f 370/1/3 367/1/3 369/1/3
f 373/4/3 372/4/3 371/4/3
f 374/4/3 372/4/3 373/4/3
f 375/4/3 373/4/3 371/4/3
f 376/4/3 373/4/3 375/4/3
f 377/4/3 373/4/3 376/4/3
f 380/1/3 377/1/3 376/1/3
f 381/1/3 377/1/3 380/1/3
f 382/1/3 379/1/3 378/1/3
f 383/1/3 379/1/3 382/1/3
f 386/4/3 385/4/3 384/4/3
f 387/4/3 385/4/3 386/4/3
f 388/4/3 385/4/3 387/4/3
f 390/1/3 389/1/3 388/1/3
f 390/1/3 388/1/3 387/1/3
f 391/1/3 389/1/3 390/1/3
f 394/3/3 393/3/3 392/3/3
f 395/3/3 393/3/3 394/3/3
f 398/2/3 397/2/3 396/2/3
f 399/2/3 397/2/3 398/2/3
f 402/1/3 401/1/3 400/1/3
f 403/1/3 401/1/3 402/1/3
f 406/1/3 405/1/3 404/1/3
f 407/1/3 405/1/3 406/1/3
f 410/1/3 409/1/3 408/1/3
f 411/1/3 409/1/3 410/1/3
f 414/1/3 413/1/3 412/1/3
f 415/1/3 413/1/3 414/1/3
f 418/3/3 417/3/3 416/3/3
f 419/3/3 417/3/3 418/3/3
f 422/1/3 421/1/3 420/1/3
f 423/1/3 421/1/3 422/1/3
f 424/1/3 421/1/3 423/1/3
f 426/1/3 425/1/3 424/1/3
f 426/1/3 424/1/3 423/1/3
f 427/1/3 425/1/3 426/1/3
f 430/2/3 429/2/3 428/2/3
f 431/2/3 429/2/3 430/2/3
f 434/1/3 433/1/3 432/1/3
f 435/1/3 433/1/3 434/1/3
f 437/1/3 436/1/3 435/1/3
f 438/1/3 436/1/3 437/1/3
f 441/2/3 440/2/3 439/2/3
f 442/2/3 440/2/3 441/2/3
f 445/1/3 444/1/3 443/1/3
f 446/1/3 444/1/3 445/1/3
f 449/1/3 448/1/3 447/1/3
f 450/1/3 448/1/3 449/1/3
f 453/3/3 452/3/3 451/3/3
f 454/3/3 452/3/3 453/3/3
f 457/1/3 456/1/3 455/1/3
f 458/1/3 456/1/3 457/1/3
f 461/1/3 460/1/3 459/1/3
f 462/1/3 460/1/3 461/1/3
f 465/1/3 464/1/3 463/1/3
f 466/1/3 464/1/3 465/1/3
f 468/1/3 467/1/3 466/1/3
f 469/1/3 467/1/3 468/1/3
f 470/1/4 471/1/4 472/1/4
f 472/1/4 471/1/4 473/1/4
f 474/1/4 475/1/4 476/1/4
f 476/1/4 475/1/4 477/1/4
f 478/3/4 479/3/4 480/3/4
f 480/3/4 479/3/4 481/3/4
f 482/2/4 483/2/4 484/2/4
f 484/2/4 483/2/4 485/2/4
f 486/3/4 487/3/4 488/3/4
f 488/3/4 487/3/4 489/3/4
f 490/1/4 491/1/4 492/1/4
f 492/1/4 491/1/4 493/1/4
f 493/1/4 494/1/4 495/1/4
f 495/1/4 494/1/4 496/1/4
f 497/2/4 498/2/4 499/2/4
f 499/2/4 498/2/4 500/2/4
f 501/1/4 502/1/4 503/1/4
f 503/1/4 502/1/4 504/1/4
f 504/1/4 502/1/4 505/1/4
f 505/1/4 506/1/4 507/1/4
f 504/1/4 505/1/4 507/1/4
f 507/1/4 506/1/4 508/1/4
f 509/1/4 510/1/4 511/1/4
f 511/1/4 510/1/4 512/1/4
f 512/1/4 513/1/4 514/1/4
f 514/1/4 513/1/4 515/1/4
f 516/1/4 517/1/4 518/1/4
f 518/1/4 517/1/4 519/1/4
f 520/2/4 521/2/4 522/2/4
f 522/2/4 521/2/4 523/2/4
f 524/3/4 525/3/4 526/3/4
f 526/3/4 525/3/4 527/3/4
f 528/4/4 529/4/4 531/4/4
f 531/4/4 529/4/4 532/4/4
f 529/1/4 530/1/4 533/1/4
f 532/4/4 529/4/4 533/4/4
f 532/1/4 533/1/4 534/1/4
f 534/1/4 533/1/4 535/1/4
f 535/1/4 533/1/4 536/1/4
f 533/1/4 530/1/4 537/1/4
f 536/1/4 533/1/4 537/1/4
f 540/4/5 539/4/5 538/4/5
f 542/4/5 541/4/5 540/4/5
f 544/4/5 540/4/5 538/4/5
f 544/4/5 543/4/5 542/4/5
f 544/4/5 542/4/5 540/4/5
f 545/4/5 543/4/5 544/4/5
f 550/1/5 547/1/5 546/1/5
f 551/1/5 547/1/5 550/1/5
f 552/1/5 549/1/5 548/1/5
f 553/1/5 549/1/5 552/1/5
f 556/1/5 555/1/5 554/1/5
f 557/1/5 555/1/5 556/1/5
f 560/1/5 559/1/5 558/1/5
f 561/1/5 559/1/5 560/1/5
f 564/1/5 563/1/5 562/1/5
f 565/1/5 563/1/5 564/1/5
f 568/1/5 567/1/5 566/1/5
f 569/1/5 567/1/5 568/1/5
f 575/1/5 571/1/5 570/1/5
f 576/1/5 571/1/5 575/1/5
f 581/1/5 573/1/5 572/1/5
f 582/1/5 573/1/5 581/1/5
f 583/1/5 575/1/5 574/1/5
f 584/1/5 575/1/5 583/1/5
f 585/1/5 577/1/5 576/1/5
f 586/1/5 577/1/5 585/1/5
f 587/1/5 579/1/5 578/1/5
f 588/1/5 579/1/5 587/1/5
f 589/1/5 581/1/5 580/1/5
f 590/1/5 581/1/5 589/1/5
f 593/1/5 592/1/5 591/1/5
f 594/1/5 592/1/5 593/1/5
f 595/1/5 592/1/5 594/1/5
f 598/1/5 597/1/5 596/1/5
f 599/1/5 597/1/5 598/1/5
f 602/1/5 601/1/5 600/1/5
f 603/1/5 601/1/5 602/1/5
f 606/1/5 605/1/5 604/1/5
f 607/1/5 605/1/5 606/1/5
f 609/1/5 608/1/5 607/1/5
f 610/1/5 608/1/5 609/1/5
f 613/1/5 612/1/5 611/1/5
f 614/1/5 612/1/5 613/1/5
f 616/1/5 615/1/5 614/1/5
f 617/1/5 615/1/5 616/1/5
f 626/1/5 619/1/5 618/1/5
f 627/1/5 619/1/5 626/1/5
f 628/1/5 621/1/5 620/1/5
f 629/1/5 621/1/5 628/1/5
f 630/1/5 623/1/5 622/1/5
f 631/1/5 623/1/5 630/1/5
f 634/1/5 625/1/5 624/1/5
f 635/1/5 625/1/5 634/1/5
f 638/1/5 628/1/5 627/1/5
f 639/1/5 628/1/5 638/1/5
f 640/1/5 633/1/5 632/1/5
f 641/1/5 633/1/5 640/1/5
f 642/1/5 637/1/5 636/1/5
f 643/1/5 637/1/5 642/1/5
f 645/1/5 644/1/5 643/1/5
f 646/1/5 644/1/5 645/1/5
f 649/1/5 648/1/5 647/1/5
f 650/1/5 648/1/5 649/1/5
f 653/1/5 652/1/5 651/1/5
f 654/1/5 652/1/5 653/1/5
f 657/1/5 656/1/5 655/1/5
f 658/1/5 656/1/5 657/1/5
f 661/1/5 660/1/5 659/1/5
f 662/1/5 660/1/5 661/1/5
f 665/1/5 664/1/5 663/1/5
f 666/1/5 664/1/5 665/1/5
f 671/1/5 668/1/5 667/1/5
f 672/1/5 668/1/5 671/1/5
f 673/1/5 670/1/5 669/1/5
f 674/1/5 670/1/5 673/1/5
f 675/1/5 668/1/5 672/1/5
f 676/1/5 668/1/5 675/1/5
f 679/1/5 678/1/5 677/1/5
f 680/1/5 678/1/5 679/1/5
f 684/1/5 682/1/5 681/1/5
f 685/1/5 682/1/5 684/1/5
f 686/1/5 684/1/5 683/1/5
f 687/1/5 684/1/5 686/1/5
f 691/1/5 689/1/5 688/1/5
f 692/1/5 689/1/5 691/1/5
f 693/1/5 691/1/5 690/1/5
f 694/1/5 691/1/5 693/1/5
f 697/1/5 696/1/5 695/1/5
f 698/1/5 696/1/5 697/1/5
f 703/1/5 700/1/5 699/1/5
f 704/1/5 700/1/5 703/1/5
f 705/1/5 702/1/5 701/1/5
f 706/1/5 702/1/5 705/1/5
f 709/1/5 708/1/5 707/1/5
f 710/1/5 708/1/5 709/1/5
f 713/1/5 712/1/5 711/1/5
f 714/1/5 712/1/5 713/1/5
f 717/1/5 716/1/5 715/1/5
f 718/1/5 716/1/5 717/1/5
f 719/1/6 720/1/6 721/1/6
f 721/1/6 720/1/6 722/1/6
f 723/1/6 724/1/6 725/1/6
f 725/1/6 724/1/6 726/1/6
f 727/1/6 728/1/6 733/1/6
f 729/1/6 730/1/6 734/1/6
f 734/1/6 730/1/6 735/1/6
f 731/1/6 732/1/6 736/1/6
f 736/1/6 732/1/6 737/1/6
f 734/1/6 735/1/6 739/1/6
f 737/1/6 738/1/6 739/1/6
f 736/1/6 737/1/6 739/1/6
f 735/1/6 736/1/6 739/1/6
f 733/1/6 734/1/6 739/1/6
f 739/1/6 740/1/6 741/1/6
f 741/1/6 742/1/6 743/1/6
f 733/1/6 739/1/6 745/1/6
f 743/1/6 744/1/6 745/1/6
f 741/1/6 743/1/6 745/1/6
f 739/1/6 741/1/6 745/1/6
f 745/1/6 744/1/6 746/1/6
f 746/1/6 744/1/6 747/1/6
f 747/1/6 744/1/6 748/1/6
f 733/1/6 745/1/6 749/1/6
f 746/1/6 747/1/6 750/1/6
f 750/1/6 747/1/6 751/1/6
f 748/1/6 744/1/6 752/1/6
f 752/1/6 744/1/6 753/1/6
f 750/1/6 751/1/6 755/1/6
f 753/1/6 754/1/6 755/1/6
f 752/1/6 753/1/6 755/1/6
f 751/1/6 752/1/6 755/1/6
f 749/1/6 750/1/6 755/1/6
f 755/1/6 754/1/6 756/1/6
f 749/1/6 755/1/6 757/1/6
f 756/1/6 754/1/6 758/1/6
f 758/1/6 754/1/6 759/1/6
f 759/1/6 754/1/6 760/1/6
f 757/1/6 758/1/6 761/1/6
f 758/1/6 759/1/6 761/1/6
f 733/1/6 749/1/6 763/1/6
f 761/1/6 762/1/6 763/1/6
f 757/1/6 761/1/6 763/1/6
f 749/1/6 757/1/6 763/1/6
f 763/1/6 762/1/6 764/1/6
f 733/1/6 763/1/6 765/1/6
f 764/1/6 762/1/6 766/1/6
f 766/1/6 762/1/6 767/1/6
f 765/1/6 766/1/6 767/1/6
f 767/1/6 762/1/6 768/1/6
f 768/1/6 762/1/6 769/1/6
f 769/1/6 762/1/6 770/1/6
f 765/1/6 767/1/6 771/1/6
f 768/1/6 769/1/6 772/1/6
f 772/1/6 769/1/6 773/1/6
f 765/1/6 771/1/6 775/1/6
f 773/1/6 774/1/6 775/1/6
f 772/1/6 773/1/6 775/1/6
f 771/1/6 772/1/6 775/1/6
f 775/1/6 774/1/6 776/1/6
f 765/1/6 775/1/6 777/1/6
f 776/1/6 774/1/6 778/1/6
f 727/1/6 733/1/6 779/1/6
f 777/1/6 778/1/6 779/1/6
f 733/1/6 765/1/6 779/1/6
f 765/1/6 777/1/6 779/1/6
f 778/1/6 774/1/6 780/1/6
f 779/1/6 778/1/6 780/1/6
f 781/3/6 782/3/6 785/3/6
f 785/3/6 782/3/6 786/3/6
f 783/2/6 784/2/6 787/2/6
f 787/2/6 784/2/6 788/2/6
f 789/3/6 790/3/6 791/3/6
f 791/3/6 790/3/6 792/3/6
f 793/2/6 794/2/6 795/2/6
f 795/2/6 794/2/6 796/2/6
f 797/2/6 798/2/6 799/2/6
f 799/2/6 798/2/6 800/2/6
f 801/3/6 802/3/6 803/3/6
f 803/3/6 802/3/6 804/3/6
