[gd_scene load_steps=6 format=2]

[ext_resource path="res://Scripts/Objects/IceBlock.gd" type="Script" id=1]
[ext_resource path="res://Models/ObjType/Objects/IceBlock/IceBlock.png" type="Texture" id=2]

[sub_resource type="SpatialMaterial" id=1]
resource_name = "palette"
flags_transparent = true
albedo_color = Color( 1, 1, 1, 0.811765 )
albedo_texture = ExtResource( 2 )

[sub_resource type="ArrayMesh" id=2]
surfaces/0 = {
"aabb": AABB( -1.2, -1.7, -1.2, 2.4, 3.4, 2.4 ),
"array_data": PoolByteArray( 102, 102, 102, 191, 171, 204, 204, 191, 86, 102, 102, 63, 129, 0, 0, 0, 127, 0, 0, 127, 163, 57, 0, 56, 102, 102, 102, 191, 222, 255, 191, 191, 86, 102, 102, 63, 129, 0, 0, 0, 127, 0, 0, 127, 163, 57, 0, 56, 102, 102, 102, 191, 222, 255, 191, 191, 239, 255, 127, 63, 129, 0, 0, 0, 127, 0, 0, 127, 163, 57, 0, 56, 0, 0, 128, 63, 171, 204, 204, 191, 119, 102, 102, 191, 127, 0, 0, 0, 127, 0, 0, 127, 163, 57, 0, 56, 0, 0, 128, 63, 171, 204, 204, 191, 86, 102, 102, 63, 127, 0, 0, 0, 127, 0, 0, 127, 163, 57, 0, 56, 0, 0, 128, 63, 222, 255, 191, 191, 86, 102, 102, 63, 127, 0, 0, 0, 127, 0, 0, 127, 163, 57, 0, 56, 0, 0, 128, 63, 222, 255, 191, 191, 119, 102, 102, 191, 127, 0, 0, 0, 127, 0, 0, 127, 163, 57, 0, 56, 205, 204, 140, 191, 34, 0, 192, 63, 86, 102, 102, 63, 0, 0, 127, 0, 127, 0, 0, 129, 163, 57, 0, 56, 0, 0, 128, 191, 34, 0, 192, 63, 86, 102, 102, 63, 0, 0, 127, 0, 127, 0, 0, 129, 163, 57, 0, 56, 0, 0, 128, 191, 85, 51, 179, 63, 86, 102, 102, 63, 0, 0, 127, 0, 127, 0, 0, 129, 163, 57, 0, 56, 0, 0, 128, 63, 34, 0, 192, 63, 86, 102, 102, 63, 0, 0, 127, 0, 127, 0, 0, 129, 163, 57, 0, 56, 205, 204, 140, 63, 34, 0, 192, 63, 86, 102, 102, 63, 0, 0, 127, 0, 127, 0, 0, 129, 163, 57, 0, 56, 205, 204, 140, 63, 85, 51, 179, 63, 86, 102, 102, 63, 0, 0, 127, 0, 127, 0, 0, 129, 163, 57, 0, 56, 102, 102, 102, 63, 120, 153, 217, 191, 86, 102, 102, 63, 0, 129, 0, 0, 127, 0, 0, 127, 163, 57, 0, 56, 102, 102, 102, 191, 120, 153, 217, 191, 119, 102, 102, 191, 0, 129, 0, 0, 127, 0, 0, 127, 163, 57, 0, 56, 102, 102, 102, 191, 120, 153, 217, 191, 86, 102, 102, 63, 0, 129, 0, 0, 127, 0, 0, 127, 163, 57, 0, 56, 102, 102, 102, 63, 120, 153, 217, 191, 119, 102, 102, 191, 0, 129, 0, 0, 127, 0, 0, 127, 163, 57, 0, 56, 205, 204, 140, 63, 18, 51, 179, 191, 239, 255, 127, 63, 0, 129, 0, 0, 127, 0, 0, 127, 163, 57, 0, 56, 205, 204, 140, 63, 18, 51, 179, 191, 86, 102, 102, 63, 0, 129, 0, 0, 127, 0, 0, 127, 163, 57, 0, 56, 0, 0, 128, 63, 18, 51, 179, 191, 86, 102, 102, 63, 0, 129, 0, 0, 127, 0, 0, 127, 163, 57, 0, 56, 154, 153, 153, 191, 18, 51, 179, 191, 119, 102, 102, 191, 129, 0, 0, 0, 127, 0, 0, 127, 163, 57, 0, 56, 154, 153, 153, 191, 85, 51, 179, 63, 86, 102, 102, 63, 129, 0, 0, 0, 127, 0, 0, 127, 163, 57, 0, 56, 154, 153, 153, 191, 18, 51, 179, 191, 86, 102, 102, 63, 129, 0, 0, 0, 127, 0, 0, 127, 163, 57, 0, 56, 154, 153, 153, 191, 85, 51, 179, 63, 119, 102, 102, 191, 129, 0, 0, 0, 127, 0, 0, 127, 163, 57, 0, 56, 205, 204, 140, 191, 222, 255, 191, 191, 119, 102, 102, 191, 129, 0, 0, 0, 127, 0, 0, 127, 163, 57, 0, 56, 205, 204, 140, 191, 18, 51, 179, 191, 86, 102, 102, 63, 129, 0, 0, 0, 127, 0, 0, 127, 163, 57, 0, 56, 205, 204, 140, 191, 222, 255, 191, 191, 86, 102, 102, 63, 129, 0, 0, 0, 127, 0, 0, 127, 163, 57, 0, 56, 205, 204, 140, 191, 18, 51, 179, 191, 119, 102, 102, 191, 129, 0, 0, 0, 127, 0, 0, 127, 163, 57, 0, 56, 205, 204, 140, 191, 85, 51, 179, 63, 239, 255, 127, 63, 129, 0, 0, 0, 127, 0, 0, 127, 163, 57, 0, 56, 205, 204, 140, 191, 18, 51, 179, 191, 239, 255, 127, 63, 129, 0, 0, 0, 127, 0, 0, 127, 163, 57, 0, 56, 205, 204, 140, 191, 85, 51, 179, 63, 86, 102, 102, 63, 129, 0, 0, 0, 127, 0, 0, 127, 163, 57, 0, 56, 205, 204, 140, 191, 18, 51, 179, 191, 8, 0, 128, 191, 129, 0, 0, 0, 127, 0, 0, 127, 163, 57, 0, 56, 205, 204, 140, 191, 85, 51, 179, 63, 119, 102, 102, 191, 129, 0, 0, 0, 127, 0, 0, 127, 163, 57, 0, 56, 205, 204, 140, 191, 85, 51, 179, 63, 8, 0, 128, 191, 129, 0, 0, 0, 127, 0, 0, 127, 163, 57, 0, 56, 205, 204, 140, 191, 34, 0, 192, 63, 86, 102, 102, 63, 129, 0, 0, 0, 127, 0, 0, 127, 163, 57, 0, 56, 205, 204, 140, 191, 34, 0, 192, 63, 119, 102, 102, 191, 129, 0, 0, 0, 127, 0, 0, 127, 163, 57, 0, 56, 0, 0, 128, 191, 171, 204, 204, 191, 119, 102, 102, 191, 129, 0, 0, 0, 127, 0, 0, 127, 163, 57, 0, 56, 0, 0, 128, 191, 222, 255, 191, 191, 86, 102, 102, 63, 129, 0, 0, 0, 127, 0, 0, 127, 163, 57, 0, 56, 0, 0, 128, 191, 171, 204, 204, 191, 86, 102, 102, 63, 129, 0, 0, 0, 127, 0, 0, 127, 163, 57, 0, 56, 0, 0, 128, 191, 222, 255, 191, 191, 119, 102, 102, 191, 129, 0, 0, 0, 127, 0, 0, 127, 163, 57, 0, 56, 0, 0, 128, 191, 18, 51, 179, 191, 239, 255, 127, 63, 129, 0, 0, 0, 127, 0, 0, 127, 163, 57, 0, 56, 0, 0, 128, 191, 222, 255, 191, 191, 239, 255, 127, 63, 129, 0, 0, 0, 127, 0, 0, 127, 163, 57, 0, 56, 0, 0, 128, 191, 18, 51, 179, 191, 86, 102, 102, 63, 129, 0, 0, 0, 127, 0, 0, 127, 163, 57, 0, 56, 0, 0, 128, 191, 222, 255, 191, 191, 8, 0, 128, 191, 129, 0, 0, 0, 127, 0, 0, 127, 163, 57, 0, 56, 0, 0, 128, 191, 18, 51, 179, 191, 119, 102, 102, 191, 129, 0, 0, 0, 127, 0, 0, 127, 163, 57, 0, 56, 0, 0, 128, 191, 18, 51, 179, 191, 8, 0, 128, 191, 129, 0, 0, 0, 127, 0, 0, 127, 163, 57, 0, 56, 0, 0, 128, 191, 85, 51, 179, 63, 196, 204, 140, 63, 129, 0, 0, 0, 127, 0, 0, 127, 163, 57, 0, 56, 0, 0, 128, 191, 18, 51, 179, 191, 196, 204, 140, 63, 129, 0, 0, 0, 127, 0, 0, 127, 163, 57, 0, 56, 0, 0, 128, 191, 85, 51, 179, 63, 239, 255, 127, 63, 129, 0, 0, 0, 127, 0, 0, 127, 163, 57, 0, 56, 0, 0, 128, 191, 18, 51, 179, 191, 213, 204, 140, 191, 129, 0, 0, 0, 127, 0, 0, 127, 163, 57, 0, 56, 0, 0, 128, 191, 85, 51, 179, 63, 8, 0, 128, 191, 129, 0, 0, 0, 127, 0, 0, 127, 163, 57, 0, 56, 0, 0, 128, 191, 85, 51, 179, 63, 213, 204, 140, 191, 129, 0, 0, 0, 127, 0, 0, 127, 163, 57, 0, 56, 0, 0, 128, 191, 85, 51, 179, 63, 86, 102, 102, 63, 129, 0, 0, 0, 127, 0, 0, 127, 163, 57, 0, 56, 0, 0, 128, 191, 34, 0, 192, 63, 239, 255, 127, 63, 129, 0, 0, 0, 127, 0, 0, 127, 163, 57, 0, 56, 0, 0, 128, 191, 34, 0, 192, 63, 86, 102, 102, 63, 129, 0, 0, 0, 127, 0, 0, 127, 163, 57, 0, 56, 0, 0, 128, 191, 34, 0, 192, 63, 119, 102, 102, 191, 129, 0, 0, 0, 127, 0, 0, 127, 163, 57, 0, 56, 0, 0, 128, 191, 85, 51, 179, 63, 119, 102, 102, 191, 129, 0, 0, 0, 127, 0, 0, 127, 163, 57, 0, 56, 0, 0, 128, 191, 34, 0, 192, 63, 8, 0, 128, 191, 129, 0, 0, 0, 127, 0, 0, 127, 163, 57, 0, 56, 0, 0, 128, 191, 238, 204, 204, 63, 86, 102, 102, 63, 129, 0, 0, 0, 127, 0, 0, 127, 163, 57, 0, 56, 0, 0, 128, 191, 238, 204, 204, 63, 119, 102, 102, 191, 129, 0, 0, 0, 127, 0, 0, 127, 163, 57, 0, 56, 102, 102, 102, 191, 120, 153, 217, 191, 119, 102, 102, 191, 129, 0, 0, 0, 127, 0, 0, 127, 163, 57, 0, 56, 102, 102, 102, 191, 120, 153, 217, 191, 86, 102, 102, 63, 129, 0, 0, 0, 127, 0, 0, 127, 163, 57, 0, 56, 102, 102, 102, 191, 171, 204, 204, 191, 119, 102, 102, 191, 129, 0, 0, 0, 127, 0, 0, 127, 163, 57, 0, 56, 102, 102, 102, 191, 171, 204, 204, 191, 239, 255, 127, 63, 129, 0, 0, 0, 127, 0, 0, 127, 163, 57, 0, 56, 102, 102, 102, 191, 171, 204, 204, 191, 8, 0, 128, 191, 129, 0, 0, 0, 127, 0, 0, 127, 163, 57, 0, 56, 102, 102, 102, 191, 222, 255, 191, 191, 119, 102, 102, 191, 129, 0, 0, 0, 127, 0, 0, 127, 163, 57, 0, 56, 102, 102, 102, 191, 222, 255, 191, 191, 8, 0, 128, 191, 129, 0, 0, 0, 127, 0, 0, 127, 163, 57, 0, 56, 102, 102, 102, 191, 18, 51, 179, 191, 196, 204, 140, 63, 129, 0, 0, 0, 127, 0, 0, 127, 163, 57, 0, 56, 102, 102, 102, 191, 222, 255, 191, 191, 196, 204, 140, 63, 129, 0, 0, 0, 127, 0, 0, 127, 163, 57, 0, 56, 102, 102, 102, 191, 18, 51, 179, 191, 239, 255, 127, 63, 129, 0, 0, 0, 127, 0, 0, 127, 163, 57, 0, 56, 102, 102, 102, 191, 222, 255, 191, 191, 213, 204, 140, 191, 129, 0, 0, 0, 127, 0, 0, 127, 163, 57, 0, 56, 102, 102, 102, 191, 18, 51, 179, 191, 8, 0, 128, 191, 129, 0, 0, 0, 127, 0, 0, 127, 163, 57, 0, 56, 102, 102, 102, 191, 18, 51, 179, 191, 213, 204, 140, 191, 129, 0, 0, 0, 127, 0, 0, 127, 163, 57, 0, 56, 102, 102, 102, 191, 85, 51, 179, 63, 145, 153, 153, 63, 129, 0, 0, 0, 127, 0, 0, 127, 163, 57, 0, 56, 102, 102, 102, 191, 18, 51, 179, 191, 145, 153, 153, 63, 129, 0, 0, 0, 127, 0, 0, 127, 163, 57, 0, 56, 102, 102, 102, 191, 85, 51, 179, 63, 196, 204, 140, 63, 129, 0, 0, 0, 127, 0, 0, 127, 163, 57, 0, 56, 102, 102, 102, 191, 18, 51, 179, 191, 162, 153, 153, 191, 129, 0, 0, 0, 127, 0, 0, 127, 163, 57, 0, 56, 102, 102, 102, 191, 85, 51, 179, 63, 213, 204, 140, 191, 129, 0, 0, 0, 127, 0, 0, 127, 163, 57, 0, 56, 102, 102, 102, 191, 85, 51, 179, 63, 162, 153, 153, 191, 129, 0, 0, 0, 127, 0, 0, 127, 163, 57, 0, 56, 102, 102, 102, 191, 85, 51, 179, 63, 239, 255, 127, 63, 129, 0, 0, 0, 127, 0, 0, 127, 163, 57, 0, 56, 102, 102, 102, 191, 34, 0, 192, 63, 196, 204, 140, 63, 129, 0, 0, 0, 127, 0, 0, 127, 163, 57, 0, 56, 102, 102, 102, 191, 34, 0, 192, 63, 239, 255, 127, 63, 129, 0, 0, 0, 127, 0, 0, 127, 163, 57, 0, 56, 102, 102, 102, 191, 34, 0, 192, 63, 8, 0, 128, 191, 129, 0, 0, 0, 127, 0, 0, 127, 163, 57, 0, 56, 102, 102, 102, 191, 85, 51, 179, 63, 8, 0, 128, 191, 129, 0, 0, 0, 127, 0, 0, 127, 163, 57, 0, 56, 102, 102, 102, 191, 34, 0, 192, 63, 213, 204, 140, 191, 129, 0, 0, 0, 127, 0, 0, 127, 163, 57, 0, 56, 102, 102, 102, 191, 34, 0, 192, 63, 86, 102, 102, 63, 129, 0, 0, 0, 127, 0, 0, 127, 163, 57, 0, 56, 102, 102, 102, 191, 238, 204, 204, 63, 239, 255, 127, 63, 129, 0, 0, 0, 127, 0, 0, 127, 163, 57, 0, 56, 102, 102, 102, 191, 238, 204, 204, 63, 86, 102, 102, 63, 129, 0, 0, 0, 127, 0, 0, 127, 163, 57, 0, 56, 102, 102, 102, 191, 238, 204, 204, 63, 119, 102, 102, 191, 129, 0, 0, 0, 127, 0, 0, 127, 163, 57, 0, 56, 102, 102, 102, 191, 34, 0, 192, 63, 119, 102, 102, 191, 129, 0, 0, 0, 127, 0, 0, 127, 163, 57, 0, 56, 102, 102, 102, 191, 238, 204, 204, 63, 8, 0, 128, 191, 129, 0, 0, 0, 127, 0, 0, 127, 163, 57, 0, 56, 102, 102, 102, 191, 187, 153, 217, 63, 86, 102, 102, 63, 129, 0, 0, 0, 127, 0, 0, 127, 163, 57, 0, 56, 102, 102, 102, 191, 187, 153, 217, 63, 119, 102, 102, 191, 129, 0, 0, 0, 127, 0, 0, 127, 163, 57, 0, 56, 102, 102, 102, 63, 120, 153, 217, 191, 119, 102, 102, 191, 127, 0, 0, 0, 127, 0, 0, 127, 163, 57, 0, 56, 102, 102, 102, 63, 120, 153, 217, 191, 86, 102, 102, 63, 127, 0, 0, 0, 127, 0, 0, 127, 163, 57, 0, 56, 102, 102, 102, 63, 171, 204, 204, 191, 86, 102, 102, 63, 127, 0, 0, 0, 127, 0, 0, 127, 163, 57, 0, 56, 102, 102, 102, 63, 171, 204, 204, 191, 119, 102, 102, 191, 127, 0, 0, 0, 127, 0, 0, 127, 163, 57, 0, 56, 102, 102, 102, 63, 171, 204, 204, 191, 239, 255, 127, 63, 127, 0, 0, 0, 127, 0, 0, 127, 163, 57, 0, 56, 102, 102, 102, 63, 222, 255, 191, 191, 239, 255, 127, 63, 127, 0, 0, 0, 127, 0, 0, 127, 163, 57, 0, 56, 102, 102, 102, 63, 222, 255, 191, 191, 86, 102, 102, 63, 127, 0, 0, 0, 127, 0, 0, 127, 163, 57, 0, 56, 102, 102, 102, 63, 171, 204, 204, 191, 8, 0, 128, 191, 127, 0, 0, 0, 127, 0, 0, 127, 163, 57, 0, 56, 102, 102, 102, 63, 222, 255, 191, 191, 119, 102, 102, 191, 127, 0, 0, 0, 127, 0, 0, 127, 163, 57, 0, 56, 102, 102, 102, 63, 222, 255, 191, 191, 8, 0, 128, 191, 127, 0, 0, 0, 127, 0, 0, 127, 163, 57, 0, 56, 102, 102, 102, 63, 222, 255, 191, 191, 196, 204, 140, 63, 127, 0, 0, 0, 127, 0, 0, 127, 163, 57, 0, 56, 102, 102, 102, 63, 18, 51, 179, 191, 196, 204, 140, 63, 127, 0, 0, 0, 127, 0, 0, 127, 163, 57, 0, 56, 102, 102, 102, 63, 18, 51, 179, 191, 239, 255, 127, 63, 127, 0, 0, 0, 127, 0, 0, 127, 163, 57, 0, 56, 102, 102, 102, 63, 222, 255, 191, 191, 213, 204, 140, 191, 127, 0, 0, 0, 127, 0, 0, 127, 163, 57, 0, 56, 102, 102, 102, 63, 18, 51, 179, 191, 8, 0, 128, 191, 127, 0, 0, 0, 127, 0, 0, 127, 163, 57, 0, 56, 102, 102, 102, 63, 18, 51, 179, 191, 213, 204, 140, 191, 127, 0, 0, 0, 127, 0, 0, 127, 163, 57, 0, 56, 102, 102, 102, 63, 18, 51, 179, 191, 145, 153, 153, 63, 127, 0, 0, 0, 127, 0, 0, 127, 163, 57, 0, 56, 102, 102, 102, 63, 85, 51, 179, 63, 145, 153, 153, 63, 127, 0, 0, 0, 127, 0, 0, 127, 163, 57, 0, 56, 102, 102, 102, 63, 85, 51, 179, 63, 196, 204, 140, 63, 127, 0, 0, 0, 127, 0, 0, 127, 163, 57, 0, 56, 102, 102, 102, 63, 18, 51, 179, 191, 162, 153, 153, 191, 127, 0, 0, 0, 127, 0, 0, 127, 163, 57, 0, 56, 102, 102, 102, 63, 85, 51, 179, 63, 213, 204, 140, 191, 127, 0, 0, 0, 127, 0, 0, 127, 163, 57, 0, 56, 102, 102, 102, 63, 85, 51, 179, 63, 162, 153, 153, 191, 127, 0, 0, 0, 127, 0, 0, 127, 163, 57, 0, 56, 102, 102, 102, 63, 85, 51, 179, 63, 239, 255, 127, 63, 127, 0, 0, 0, 127, 0, 0, 127, 163, 57, 0, 56, 102, 102, 102, 63, 34, 0, 192, 63, 196, 204, 140, 63, 127, 0, 0, 0, 127, 0, 0, 127, 163, 57, 0, 56, 102, 102, 102, 63, 34, 0, 192, 63, 239, 255, 127, 63, 127, 0, 0, 0, 127, 0, 0, 127, 163, 57, 0, 56, 102, 102, 102, 63, 85, 51, 179, 63, 8, 0, 128, 191, 127, 0, 0, 0, 127, 0, 0, 127, 163, 57, 0, 56, 102, 102, 102, 63, 34, 0, 192, 63, 8, 0, 128, 191, 127, 0, 0, 0, 127, 0, 0, 127, 163, 57, 0, 56, 102, 102, 102, 63, 34, 0, 192, 63, 213, 204, 140, 191, 127, 0, 0, 0, 127, 0, 0, 127, 163, 57, 0, 56, 102, 102, 102, 63, 34, 0, 192, 63, 86, 102, 102, 63, 127, 0, 0, 0, 127, 0, 0, 127, 163, 57, 0, 56, 102, 102, 102, 63, 238, 204, 204, 63, 239, 255, 127, 63, 127, 0, 0, 0, 127, 0, 0, 127, 163, 57, 0, 56, 102, 102, 102, 63, 238, 204, 204, 63, 86, 102, 102, 63, 127, 0, 0, 0, 127, 0, 0, 127, 163, 57, 0, 56, 102, 102, 102, 63, 34, 0, 192, 63, 119, 102, 102, 191, 127, 0, 0, 0, 127, 0, 0, 127, 163, 57, 0, 56, 102, 102, 102, 63, 238, 204, 204, 63, 119, 102, 102, 191, 127, 0, 0, 0, 127, 0, 0, 127, 163, 57, 0, 56, 102, 102, 102, 63, 238, 204, 204, 63, 8, 0, 128, 191, 127, 0, 0, 0, 127, 0, 0, 127, 163, 57, 0, 56, 102, 102, 102, 63, 187, 153, 217, 63, 86, 102, 102, 63, 127, 0, 0, 0, 127, 0, 0, 127, 163, 57, 0, 56, 102, 102, 102, 63, 187, 153, 217, 63, 119, 102, 102, 191, 127, 0, 0, 0, 127, 0, 0, 127, 163, 57, 0, 56, 0, 0, 128, 63, 222, 255, 191, 191, 239, 255, 127, 63, 127, 0, 0, 0, 127, 0, 0, 127, 163, 57, 0, 56, 0, 0, 128, 63, 18, 51, 179, 191, 239, 255, 127, 63, 127, 0, 0, 0, 127, 0, 0, 127, 163, 57, 0, 56, 0, 0, 128, 63, 18, 51, 179, 191, 86, 102, 102, 63, 127, 0, 0, 0, 127, 0, 0, 127, 163, 57, 0, 56, 0, 0, 128, 63, 222, 255, 191, 191, 8, 0, 128, 191, 127, 0, 0, 0, 127, 0, 0, 127, 163, 57, 0, 56, 0, 0, 128, 63, 18, 51, 179, 191, 119, 102, 102, 191, 127, 0, 0, 0, 127, 0, 0, 127, 163, 57, 0, 56, 0, 0, 128, 63, 18, 51, 179, 191, 8, 0, 128, 191, 127, 0, 0, 0, 127, 0, 0, 127, 163, 57, 0, 56, 0, 0, 128, 63, 18, 51, 179, 191, 196, 204, 140, 63, 127, 0, 0, 0, 127, 0, 0, 127, 163, 57, 0, 56, 0, 0, 128, 63, 85, 51, 179, 63, 196, 204, 140, 63, 127, 0, 0, 0, 127, 0, 0, 127, 163, 57, 0, 56, 0, 0, 128, 63, 85, 51, 179, 63, 239, 255, 127, 63, 127, 0, 0, 0, 127, 0, 0, 127, 163, 57, 0, 56, 0, 0, 128, 63, 18, 51, 179, 191, 213, 204, 140, 191, 127, 0, 0, 0, 127, 0, 0, 127, 163, 57, 0, 56, 0, 0, 128, 63, 85, 51, 179, 63, 8, 0, 128, 191, 127, 0, 0, 0, 127, 0, 0, 127, 163, 57, 0, 56, 0, 0, 128, 63, 85, 51, 179, 63, 213, 204, 140, 191, 127, 0, 0, 0, 127, 0, 0, 127, 163, 57, 0, 56, 0, 0, 128, 63, 85, 51, 179, 63, 86, 102, 102, 63, 127, 0, 0, 0, 127, 0, 0, 127, 163, 57, 0, 56, 0, 0, 128, 63, 34, 0, 192, 63, 239, 255, 127, 63, 127, 0, 0, 0, 127, 0, 0, 127, 163, 57, 0, 56, 0, 0, 128, 63, 34, 0, 192, 63, 86, 102, 102, 63, 127, 0, 0, 0, 127, 0, 0, 127, 163, 57, 0, 56, 0, 0, 128, 63, 85, 51, 179, 63, 119, 102, 102, 191, 127, 0, 0, 0, 127, 0, 0, 127, 163, 57, 0, 56, 0, 0, 128, 63, 34, 0, 192, 63, 119, 102, 102, 191, 127, 0, 0, 0, 127, 0, 0, 127, 163, 57, 0, 56, 0, 0, 128, 63, 34, 0, 192, 63, 8, 0, 128, 191, 127, 0, 0, 0, 127, 0, 0, 127, 163, 57, 0, 56, 0, 0, 128, 63, 238, 204, 204, 63, 86, 102, 102, 63, 127, 0, 0, 0, 127, 0, 0, 127, 163, 57, 0, 56, 0, 0, 128, 63, 238, 204, 204, 63, 119, 102, 102, 191, 127, 0, 0, 0, 127, 0, 0, 127, 163, 57, 0, 56, 205, 204, 140, 63, 222, 255, 191, 191, 119, 102, 102, 191, 127, 0, 0, 0, 127, 0, 0, 127, 163, 57, 0, 56, 205, 204, 140, 63, 222, 255, 191, 191, 86, 102, 102, 63, 127, 0, 0, 0, 127, 0, 0, 127, 163, 57, 0, 56, 205, 204, 140, 63, 18, 51, 179, 191, 86, 102, 102, 63, 127, 0, 0, 0, 127, 0, 0, 127, 163, 57, 0, 56, 205, 204, 140, 63, 18, 51, 179, 191, 119, 102, 102, 191, 127, 0, 0, 0, 127, 0, 0, 127, 163, 57, 0, 56, 205, 204, 140, 63, 18, 51, 179, 191, 239, 255, 127, 63, 127, 0, 0, 0, 127, 0, 0, 127, 163, 57, 0, 56, 205, 204, 140, 63, 85, 51, 179, 63, 239, 255, 127, 63, 127, 0, 0, 0, 127, 0, 0, 127, 163, 57, 0, 56, 205, 204, 140, 63, 85, 51, 179, 63, 86, 102, 102, 63, 127, 0, 0, 0, 127, 0, 0, 127, 163, 57, 0, 56, 205, 204, 140, 63, 18, 51, 179, 191, 8, 0, 128, 191, 127, 0, 0, 0, 127, 0, 0, 127, 163, 57, 0, 56, 205, 204, 140, 63, 85, 51, 179, 63, 119, 102, 102, 191, 127, 0, 0, 0, 127, 0, 0, 127, 163, 57, 0, 56, 205, 204, 140, 63, 85, 51, 179, 63, 8, 0, 128, 191, 127, 0, 0, 0, 127, 0, 0, 127, 163, 57, 0, 56, 205, 204, 140, 63, 34, 0, 192, 63, 86, 102, 102, 63, 127, 0, 0, 0, 127, 0, 0, 127, 163, 57, 0, 56, 205, 204, 140, 63, 34, 0, 192, 63, 119, 102, 102, 191, 127, 0, 0, 0, 127, 0, 0, 127, 163, 57, 0, 56, 154, 153, 153, 63, 18, 51, 179, 191, 119, 102, 102, 191, 127, 0, 0, 0, 127, 0, 0, 127, 163, 57, 0, 56, 154, 153, 153, 63, 18, 51, 179, 191, 86, 102, 102, 63, 127, 0, 0, 0, 127, 0, 0, 127, 163, 57, 0, 56, 154, 153, 153, 63, 85, 51, 179, 63, 86, 102, 102, 63, 127, 0, 0, 0, 127, 0, 0, 127, 163, 57, 0, 56, 154, 153, 153, 63, 85, 51, 179, 63, 119, 102, 102, 191, 127, 0, 0, 0, 127, 0, 0, 127, 163, 57, 0, 56, 102, 102, 102, 191, 85, 51, 179, 63, 145, 153, 153, 63, 0, 0, 127, 0, 127, 0, 0, 129, 163, 57, 0, 56, 102, 102, 102, 63, 18, 51, 179, 191, 145, 153, 153, 63, 0, 0, 127, 0, 127, 0, 0, 129, 163, 57, 0, 56, 102, 102, 102, 191, 18, 51, 179, 191, 145, 153, 153, 63, 0, 0, 127, 0, 127, 0, 0, 129, 163, 57, 0, 56, 102, 102, 102, 63, 85, 51, 179, 63, 145, 153, 153, 63, 0, 0, 127, 0, 127, 0, 0, 129, 163, 57, 0, 56, 0, 0, 128, 191, 85, 51, 179, 63, 196, 204, 140, 63, 0, 0, 127, 0, 127, 0, 0, 129, 163, 57, 0, 56, 102, 102, 102, 191, 18, 51, 179, 191, 196, 204, 140, 63, 0, 0, 127, 0, 127, 0, 0, 129, 163, 57, 0, 56, 0, 0, 128, 191, 18, 51, 179, 191, 196, 204, 140, 63, 0, 0, 127, 0, 127, 0, 0, 129, 163, 57, 0, 56, 102, 102, 102, 191, 85, 51, 179, 63, 196, 204, 140, 63, 0, 0, 127, 0, 127, 0, 0, 129, 163, 57, 0, 56, 102, 102, 102, 63, 222, 255, 191, 191, 196, 204, 140, 63, 0, 0, 127, 0, 127, 0, 0, 129, 163, 57, 0, 56, 102, 102, 102, 191, 222, 255, 191, 191, 196, 204, 140, 63, 0, 0, 127, 0, 127, 0, 0, 129, 163, 57, 0, 56, 102, 102, 102, 63, 18, 51, 179, 191, 196, 204, 140, 63, 0, 0, 127, 0, 127, 0, 0, 129, 163, 57, 0, 56, 102, 102, 102, 191, 34, 0, 192, 63, 196, 204, 140, 63, 0, 0, 127, 0, 127, 0, 0, 129, 163, 57, 0, 56, 102, 102, 102, 63, 85, 51, 179, 63, 196, 204, 140, 63, 0, 0, 127, 0, 127, 0, 0, 129, 163, 57, 0, 56, 102, 102, 102, 63, 34, 0, 192, 63, 196, 204, 140, 63, 0, 0, 127, 0, 127, 0, 0, 129, 163, 57, 0, 56, 0, 0, 128, 63, 18, 51, 179, 191, 196, 204, 140, 63, 0, 0, 127, 0, 127, 0, 0, 129, 163, 57, 0, 56, 0, 0, 128, 63, 85, 51, 179, 63, 196, 204, 140, 63, 0, 0, 127, 0, 127, 0, 0, 129, 163, 57, 0, 56, 205, 204, 140, 191, 85, 51, 179, 63, 239, 255, 127, 63, 0, 0, 127, 0, 127, 0, 0, 129, 163, 57, 0, 56, 0, 0, 128, 191, 18, 51, 179, 191, 239, 255, 127, 63, 0, 0, 127, 0, 127, 0, 0, 129, 163, 57, 0, 56, 205, 204, 140, 191, 18, 51, 179, 191, 239, 255, 127, 63, 0, 0, 127, 0, 127, 0, 0, 129, 163, 57, 0, 56, 0, 0, 128, 191, 85, 51, 179, 63, 239, 255, 127, 63, 0, 0, 127, 0, 127, 0, 0, 129, 163, 57, 0, 56, 102, 102, 102, 191, 222, 255, 191, 191, 239, 255, 127, 63, 0, 0, 127, 0, 127, 0, 0, 129, 163, 57, 0, 56, 0, 0, 128, 191, 222, 255, 191, 191, 239, 255, 127, 63, 0, 0, 127, 0, 127, 0, 0, 129, 163, 57, 0, 56, 102, 102, 102, 191, 18, 51, 179, 191, 239, 255, 127, 63, 0, 0, 127, 0, 127, 0, 0, 129, 163, 57, 0, 56, 0, 0, 128, 191, 34, 0, 192, 63, 239, 255, 127, 63, 0, 0, 127, 0, 127, 0, 0, 129, 163, 57, 0, 56, 102, 102, 102, 191, 85, 51, 179, 63, 239, 255, 127, 63, 0, 0, 127, 0, 127, 0, 0, 129, 163, 57, 0, 56, 102, 102, 102, 191, 34, 0, 192, 63, 239, 255, 127, 63, 0, 0, 127, 0, 127, 0, 0, 129, 163, 57, 0, 56, 102, 102, 102, 63, 171, 204, 204, 191, 239, 255, 127, 63, 0, 0, 127, 0, 127, 0, 0, 129, 163, 57, 0, 56, 102, 102, 102, 191, 171, 204, 204, 191, 239, 255, 127, 63, 0, 0, 127, 0, 127, 0, 0, 129, 163, 57, 0, 56, 102, 102, 102, 63, 222, 255, 191, 191, 239, 255, 127, 63, 0, 0, 127, 0, 127, 0, 0, 129, 163, 57, 0, 56, 102, 102, 102, 191, 238, 204, 204, 63, 239, 255, 127, 63, 0, 0, 127, 0, 127, 0, 0, 129, 163, 57, 0, 56, 102, 102, 102, 63, 34, 0, 192, 63, 239, 255, 127, 63, 0, 0, 127, 0, 127, 0, 0, 129, 163, 57, 0, 56, 102, 102, 102, 63, 238, 204, 204, 63, 239, 255, 127, 63, 0, 0, 127, 0, 127, 0, 0, 129, 163, 57, 0, 56, 102, 102, 102, 63, 18, 51, 179, 191, 239, 255, 127, 63, 0, 0, 127, 0, 127, 0, 0, 129, 163, 57, 0, 56, 0, 0, 128, 63, 222, 255, 191, 191, 239, 255, 127, 63, 0, 0, 127, 0, 127, 0, 0, 129, 163, 57, 0, 56, 0, 0, 128, 63, 18, 51, 179, 191, 239, 255, 127, 63, 0, 0, 127, 0, 127, 0, 0, 129, 163, 57, 0, 56, 0, 0, 128, 63, 85, 51, 179, 63, 239, 255, 127, 63, 0, 0, 127, 0, 127, 0, 0, 129, 163, 57, 0, 56, 102, 102, 102, 63, 85, 51, 179, 63, 239, 255, 127, 63, 0, 0, 127, 0, 127, 0, 0, 129, 163, 57, 0, 56, 0, 0, 128, 63, 34, 0, 192, 63, 239, 255, 127, 63, 0, 0, 127, 0, 127, 0, 0, 129, 163, 57, 0, 56, 205, 204, 140, 63, 18, 51, 179, 191, 239, 255, 127, 63, 0, 0, 127, 0, 127, 0, 0, 129, 163, 57, 0, 56, 205, 204, 140, 63, 85, 51, 179, 63, 239, 255, 127, 63, 0, 0, 127, 0, 127, 0, 0, 129, 163, 57, 0, 56, 154, 153, 153, 191, 85, 51, 179, 63, 86, 102, 102, 63, 0, 0, 127, 0, 127, 0, 0, 129, 163, 57, 0, 56, 205, 204, 140, 191, 18, 51, 179, 191, 86, 102, 102, 63, 0, 0, 127, 0, 127, 0, 0, 129, 163, 57, 0, 56, 154, 153, 153, 191, 18, 51, 179, 191, 86, 102, 102, 63, 0, 0, 127, 0, 127, 0, 0, 129, 163, 57, 0, 56, 205, 204, 140, 191, 85, 51, 179, 63, 86, 102, 102, 63, 0, 0, 127, 0, 127, 0, 0, 129, 163, 57, 0, 56, 0, 0, 128, 191, 222, 255, 191, 191, 86, 102, 102, 63, 0, 0, 127, 0, 127, 0, 0, 129, 163, 57, 0, 56, 205, 204, 140, 191, 222, 255, 191, 191, 86, 102, 102, 63, 0, 0, 127, 0, 127, 0, 0, 129, 163, 57, 0, 56, 0, 0, 128, 191, 18, 51, 179, 191, 86, 102, 102, 63, 0, 0, 127, 0, 127, 0, 0, 129, 163, 57, 0, 56, 102, 102, 102, 191, 171, 204, 204, 191, 86, 102, 102, 63, 0, 0, 127, 0, 127, 0, 0, 129, 163, 57, 0, 56, 0, 0, 128, 191, 171, 204, 204, 191, 86, 102, 102, 63, 0, 0, 127, 0, 127, 0, 0, 129, 163, 57, 0, 56, 102, 102, 102, 191, 222, 255, 191, 191, 86, 102, 102, 63, 0, 0, 127, 0, 127, 0, 0, 129, 163, 57, 0, 56, 0, 0, 128, 191, 238, 204, 204, 63, 86, 102, 102, 63, 0, 0, 127, 0, 127, 0, 0, 129, 163, 57, 0, 56, 102, 102, 102, 191, 34, 0, 192, 63, 86, 102, 102, 63, 0, 0, 127, 0, 127, 0, 0, 129, 163, 57, 0, 56, 102, 102, 102, 191, 238, 204, 204, 63, 86, 102, 102, 63, 0, 0, 127, 0, 127, 0, 0, 129, 163, 57, 0, 56, 102, 102, 102, 63, 120, 153, 217, 191, 86, 102, 102, 63, 0, 0, 127, 0, 127, 0, 0, 129, 163, 57, 0, 56, 102, 102, 102, 191, 120, 153, 217, 191, 86, 102, 102, 63, 0, 0, 127, 0, 127, 0, 0, 129, 163, 57, 0, 56, 102, 102, 102, 63, 171, 204, 204, 191, 86, 102, 102, 63, 0, 0, 127, 0, 127, 0, 0, 129, 163, 57, 0, 56, 102, 102, 102, 191, 187, 153, 217, 63, 86, 102, 102, 63, 0, 0, 127, 0, 127, 0, 0, 129, 163, 57, 0, 56, 102, 102, 102, 63, 238, 204, 204, 63, 86, 102, 102, 63, 0, 0, 127, 0, 127, 0, 0, 129, 163, 57, 0, 56, 102, 102, 102, 63, 187, 153, 217, 63, 86, 102, 102, 63, 0, 0, 127, 0, 127, 0, 0, 129, 163, 57, 0, 56, 102, 102, 102, 63, 222, 255, 191, 191, 86, 102, 102, 63, 0, 0, 127, 0, 127, 0, 0, 129, 163, 57, 0, 56, 0, 0, 128, 63, 171, 204, 204, 191, 86, 102, 102, 63, 0, 0, 127, 0, 127, 0, 0, 129, 163, 57, 0, 56, 0, 0, 128, 63, 222, 255, 191, 191, 86, 102, 102, 63, 0, 0, 127, 0, 127, 0, 0, 129, 163, 57, 0, 56, 102, 102, 102, 63, 34, 0, 192, 63, 86, 102, 102, 63, 0, 0, 127, 0, 127, 0, 0, 129, 163, 57, 0, 56, 0, 0, 128, 63, 238, 204, 204, 63, 86, 102, 102, 63, 0, 0, 127, 0, 127, 0, 0, 129, 163, 57, 0, 56, 0, 0, 128, 63, 18, 51, 179, 191, 86, 102, 102, 63, 0, 0, 127, 0, 127, 0, 0, 129, 163, 57, 0, 56, 205, 204, 140, 63, 222, 255, 191, 191, 86, 102, 102, 63, 0, 0, 127, 0, 127, 0, 0, 129, 163, 57, 0, 56, 205, 204, 140, 63, 18, 51, 179, 191, 86, 102, 102, 63, 0, 0, 127, 0, 127, 0, 0, 129, 163, 57, 0, 56, 0, 0, 128, 63, 85, 51, 179, 63, 86, 102, 102, 63, 0, 0, 127, 0, 127, 0, 0, 129, 163, 57, 0, 56, 154, 153, 153, 63, 18, 51, 179, 191, 86, 102, 102, 63, 0, 0, 127, 0, 127, 0, 0, 129, 163, 57, 0, 56, 154, 153, 153, 63, 85, 51, 179, 63, 86, 102, 102, 63, 0, 0, 127, 0, 127, 0, 0, 129, 163, 57, 0, 56, 154, 153, 153, 191, 85, 51, 179, 63, 119, 102, 102, 191, 0, 0, 129, 0, 127, 0, 0, 127, 163, 57, 0, 56, 154, 153, 153, 191, 18, 51, 179, 191, 119, 102, 102, 191, 0, 0, 129, 0, 127, 0, 0, 127, 163, 57, 0, 56, 205, 204, 140, 191, 18, 51, 179, 191, 119, 102, 102, 191, 0, 0, 129, 0, 127, 0, 0, 127, 163, 57, 0, 56, 205, 204, 140, 191, 85, 51, 179, 63, 119, 102, 102, 191, 0, 0, 129, 0, 127, 0, 0, 127, 163, 57, 0, 56, 205, 204, 140, 191, 222, 255, 191, 191, 119, 102, 102, 191, 0, 0, 129, 0, 127, 0, 0, 127, 163, 57, 0, 56, 0, 0, 128, 191, 222, 255, 191, 191, 119, 102, 102, 191, 0, 0, 129, 0, 127, 0, 0, 127, 163, 57, 0, 56, 0, 0, 128, 191, 18, 51, 179, 191, 119, 102, 102, 191, 0, 0, 129, 0, 127, 0, 0, 127, 163, 57, 0, 56, 205, 204, 140, 191, 34, 0, 192, 63, 119, 102, 102, 191, 0, 0, 129, 0, 127, 0, 0, 127, 163, 57, 0, 56, 0, 0, 128, 191, 85, 51, 179, 63, 119, 102, 102, 191, 0, 0, 129, 0, 127, 0, 0, 127, 163, 57, 0, 56, 0, 0, 128, 191, 34, 0, 192, 63, 119, 102, 102, 191, 0, 0, 129, 0, 127, 0, 0, 127, 163, 57, 0, 56, 0, 0, 128, 191, 171, 204, 204, 191, 119, 102, 102, 191, 0, 0, 129, 0, 127, 0, 0, 127, 163, 57, 0, 56, 102, 102, 102, 191, 171, 204, 204, 191, 119, 102, 102, 191, 0, 0, 129, 0, 127, 0, 0, 127, 163, 57, 0, 56, 102, 102, 102, 191, 222, 255, 191, 191, 119, 102, 102, 191, 0, 0, 129, 0, 127, 0, 0, 127, 163, 57, 0, 56, 0, 0, 128, 191, 238, 204, 204, 63, 119, 102, 102, 191, 0, 0, 129, 0, 127, 0, 0, 127, 163, 57, 0, 56, 102, 102, 102, 191, 34, 0, 192, 63, 119, 102, 102, 191, 0, 0, 129, 0, 127, 0, 0, 127, 163, 57, 0, 56, 102, 102, 102, 191, 238, 204, 204, 63, 119, 102, 102, 191, 0, 0, 129, 0, 127, 0, 0, 127, 163, 57, 0, 56, 102, 102, 102, 191, 120, 153, 217, 191, 119, 102, 102, 191, 0, 0, 129, 0, 127, 0, 0, 127, 163, 57, 0, 56, 102, 102, 102, 63, 120, 153, 217, 191, 119, 102, 102, 191, 0, 0, 129, 0, 127, 0, 0, 127, 163, 57, 0, 56, 102, 102, 102, 63, 171, 204, 204, 191, 119, 102, 102, 191, 0, 0, 129, 0, 127, 0, 0, 127, 163, 57, 0, 56, 102, 102, 102, 191, 187, 153, 217, 63, 119, 102, 102, 191, 0, 0, 129, 0, 127, 0, 0, 127, 163, 57, 0, 56, 102, 102, 102, 63, 238, 204, 204, 63, 119, 102, 102, 191, 0, 0, 129, 0, 127, 0, 0, 127, 163, 57, 0, 56, 102, 102, 102, 63, 187, 153, 217, 63, 119, 102, 102, 191, 0, 0, 129, 0, 127, 0, 0, 127, 163, 57, 0, 56, 102, 102, 102, 63, 222, 255, 191, 191, 119, 102, 102, 191, 0, 0, 129, 0, 127, 0, 0, 127, 163, 57, 0, 56, 0, 0, 128, 63, 171, 204, 204, 191, 119, 102, 102, 191, 0, 0, 129, 0, 127, 0, 0, 127, 163, 57, 0, 56, 0, 0, 128, 63, 222, 255, 191, 191, 119, 102, 102, 191, 0, 0, 129, 0, 127, 0, 0, 127, 163, 57, 0, 56, 102, 102, 102, 63, 34, 0, 192, 63, 119, 102, 102, 191, 0, 0, 129, 0, 127, 0, 0, 127, 163, 57, 0, 56, 0, 0, 128, 63, 34, 0, 192, 63, 119, 102, 102, 191, 0, 0, 129, 0, 127, 0, 0, 127, 163, 57, 0, 56, 0, 0, 128, 63, 238, 204, 204, 63, 119, 102, 102, 191, 0, 0, 129, 0, 127, 0, 0, 127, 163, 57, 0, 56, 0, 0, 128, 63, 18, 51, 179, 191, 119, 102, 102, 191, 0, 0, 129, 0, 127, 0, 0, 127, 163, 57, 0, 56, 205, 204, 140, 63, 222, 255, 191, 191, 119, 102, 102, 191, 0, 0, 129, 0, 127, 0, 0, 127, 163, 57, 0, 56, 205, 204, 140, 63, 18, 51, 179, 191, 119, 102, 102, 191, 0, 0, 129, 0, 127, 0, 0, 127, 163, 57, 0, 56, 0, 0, 128, 63, 85, 51, 179, 63, 119, 102, 102, 191, 0, 0, 129, 0, 127, 0, 0, 127, 163, 57, 0, 56, 205, 204, 140, 63, 85, 51, 179, 63, 119, 102, 102, 191, 0, 0, 129, 0, 127, 0, 0, 127, 163, 57, 0, 56, 205, 204, 140, 63, 34, 0, 192, 63, 119, 102, 102, 191, 0, 0, 129, 0, 127, 0, 0, 127, 163, 57, 0, 56, 154, 153, 153, 63, 18, 51, 179, 191, 119, 102, 102, 191, 0, 0, 129, 0, 127, 0, 0, 127, 163, 57, 0, 56, 154, 153, 153, 63, 85, 51, 179, 63, 119, 102, 102, 191, 0, 0, 129, 0, 127, 0, 0, 127, 163, 57, 0, 56, 205, 204, 140, 191, 85, 51, 179, 63, 8, 0, 128, 191, 0, 0, 129, 0, 127, 0, 0, 127, 163, 57, 0, 56, 205, 204, 140, 191, 18, 51, 179, 191, 8, 0, 128, 191, 0, 0, 129, 0, 127, 0, 0, 127, 163, 57, 0, 56, 0, 0, 128, 191, 18, 51, 179, 191, 8, 0, 128, 191, 0, 0, 129, 0, 127, 0, 0, 127, 163, 57, 0, 56, 0, 0, 128, 191, 85, 51, 179, 63, 8, 0, 128, 191, 0, 0, 129, 0, 127, 0, 0, 127, 163, 57, 0, 56, 0, 0, 128, 191, 222, 255, 191, 191, 8, 0, 128, 191, 0, 0, 129, 0, 127, 0, 0, 127, 163, 57, 0, 56, 102, 102, 102, 191, 222, 255, 191, 191, 8, 0, 128, 191, 0, 0, 129, 0, 127, 0, 0, 127, 163, 57, 0, 56, 102, 102, 102, 191, 18, 51, 179, 191, 8, 0, 128, 191, 0, 0, 129, 0, 127, 0, 0, 127, 163, 57, 0, 56, 0, 0, 128, 191, 34, 0, 192, 63, 8, 0, 128, 191, 0, 0, 129, 0, 127, 0, 0, 127, 163, 57, 0, 56, 102, 102, 102, 191, 85, 51, 179, 63, 8, 0, 128, 191, 0, 0, 129, 0, 127, 0, 0, 127, 163, 57, 0, 56, 102, 102, 102, 191, 34, 0, 192, 63, 8, 0, 128, 191, 0, 0, 129, 0, 127, 0, 0, 127, 163, 57, 0, 56, 102, 102, 102, 191, 171, 204, 204, 191, 8, 0, 128, 191, 0, 0, 129, 0, 127, 0, 0, 127, 163, 57, 0, 56, 102, 102, 102, 63, 171, 204, 204, 191, 8, 0, 128, 191, 0, 0, 129, 0, 127, 0, 0, 127, 163, 57, 0, 56, 102, 102, 102, 63, 222, 255, 191, 191, 8, 0, 128, 191, 0, 0, 129, 0, 127, 0, 0, 127, 163, 57, 0, 56, 102, 102, 102, 191, 238, 204, 204, 63, 8, 0, 128, 191, 0, 0, 129, 0, 127, 0, 0, 127, 163, 57, 0, 56, 102, 102, 102, 63, 34, 0, 192, 63, 8, 0, 128, 191, 0, 0, 129, 0, 127, 0, 0, 127, 163, 57, 0, 56, 102, 102, 102, 63, 238, 204, 204, 63, 8, 0, 128, 191, 0, 0, 129, 0, 127, 0, 0, 127, 163, 57, 0, 56, 102, 102, 102, 63, 18, 51, 179, 191, 8, 0, 128, 191, 0, 0, 129, 0, 127, 0, 0, 127, 163, 57, 0, 56, 0, 0, 128, 63, 222, 255, 191, 191, 8, 0, 128, 191, 0, 0, 129, 0, 127, 0, 0, 127, 163, 57, 0, 56, 0, 0, 128, 63, 18, 51, 179, 191, 8, 0, 128, 191, 0, 0, 129, 0, 127, 0, 0, 127, 163, 57, 0, 56, 102, 102, 102, 63, 85, 51, 179, 63, 8, 0, 128, 191, 0, 0, 129, 0, 127, 0, 0, 127, 163, 57, 0, 56, 0, 0, 128, 63, 85, 51, 179, 63, 8, 0, 128, 191, 0, 0, 129, 0, 127, 0, 0, 127, 163, 57, 0, 56, 0, 0, 128, 63, 34, 0, 192, 63, 8, 0, 128, 191, 0, 0, 129, 0, 127, 0, 0, 127, 163, 57, 0, 56, 205, 204, 140, 63, 18, 51, 179, 191, 8, 0, 128, 191, 0, 0, 129, 0, 127, 0, 0, 127, 163, 57, 0, 56, 205, 204, 140, 63, 85, 51, 179, 63, 8, 0, 128, 191, 0, 0, 129, 0, 127, 0, 0, 127, 163, 57, 0, 56, 0, 0, 128, 191, 85, 51, 179, 63, 213, 204, 140, 191, 0, 0, 129, 0, 127, 0, 0, 127, 163, 57, 0, 56, 0, 0, 128, 191, 18, 51, 179, 191, 213, 204, 140, 191, 0, 0, 129, 0, 127, 0, 0, 127, 163, 57, 0, 56, 102, 102, 102, 191, 18, 51, 179, 191, 213, 204, 140, 191, 0, 0, 129, 0, 127, 0, 0, 127, 163, 57, 0, 56, 102, 102, 102, 191, 85, 51, 179, 63, 213, 204, 140, 191, 0, 0, 129, 0, 127, 0, 0, 127, 163, 57, 0, 56, 102, 102, 102, 191, 222, 255, 191, 191, 213, 204, 140, 191, 0, 0, 129, 0, 127, 0, 0, 127, 163, 57, 0, 56, 102, 102, 102, 63, 222, 255, 191, 191, 213, 204, 140, 191, 0, 0, 129, 0, 127, 0, 0, 127, 163, 57, 0, 56, 102, 102, 102, 63, 18, 51, 179, 191, 213, 204, 140, 191, 0, 0, 129, 0, 127, 0, 0, 127, 163, 57, 0, 56, 102, 102, 102, 191, 34, 0, 192, 63, 213, 204, 140, 191, 0, 0, 129, 0, 127, 0, 0, 127, 163, 57, 0, 56, 102, 102, 102, 63, 85, 51, 179, 63, 213, 204, 140, 191, 0, 0, 129, 0, 127, 0, 0, 127, 163, 57, 0, 56, 102, 102, 102, 63, 34, 0, 192, 63, 213, 204, 140, 191, 0, 0, 129, 0, 127, 0, 0, 127, 163, 57, 0, 56, 0, 0, 128, 63, 18, 51, 179, 191, 213, 204, 140, 191, 0, 0, 129, 0, 127, 0, 0, 127, 163, 57, 0, 56, 0, 0, 128, 63, 85, 51, 179, 63, 213, 204, 140, 191, 0, 0, 129, 0, 127, 0, 0, 127, 163, 57, 0, 56, 102, 102, 102, 191, 85, 51, 179, 63, 162, 153, 153, 191, 0, 0, 129, 0, 127, 0, 0, 127, 163, 57, 0, 56, 102, 102, 102, 191, 18, 51, 179, 191, 162, 153, 153, 191, 0, 0, 129, 0, 127, 0, 0, 127, 163, 57, 0, 56, 102, 102, 102, 63, 18, 51, 179, 191, 162, 153, 153, 191, 0, 0, 129, 0, 127, 0, 0, 127, 163, 57, 0, 56, 102, 102, 102, 63, 85, 51, 179, 63, 162, 153, 153, 191, 0, 0, 129, 0, 127, 0, 0, 127, 163, 57, 0, 56, 102, 102, 102, 63, 171, 204, 204, 191, 239, 255, 127, 63, 0, 129, 0, 0, 127, 0, 0, 127, 163, 57, 0, 56, 102, 102, 102, 191, 171, 204, 204, 191, 86, 102, 102, 63, 0, 129, 0, 0, 127, 0, 0, 127, 163, 57, 0, 56, 102, 102, 102, 191, 171, 204, 204, 191, 239, 255, 127, 63, 0, 129, 0, 0, 127, 0, 0, 127, 163, 57, 0, 56, 102, 102, 102, 63, 171, 204, 204, 191, 86, 102, 102, 63, 0, 129, 0, 0, 127, 0, 0, 127, 163, 57, 0, 56, 0, 0, 128, 191, 171, 204, 204, 191, 119, 102, 102, 191, 0, 129, 0, 0, 127, 0, 0, 127, 163, 57, 0, 56, 0, 0, 128, 191, 171, 204, 204, 191, 86, 102, 102, 63, 0, 129, 0, 0, 127, 0, 0, 127, 163, 57, 0, 56, 102, 102, 102, 191, 171, 204, 204, 191, 119, 102, 102, 191, 0, 129, 0, 0, 127, 0, 0, 127, 163, 57, 0, 56, 0, 0, 128, 63, 171, 204, 204, 191, 86, 102, 102, 63, 0, 129, 0, 0, 127, 0, 0, 127, 163, 57, 0, 56, 102, 102, 102, 63, 171, 204, 204, 191, 119, 102, 102, 191, 0, 129, 0, 0, 127, 0, 0, 127, 163, 57, 0, 56, 0, 0, 128, 63, 171, 204, 204, 191, 119, 102, 102, 191, 0, 129, 0, 0, 127, 0, 0, 127, 163, 57, 0, 56, 102, 102, 102, 191, 171, 204, 204, 191, 8, 0, 128, 191, 0, 129, 0, 0, 127, 0, 0, 127, 163, 57, 0, 56, 102, 102, 102, 63, 171, 204, 204, 191, 8, 0, 128, 191, 0, 129, 0, 0, 127, 0, 0, 127, 163, 57, 0, 56, 102, 102, 102, 63, 222, 255, 191, 191, 196, 204, 140, 63, 0, 129, 0, 0, 127, 0, 0, 127, 163, 57, 0, 56, 102, 102, 102, 191, 222, 255, 191, 191, 239, 255, 127, 63, 0, 129, 0, 0, 127, 0, 0, 127, 163, 57, 0, 56, 102, 102, 102, 191, 222, 255, 191, 191, 196, 204, 140, 63, 0, 129, 0, 0, 127, 0, 0, 127, 163, 57, 0, 56, 102, 102, 102, 63, 222, 255, 191, 191, 239, 255, 127, 63, 0, 129, 0, 0, 127, 0, 0, 127, 163, 57, 0, 56, 0, 0, 128, 191, 222, 255, 191, 191, 86, 102, 102, 63, 0, 129, 0, 0, 127, 0, 0, 127, 163, 57, 0, 56, 0, 0, 128, 191, 222, 255, 191, 191, 239, 255, 127, 63, 0, 129, 0, 0, 127, 0, 0, 127, 163, 57, 0, 56, 102, 102, 102, 191, 222, 255, 191, 191, 86, 102, 102, 63, 0, 129, 0, 0, 127, 0, 0, 127, 163, 57, 0, 56, 0, 0, 128, 63, 222, 255, 191, 191, 239, 255, 127, 63, 0, 129, 0, 0, 127, 0, 0, 127, 163, 57, 0, 56, 102, 102, 102, 63, 222, 255, 191, 191, 86, 102, 102, 63, 0, 129, 0, 0, 127, 0, 0, 127, 163, 57, 0, 56, 0, 0, 128, 63, 222, 255, 191, 191, 86, 102, 102, 63, 0, 129, 0, 0, 127, 0, 0, 127, 163, 57, 0, 56, 205, 204, 140, 191, 222, 255, 191, 191, 119, 102, 102, 191, 0, 129, 0, 0, 127, 0, 0, 127, 163, 57, 0, 56, 205, 204, 140, 191, 222, 255, 191, 191, 86, 102, 102, 63, 0, 129, 0, 0, 127, 0, 0, 127, 163, 57, 0, 56, 0, 0, 128, 191, 222, 255, 191, 191, 119, 102, 102, 191, 0, 129, 0, 0, 127, 0, 0, 127, 163, 57, 0, 56, 205, 204, 140, 63, 222, 255, 191, 191, 86, 102, 102, 63, 0, 129, 0, 0, 127, 0, 0, 127, 163, 57, 0, 56, 0, 0, 128, 63, 222, 255, 191, 191, 119, 102, 102, 191, 0, 129, 0, 0, 127, 0, 0, 127, 163, 57, 0, 56, 205, 204, 140, 63, 222, 255, 191, 191, 119, 102, 102, 191, 0, 129, 0, 0, 127, 0, 0, 127, 163, 57, 0, 56, 102, 102, 102, 191, 222, 255, 191, 191, 119, 102, 102, 191, 0, 129, 0, 0, 127, 0, 0, 127, 163, 57, 0, 56, 0, 0, 128, 191, 222, 255, 191, 191, 8, 0, 128, 191, 0, 129, 0, 0, 127, 0, 0, 127, 163, 57, 0, 56, 102, 102, 102, 191, 222, 255, 191, 191, 8, 0, 128, 191, 0, 129, 0, 0, 127, 0, 0, 127, 163, 57, 0, 56, 102, 102, 102, 63, 222, 255, 191, 191, 8, 0, 128, 191, 0, 129, 0, 0, 127, 0, 0, 127, 163, 57, 0, 56, 102, 102, 102, 63, 222, 255, 191, 191, 119, 102, 102, 191, 0, 129, 0, 0, 127, 0, 0, 127, 163, 57, 0, 56, 0, 0, 128, 63, 222, 255, 191, 191, 8, 0, 128, 191, 0, 129, 0, 0, 127, 0, 0, 127, 163, 57, 0, 56, 102, 102, 102, 191, 222, 255, 191, 191, 213, 204, 140, 191, 0, 129, 0, 0, 127, 0, 0, 127, 163, 57, 0, 56, 102, 102, 102, 63, 222, 255, 191, 191, 213, 204, 140, 191, 0, 129, 0, 0, 127, 0, 0, 127, 163, 57, 0, 56, 102, 102, 102, 63, 18, 51, 179, 191, 145, 153, 153, 63, 0, 129, 0, 0, 127, 0, 0, 127, 163, 57, 0, 56, 102, 102, 102, 191, 18, 51, 179, 191, 196, 204, 140, 63, 0, 129, 0, 0, 127, 0, 0, 127, 163, 57, 0, 56, 102, 102, 102, 191, 18, 51, 179, 191, 145, 153, 153, 63, 0, 129, 0, 0, 127, 0, 0, 127, 163, 57, 0, 56, 102, 102, 102, 63, 18, 51, 179, 191, 196, 204, 140, 63, 0, 129, 0, 0, 127, 0, 0, 127, 163, 57, 0, 56, 0, 0, 128, 191, 18, 51, 179, 191, 239, 255, 127, 63, 0, 129, 0, 0, 127, 0, 0, 127, 163, 57, 0, 56, 0, 0, 128, 191, 18, 51, 179, 191, 196, 204, 140, 63, 0, 129, 0, 0, 127, 0, 0, 127, 163, 57, 0, 56, 102, 102, 102, 191, 18, 51, 179, 191, 239, 255, 127, 63, 0, 129, 0, 0, 127, 0, 0, 127, 163, 57, 0, 56, 0, 0, 128, 63, 18, 51, 179, 191, 196, 204, 140, 63, 0, 129, 0, 0, 127, 0, 0, 127, 163, 57, 0, 56, 102, 102, 102, 63, 18, 51, 179, 191, 239, 255, 127, 63, 0, 129, 0, 0, 127, 0, 0, 127, 163, 57, 0, 56, 0, 0, 128, 63, 18, 51, 179, 191, 239, 255, 127, 63, 0, 129, 0, 0, 127, 0, 0, 127, 163, 57, 0, 56, 205, 204, 140, 191, 18, 51, 179, 191, 86, 102, 102, 63, 0, 129, 0, 0, 127, 0, 0, 127, 163, 57, 0, 56, 205, 204, 140, 191, 18, 51, 179, 191, 239, 255, 127, 63, 0, 129, 0, 0, 127, 0, 0, 127, 163, 57, 0, 56, 0, 0, 128, 191, 18, 51, 179, 191, 86, 102, 102, 63, 0, 129, 0, 0, 127, 0, 0, 127, 163, 57, 0, 56, 154, 153, 153, 191, 18, 51, 179, 191, 119, 102, 102, 191, 0, 129, 0, 0, 127, 0, 0, 127, 163, 57, 0, 56, 154, 153, 153, 191, 18, 51, 179, 191, 86, 102, 102, 63, 0, 129, 0, 0, 127, 0, 0, 127, 163, 57, 0, 56, 205, 204, 140, 191, 18, 51, 179, 191, 119, 102, 102, 191, 0, 129, 0, 0, 127, 0, 0, 127, 163, 57, 0, 56, 154, 153, 153, 63, 18, 51, 179, 191, 86, 102, 102, 63, 0, 129, 0, 0, 127, 0, 0, 127, 163, 57, 0, 56, 205, 204, 140, 63, 18, 51, 179, 191, 119, 102, 102, 191, 0, 129, 0, 0, 127, 0, 0, 127, 163, 57, 0, 56, 154, 153, 153, 63, 18, 51, 179, 191, 119, 102, 102, 191, 0, 129, 0, 0, 127, 0, 0, 127, 163, 57, 0, 56, 0, 0, 128, 191, 18, 51, 179, 191, 119, 102, 102, 191, 0, 129, 0, 0, 127, 0, 0, 127, 163, 57, 0, 56, 205, 204, 140, 191, 18, 51, 179, 191, 8, 0, 128, 191, 0, 129, 0, 0, 127, 0, 0, 127, 163, 57, 0, 56, 0, 0, 128, 191, 18, 51, 179, 191, 8, 0, 128, 191, 0, 129, 0, 0, 127, 0, 0, 127, 163, 57, 0, 56, 0, 0, 128, 63, 18, 51, 179, 191, 8, 0, 128, 191, 0, 129, 0, 0, 127, 0, 0, 127, 163, 57, 0, 56, 0, 0, 128, 63, 18, 51, 179, 191, 119, 102, 102, 191, 0, 129, 0, 0, 127, 0, 0, 127, 163, 57, 0, 56, 205, 204, 140, 63, 18, 51, 179, 191, 8, 0, 128, 191, 0, 129, 0, 0, 127, 0, 0, 127, 163, 57, 0, 56, 102, 102, 102, 191, 18, 51, 179, 191, 8, 0, 128, 191, 0, 129, 0, 0, 127, 0, 0, 127, 163, 57, 0, 56, 0, 0, 128, 191, 18, 51, 179, 191, 213, 204, 140, 191, 0, 129, 0, 0, 127, 0, 0, 127, 163, 57, 0, 56, 102, 102, 102, 191, 18, 51, 179, 191, 213, 204, 140, 191, 0, 129, 0, 0, 127, 0, 0, 127, 163, 57, 0, 56, 102, 102, 102, 63, 18, 51, 179, 191, 213, 204, 140, 191, 0, 129, 0, 0, 127, 0, 0, 127, 163, 57, 0, 56, 102, 102, 102, 63, 18, 51, 179, 191, 8, 0, 128, 191, 0, 129, 0, 0, 127, 0, 0, 127, 163, 57, 0, 56, 0, 0, 128, 63, 18, 51, 179, 191, 213, 204, 140, 191, 0, 129, 0, 0, 127, 0, 0, 127, 163, 57, 0, 56, 102, 102, 102, 191, 18, 51, 179, 191, 162, 153, 153, 191, 0, 129, 0, 0, 127, 0, 0, 127, 163, 57, 0, 56, 102, 102, 102, 63, 18, 51, 179, 191, 162, 153, 153, 191, 0, 129, 0, 0, 127, 0, 0, 127, 163, 57, 0, 56, 102, 102, 102, 63, 85, 51, 179, 63, 145, 153, 153, 63, 0, 127, 0, 0, 127, 0, 0, 127, 163, 57, 0, 56, 102, 102, 102, 191, 85, 51, 179, 63, 145, 153, 153, 63, 0, 127, 0, 0, 127, 0, 0, 127, 163, 57, 0, 56, 102, 102, 102, 191, 85, 51, 179, 63, 196, 204, 140, 63, 0, 127, 0, 0, 127, 0, 0, 127, 163, 57, 0, 56, 102, 102, 102, 63, 85, 51, 179, 63, 196, 204, 140, 63, 0, 127, 0, 0, 127, 0, 0, 127, 163, 57, 0, 56, 0, 0, 128, 191, 85, 51, 179, 63, 196, 204, 140, 63, 0, 127, 0, 0, 127, 0, 0, 127, 163, 57, 0, 56, 0, 0, 128, 191, 85, 51, 179, 63, 239, 255, 127, 63, 0, 127, 0, 0, 127, 0, 0, 127, 163, 57, 0, 56, 102, 102, 102, 191, 85, 51, 179, 63, 239, 255, 127, 63, 0, 127, 0, 0, 127, 0, 0, 127, 163, 57, 0, 56, 0, 0, 128, 63, 85, 51, 179, 63, 196, 204, 140, 63, 0, 127, 0, 0, 127, 0, 0, 127, 163, 57, 0, 56, 102, 102, 102, 63, 85, 51, 179, 63, 239, 255, 127, 63, 0, 127, 0, 0, 127, 0, 0, 127, 163, 57, 0, 56, 0, 0, 128, 63, 85, 51, 179, 63, 239, 255, 127, 63, 0, 127, 0, 0, 127, 0, 0, 127, 163, 57, 0, 56, 205, 204, 140, 191, 85, 51, 179, 63, 239, 255, 127, 63, 0, 127, 0, 0, 127, 0, 0, 127, 163, 57, 0, 56, 205, 204, 140, 191, 85, 51, 179, 63, 86, 102, 102, 63, 0, 127, 0, 0, 127, 0, 0, 127, 163, 57, 0, 56, 0, 0, 128, 191, 85, 51, 179, 63, 86, 102, 102, 63, 0, 127, 0, 0, 127, 0, 0, 127, 163, 57, 0, 56, 205, 204, 140, 63, 85, 51, 179, 63, 239, 255, 127, 63, 0, 127, 0, 0, 127, 0, 0, 127, 163, 57, 0, 56, 0, 0, 128, 63, 85, 51, 179, 63, 86, 102, 102, 63, 0, 127, 0, 0, 127, 0, 0, 127, 163, 57, 0, 56, 205, 204, 140, 63, 85, 51, 179, 63, 86, 102, 102, 63, 0, 127, 0, 0, 127, 0, 0, 127, 163, 57, 0, 56, 154, 153, 153, 191, 85, 51, 179, 63, 86, 102, 102, 63, 0, 127, 0, 0, 127, 0, 0, 127, 163, 57, 0, 56, 154, 153, 153, 191, 85, 51, 179, 63, 119, 102, 102, 191, 0, 127, 0, 0, 127, 0, 0, 127, 163, 57, 0, 56, 205, 204, 140, 191, 85, 51, 179, 63, 119, 102, 102, 191, 0, 127, 0, 0, 127, 0, 0, 127, 163, 57, 0, 56, 154, 153, 153, 63, 85, 51, 179, 63, 86, 102, 102, 63, 0, 127, 0, 0, 127, 0, 0, 127, 163, 57, 0, 56, 205, 204, 140, 63, 85, 51, 179, 63, 119, 102, 102, 191, 0, 127, 0, 0, 127, 0, 0, 127, 163, 57, 0, 56, 154, 153, 153, 63, 85, 51, 179, 63, 119, 102, 102, 191, 0, 127, 0, 0, 127, 0, 0, 127, 163, 57, 0, 56, 0, 0, 128, 191, 85, 51, 179, 63, 119, 102, 102, 191, 0, 127, 0, 0, 127, 0, 0, 127, 163, 57, 0, 56, 205, 204, 140, 191, 85, 51, 179, 63, 8, 0, 128, 191, 0, 127, 0, 0, 127, 0, 0, 127, 163, 57, 0, 56, 0, 0, 128, 191, 85, 51, 179, 63, 8, 0, 128, 191, 0, 127, 0, 0, 127, 0, 0, 127, 163, 57, 0, 56, 0, 0, 128, 63, 85, 51, 179, 63, 119, 102, 102, 191, 0, 127, 0, 0, 127, 0, 0, 127, 163, 57, 0, 56, 0, 0, 128, 63, 85, 51, 179, 63, 8, 0, 128, 191, 0, 127, 0, 0, 127, 0, 0, 127, 163, 57, 0, 56, 205, 204, 140, 63, 85, 51, 179, 63, 8, 0, 128, 191, 0, 127, 0, 0, 127, 0, 0, 127, 163, 57, 0, 56, 102, 102, 102, 191, 85, 51, 179, 63, 8, 0, 128, 191, 0, 127, 0, 0, 127, 0, 0, 127, 163, 57, 0, 56, 0, 0, 128, 191, 85, 51, 179, 63, 213, 204, 140, 191, 0, 127, 0, 0, 127, 0, 0, 127, 163, 57, 0, 56, 102, 102, 102, 191, 85, 51, 179, 63, 213, 204, 140, 191, 0, 127, 0, 0, 127, 0, 0, 127, 163, 57, 0, 56, 102, 102, 102, 63, 85, 51, 179, 63, 8, 0, 128, 191, 0, 127, 0, 0, 127, 0, 0, 127, 163, 57, 0, 56, 102, 102, 102, 63, 85, 51, 179, 63, 213, 204, 140, 191, 0, 127, 0, 0, 127, 0, 0, 127, 163, 57, 0, 56, 0, 0, 128, 63, 85, 51, 179, 63, 213, 204, 140, 191, 0, 127, 0, 0, 127, 0, 0, 127, 163, 57, 0, 56, 102, 102, 102, 191, 85, 51, 179, 63, 162, 153, 153, 191, 0, 127, 0, 0, 127, 0, 0, 127, 163, 57, 0, 56, 102, 102, 102, 63, 85, 51, 179, 63, 162, 153, 153, 191, 0, 127, 0, 0, 127, 0, 0, 127, 163, 57, 0, 56, 102, 102, 102, 63, 34, 0, 192, 63, 196, 204, 140, 63, 0, 127, 0, 0, 127, 0, 0, 127, 163, 57, 0, 56, 102, 102, 102, 191, 34, 0, 192, 63, 196, 204, 140, 63, 0, 127, 0, 0, 127, 0, 0, 127, 163, 57, 0, 56, 102, 102, 102, 191, 34, 0, 192, 63, 239, 255, 127, 63, 0, 127, 0, 0, 127, 0, 0, 127, 163, 57, 0, 56, 102, 102, 102, 63, 34, 0, 192, 63, 239, 255, 127, 63, 0, 127, 0, 0, 127, 0, 0, 127, 163, 57, 0, 56, 0, 0, 128, 191, 34, 0, 192, 63, 239, 255, 127, 63, 0, 127, 0, 0, 127, 0, 0, 127, 163, 57, 0, 56, 0, 0, 128, 191, 34, 0, 192, 63, 86, 102, 102, 63, 0, 127, 0, 0, 127, 0, 0, 127, 163, 57, 0, 56, 102, 102, 102, 191, 34, 0, 192, 63, 86, 102, 102, 63, 0, 127, 0, 0, 127, 0, 0, 127, 163, 57, 0, 56, 0, 0, 128, 63, 34, 0, 192, 63, 239, 255, 127, 63, 0, 127, 0, 0, 127, 0, 0, 127, 163, 57, 0, 56, 102, 102, 102, 63, 34, 0, 192, 63, 86, 102, 102, 63, 0, 127, 0, 0, 127, 0, 0, 127, 163, 57, 0, 56, 0, 0, 128, 63, 34, 0, 192, 63, 86, 102, 102, 63, 0, 127, 0, 0, 127, 0, 0, 127, 163, 57, 0, 56, 205, 204, 140, 191, 34, 0, 192, 63, 86, 102, 102, 63, 0, 127, 0, 0, 127, 0, 0, 127, 163, 57, 0, 56, 205, 204, 140, 191, 34, 0, 192, 63, 119, 102, 102, 191, 0, 127, 0, 0, 127, 0, 0, 127, 163, 57, 0, 56, 0, 0, 128, 191, 34, 0, 192, 63, 119, 102, 102, 191, 0, 127, 0, 0, 127, 0, 0, 127, 163, 57, 0, 56, 205, 204, 140, 63, 34, 0, 192, 63, 86, 102, 102, 63, 0, 127, 0, 0, 127, 0, 0, 127, 163, 57, 0, 56, 0, 0, 128, 63, 34, 0, 192, 63, 119, 102, 102, 191, 0, 127, 0, 0, 127, 0, 0, 127, 163, 57, 0, 56, 205, 204, 140, 63, 34, 0, 192, 63, 119, 102, 102, 191, 0, 127, 0, 0, 127, 0, 0, 127, 163, 57, 0, 56, 102, 102, 102, 191, 34, 0, 192, 63, 119, 102, 102, 191, 0, 127, 0, 0, 127, 0, 0, 127, 163, 57, 0, 56, 0, 0, 128, 191, 34, 0, 192, 63, 8, 0, 128, 191, 0, 127, 0, 0, 127, 0, 0, 127, 163, 57, 0, 56, 102, 102, 102, 191, 34, 0, 192, 63, 8, 0, 128, 191, 0, 127, 0, 0, 127, 0, 0, 127, 163, 57, 0, 56, 102, 102, 102, 63, 34, 0, 192, 63, 119, 102, 102, 191, 0, 127, 0, 0, 127, 0, 0, 127, 163, 57, 0, 56, 102, 102, 102, 63, 34, 0, 192, 63, 8, 0, 128, 191, 0, 127, 0, 0, 127, 0, 0, 127, 163, 57, 0, 56, 0, 0, 128, 63, 34, 0, 192, 63, 8, 0, 128, 191, 0, 127, 0, 0, 127, 0, 0, 127, 163, 57, 0, 56, 102, 102, 102, 191, 34, 0, 192, 63, 213, 204, 140, 191, 0, 127, 0, 0, 127, 0, 0, 127, 163, 57, 0, 56, 102, 102, 102, 63, 34, 0, 192, 63, 213, 204, 140, 191, 0, 127, 0, 0, 127, 0, 0, 127, 163, 57, 0, 56, 102, 102, 102, 63, 238, 204, 204, 63, 239, 255, 127, 63, 0, 127, 0, 0, 127, 0, 0, 127, 163, 57, 0, 56, 102, 102, 102, 191, 238, 204, 204, 63, 239, 255, 127, 63, 0, 127, 0, 0, 127, 0, 0, 127, 163, 57, 0, 56, 102, 102, 102, 191, 238, 204, 204, 63, 86, 102, 102, 63, 0, 127, 0, 0, 127, 0, 0, 127, 163, 57, 0, 56, 102, 102, 102, 63, 238, 204, 204, 63, 86, 102, 102, 63, 0, 127, 0, 0, 127, 0, 0, 127, 163, 57, 0, 56, 0, 0, 128, 191, 238, 204, 204, 63, 86, 102, 102, 63, 0, 127, 0, 0, 127, 0, 0, 127, 163, 57, 0, 56, 0, 0, 128, 191, 238, 204, 204, 63, 119, 102, 102, 191, 0, 127, 0, 0, 127, 0, 0, 127, 163, 57, 0, 56, 102, 102, 102, 191, 238, 204, 204, 63, 119, 102, 102, 191, 0, 127, 0, 0, 127, 0, 0, 127, 163, 57, 0, 56, 0, 0, 128, 63, 238, 204, 204, 63, 86, 102, 102, 63, 0, 127, 0, 0, 127, 0, 0, 127, 163, 57, 0, 56, 102, 102, 102, 63, 238, 204, 204, 63, 119, 102, 102, 191, 0, 127, 0, 0, 127, 0, 0, 127, 163, 57, 0, 56, 0, 0, 128, 63, 238, 204, 204, 63, 119, 102, 102, 191, 0, 127, 0, 0, 127, 0, 0, 127, 163, 57, 0, 56, 102, 102, 102, 191, 238, 204, 204, 63, 8, 0, 128, 191, 0, 127, 0, 0, 127, 0, 0, 127, 163, 57, 0, 56, 102, 102, 102, 63, 238, 204, 204, 63, 8, 0, 128, 191, 0, 127, 0, 0, 127, 0, 0, 127, 163, 57, 0, 56, 102, 102, 102, 63, 187, 153, 217, 63, 86, 102, 102, 63, 0, 127, 0, 0, 127, 0, 0, 127, 163, 57, 0, 56, 102, 102, 102, 191, 187, 153, 217, 63, 86, 102, 102, 63, 0, 127, 0, 0, 127, 0, 0, 127, 163, 57, 0, 56, 102, 102, 102, 191, 187, 153, 217, 63, 119, 102, 102, 191, 0, 127, 0, 0, 127, 0, 0, 127, 163, 57, 0, 56, 102, 102, 102, 63, 187, 153, 217, 63, 119, 102, 102, 191, 0, 127, 0, 0, 127, 0, 0, 127, 163, 57, 0, 56 ),
"array_index_data": PoolByteArray( 0, 0, 1, 0, 2, 0, 3, 0, 4, 0, 5, 0, 3, 0, 5, 0, 6, 0, 7, 0, 8, 0, 9, 0, 10, 0, 11, 0, 12, 0, 13, 0, 14, 0, 15, 0, 13, 0, 16, 0, 14, 0, 17, 0, 18, 0, 19, 0, 20, 0, 21, 0, 22, 0, 20, 0, 23, 0, 21, 0, 24, 0, 25, 0, 26, 0, 24, 0, 27, 0, 25, 0, 25, 0, 28, 0, 29, 0, 25, 0, 30, 0, 28, 0, 31, 0, 32, 0, 27, 0, 31, 0, 33, 0, 32, 0, 32, 0, 34, 0, 30, 0, 32, 0, 35, 0, 34, 0, 36, 0, 37, 0, 38, 0, 36, 0, 39, 0, 37, 0, 37, 0, 40, 0, 41, 0, 37, 0, 42, 0, 40, 0, 43, 0, 44, 0, 39, 0, 43, 0, 45, 0, 44, 0, 40, 0, 46, 0, 47, 0, 40, 0, 48, 0, 46, 0, 49, 0, 50, 0, 45, 0, 49, 0, 51, 0, 50, 0, 52, 0, 53, 0, 48, 0, 52, 0, 54, 0, 53, 0, 50, 0, 55, 0, 56, 0, 50, 0, 57, 0, 55, 0, 55, 0, 58, 0, 54, 0, 55, 0, 59, 0, 58, 0, 60, 0, 0, 0, 61, 0, 60, 0, 62, 0, 0, 0, 0, 0, 2, 0, 63, 0, 64, 0, 65, 0, 62, 0, 64, 0, 66, 0, 65, 0, 2, 0, 67, 0, 68, 0, 2, 0, 69, 0, 67, 0, 70, 0, 71, 0, 66, 0, 70, 0, 72, 0, 71, 0, 67, 0, 73, 0, 74, 0, 67, 0, 75, 0, 73, 0, 76, 0, 77, 0, 72, 0, 76, 0, 78, 0, 77, 0, 79, 0, 80, 0, 75, 0, 79, 0, 81, 0, 80, 0, 77, 0, 82, 0, 83, 0, 77, 0, 84, 0, 82, 0, 85, 0, 86, 0, 81, 0, 85, 0, 87, 0, 86, 0, 82, 0, 88, 0, 89, 0, 82, 0, 90, 0, 88, 0, 88, 0, 91, 0, 87, 0, 88, 0, 92, 0, 91, 0, 93, 0, 94, 0, 95, 0, 93, 0, 95, 0, 96, 0, 95, 0, 97, 0, 98, 0, 95, 0, 98, 0, 99, 0, 100, 0, 96, 0, 101, 0, 100, 0, 101, 0, 102, 0, 98, 0, 103, 0, 104, 0, 98, 0, 104, 0, 105, 0, 106, 0, 102, 0, 107, 0, 106, 0, 107, 0, 108, 0, 104, 0, 109, 0, 110, 0, 104, 0, 110, 0, 111, 0, 112, 0, 108, 0, 113, 0, 112, 0, 113, 0, 114, 0, 115, 0, 111, 0, 116, 0, 115, 0, 116, 0, 117, 0, 113, 0, 118, 0, 119, 0, 113, 0, 119, 0, 120, 0, 121, 0, 117, 0, 122, 0, 121, 0, 122, 0, 123, 0, 119, 0, 124, 0, 125, 0, 119, 0, 125, 0, 126, 0, 125, 0, 123, 0, 127, 0, 125, 0, 127, 0, 128, 0, 5, 0, 129, 0, 130, 0, 5, 0, 130, 0, 131, 0, 132, 0, 6, 0, 133, 0, 132, 0, 133, 0, 134, 0, 130, 0, 135, 0, 136, 0, 130, 0, 136, 0, 137, 0, 138, 0, 134, 0, 139, 0, 138, 0, 139, 0, 140, 0, 141, 0, 137, 0, 142, 0, 141, 0, 142, 0, 143, 0, 139, 0, 144, 0, 145, 0, 139, 0, 145, 0, 146, 0, 145, 0, 143, 0, 147, 0, 145, 0, 147, 0, 148, 0, 149, 0, 150, 0, 151, 0, 149, 0, 151, 0, 152, 0, 151, 0, 153, 0, 154, 0, 151, 0, 154, 0, 155, 0, 156, 0, 152, 0, 157, 0, 156, 0, 157, 0, 158, 0, 157, 0, 155, 0, 159, 0, 157, 0, 159, 0, 160, 0, 161, 0, 162, 0, 163, 0, 161, 0, 163, 0, 164, 0, 165, 0, 166, 0, 167, 0, 165, 0, 168, 0, 166, 0, 169, 0, 170, 0, 171, 0, 169, 0, 172, 0, 170, 0, 170, 0, 173, 0, 174, 0, 170, 0, 175, 0, 173, 0, 176, 0, 177, 0, 172, 0, 176, 0, 178, 0, 177, 0, 177, 0, 179, 0, 175, 0, 177, 0, 180, 0, 179, 0, 181, 0, 182, 0, 183, 0, 181, 0, 184, 0, 182, 0, 182, 0, 185, 0, 186, 0, 182, 0, 187, 0, 185, 0, 188, 0, 189, 0, 184, 0, 188, 0, 190, 0, 189, 0, 185, 0, 191, 0, 192, 0, 185, 0, 193, 0, 191, 0, 194, 0, 195, 0, 190, 0, 194, 0, 196, 0, 195, 0, 197, 0, 198, 0, 193, 0, 197, 0, 199, 0, 198, 0, 195, 0, 200, 0, 201, 0, 195, 0, 202, 0, 200, 0, 200, 0, 203, 0, 199, 0, 200, 0, 204, 0, 203, 0, 205, 0, 206, 0, 207, 0, 205, 0, 208, 0, 206, 0, 206, 0, 209, 0, 210, 0, 206, 0, 211, 0, 209, 0, 7, 0, 9, 0, 208, 0, 209, 0, 212, 0, 213, 0, 209, 0, 214, 0, 212, 0, 215, 0, 216, 0, 8, 0, 215, 0, 217, 0, 216, 0, 212, 0, 218, 0, 219, 0, 212, 0, 220, 0, 218, 0, 221, 0, 222, 0, 217, 0, 221, 0, 223, 0, 222, 0, 224, 0, 225, 0, 220, 0, 224, 0, 226, 0, 225, 0, 222, 0, 10, 0, 227, 0, 222, 0, 228, 0, 10, 0, 229, 0, 230, 0, 226, 0, 229, 0, 231, 0, 230, 0, 10, 0, 12, 0, 232, 0, 12, 0, 233, 0, 231, 0, 12, 0, 234, 0, 233, 0, 235, 0, 236, 0, 237, 0, 235, 0, 237, 0, 238, 0, 237, 0, 239, 0, 240, 0, 237, 0, 240, 0, 241, 0, 242, 0, 238, 0, 243, 0, 242, 0, 243, 0, 244, 0, 240, 0, 245, 0, 246, 0, 240, 0, 246, 0, 247, 0, 248, 0, 244, 0, 249, 0, 248, 0, 249, 0, 250, 0, 246, 0, 251, 0, 252, 0, 246, 0, 252, 0, 253, 0, 254, 0, 250, 0, 255, 0, 254, 0, 255, 0, 0, 1, 1, 1, 253, 0, 2, 1, 1, 1, 2, 1, 3, 1, 255, 0, 4, 1, 5, 1, 255, 0, 5, 1, 6, 1, 7, 1, 3, 1, 8, 1, 7, 1, 8, 1, 9, 1, 5, 1, 10, 1, 11, 1, 5, 1, 11, 1, 12, 1, 11, 1, 9, 1, 13, 1, 11, 1, 13, 1, 14, 1, 15, 1, 16, 1, 17, 1, 15, 1, 17, 1, 18, 1, 17, 1, 19, 1, 20, 1, 17, 1, 20, 1, 21, 1, 22, 1, 18, 1, 23, 1, 22, 1, 23, 1, 24, 1, 20, 1, 25, 1, 26, 1, 20, 1, 26, 1, 27, 1, 28, 1, 24, 1, 29, 1, 28, 1, 29, 1, 30, 1, 31, 1, 27, 1, 32, 1, 31, 1, 32, 1, 33, 1, 29, 1, 34, 1, 35, 1, 29, 1, 35, 1, 36, 1, 35, 1, 33, 1, 37, 1, 35, 1, 37, 1, 38, 1, 39, 1, 40, 1, 41, 1, 39, 1, 41, 1, 42, 1, 41, 1, 43, 1, 44, 1, 41, 1, 44, 1, 45, 1, 46, 1, 42, 1, 47, 1, 46, 1, 47, 1, 48, 1, 47, 1, 45, 1, 49, 1, 47, 1, 49, 1, 50, 1, 51, 1, 52, 1, 53, 1, 51, 1, 53, 1, 54, 1, 55, 1, 56, 1, 57, 1, 55, 1, 58, 1, 56, 1, 56, 1, 59, 1, 60, 1, 56, 1, 61, 1, 59, 1, 62, 1, 63, 1, 58, 1, 62, 1, 64, 1, 63, 1, 63, 1, 65, 1, 61, 1, 63, 1, 66, 1, 65, 1, 67, 1, 68, 1, 69, 1, 67, 1, 70, 1, 68, 1, 68, 1, 71, 1, 72, 1, 68, 1, 73, 1, 71, 1, 74, 1, 75, 1, 70, 1, 74, 1, 76, 1, 75, 1, 71, 1, 77, 1, 78, 1, 71, 1, 79, 1, 77, 1, 80, 1, 81, 1, 76, 1, 80, 1, 82, 1, 81, 1, 83, 1, 84, 1, 79, 1, 83, 1, 85, 1, 84, 1, 81, 1, 86, 1, 87, 1, 81, 1, 88, 1, 86, 1, 86, 1, 89, 1, 85, 1, 86, 1, 90, 1, 89, 1, 91, 1, 92, 1, 93, 1, 91, 1, 94, 1, 92, 1, 92, 1, 95, 1, 96, 1, 92, 1, 97, 1, 95, 1, 98, 1, 99, 1, 94, 1, 98, 1, 100, 1, 99, 1, 95, 1, 101, 1, 102, 1, 95, 1, 103, 1, 101, 1, 17, 0, 19, 0, 100, 1, 101, 1, 104, 1, 105, 1, 101, 1, 106, 1, 104, 1, 107, 1, 108, 1, 18, 0, 107, 1, 109, 1, 108, 1, 110, 1, 111, 1, 106, 1, 110, 1, 112, 1, 111, 1, 108, 1, 113, 1, 114, 1, 108, 1, 115, 1, 113, 1, 116, 1, 117, 1, 112, 1, 116, 1, 118, 1, 117, 1, 113, 1, 119, 1, 120, 1, 113, 1, 121, 1, 119, 1, 119, 1, 122, 1, 118, 1, 119, 1, 123, 1, 122, 1, 124, 1, 125, 1, 126, 1, 124, 1, 126, 1, 127, 1, 126, 1, 128, 1, 129, 1, 126, 1, 129, 1, 130, 1, 131, 1, 127, 1, 132, 1, 131, 1, 132, 1, 133, 1, 129, 1, 134, 1, 135, 1, 129, 1, 135, 1, 136, 1, 137, 1, 133, 1, 138, 1, 137, 1, 138, 1, 139, 1, 135, 1, 140, 1, 141, 1, 135, 1, 141, 1, 142, 1, 143, 1, 139, 1, 144, 1, 143, 1, 144, 1, 145, 1, 146, 1, 142, 1, 147, 1, 146, 1, 147, 1, 148, 1, 144, 1, 149, 1, 150, 1, 144, 1, 150, 1, 151, 1, 152, 1, 148, 1, 153, 1, 152, 1, 153, 1, 154, 1, 150, 1, 155, 1, 156, 1, 150, 1, 156, 1, 157, 1, 156, 1, 154, 1, 158, 1, 156, 1, 158, 1, 159, 1, 160, 1, 161, 1, 162, 1, 160, 1, 162, 1, 163, 1, 162, 1, 164, 1, 165, 1, 162, 1, 165, 1, 166, 1, 167, 1, 163, 1, 168, 1, 167, 1, 168, 1, 169, 1, 165, 1, 170, 1, 171, 1, 165, 1, 171, 1, 172, 1, 173, 1, 169, 1, 174, 1, 173, 1, 174, 1, 175, 1, 176, 1, 172, 1, 177, 1, 176, 1, 177, 1, 178, 1, 174, 1, 179, 1, 180, 1, 174, 1, 180, 1, 181, 1, 180, 1, 178, 1, 182, 1, 180, 1, 182, 1, 183, 1, 184, 1, 185, 1, 186, 1, 184, 1, 186, 1, 187, 1, 186, 1, 188, 1, 189, 1, 186, 1, 189, 1, 190, 1, 191, 1, 187, 1, 192, 1, 191, 1, 192, 1, 193, 1, 192, 1, 190, 1, 194, 1, 192, 1, 194, 1, 195, 1, 196, 1, 197, 1, 198, 1, 196, 1, 198, 1, 199, 1 ),
"blend_shape_data": [  ],
"format": 97559,
"index_count": 900,
"material": SubResource( 1 ),
"name": "palette",
"primitive": 4,
"skeleton_aabb": [  ],
"vertex_count": 456
}

[sub_resource type="BoxShape" id=3]
extents = Vector3( 12, 17, 6 )

[node name="IceBlock" type="KinematicBody" groups=[
"IceBlock",
]]
transform = Transform( 1, 0, 0, 0, 1, 0, 0, 0, 1, 0, 1.75, 0 )
collision_layer = 256
collision_mask = 49
script = ExtResource( 1 )

[node name="MeshInstance" type="MeshInstance" parent="."]
transform = Transform( 10, 0, 0, 0, 10, 0, 0, 0, 5, 0, 16, 0 )
mesh = SubResource( 2 )
material/0 = null

[node name="CollisionShape" type="CollisionShape" parent="."]
transform = Transform( 1, 0, 0, 0, 1, 0, 0, 0, 1, 0, 16, 0 )
shape = SubResource( 3 )
disabled = true

