[gd_scene load_steps=3 format=2]

[ext_resource path="res://Scripts/Weapons/BaseWeapon.gd" type="Script" id=1]
[ext_resource path="res://Models/ObjType/Objects/Coin/SackOfCoins.obj" type="ArrayMesh" id=2]

[node name="SackOfCoins" type="Spatial"]
script = ExtResource( 1 )
typeName = "SackOfCoins"

[node name="MeshInstance" type="MeshInstance" parent="."]
transform = Transform( 0.5, 0, 0, 0, 0.5, 0, 0, 0, 0.5, 0, -5, 0 )
mesh = ExtResource( 2 )
material/0 = null

