[gd_scene format=2]

[node name="Shadow" type="SpotLight"]
transform = Transform( 1, 0, 0, 0, -4.37114e-008, 1, 0, -1, -4.37114e-008, 0, 6.19785, 0 )
layers = 16384
light_energy = 16.0
light_negative = true
light_cull_mask = 4294967293
spot_range = 9.57799
spot_attenuation = 0.450625
spot_angle = 40.0
spot_angle_attenuation = 1.80249

