# Blender v2.76 (sub 0) OBJ File: ''
# www.blender.org
mtllib SkullSpace.mtl
o SkullSpace
v -19.000000 -0.000003 19.000000
v -19.000000 4.000003 -17.000000
v -19.000000 0.000003 -17.000000
v -19.000000 4.999998 16.000000
v -19.000000 4.000002 -15.999999
v -19.000000 5.000002 -15.999999
v -18.000000 5.000002 -15.999999
v -17.000000 -0.000003 20.000000
v -16.000000 3.999997 19.000000
v -16.000000 4.999997 18.000000
v -16.000000 3.999998 13.000001
v -16.000000 5.000002 -12.999999
v -16.000000 5.000003 -18.000000
v -15.000000 3.999998 13.000001
v -15.000000 4.999998 13.000001
v -15.000000 4.000002 -14.999999
v -15.000000 4.000002 -12.999999
v -15.000000 5.000002 -14.999999
v -13.000000 4.999998 16.000000
v -13.000000 4.000002 -14.999999
v -13.000000 5.000002 -15.999999
v 14.000000 4.000002 -15.999999
v 16.000000 4.000002 -15.999999
v 17.000000 4.999998 14.000001
v 17.000000 4.000002 -13.999999
v 17.000000 3.999998 14.000001
v 17.000000 5.000002 -13.999999
v -16.000000 3.999997 16.000000
v -16.000000 4.999998 16.000000
v -16.000000 4.999998 14.000001
v -16.000000 4.000002 -15.999999
v -14.000000 4.999997 17.000000
v -14.000000 4.000002 -15.999999
v -14.000000 4.000003 -17.000000
v 13.000000 4.999998 15.000001
v 13.000000 4.000002 -15.999999
v 13.000000 5.000002 -14.999999
v 15.000000 4.000002 -14.999999
v 16.000000 3.999997 19.000000
v 16.000000 3.999997 18.000000
v 16.000000 4.999997 19.000000
v 16.000000 5.000002 -12.999999
v 16.000000 4.000003 -18.000000
v 16.000000 4.000003 -19.000000
v 17.000000 3.999997 20.000000
v 17.000000 4.000003 -19.000000
v 18.000000 3.999997 18.000000
v 18.000000 5.000003 -18.000000
v 19.000000 -0.000003 17.000000
v 19.000000 3.999997 19.000000
v 19.000000 0.000003 -19.000000
v 19.000000 4.000003 -17.000000
v 19.000000 3.999997 16.000000
v 19.000000 4.000002 -15.999999
v 20.000000 3.999997 17.000000
v 20.000000 4.000003 -17.000000
v 17.000000 -0.000003 20.000000
v -17.000000 3.999997 20.000000
v -17.000000 3.999997 19.000000
v -16.000000 4.999997 19.000000
v 19.000000 -0.000003 19.000000
v 17.000000 -0.000003 19.000000
v -16.000000 3.999997 18.000000
v -18.000000 3.999997 18.000000
v -19.000000 -0.000003 17.000000
v -20.000000 -0.000003 17.000000
v -19.000000 3.999997 17.000000
v -18.000000 3.999997 16.000000
v -18.000000 4.999998 16.000000
v 13.000000 3.999997 16.000000
v 18.000000 3.999997 16.000000
v -15.000000 3.999998 15.000001
v 13.000000 3.999998 15.000001
v 15.000000 4.999998 15.000001
v 16.000000 3.999998 13.000001
v 15.000000 4.999998 13.000001
v -16.000000 4.000002 -13.999999
v -17.000000 5.000002 -13.999999
v -16.000000 5.000002 -13.999999
v -16.000000 5.000002 -15.999999
v -14.000000 5.000002 -15.999999
v 14.000000 5.000002 -15.999999
v 16.000000 5.000002 -15.999999
v 14.000000 4.000003 -17.000000
v -14.000000 5.000003 -17.000000
v -14.000000 3.999997 17.000000
v 14.000000 3.999997 17.000000
v 14.000000 4.999997 17.000000
v -14.000000 3.999997 16.000000
v 14.000000 3.999997 16.000000
v -17.000000 3.999998 14.000001
v -16.000000 3.999998 14.000001
v 16.000000 3.999998 14.000001
v 16.000000 4.000002 -12.999999
v -13.000000 5.000002 -14.999999
v 13.000000 4.000002 -14.999999
v -18.000000 4.000002 -15.999999
v 13.000000 5.000002 -15.999999
v 18.000000 4.000002 -15.999999
v 19.000000 5.000002 -15.999999
v 19.000000 0.000003 -17.000000
v 20.000000 0.000003 -17.000000
v -18.000000 5.000003 -18.000000
v 16.000000 5.000003 -18.000000
v -17.000000 4.000003 -20.000000
v 17.000000 0.000003 -20.000000
v 17.000000 4.000003 -20.000000
v -17.000000 -0.000003 19.000000
v -20.000000 0.000003 -17.000000
v 20.000000 -0.000003 17.000000
v -19.000000 0.000003 -19.000000
v -17.000000 0.000003 -19.000000
v 17.000000 0.000003 -19.000000
v -17.000000 0.000003 -20.000000
v 17.000000 3.999997 19.000000
v -19.000000 3.999997 19.000000
v 19.000000 3.999997 17.000000
v -19.000000 3.999997 16.000000
v -20.000000 3.999997 17.000000
v -13.000000 3.999997 16.000000
v -13.000000 3.999998 15.000001
v 16.000000 3.999997 16.000000
v 15.000000 3.999998 15.000001
v 15.000000 3.999998 13.000001
v -16.000000 4.000002 -12.999999
v -17.000000 4.000002 -13.999999
v 15.000000 4.000002 -12.999999
v 16.000000 4.000002 -13.999999
v -13.000000 4.000002 -15.999999
v -20.000000 4.000003 -17.000000
v -18.000000 4.000003 -18.000000
v 18.000000 4.000003 -18.000000
v -16.000000 4.000003 -18.000000
v -19.000000 4.000003 -19.000000
v -17.000000 4.000003 -19.000000
v -16.000000 4.000003 -19.000000
v 19.000000 4.000003 -19.000000
v 16.000000 4.999997 18.000000
v -18.000000 4.999997 18.000000
v 18.000000 4.999997 18.000000
v -14.000000 4.999998 16.000000
v 14.000000 4.999998 16.000000
v 16.000000 4.999998 16.000000
v 18.000000 4.999998 16.000000
v 13.000000 4.999998 16.000000
v -13.000000 4.999998 15.000001
v -17.000000 4.999998 14.000001
v 16.000000 4.999998 14.000001
v 19.000000 4.999998 16.000000
v -15.000000 4.999998 15.000001
v -16.000000 4.999998 13.000001
v -10.000000 4.999999 10.000001
v 16.000000 4.999998 13.000001
v -7.000000 4.999999 10.000001
v 7.000000 4.999999 10.000001
v 10.000000 4.999999 10.000001
v -11.000000 4.999999 9.000001
v -10.000000 4.999999 9.000001
v -9.000000 4.999999 9.000001
v -8.000000 4.999999 9.000001
v 8.000000 4.999999 9.000001
v 9.000000 4.999999 9.000001
v 10.000000 4.999999 9.000001
v 11.000000 4.999999 9.000001
v -10.000000 4.999999 8.000001
v -9.000000 4.999999 8.000001
v 9.000000 4.999999 8.000001
v 10.000000 4.999999 8.000001
v -10.000000 4.999999 7.000001
v -8.000000 4.999999 7.000001
v -6.000000 4.999999 7.000001
v 6.000000 4.999999 7.000001
v 8.000000 4.999999 7.000001
v 10.000000 4.999999 7.000001
v -11.000000 4.999999 6.000001
v -7.000000 4.999999 6.000001
v -5.000000 4.999999 6.000001
v -3.000000 4.999999 6.000001
v -1.000000 4.999999 6.000001
v 1.000000 4.999999 6.000001
v 3.000000 4.999999 6.000001
v 5.000000 4.999999 6.000001
v 7.000000 4.999999 6.000001
v 11.000000 4.999999 6.000001
v -8.000000 4.999999 5.000001
v -6.000000 4.999999 5.000001
v 6.000000 4.999999 5.000001
v 8.000000 4.999999 5.000001
v -7.000000 5.000000 4.000001
v -5.000000 5.000000 4.000001
v -3.000000 5.000000 4.000001
v -1.000000 5.000000 4.000001
v 1.000000 5.000000 4.000001
v 3.000000 5.000000 4.000001
v 5.000000 5.000000 4.000001
v 7.000000 5.000000 4.000001
v -5.000000 5.000000 2.000001
v -1.000000 5.000000 2.000001
v 1.000000 5.000000 2.000001
v 5.000000 5.000000 2.000001
v -4.000000 5.000000 1.000001
v -2.000000 5.000000 1.000001
v 2.000000 5.000000 1.000001
v 4.000000 5.000000 1.000001
v -4.000000 5.000000 -0.999999
v -2.000000 5.000000 -0.999999
v 2.000000 5.000000 -0.999999
v 4.000000 5.000000 -0.999999
v -5.000000 5.000000 -1.999999
v -1.000000 5.000000 -1.999999
v 1.000000 5.000000 -1.999999
v 5.000000 5.000000 -1.999999
v -7.000000 5.000000 -3.999999
v -5.000000 5.000000 -3.999999
v 5.000000 5.000000 -3.999999
v 7.000000 5.000000 -3.999999
v -8.000000 5.000001 -4.999999
v -6.000000 5.000001 -4.999999
v 6.000000 5.000001 -4.999999
v 8.000000 5.000001 -4.999999
v -11.000000 5.000001 -5.999999
v -7.000000 5.000001 -5.999999
v -5.000000 5.000001 -5.999999
v 5.000000 5.000001 -5.999999
v 7.000000 5.000001 -5.999999
v 11.000000 5.000001 -5.999999
v -10.000000 5.000001 -6.999999
v -8.000000 5.000001 -6.999999
v -6.000000 5.000001 -6.999999
v 6.000000 5.000001 -6.999999
v 8.000000 5.000001 -6.999999
v 10.000000 5.000001 -6.999999
v -10.000000 5.000001 -7.999999
v -9.000000 5.000001 -7.999999
v 9.000000 5.000001 -7.999999
v 10.000000 5.000001 -7.999999
v -11.000000 5.000001 -8.999999
v -10.000000 5.000001 -8.999999
v -9.000000 5.000001 -8.999999
v -8.000000 5.000001 -8.999999
v 8.000000 5.000001 -8.999999
v 9.000000 5.000001 -8.999999
v 10.000000 5.000001 -8.999999
v 11.000000 5.000001 -8.999999
v -10.000000 5.000001 -9.999999
v -7.000000 5.000001 -9.999999
v 7.000000 5.000001 -9.999999
v 10.000000 5.000001 -9.999999
v -15.000000 5.000002 -12.999999
v 15.000000 5.000002 -12.999999
v 15.000000 5.000002 -14.999999
v 16.000000 5.000002 -13.999999
v 18.000000 5.000002 -15.999999
v 14.000000 5.000003 -17.000000
v -16.000000 5.000003 -19.000000
v 16.000000 5.000003 -19.000000
vt 0.068359 0.500000
vt 0.990234 0.500000
vt 0.560547 0.500000
vt 0.853516 0.500000
vn -1.000000 0.000000 0.000000
vn 1.000000 0.000000 0.000000
vn 0.000000 0.000000 1.000000
vn 0.000000 0.000000 -1.000000
vn 0.000000 -1.000000 -0.000000
vn 0.000000 1.000000 0.000000
usemtl palette.004
s off
f 6/1/1 5/1/1 4/1/1
f 24/1/1 25/1/1 26/1/1
f 27/1/1 25/1/1 24/1/1
f 39/1/2 40/1/2 41/1/2
f 79/1/3 78/1/3 77/1/3
f 106/2/4 105/2/4 107/2/4
f 114/2/5 113/2/5 112/2/5
f 131/2/6 133/2/6 134/2/6
f 134/2/6 133/2/6 135/2/6
f 135/2/6 133/2/6 136/2/6
f 142/1/6 140/1/6 143/1/6
f 143/1/6 140/1/6 144/1/6
f 143/1/6 144/1/6 148/1/6
f 144/1/6 149/1/6 148/1/6
f 152/2/6 153/2/6 154/2/6
f 154/2/6 153/2/6 155/2/6
f 155/2/6 153/2/6 156/2/6
f 151/2/6 152/2/6 157/2/6
f 152/3/6 154/3/6 158/3/6
f 157/2/6 152/2/6 158/2/6
f 158/3/6 154/3/6 159/3/6
f 159/3/6 154/3/6 160/3/6
f 155/3/6 156/3/6 161/3/6
f 161/3/6 156/3/6 162/3/6
f 156/2/6 153/2/6 163/2/6
f 162/3/6 156/3/6 163/3/6
f 163/2/6 153/2/6 164/2/6
f 157/3/6 158/3/6 165/3/6
f 158/3/6 159/3/6 165/3/6
f 159/4/6 160/4/6 166/4/6
f 165/3/6 159/3/6 166/3/6
f 161/4/6 162/4/6 167/4/6
f 163/3/6 164/3/6 167/3/6
f 162/3/6 163/3/6 167/3/6
f 167/3/6 164/3/6 168/3/6
f 165/4/6 166/4/6 169/4/6
f 157/3/6 165/3/6 169/3/6
f 166/4/6 160/4/6 170/4/6
f 169/4/6 166/4/6 170/4/6
f 160/3/6 154/3/6 170/3/6
f 154/2/6 155/2/6 171/2/6
f 171/2/6 155/2/6 172/2/6
f 161/4/6 167/4/6 173/4/6
f 167/4/6 168/4/6 173/4/6
f 155/3/6 161/3/6 173/3/6
f 168/3/6 164/3/6 174/3/6
f 173/4/6 168/4/6 174/4/6
f 157/3/6 169/3/6 175/3/6
f 151/2/6 157/2/6 175/2/6
f 169/3/6 170/3/6 175/3/6
f 170/3/6 154/3/6 176/3/6
f 175/3/6 170/3/6 176/3/6
f 154/2/6 171/2/6 176/2/6
f 171/3/6 172/3/6 177/3/6
f 177/3/6 172/3/6 178/3/6
f 178/3/6 172/3/6 179/3/6
f 179/3/6 172/3/6 180/3/6
f 180/3/6 172/3/6 181/3/6
f 181/3/6 172/3/6 182/3/6
f 173/3/6 174/3/6 183/3/6
f 172/2/6 155/2/6 183/2/6
f 155/3/6 173/3/6 183/3/6
f 174/3/6 164/3/6 184/3/6
f 183/3/6 174/3/6 184/3/6
f 164/2/6 153/2/6 184/2/6
f 175/2/6 176/2/6 185/2/6
f 176/2/6 171/2/6 186/2/6
f 185/2/6 176/2/6 186/2/6
f 171/3/6 177/3/6 186/3/6
f 172/2/6 183/2/6 187/2/6
f 182/3/6 172/3/6 187/3/6
f 183/2/6 184/2/6 187/2/6
f 187/2/6 184/2/6 188/2/6
f 185/3/6 186/3/6 189/3/6
f 186/3/6 177/3/6 190/3/6
f 189/3/6 186/3/6 190/3/6
f 177/4/6 178/4/6 190/4/6
f 178/3/6 179/3/6 191/3/6
f 190/4/6 178/4/6 191/4/6
f 179/4/6 180/4/6 192/4/6
f 191/3/6 179/3/6 192/3/6
f 180/3/6 181/3/6 193/3/6
f 192/4/6 180/4/6 193/4/6
f 181/4/6 182/4/6 194/4/6
f 193/3/6 181/3/6 194/3/6
f 187/3/6 188/3/6 195/3/6
f 194/4/6 182/4/6 195/4/6
f 182/3/6 187/3/6 195/3/6
f 195/3/6 188/3/6 196/3/6
f 192/4/6 193/4/6 197/4/6
f 190/4/6 191/4/6 197/4/6
f 195/4/6 196/4/6 197/4/6
f 194/4/6 195/4/6 197/4/6
f 193/4/6 194/4/6 197/4/6
f 189/4/6 190/4/6 197/4/6
f 191/4/6 192/4/6 197/4/6
f 197/4/6 196/4/6 198/4/6
f 198/4/6 196/4/6 199/4/6
f 199/4/6 196/4/6 200/4/6
f 197/3/6 198/3/6 201/3/6
f 201/3/6 198/3/6 202/3/6
f 199/3/6 200/3/6 203/3/6
f 203/3/6 200/3/6 204/3/6
f 197/3/6 201/3/6 205/3/6
f 201/2/6 202/2/6 205/2/6
f 202/3/6 198/3/6 206/3/6
f 205/2/6 202/2/6 206/2/6
f 203/2/6 204/2/6 207/2/6
f 199/3/6 203/3/6 207/3/6
f 204/3/6 200/3/6 208/3/6
f 207/2/6 204/2/6 208/2/6
f 189/4/6 197/4/6 209/4/6
f 197/3/6 205/3/6 209/3/6
f 205/3/6 206/3/6 209/3/6
f 198/4/6 199/4/6 210/4/6
f 209/3/6 206/3/6 210/3/6
f 206/3/6 198/3/6 210/3/6
f 207/3/6 208/3/6 211/3/6
f 210/4/6 199/4/6 211/4/6
f 199/3/6 207/3/6 211/3/6
f 208/3/6 200/3/6 212/3/6
f 211/3/6 208/3/6 212/3/6
f 200/4/6 196/4/6 212/4/6
f 185/3/6 189/3/6 213/3/6
f 210/4/6 211/4/6 213/4/6
f 211/4/6 212/4/6 213/4/6
f 189/4/6 209/4/6 213/4/6
f 209/4/6 210/4/6 213/4/6
f 213/4/6 212/4/6 214/4/6
f 212/4/6 196/4/6 215/4/6
f 214/4/6 212/4/6 215/4/6
f 196/3/6 188/3/6 216/3/6
f 215/4/6 196/4/6 216/4/6
f 213/3/6 214/3/6 217/3/6
f 175/2/6 185/2/6 217/2/6
f 185/3/6 213/3/6 217/3/6
f 217/3/6 214/3/6 218/3/6
f 215/3/6 216/3/6 219/3/6
f 216/3/6 188/3/6 220/3/6
f 219/3/6 216/3/6 220/3/6
f 188/2/6 184/2/6 220/2/6
f 217/2/6 218/2/6 221/2/6
f 151/2/6 175/2/6 221/2/6
f 175/2/6 217/2/6 221/2/6
f 221/2/6 218/2/6 222/2/6
f 214/4/6 215/4/6 223/4/6
f 218/3/6 214/3/6 223/3/6
f 215/3/6 219/3/6 224/3/6
f 223/4/6 215/4/6 224/4/6
f 219/2/6 220/2/6 225/2/6
f 220/2/6 184/2/6 226/2/6
f 225/2/6 220/2/6 226/2/6
f 184/2/6 153/2/6 226/2/6
f 221/3/6 222/3/6 227/3/6
f 227/3/6 222/3/6 228/3/6
f 218/3/6 223/3/6 229/3/6
f 222/2/6 218/2/6 229/2/6
f 223/3/6 224/3/6 229/3/6
f 219/2/6 225/2/6 230/2/6
f 229/3/6 224/3/6 230/3/6
f 224/3/6 219/3/6 230/3/6
f 225/3/6 226/3/6 231/3/6
f 231/3/6 226/3/6 232/3/6
f 227/4/6 228/4/6 233/4/6
f 221/3/6 227/3/6 233/3/6
f 233/4/6 228/4/6 234/4/6
f 231/4/6 232/4/6 235/4/6
f 232/3/6 226/3/6 236/3/6
f 235/4/6 232/4/6 236/4/6
f 151/2/6 221/2/6 237/2/6
f 221/3/6 233/3/6 237/3/6
f 233/3/6 234/3/6 237/3/6
f 237/3/6 234/3/6 238/3/6
f 234/4/6 228/4/6 239/4/6
f 238/3/6 234/3/6 239/3/6
f 228/3/6 222/3/6 240/3/6
f 239/4/6 228/4/6 240/4/6
f 231/4/6 235/4/6 241/4/6
f 225/3/6 231/3/6 241/3/6
f 235/3/6 236/3/6 242/3/6
f 241/4/6 235/4/6 242/4/6
f 236/3/6 226/3/6 243/3/6
f 242/3/6 236/3/6 243/3/6
f 226/2/6 153/2/6 244/2/6
f 243/3/6 226/3/6 244/3/6
f 238/3/6 239/3/6 245/3/6
f 237/2/6 238/2/6 245/2/6
f 239/3/6 240/3/6 245/3/6
f 222/2/6 229/2/6 246/2/6
f 245/3/6 240/3/6 246/3/6
f 240/3/6 222/3/6 246/3/6
f 229/2/6 230/2/6 246/2/6
f 230/2/6 225/2/6 247/2/6
f 246/2/6 230/2/6 247/2/6
f 225/3/6 241/3/6 247/3/6
f 242/3/6 243/3/6 247/3/6
f 241/3/6 242/3/6 247/3/6
f 243/2/6 244/2/6 248/2/6
f 247/3/6 243/3/6 248/3/6
f 244/2/6 153/2/6 250/2/6
f 249/2/6 248/2/6 250/2/6
f 248/2/6 244/2/6 250/2/6
f 119/2/1 109/2/1 66/2/1
f 130/2/1 109/2/1 119/2/1
f 116/2/1 65/2/1 1/2/1
f 67/2/1 65/2/1 116/2/1
f 2/2/1 111/2/1 3/2/1
f 134/2/1 111/2/1 2/2/1
f 4/1/1 5/1/1 118/1/1
f 139/1/1 68/1/1 64/1/1
f 69/1/1 68/1/1 139/1/1
f 7/1/1 131/1/1 97/1/1
f 103/1/1 131/1/1 7/1/1
f 58/2/1 108/2/1 8/2/1
f 59/2/1 108/2/1 58/2/1
f 135/2/1 114/2/1 112/2/1
f 105/2/1 114/2/1 135/2/1
f 60/1/1 63/1/1 9/1/1
f 10/1/1 63/1/1 60/1/1
f 151/2/1 125/2/1 11/2/1
f 12/2/1 125/2/1 151/2/1
f 13/1/1 136/1/1 133/1/1
f 255/1/1 136/1/1 13/1/1
f 150/2/1 14/2/1 72/2/1
f 15/2/1 14/2/1 150/2/1
f 249/2/1 16/2/1 17/2/1
f 18/2/1 16/2/1 249/2/1
f 19/2/1 121/2/1 120/2/1
f 146/2/1 121/2/1 19/2/1
f 95/2/1 129/2/1 20/2/1
f 21/2/1 129/2/1 95/2/1
f 88/1/1 90/1/1 87/1/1
f 142/1/1 90/1/1 88/1/1
f 82/1/1 84/1/1 22/1/1
f 254/1/1 84/1/1 82/1/1
f 143/1/1 93/1/1 122/1/1
f 148/1/1 93/1/1 143/1/1
f 252/1/1 23/1/1 128/1/1
f 83/1/1 23/1/1 252/1/1
f 91/1/2 126/1/2 147/1/2
f 147/1/2 126/1/2 78/1/2
f 28/1/2 92/1/2 29/1/2
f 29/1/2 92/1/2 30/1/2
f 77/1/2 31/1/2 79/1/2
f 79/1/2 31/1/2 80/1/2
f 86/1/2 89/1/2 32/1/2
f 32/1/2 89/1/2 141/1/2
f 33/1/2 34/1/2 81/1/2
f 81/1/2 34/1/2 85/1/2
f 70/2/2 73/2/2 145/2/2
f 145/2/2 73/2/2 35/2/2
f 96/2/2 36/2/2 37/2/2
f 37/2/2 36/2/2 98/2/2
f 123/2/2 124/2/2 74/2/2
f 74/2/2 124/2/2 76/2/2
f 127/2/2 38/2/2 250/2/2
f 250/2/2 38/2/2 251/2/2
f 41/1/2 40/1/2 138/1/2
f 75/2/2 94/2/2 153/2/2
f 153/2/2 94/2/2 42/2/2
f 43/1/2 44/1/2 104/1/2
f 104/1/2 44/1/2 256/1/2
f 57/2/2 62/2/2 45/2/2
f 45/2/2 62/2/2 115/2/2
f 113/2/2 106/2/2 46/2/2
f 46/2/2 106/2/2 107/2/2
f 47/1/2 71/1/2 140/1/2
f 140/1/2 71/1/2 144/1/2
f 99/1/2 132/1/2 253/1/2
f 253/1/2 132/1/2 48/1/2
f 61/2/2 49/2/2 50/2/2
f 50/2/2 49/2/2 117/2/2
f 101/2/2 51/2/2 52/2/2
f 52/2/2 51/2/2 137/2/2
f 53/1/2 54/1/2 149/1/2
f 149/1/2 54/1/2 100/1/2
f 110/2/2 102/2/2 55/2/2
f 55/2/2 102/2/2 56/2/2
f 57/2/3 58/2/3 8/2/3
f 45/2/3 58/2/3 57/2/3
f 108/2/3 116/2/3 1/2/3
f 59/2/3 116/2/3 108/2/3
f 39/1/3 60/1/3 9/1/3
f 41/1/3 60/1/3 39/1/3
f 61/2/3 115/2/3 62/2/3
f 50/2/3 115/2/3 61/2/3
f 63/1/3 139/1/3 64/1/3
f 10/1/3 139/1/3 63/1/3
f 47/1/3 138/1/3 40/1/3
f 140/1/3 138/1/3 47/1/3
f 65/2/3 119/2/3 66/2/3
f 67/2/3 119/2/3 65/2/3
f 110/2/3 117/2/3 49/2/3
f 55/2/3 117/2/3 110/2/3
f 68/1/3 4/1/3 118/1/3
f 69/1/3 4/1/3 68/1/3
f 70/2/3 19/2/3 120/2/3
f 145/2/3 19/2/3 70/2/3
f 53/1/3 144/1/3 71/1/3
f 149/1/3 144/1/3 53/1/3
f 121/2/3 150/2/3 72/2/3
f 146/2/3 150/2/3 121/2/3
f 123/2/3 35/2/3 73/2/3
f 74/2/3 35/2/3 123/2/3
f 14/2/3 151/2/3 11/2/3
f 15/2/3 151/2/3 14/2/3
f 75/2/3 76/2/3 124/2/3
f 153/2/3 76/2/3 75/2/3
f 77/1/3 78/1/3 126/1/3
f 25/1/3 252/1/3 128/1/3
f 27/1/3 252/1/3 25/1/3
f 33/1/3 80/1/3 31/1/3
f 81/1/3 80/1/3 33/1/3
f 23/1/3 82/1/3 22/1/3
f 83/1/3 82/1/3 23/1/3
f 84/1/3 85/1/3 34/1/3
f 254/1/3 85/1/3 84/1/3
f 86/1/4 32/1/4 87/1/4
f 87/1/4 32/1/4 88/1/4
f 28/1/4 29/1/4 89/1/4
f 89/1/4 29/1/4 141/1/4
f 90/1/4 142/1/4 122/1/4
f 122/1/4 142/1/4 143/1/4
f 91/1/4 147/1/4 92/1/4
f 92/1/4 147/1/4 30/1/4
f 93/1/4 148/1/4 26/1/4
f 26/1/4 148/1/4 24/1/4
f 125/2/4 12/2/4 17/2/4
f 17/2/4 12/2/4 249/2/4
f 127/2/4 250/2/4 94/2/4
f 94/2/4 250/2/4 42/2/4
f 16/2/4 18/2/4 20/2/4
f 20/2/4 18/2/4 95/2/4
f 96/2/4 37/2/4 38/2/4
f 38/2/4 37/2/4 251/2/4
f 5/1/4 6/1/4 97/1/4
f 97/1/4 6/1/4 7/1/4
f 129/2/4 21/2/4 36/2/4
f 36/2/4 21/2/4 98/2/4
f 99/1/4 253/1/4 54/1/4
f 54/1/4 253/1/4 100/1/4
f 109/2/4 130/2/4 3/2/4
f 3/2/4 130/2/4 2/2/4
f 101/2/4 52/2/4 102/2/4
f 102/2/4 52/2/4 56/2/4
f 131/1/4 103/1/4 133/1/4
f 133/1/4 103/1/4 13/1/4
f 43/1/4 104/1/4 132/1/4
f 132/1/4 104/1/4 48/1/4
f 111/2/4 134/2/4 112/2/4
f 112/2/4 134/2/4 135/2/4
f 136/1/4 255/1/4 44/1/4
f 44/1/4 255/1/4 256/1/4
f 113/2/4 46/2/4 51/2/4
f 51/2/4 46/2/4 137/2/4
f 114/2/4 105/2/4 106/2/4
f 108/2/5 57/2/5 8/2/5
f 62/2/5 57/2/5 108/2/5
f 65/2/5 108/2/5 1/2/5
f 65/2/5 61/2/5 62/2/5
f 65/2/5 62/2/5 108/2/5
f 49/2/5 61/2/5 65/2/5
f 109/2/5 65/2/5 66/2/5
f 109/2/5 110/2/5 49/2/5
f 109/2/5 49/2/5 65/2/5
f 3/2/5 110/2/5 109/2/5
f 101/2/5 110/2/5 3/2/5
f 102/2/5 110/2/5 101/2/5
f 111/2/5 101/2/5 3/2/5
f 112/2/5 101/2/5 111/2/5
f 113/2/5 101/2/5 112/2/5
f 51/2/5 101/2/5 113/2/5
f 106/2/5 113/2/5 114/2/5
f 58/2/6 45/2/6 59/2/6
f 59/2/6 45/2/6 9/2/6
f 9/2/6 45/2/6 39/2/6
f 39/2/6 45/2/6 115/2/6
f 116/2/6 59/2/6 64/2/6
f 59/2/6 9/2/6 64/2/6
f 64/2/6 9/2/6 63/2/6
f 115/2/6 50/2/6 40/2/6
f 39/2/6 115/2/6 40/2/6
f 40/2/6 50/2/6 47/2/6
f 116/2/6 64/2/6 67/2/6
f 47/2/6 50/2/6 117/2/6
f 67/2/6 64/2/6 118/2/6
f 119/2/6 67/2/6 118/2/6
f 118/2/6 64/2/6 68/2/6
f 86/2/6 87/2/6 89/2/6
f 89/2/6 87/2/6 120/2/6
f 120/2/6 87/2/6 70/2/6
f 70/2/6 87/2/6 90/2/6
f 117/2/6 55/2/6 71/2/6
f 47/2/6 117/2/6 71/2/6
f 71/2/6 55/2/6 53/2/6
f 28/2/6 89/2/6 72/2/6
f 89/2/6 120/2/6 72/2/6
f 72/2/6 120/2/6 121/2/6
f 90/2/6 122/2/6 73/2/6
f 70/2/6 90/2/6 73/2/6
f 73/2/6 122/2/6 123/2/6
f 28/2/6 72/2/6 92/2/6
f 123/2/6 122/2/6 93/2/6
f 91/2/6 92/2/6 11/2/6
f 92/2/6 72/2/6 11/2/6
f 11/2/6 72/2/6 14/2/6
f 93/2/6 26/2/6 124/2/6
f 123/2/6 93/2/6 124/2/6
f 124/2/6 26/2/6 75/2/6
f 91/2/6 11/2/6 125/2/6
f 75/2/6 26/2/6 94/2/6
f 125/2/6 17/2/6 126/2/6
f 91/2/6 125/2/6 126/2/6
f 126/2/6 17/2/6 77/2/6
f 127/2/6 94/2/6 128/2/6
f 94/2/6 26/2/6 128/2/6
f 128/2/6 26/2/6 25/2/6
f 77/2/6 17/2/6 16/2/6
f 127/2/6 128/2/6 38/2/6
f 119/2/6 118/2/6 5/2/6
f 16/2/6 20/2/6 31/2/6
f 77/2/6 16/2/6 31/2/6
f 31/2/6 20/2/6 33/2/6
f 33/2/6 20/2/6 129/2/6
f 96/2/6 38/2/6 36/2/6
f 36/2/6 38/2/6 22/2/6
f 38/2/6 128/2/6 23/2/6
f 22/2/6 38/2/6 23/2/6
f 53/2/6 55/2/6 54/2/6
f 5/2/6 97/2/6 130/2/6
f 119/2/6 5/2/6 130/2/6
f 130/2/6 97/2/6 2/2/6
f 129/2/6 36/2/6 34/2/6
f 33/2/6 129/2/6 34/2/6
f 36/2/6 22/2/6 34/2/6
f 34/2/6 22/2/6 84/2/6
f 99/2/6 54/2/6 52/2/6
f 54/2/6 55/2/6 52/2/6
f 52/2/6 55/2/6 56/2/6
f 2/2/6 97/2/6 131/2/6
f 99/2/6 52/2/6 132/2/6
f 2/2/6 131/2/6 134/2/6
f 43/2/6 132/2/6 44/2/6
f 44/2/6 132/2/6 46/2/6
f 132/2/6 52/2/6 137/2/6
f 46/2/6 132/2/6 137/2/6
f 135/2/6 136/2/6 105/2/6
f 44/2/6 46/2/6 105/2/6
f 136/2/6 44/2/6 105/2/6
f 105/2/6 46/2/6 107/2/6
f 60/1/6 41/1/6 10/1/6
f 10/1/6 41/1/6 138/1/6
f 139/1/6 10/1/6 32/1/6
f 138/1/6 140/1/6 32/1/6
f 10/1/6 138/1/6 32/1/6
f 32/1/6 140/1/6 88/1/6
f 139/1/6 32/1/6 69/1/6
f 69/1/6 32/1/6 29/1/6
f 29/1/6 32/1/6 141/1/6
f 88/1/6 140/1/6 142/1/6
f 19/2/6 145/2/6 146/2/6
f 146/2/6 145/2/6 35/2/6
f 4/1/6 69/1/6 147/1/6
f 69/1/6 29/1/6 147/1/6
f 147/1/6 29/1/6 30/1/6
f 148/1/6 149/1/6 24/1/6
f 35/2/6 74/2/6 15/2/6
f 146/2/6 35/2/6 15/2/6
f 150/2/6 146/2/6 15/2/6
f 15/2/6 74/2/6 76/2/6
f 151/2/6 15/2/6 152/2/6
f 76/2/6 153/2/6 152/2/6
f 15/2/6 76/2/6 152/2/6
f 237/2/6 245/2/6 12/2/6
f 245/2/6 246/2/6 12/2/6
f 247/2/6 248/2/6 12/2/6
f 246/2/6 247/2/6 12/2/6
f 151/2/6 237/2/6 12/2/6
f 12/2/6 248/2/6 249/2/6
f 250/2/6 153/2/6 42/2/6
f 4/1/6 147/1/6 78/1/6
f 24/1/6 149/1/6 27/1/6
f 249/2/6 250/2/6 18/2/6
f 18/2/6 250/2/6 95/2/6
f 95/2/6 250/2/6 37/2/6
f 37/2/6 250/2/6 251/2/6
f 78/1/6 79/1/6 6/1/6
f 4/1/6 78/1/6 6/1/6
f 6/1/6 79/1/6 7/1/6
f 7/1/6 79/1/6 80/1/6
f 95/2/6 37/2/6 21/2/6
f 21/2/6 37/2/6 98/2/6
f 252/1/6 27/1/6 83/1/6
f 27/1/6 149/1/6 253/1/6
f 83/1/6 27/1/6 253/1/6
f 253/1/6 149/1/6 100/1/6
f 80/1/6 81/1/6 85/1/6
f 7/1/6 80/1/6 85/1/6
f 83/1/6 253/1/6 254/1/6
f 82/1/6 83/1/6 254/1/6
f 7/1/6 85/1/6 103/1/6
f 85/1/6 254/1/6 103/1/6
f 103/1/6 254/1/6 13/1/6
f 254/1/6 253/1/6 104/1/6
f 13/1/6 254/1/6 104/1/6
f 104/1/6 253/1/6 48/1/6
f 13/1/6 104/1/6 255/1/6
f 255/1/6 104/1/6 256/1/6
