# MagicaVoxel @ Ephtracy

# group
g YellowSpace

# material
mtllib YellowSpace.mtl
usemtl palette

# normals
vn -1 0 0
vn 1 0 0
vn 0 0 1
vn 0 0 -1
vn 0 -1 0
vn 0 1 0

# texcoords
vt 0.00976563 0.5
vt 0.0683594 0.5
vt 0.947266 0.5
vt 0.990234 0.5

# verts
v -20 0 17
v -20 0 -17
v -20 4 17
v -20 4 -17
v -19 0 19
v -19 0 17
v -19 0 -17
v -19 0 -19
v -19 4 19
v -19 4 17
v -19 4 16
v -19 4 -16
v -19 4 -17
v -19 4 -19
v -19 5 16
v -19 5 -16
v -18 4 18
v -18 4 16
v -18 4 -16
v -18 4 -18
v -18 5 18
v -18 5 16
v -18 5 -16
v -18 5 -18
v -17 0 20
v -17 0 19
v -17 0 -19
v -17 0 -20
v -17 4 20
v -17 4 19
v -17 4 -19
v -17 4 -20
v -16 4 19
v -16 4 18
v -16 4 13
v -16 4 -13
v -16 4 -18
v -16 4 -19
v -16 5 19
v -16 5 18
v -16 5 13
v -16 5 -13
v -16 5 -18
v -16 5 -19
v -15 4 15
v -15 4 13
v -15 4 -13
v -15 4 -15
v -15 5 15
v -15 5 13
v -15 5 -13
v -15 5 -15
v -13 4 16
v -13 4 15
v -13 4 -15
v -13 4 -16
v -13 5 16
v -13 5 15
v -13 5 -15
v -13 5 -16
v 14 4 17
v 14 4 16
v 14 4 -16
v 14 4 -17
v 14 5 17
v 14 5 16
v 14 5 -16
v 14 5 -17
v 16 4 16
v 16 4 14
v 16 4 -14
v 16 4 -16
v 16 5 16
v 16 5 14
v 16 5 -14
v 16 5 -16
v 17 4 14
v 17 4 -14
v 17 5 14
v 17 5 -14
v -17 4 14
v -17 4 -14
v -17 5 14
v -17 5 -14
v -16 4 16
v -16 4 14
v -16 4 -14
v -16 4 -16
v -16 5 16
v -16 5 14
v -16 5 -14
v -16 5 -16
v -14 4 17
v -14 4 16
v -14 4 -16
v -14 4 -17
v -14 5 17
v -14 5 16
v -14 5 -16
v -14 5 -17
v 13 4 16
v 13 4 15
v 13 4 -15
v 13 4 -16
v 13 5 16
v 13 5 15
v 13 5 -15
v 13 5 -16
v 15 4 15
v 15 4 13
v 15 4 -13
v 15 4 -15
v 15 5 15
v 15 5 13
v 15 5 -13
v 15 5 -15
v 16 4 19
v 16 4 18
v 16 4 13
v 16 4 -13
v 16 4 -18
v 16 4 -19
v 16 5 19
v 16 5 18
v 16 5 13
v 16 5 -13
v 16 5 -18
v 16 5 -19
v 17 0 20
v 17 0 19
v 17 0 -19
v 17 0 -20
v 17 4 20
v 17 4 19
v 17 4 -19
v 17 4 -20
v 18 4 18
v 18 4 16
v 18 4 -16
v 18 4 -18
v 18 5 18
v 18 5 16
v 18 5 -16
v 18 5 -18
v 19 0 19
v 19 0 17
v 19 0 -17
v 19 0 -19
v 19 4 19
v 19 4 17
v 19 4 16
v 19 4 -16
v 19 4 -17
v 19 4 -19
v 19 5 16
v 19 5 -16
v 20 0 17
v 20 0 -17
v 20 4 17
v 20 4 -17
v -17 0 20
v -17 4 20
v 17 0 20
v 17 4 20
v -19 0 19
v -19 4 19
v -17 0 19
v -17 4 19
v -16 4 19
v -16 5 19
v 16 4 19
v 16 5 19
v 17 0 19
v 17 4 19
v 19 0 19
v 19 4 19
v -18 4 18
v -18 5 18
v -16 4 18
v -16 5 18
v 16 4 18
v 16 5 18
v 18 4 18
v 18 5 18
v -20 0 17
v -20 4 17
v -19 0 17
v -19 4 17
v 19 0 17
v 19 4 17
v 20 0 17
v 20 4 17
v -19 4 16
v -19 5 16
v -18 4 16
v -18 5 16
v -13 4 16
v -13 5 16
v 13 4 16
v 13 5 16
v 18 4 16
v 18 5 16
v 19 4 16
v 19 5 16
v -15 4 15
v -15 5 15
v -13 4 15
v -13 5 15
v 13 4 15
v 13 5 15
v 15 4 15
v 15 5 15
v -16 4 13
v -16 5 13
v -15 4 13
v -15 5 13
v 15 4 13
v 15 5 13
v 16 4 13
v 16 5 13
v -17 4 -14
v -17 5 -14
v -16 4 -14
v -16 5 -14
v 16 4 -14
v 16 5 -14
v 17 4 -14
v 17 5 -14
v -16 4 -16
v -16 5 -16
v -14 4 -16
v -14 5 -16
v 14 4 -16
v 14 5 -16
v 16 4 -16
v 16 5 -16
v -14 4 -17
v -14 5 -17
v 14 4 -17
v 14 5 -17
v -14 4 17
v -14 5 17
v 14 4 17
v 14 5 17
v -16 4 16
v -16 5 16
v -14 4 16
v -14 5 16
v 14 4 16
v 14 5 16
v 16 4 16
v 16 5 16
v -17 4 14
v -17 5 14
v -16 4 14
v -16 5 14
v 16 4 14
v 16 5 14
v 17 4 14
v 17 5 14
v -16 4 -13
v -16 5 -13
v -15 4 -13
v -15 5 -13
v 15 4 -13
v 15 5 -13
v 16 4 -13
v 16 5 -13
v -15 4 -15
v -15 5 -15
v -13 4 -15
v -13 5 -15
v 13 4 -15
v 13 5 -15
v 15 4 -15
v 15 5 -15
v -19 4 -16
v -19 5 -16
v -18 4 -16
v -18 5 -16
v -13 4 -16
v -13 5 -16
v 13 4 -16
v 13 5 -16
v 18 4 -16
v 18 5 -16
v 19 4 -16
v 19 5 -16
v -20 0 -17
v -20 4 -17
v -19 0 -17
v -19 4 -17
v 19 0 -17
v 19 4 -17
v 20 0 -17
v 20 4 -17
v -18 4 -18
v -18 5 -18
v -16 4 -18
v -16 5 -18
v 16 4 -18
v 16 5 -18
v 18 4 -18
v 18 5 -18
v -19 0 -19
v -19 4 -19
v -17 0 -19
v -17 4 -19
v -16 4 -19
v -16 5 -19
v 16 4 -19
v 16 5 -19
v 17 0 -19
v 17 4 -19
v 19 0 -19
v 19 4 -19
v -17 0 -20
v -17 4 -20
v 17 0 -20
v 17 4 -20
v -17 0 20
v 17 0 20
v -19 0 19
v -17 0 19
v 17 0 19
v 19 0 19
v -20 0 17
v -19 0 17
v 19 0 17
v 20 0 17
v -20 0 -17
v -19 0 -17
v 19 0 -17
v 20 0 -17
v -19 0 -19
v -17 0 -19
v 17 0 -19
v 19 0 -19
v -17 0 -20
v 17 0 -20
v -17 4 20
v 17 4 20
v -19 4 19
v -17 4 19
v -16 4 19
v 16 4 19
v 17 4 19
v 19 4 19
v -18 4 18
v -16 4 18
v 16 4 18
v 18 4 18
v -20 4 17
v -19 4 17
v -14 4 17
v 14 4 17
v 19 4 17
v 20 4 17
v -19 4 16
v -18 4 16
v -16 4 16
v -14 4 16
v -13 4 16
v 13 4 16
v 14 4 16
v 16 4 16
v 18 4 16
v 19 4 16
v -15 4 15
v -13 4 15
v 13 4 15
v 15 4 15
v -17 4 14
v -16 4 14
v 16 4 14
v 17 4 14
v -16 4 13
v -15 4 13
v 15 4 13
v 16 4 13
v -16 4 -13
v -15 4 -13
v 15 4 -13
v 16 4 -13
v -17 4 -14
v -16 4 -14
v 16 4 -14
v 17 4 -14
v -15 4 -15
v -13 4 -15
v 13 4 -15
v 15 4 -15
v -19 4 -16
v -18 4 -16
v -16 4 -16
v -14 4 -16
v -13 4 -16
v 13 4 -16
v 14 4 -16
v 16 4 -16
v 18 4 -16
v 19 4 -16
v -20 4 -17
v -19 4 -17
v -14 4 -17
v 14 4 -17
v 19 4 -17
v 20 4 -17
v -18 4 -18
v -16 4 -18
v 16 4 -18
v 18 4 -18
v -19 4 -19
v -17 4 -19
v -16 4 -19
v 16 4 -19
v 17 4 -19
v 19 4 -19
v -17 4 -20
v 17 4 -20
v -16 5 19
v 16 5 19
v -18 5 18
v -16 5 18
v 16 5 18
v 18 5 18
v -14 5 17
v 14 5 17
v -19 5 16
v -18 5 16
v -16 5 16
v -14 5 16
v -13 5 16
v 13 5 16
v 14 5 16
v 16 5 16
v 18 5 16
v 19 5 16
v -15 5 15
v -13 5 15
v 13 5 15
v 15 5 15
v -17 5 14
v -16 5 14
v 16 5 14
v 17 5 14
v -16 5 13
v -15 5 13
v 15 5 13
v 16 5 13
v -16 5 -13
v -15 5 -13
v 15 5 -13
v 16 5 -13
v -17 5 -14
v -16 5 -14
v 16 5 -14
v 17 5 -14
v -15 5 -15
v -13 5 -15
v 13 5 -15
v 15 5 -15
v -19 5 -16
v -18 5 -16
v -16 5 -16
v -14 5 -16
v -13 5 -16
v 13 5 -16
v 14 5 -16
v 16 5 -16
v 18 5 -16
v 19 5 -16
v -14 5 -17
v 14 5 -17
v -18 5 -18
v -16 5 -18
v 16 5 -18
v 18 5 -18
v -16 5 -19
v 16 5 -19

# faces
f 3/4/1 2/4/1 1/4/1
f 4/4/1 2/4/1 3/4/1
f 9/4/1 6/4/1 5/4/1
f 10/4/1 6/4/1 9/4/1
f 13/4/1 8/4/1 7/4/1
f 14/4/1 8/4/1 13/4/1
f 15/2/1 12/2/1 11/2/1
f 16/2/1 12/2/1 15/2/1
f 21/2/1 18/2/1 17/2/1
f 22/2/1 18/2/1 21/2/1
f 23/2/1 20/2/1 19/2/1
f 24/2/1 20/2/1 23/2/1
f 29/4/1 26/4/1 25/4/1
f 30/4/1 26/4/1 29/4/1
f 31/4/1 28/4/1 27/4/1
f 32/4/1 28/4/1 31/4/1
f 39/2/1 34/2/1 33/2/1
f 40/2/1 34/2/1 39/2/1
f 41/1/1 36/1/1 35/1/1
f 42/1/1 36/1/1 41/1/1
f 43/2/1 38/2/1 37/2/1
f 44/2/1 38/2/1 43/2/1
f 49/1/1 46/1/1 45/1/1
f 50/1/1 46/1/1 49/1/1
f 51/1/1 48/1/1 47/1/1
f 52/1/1 48/1/1 51/1/1
f 57/1/1 54/1/1 53/1/1
f 58/1/1 54/1/1 57/1/1
f 59/1/1 56/1/1 55/1/1
f 60/1/1 56/1/1 59/1/1
f 65/2/1 62/2/1 61/2/1
f 66/2/1 62/2/1 65/2/1
f 67/2/1 64/2/1 63/2/1
f 68/2/1 64/2/1 67/2/1
f 73/2/1 70/2/1 69/2/1
f 74/2/1 70/2/1 73/2/1
f 75/2/1 72/2/1 71/2/1
f 76/2/1 72/2/1 75/2/1
f 79/2/1 78/2/1 77/2/1
f 80/2/1 78/2/1 79/2/1
f 81/2/2 82/2/2 83/2/2
f 83/2/2 82/2/2 84/2/2
f 85/2/2 86/2/2 89/2/2
f 89/2/2 86/2/2 90/2/2
f 87/2/2 88/2/2 91/2/2
f 91/2/2 88/2/2 92/2/2
f 93/2/2 94/2/2 97/2/2
f 97/2/2 94/2/2 98/2/2
f 95/2/2 96/2/2 99/2/2
f 99/2/2 96/2/2 100/2/2
f 101/1/2 102/1/2 105/1/2
f 105/1/2 102/1/2 106/1/2
f 103/1/2 104/1/2 107/1/2
f 107/1/2 104/1/2 108/1/2
f 109/1/2 110/1/2 113/1/2
f 113/1/2 110/1/2 114/1/2
f 111/1/2 112/1/2 115/1/2
f 115/1/2 112/1/2 116/1/2
f 117/2/2 118/2/2 123/2/2
f 123/2/2 118/2/2 124/2/2
f 119/1/2 120/1/2 125/1/2
f 125/1/2 120/1/2 126/1/2
f 121/2/2 122/2/2 127/2/2
f 127/2/2 122/2/2 128/2/2
f 129/4/2 130/4/2 133/4/2
f 133/4/2 130/4/2 134/4/2
f 131/4/2 132/4/2 135/4/2
f 135/4/2 132/4/2 136/4/2
f 137/2/2 138/2/2 141/2/2
f 141/2/2 138/2/2 142/2/2
f 139/2/2 140/2/2 143/2/2
f 143/2/2 140/2/2 144/2/2
f 145/4/2 146/4/2 149/4/2
f 149/4/2 146/4/2 150/4/2
f 147/4/2 148/4/2 153/4/2
f 153/4/2 148/4/2 154/4/2
f 151/2/2 152/2/2 155/2/2
f 155/2/2 152/2/2 156/2/2
f 157/4/2 158/4/2 159/4/2
f 159/4/2 158/4/2 160/4/2
f 163/4/3 162/4/3 161/4/3
f 164/4/3 162/4/3 163/4/3
f 167/4/3 166/4/3 165/4/3
f 168/4/3 166/4/3 167/4/3
f 171/2/3 170/2/3 169/2/3
f 172/2/3 170/2/3 171/2/3
f 175/4/3 174/4/3 173/4/3
f 176/4/3 174/4/3 175/4/3
f 179/2/3 178/2/3 177/2/3
f 180/2/3 178/2/3 179/2/3
f 183/2/3 182/2/3 181/2/3
f 184/2/3 182/2/3 183/2/3
f 187/4/3 186/4/3 185/4/3
f 188/4/3 186/4/3 187/4/3
f 191/4/3 190/4/3 189/4/3
f 192/4/3 190/4/3 191/4/3
f 195/2/3 194/2/3 193/2/3
f 196/2/3 194/2/3 195/2/3
f 199/1/3 198/1/3 197/1/3
f 200/1/3 198/1/3 199/1/3
f 203/2/3 202/2/3 201/2/3
f 204/2/3 202/2/3 203/2/3
f 207/1/3 206/1/3 205/1/3
f 208/1/3 206/1/3 207/1/3
f 211/1/3 210/1/3 209/1/3
f 212/1/3 210/1/3 211/1/3
f 215/1/3 214/1/3 213/1/3
f 216/1/3 214/1/3 215/1/3
f 219/1/3 218/1/3 217/1/3
f 220/1/3 218/1/3 219/1/3
f 223/2/3 222/2/3 221/2/3
f 224/2/3 222/2/3 223/2/3
f 227/2/3 226/2/3 225/2/3
f 228/2/3 226/2/3 227/2/3
f 231/2/3 230/2/3 229/2/3
f 232/2/3 230/2/3 231/2/3
f 235/2/3 234/2/3 233/2/3
f 236/2/3 234/2/3 235/2/3
f 239/2/3 238/2/3 237/2/3
f 240/2/3 238/2/3 239/2/3
f 241/2/4 242/2/4 243/2/4
f 243/2/4 242/2/4 244/2/4
f 245/2/4 246/2/4 247/2/4
f 247/2/4 246/2/4 248/2/4
f 249/2/4 250/2/4 251/2/4
f 251/2/4 250/2/4 252/2/4
f 253/2/4 254/2/4 255/2/4
f 255/2/4 254/2/4 256/2/4
f 257/2/4 258/2/4 259/2/4
f 259/2/4 258/2/4 260/2/4
f 261/1/4 262/1/4 263/1/4
f 263/1/4 262/1/4 264/1/4
f 265/1/4 266/1/4 267/1/4
f 267/1/4 266/1/4 268/1/4
f 269/1/4 270/1/4 271/1/4
f 271/1/4 270/1/4 272/1/4
f 273/1/4 274/1/4 275/1/4
f 275/1/4 274/1/4 276/1/4
f 277/2/4 278/2/4 279/2/4
f 279/2/4 278/2/4 280/2/4
f 281/1/4 282/1/4 283/1/4
f 283/1/4 282/1/4 284/1/4
f 285/2/4 286/2/4 287/2/4
f 287/2/4 286/2/4 288/2/4
f 289/4/4 290/4/4 291/4/4
f 291/4/4 290/4/4 292/4/4
f 293/4/4 294/4/4 295/4/4
f 295/4/4 294/4/4 296/4/4
f 297/2/4 298/2/4 299/2/4
f 299/2/4 298/2/4 300/2/4
f 301/2/4 302/2/4 303/2/4
f 303/2/4 302/2/4 304/2/4
f 305/4/4 306/4/4 307/4/4
f 307/4/4 306/4/4 308/4/4
f 309/2/4 310/2/4 311/2/4
f 311/2/4 310/2/4 312/2/4
f 313/4/4 314/4/4 315/4/4
f 315/4/4 314/4/4 316/4/4
f 317/4/4 318/4/4 319/4/4
f 319/4/4 318/4/4 320/4/4
f 324/4/5 322/4/5 321/4/5
f 325/4/5 322/4/5 324/4/5
f 328/4/5 324/4/5 323/4/5
f 328/4/5 326/4/5 325/4/5
f 328/4/5 325/4/5 324/4/5
f 329/4/5 326/4/5 328/4/5
f 331/4/5 328/4/5 327/4/5
f 331/4/5 330/4/5 329/4/5
f 331/4/5 329/4/5 328/4/5
f 332/4/5 330/4/5 331/4/5
f 333/4/5 330/4/5 332/4/5
f 334/4/5 330/4/5 333/4/5
f 335/4/5 333/4/5 332/4/5
f 336/4/5 333/4/5 335/4/5
f 337/4/5 333/4/5 336/4/5
f 338/4/5 333/4/5 337/4/5
f 339/4/5 337/4/5 336/4/5
f 340/4/5 337/4/5 339/4/5
f 341/4/6 342/4/6 344/4/6
f 344/4/6 342/4/6 345/4/6
f 345/4/6 342/4/6 346/4/6
f 346/4/6 342/4/6 347/4/6
f 343/4/6 344/4/6 349/4/6
f 344/4/6 345/4/6 349/4/6
f 349/4/6 345/4/6 350/4/6
f 347/4/6 348/4/6 351/4/6
f 346/4/6 347/4/6 351/4/6
f 351/4/6 348/4/6 352/4/6
f 343/4/6 349/4/6 354/4/6
f 352/4/6 348/4/6 357/4/6
f 354/4/6 349/4/6 359/4/6
f 353/4/6 354/4/6 359/4/6
f 359/4/6 349/4/6 360/4/6
f 355/4/6 356/4/6 362/4/6
f 362/4/6 356/4/6 363/4/6
f 363/4/6 356/4/6 364/4/6
f 364/4/6 356/4/6 365/4/6
f 357/4/6 358/4/6 367/4/6
f 352/4/6 357/4/6 367/4/6
f 367/4/6 358/4/6 368/4/6
f 361/4/6 362/4/6 369/4/6
f 362/4/6 363/4/6 369/4/6
f 369/4/6 363/4/6 370/4/6
f 365/4/6 366/4/6 371/4/6
f 364/4/6 365/4/6 371/4/6
f 371/4/6 366/4/6 372/4/6
f 361/4/6 369/4/6 374/4/6
f 372/4/6 366/4/6 375/4/6
f 373/4/6 374/4/6 377/4/6
f 374/4/6 369/4/6 377/4/6
f 377/4/6 369/4/6 378/4/6
f 375/4/6 376/4/6 379/4/6
f 372/4/6 375/4/6 379/4/6
f 379/4/6 376/4/6 380/4/6
f 373/4/6 377/4/6 381/4/6
f 380/4/6 376/4/6 384/4/6
f 381/4/6 382/4/6 385/4/6
f 373/4/6 381/4/6 385/4/6
f 385/4/6 382/4/6 386/4/6
f 383/4/6 384/4/6 387/4/6
f 384/4/6 376/4/6 387/4/6
f 387/4/6 376/4/6 388/4/6
f 386/4/6 382/4/6 389/4/6
f 383/4/6 387/4/6 392/4/6
f 353/4/6 359/4/6 393/4/6
f 389/4/6 390/4/6 395/4/6
f 386/4/6 389/4/6 395/4/6
f 395/4/6 390/4/6 396/4/6
f 396/4/6 390/4/6 397/4/6
f 391/4/6 392/4/6 398/4/6
f 398/4/6 392/4/6 399/4/6
f 392/4/6 387/4/6 400/4/6
f 399/4/6 392/4/6 400/4/6
f 368/4/6 358/4/6 402/4/6
f 393/4/6 394/4/6 403/4/6
f 353/4/6 393/4/6 403/4/6
f 403/4/6 394/4/6 404/4/6
f 397/4/6 398/4/6 405/4/6
f 396/4/6 397/4/6 405/4/6
f 398/4/6 399/4/6 405/4/6
f 405/4/6 399/4/6 406/4/6
f 401/4/6 402/4/6 407/4/6
f 402/4/6 358/4/6 407/4/6
f 407/4/6 358/4/6 408/4/6
f 404/4/6 394/4/6 409/4/6
f 401/4/6 407/4/6 412/4/6
f 409/4/6 410/4/6 413/4/6
f 404/4/6 409/4/6 413/4/6
f 413/4/6 410/4/6 414/4/6
f 414/4/6 410/4/6 415/4/6
f 411/4/6 412/4/6 416/4/6
f 416/4/6 412/4/6 417/4/6
f 412/4/6 407/4/6 418/4/6
f 417/4/6 412/4/6 418/4/6
f 414/4/6 415/4/6 419/4/6
f 416/4/6 417/4/6 419/4/6
f 415/4/6 416/4/6 419/4/6
f 419/4/6 417/4/6 420/4/6
f 421/2/6 422/2/6 424/2/6
f 424/2/6 422/2/6 425/2/6
f 423/2/6 424/2/6 427/2/6
f 425/2/6 426/2/6 427/2/6
f 424/2/6 425/2/6 427/2/6
f 427/2/6 426/2/6 428/2/6
f 423/2/6 427/2/6 430/2/6
f 430/2/6 427/2/6 431/2/6
f 431/2/6 427/2/6 432/2/6
f 428/2/6 426/2/6 435/2/6
f 435/2/6 426/2/6 436/2/6
f 436/2/6 426/2/6 437/2/6
f 433/1/6 434/1/6 440/1/6
f 440/1/6 434/1/6 441/1/6
f 429/2/6 430/2/6 443/2/6
f 430/2/6 431/2/6 443/2/6
f 443/2/6 431/2/6 444/2/6
f 436/2/6 437/2/6 445/2/6
f 437/2/6 438/2/6 445/2/6
f 445/2/6 438/2/6 446/2/6
f 441/1/6 442/1/6 448/1/6
f 440/1/6 441/1/6 448/1/6
f 439/1/6 440/1/6 448/1/6
f 448/1/6 442/1/6 449/1/6
f 447/1/6 448/1/6 451/1/6
f 449/1/6 450/1/6 451/1/6
f 448/1/6 449/1/6 451/1/6
f 451/1/6 450/1/6 452/1/6
f 452/1/6 450/1/6 453/1/6
f 453/1/6 450/1/6 454/1/6
f 429/2/6 443/2/6 455/2/6
f 446/2/6 438/2/6 458/2/6
f 452/1/6 453/1/6 459/1/6
f 459/1/6 453/1/6 460/1/6
f 460/1/6 453/1/6 461/1/6
f 461/1/6 453/1/6 462/1/6
f 455/2/6 456/2/6 463/2/6
f 429/2/6 455/2/6 463/2/6
f 463/2/6 456/2/6 464/2/6
f 464/2/6 456/2/6 465/2/6
f 460/1/6 461/1/6 467/1/6
f 467/1/6 461/1/6 468/1/6
f 457/2/6 458/2/6 470/2/6
f 458/2/6 438/2/6 471/2/6
f 470/2/6 458/2/6 471/2/6
f 471/2/6 438/2/6 472/2/6
f 465/2/6 466/2/6 473/2/6
f 464/2/6 465/2/6 473/2/6
f 470/2/6 471/2/6 474/2/6
f 469/2/6 470/2/6 474/2/6
f 464/2/6 473/2/6 475/2/6
f 473/2/6 474/2/6 475/2/6
f 475/2/6 474/2/6 476/2/6
f 474/2/6 471/2/6 477/2/6
f 476/2/6 474/2/6 477/2/6
f 477/2/6 471/2/6 478/2/6
f 476/2/6 477/2/6 479/2/6
f 479/2/6 477/2/6 480/2/6
