# MagicaVoxel @ Ephtracy

# group
g TV

# material
mtllib TV.mtl
usemtl palette

# normals
vn -1 0 0
vn 1 0 0
vn 0 0 1
vn 0 0 -1
vn 0 -1 0
vn 0 1 0

# texcoords
vt 0.0996094 0.5
vt 0.759766 0.5
vt 0.927734 0.5
vt 0.990234 0.5

# verts
v -28 4 12
v -28 4 -12
v -28 44 12
v -28 44 -12
v -24 0 12
v -24 0 -12
v -24 4 16
v -24 4 12
v -24 4 -12
v -24 4 -16
v -24 44 16
v -24 44 12
v -24 44 -12
v -24 44 -16
v -24 48 12
v -24 48 -12
v -16 60 4
v -16 60 -0
v -16 68 4
v -16 68 -0
v -12 56 4
v -12 56 -0
v -12 60 4
v -12 60 -0
v -8 52 4
v -8 52 -0
v -8 56 4
v -8 56 -0
v -4 48 4
v -4 48 -0
v -4 52 4
v -4 52 -0
v 4 52 4
v 4 52 -0
v 4 56 4
v 4 56 -0
v 8 56 4
v 8 56 -0
v 8 60 4
v 8 60 -0
v 12 60 4
v 12 60 -0
v 12 64 4
v 12 64 -0
v 20 16 16
v 20 16 12
v 20 40 16
v 20 40 12
v -20 16 16
v -20 16 12
v -20 40 16
v -20 40 12
v -12 64 4
v -12 64 -0
v -12 68 4
v -12 68 -0
v -8 60 4
v -8 60 -0
v -8 64 4
v -8 64 -0
v -4 56 4
v -4 56 -0
v -4 60 4
v -4 60 -0
v 0 52 4
v 0 52 -0
v 0 56 4
v 0 56 -0
v 8 48 4
v 8 48 -0
v 8 52 4
v 8 52 -0
v 12 52 4
v 12 52 -0
v 12 56 4
v 12 56 -0
v 16 56 4
v 16 56 -0
v 16 60 4
v 16 60 -0
v 20 60 4
v 20 60 -0
v 20 64 4
v 20 64 -0
v 24 0 12
v 24 0 -12
v 24 4 16
v 24 4 12
v 24 4 -12
v 24 4 -16
v 24 44 16
v 24 44 12
v 24 44 -12
v 24 44 -16
v 24 48 12
v 24 48 -12
v 28 4 12
v 28 4 -12
v 28 44 12
v 28 44 -12
v -24 4 16
v -24 44 16
v -20 16 16
v -20 40 16
v -16 8 16
v -16 12 16
v -12 8 16
v -12 12 16
v 4 8 16
v 4 12 16
v 8 8 16
v 8 12 16
v 12 8 16
v 12 12 16
v 16 8 16
v 16 12 16
v 20 16 16
v 20 40 16
v 24 4 16
v 24 44 16
v -28 4 12
v -28 44 12
v -24 0 12
v -24 4 12
v -24 44 12
v -24 48 12
v -20 16 12
v -20 40 12
v 20 16 12
v 20 40 12
v 24 0 12
v 24 4 12
v 24 44 12
v 24 48 12
v 28 4 12
v 28 44 12
v -16 60 4
v -16 68 4
v -12 56 4
v -12 60 4
v -12 64 4
v -12 68 4
v -8 52 4
v -8 56 4
v -8 60 4
v -8 64 4
v -4 48 4
v -4 52 4
v -4 56 4
v -4 60 4
v 0 52 4
v 0 56 4
v 4 52 4
v 4 56 4
v 8 48 4
v 8 52 4
v 8 56 4
v 8 60 4
v 12 52 4
v 12 56 4
v 12 60 4
v 12 64 4
v 16 56 4
v 16 60 4
v 20 60 4
v 20 64 4
v -16 60 -0
v -16 68 -0
v -12 56 -0
v -12 60 -0
v -12 64 -0
v -12 68 -0
v -8 52 -0
v -8 56 -0
v -8 60 -0
v -8 64 -0
v -4 48 -0
v -4 52 -0
v -4 56 -0
v -4 60 -0
v 0 52 -0
v 0 56 -0
v 4 52 -0
v 4 56 -0
v 8 48 -0
v 8 52 -0
v 8 56 -0
v 8 60 -0
v 12 52 -0
v 12 56 -0
v 12 60 -0
v 12 64 -0
v 16 56 -0
v 16 60 -0
v 20 60 -0
v 20 64 -0
v -28 4 -12
v -28 44 -12
v -24 0 -12
v -24 4 -12
v -24 44 -12
v -24 48 -12
v 24 0 -12
v 24 4 -12
v 24 44 -12
v 24 48 -12
v 28 4 -12
v 28 44 -12
v -24 4 -16
v -24 44 -16
v 24 4 -16
v 24 44 -16
v -24 0 12
v 24 0 12
v -24 0 -12
v 24 0 -12
v -24 4 16
v 24 4 16
v -28 4 12
v -24 4 12
v 24 4 12
v 28 4 12
v -28 4 -12
v -24 4 -12
v 24 4 -12
v 28 4 -12
v -24 4 -16
v 24 4 -16
v -20 40 16
v 20 40 16
v -20 40 12
v 20 40 12
v -8 52 4
v -4 52 4
v 8 52 4
v 12 52 4
v -8 52 -0
v -4 52 -0
v 8 52 -0
v 12 52 -0
v -12 56 4
v -8 56 4
v 12 56 4
v 16 56 4
v -12 56 -0
v -8 56 -0
v 12 56 -0
v 16 56 -0
v -16 60 4
v -12 60 4
v 16 60 4
v 20 60 4
v -16 60 -0
v -12 60 -0
v 16 60 -0
v 20 60 -0
v -20 16 16
v 20 16 16
v -20 16 12
v 20 16 12
v -24 44 16
v 24 44 16
v -28 44 12
v -24 44 12
v 24 44 12
v 28 44 12
v -28 44 -12
v -24 44 -12
v 24 44 -12
v 28 44 -12
v -24 44 -16
v 24 44 -16
v -24 48 12
v 24 48 12
v -4 48 4
v 8 48 4
v -4 48 -0
v 8 48 -0
v -24 48 -12
v 24 48 -12
v 0 52 4
v 4 52 4
v 0 52 -0
v 4 52 -0
v -4 56 4
v 0 56 4
v 4 56 4
v 8 56 4
v -4 56 -0
v 0 56 -0
v 4 56 -0
v 8 56 -0
v -8 60 4
v -4 60 4
v 8 60 4
v 12 60 4
v -8 60 -0
v -4 60 -0
v 8 60 -0
v 12 60 -0
v -12 64 4
v -8 64 4
v 12 64 4
v 20 64 4
v -12 64 -0
v -8 64 -0
v 12 64 -0
v 20 64 -0
v -16 68 4
v -12 68 4
v -16 68 -0
v -12 68 -0

# faces
f 3/4/1 2/4/1 1/4/1
f 4/4/1 2/4/1 3/4/1
f 8/4/1 6/4/1 5/4/1
f 9/4/1 6/4/1 8/4/1
f 11/4/1 8/4/1 7/4/1
f 12/4/1 8/4/1 11/4/1
f 13/4/1 10/4/1 9/4/1
f 14/4/1 10/4/1 13/4/1
f 15/4/1 13/4/1 12/4/1
f 16/4/1 13/4/1 15/4/1
f 19/3/1 18/3/1 17/3/1
f 20/3/1 18/3/1 19/3/1
f 23/3/1 22/3/1 21/3/1
f 24/3/1 22/3/1 23/3/1
f 27/3/1 26/3/1 25/3/1
f 28/3/1 26/3/1 27/3/1
f 31/3/1 30/3/1 29/3/1
f 32/3/1 30/3/1 31/3/1
f 35/3/1 34/3/1 33/3/1
f 36/3/1 34/3/1 35/3/1
f 39/3/1 38/3/1 37/3/1
f 40/3/1 38/3/1 39/3/1
f 43/3/1 42/3/1 41/3/1
f 44/3/1 42/3/1 43/3/1
f 47/4/1 46/4/1 45/4/1
f 48/4/1 46/4/1 47/4/1
f 49/4/2 50/4/2 51/4/2
f 51/4/2 50/4/2 52/4/2
f 53/3/2 54/3/2 55/3/2
f 55/3/2 54/3/2 56/3/2
f 57/3/2 58/3/2 59/3/2
f 59/3/2 58/3/2 60/3/2
f 61/3/2 62/3/2 63/3/2
f 63/3/2 62/3/2 64/3/2
f 65/3/2 66/3/2 67/3/2
f 67/3/2 66/3/2 68/3/2
f 69/3/2 70/3/2 71/3/2
f 71/3/2 70/3/2 72/3/2
f 73/3/2 74/3/2 75/3/2
f 75/3/2 74/3/2 76/3/2
f 77/3/2 78/3/2 79/3/2
f 79/3/2 78/3/2 80/3/2
f 81/3/2 82/3/2 83/3/2
f 83/3/2 82/3/2 84/3/2
f 85/4/2 86/4/2 88/4/2
f 88/4/2 86/4/2 89/4/2
f 87/4/2 88/4/2 91/4/2
f 91/4/2 88/4/2 92/4/2
f 89/4/2 90/4/2 93/4/2
f 93/4/2 90/4/2 94/4/2
f 92/4/2 93/4/2 95/4/2
f 95/4/2 93/4/2 96/4/2
f 97/4/2 98/4/2 99/4/2
f 99/4/2 98/4/2 100/4/2
f 103/4/3 102/4/3 101/4/3
f 104/4/3 102/4/3 103/4/3
f 105/4/3 103/4/3 101/4/3
f 106/4/3 103/4/3 105/4/3
f 107/4/3 105/4/3 101/4/3
f 107/1/3 106/1/3 105/1/3
f 108/4/3 103/4/3 106/4/3
f 108/1/3 106/1/3 107/1/3
f 109/4/3 107/4/3 101/4/3
f 109/4/3 108/4/3 107/4/3
f 110/4/3 103/4/3 108/4/3
f 110/4/3 108/4/3 109/4/3
f 111/4/3 109/4/3 101/4/3
f 111/2/3 110/2/3 109/2/3
f 112/4/3 103/4/3 110/4/3
f 112/2/3 110/2/3 111/2/3
f 113/4/3 111/4/3 101/4/3
f 113/4/3 112/4/3 111/4/3
f 114/4/3 103/4/3 112/4/3
f 114/4/3 112/4/3 113/4/3
f 115/4/3 113/4/3 101/4/3
f 115/2/3 114/2/3 113/2/3
f 116/4/3 103/4/3 114/4/3
f 116/2/3 114/2/3 115/2/3
f 117/4/3 116/4/3 115/4/3
f 117/4/3 103/4/3 116/4/3
f 118/4/3 102/4/3 104/4/3
f 119/4/3 117/4/3 115/4/3
f 119/4/3 118/4/3 117/4/3
f 119/4/3 115/4/3 101/4/3
f 120/4/3 102/4/3 118/4/3
f 120/4/3 118/4/3 119/4/3
f 124/4/3 122/4/3 121/4/3
f 125/4/3 122/4/3 124/4/3
f 129/4/3 128/4/3 127/4/3
f 130/4/3 128/4/3 129/4/3
f 131/4/3 124/4/3 123/4/3
f 132/4/3 124/4/3 131/4/3
f 133/4/3 126/4/3 125/4/3
f 134/4/3 126/4/3 133/4/3
f 135/4/3 133/4/3 132/4/3
f 136/4/3 133/4/3 135/4/3
f 140/3/3 138/3/3 137/3/3
f 141/3/3 138/3/3 140/3/3
f 142/3/3 138/3/3 141/3/3
f 144/3/3 140/3/3 139/3/3
f 144/3/3 141/3/3 140/3/3
f 145/3/3 141/3/3 144/3/3
f 146/3/3 141/3/3 145/3/3
f 148/3/3 144/3/3 143/3/3
f 148/3/3 145/3/3 144/3/3
f 149/3/3 145/3/3 148/3/3
f 150/3/3 145/3/3 149/3/3
f 151/3/3 148/3/3 147/3/3
f 151/3/3 149/3/3 148/3/3
f 152/3/3 149/3/3 151/3/3
f 153/3/3 151/3/3 147/3/3
f 155/3/3 153/3/3 147/3/3
f 155/3/3 154/3/3 153/3/3
f 156/3/3 154/3/3 155/3/3
f 157/3/3 154/3/3 156/3/3
f 159/3/3 157/3/3 156/3/3
f 159/3/3 158/3/3 157/3/3
f 160/3/3 158/3/3 159/3/3
f 161/3/3 158/3/3 160/3/3
f 163/3/3 161/3/3 160/3/3
f 163/3/3 162/3/3 161/3/3
f 164/3/3 162/3/3 163/3/3
f 165/3/3 162/3/3 164/3/3
f 166/3/3 162/3/3 165/3/3
f 167/3/4 168/3/4 170/3/4
f 170/3/4 168/3/4 171/3/4
f 171/3/4 168/3/4 172/3/4
f 169/3/4 170/3/4 174/3/4
f 170/3/4 171/3/4 174/3/4
f 174/3/4 171/3/4 175/3/4
f 175/3/4 171/3/4 176/3/4
f 173/3/4 174/3/4 178/3/4
f 174/3/4 175/3/4 178/3/4
f 178/3/4 175/3/4 179/3/4
f 179/3/4 175/3/4 180/3/4
f 177/3/4 178/3/4 181/3/4
f 178/3/4 179/3/4 181/3/4
f 181/3/4 179/3/4 182/3/4
f 177/3/4 181/3/4 183/3/4
f 177/3/4 183/3/4 185/3/4
f 183/3/4 184/3/4 185/3/4
f 185/3/4 184/3/4 186/3/4
f 186/3/4 184/3/4 187/3/4
f 186/3/4 187/3/4 189/3/4
f 187/3/4 188/3/4 189/3/4
f 189/3/4 188/3/4 190/3/4
f 190/3/4 188/3/4 191/3/4
f 190/3/4 191/3/4 193/3/4
f 191/3/4 192/3/4 193/3/4
f 193/3/4 192/3/4 194/3/4
f 194/3/4 192/3/4 195/3/4
f 195/3/4 192/3/4 196/3/4
f 197/4/4 198/4/4 200/4/4
f 200/4/4 198/4/4 201/4/4
f 199/4/4 200/4/4 203/4/4
f 203/4/4 200/4/4 204/4/4
f 201/4/4 202/4/4 205/4/4
f 205/4/4 202/4/4 206/4/4
f 204/4/4 205/4/4 207/4/4
f 207/4/4 205/4/4 208/4/4
f 209/4/4 210/4/4 211/4/4
f 211/4/4 210/4/4 212/4/4
f 215/4/5 214/4/5 213/4/5
f 216/4/5 214/4/5 215/4/5
f 220/4/5 218/4/5 217/4/5
f 221/4/5 218/4/5 220/4/5
f 223/4/5 220/4/5 219/4/5
f 224/4/5 220/4/5 223/4/5
f 225/4/5 222/4/5 221/4/5
f 226/4/5 222/4/5 225/4/5
f 227/4/5 225/4/5 224/4/5
f 228/4/5 225/4/5 227/4/5
f 231/4/5 230/4/5 229/4/5
f 232/4/5 230/4/5 231/4/5
f 237/3/5 234/3/5 233/3/5
f 238/3/5 234/3/5 237/3/5
f 239/3/5 236/3/5 235/3/5
f 240/3/5 236/3/5 239/3/5
f 245/3/5 242/3/5 241/3/5
f 246/3/5 242/3/5 245/3/5
f 247/3/5 244/3/5 243/3/5
f 248/3/5 244/3/5 247/3/5
f 253/3/5 250/3/5 249/3/5
f 254/3/5 250/3/5 253/3/5
f 255/3/5 252/3/5 251/3/5
f 256/3/5 252/3/5 255/3/5
f 257/4/6 258/4/6 259/4/6
f 259/4/6 258/4/6 260/4/6
f 261/4/6 262/4/6 264/4/6
f 264/4/6 262/4/6 265/4/6
f 263/4/6 264/4/6 267/4/6
f 267/4/6 264/4/6 268/4/6
f 265/4/6 266/4/6 269/4/6
f 269/4/6 266/4/6 270/4/6
f 268/4/6 269/4/6 271/4/6
f 271/4/6 269/4/6 272/4/6
f 273/4/6 274/4/6 275/4/6
f 275/4/6 274/4/6 276/4/6
f 273/4/6 275/4/6 277/4/6
f 276/4/6 274/4/6 278/4/6
f 273/4/6 277/4/6 279/4/6
f 277/4/6 278/4/6 279/4/6
f 278/4/6 274/4/6 280/4/6
f 279/4/6 278/4/6 280/4/6
f 281/3/6 282/3/6 283/3/6
f 283/3/6 282/3/6 284/3/6
f 285/3/6 286/3/6 289/3/6
f 289/3/6 286/3/6 290/3/6
f 287/3/6 288/3/6 291/3/6
f 291/3/6 288/3/6 292/3/6
f 293/3/6 294/3/6 297/3/6
f 297/3/6 294/3/6 298/3/6
f 295/3/6 296/3/6 299/3/6
f 299/3/6 296/3/6 300/3/6
f 301/3/6 302/3/6 305/3/6
f 305/3/6 302/3/6 306/3/6
f 303/3/6 304/3/6 307/3/6
f 307/3/6 304/3/6 308/3/6
f 309/3/6 310/3/6 311/3/6
f 311/3/6 310/3/6 312/3/6
