[gd_scene load_steps=6 format=2]

[ext_resource path="res://Scripts/Objects/BrokenCrate.gd" type="Script" id=1]
[ext_resource path="res://Models/ObjType/Objects/Block/Block2.png" type="Texture" id=2]

[sub_resource type="SpatialMaterial" id=1]
albedo_texture = ExtResource( 2 )

[sub_resource type="ArrayMesh" id=2]
surfaces/0 = {
"aabb": AABB( -4, 0, -4, 8, 8, 8 ),
"array_data": PoolByteArray( 0, 0, 128, 192, 0, 0, 64, 64, 0, 0, 0, 64, 129, 0, 0, 0, 127, 0, 0, 127, 235, 59, 0, 56, 0, 0, 128, 192, 0, 0, 160, 64, 0, 0, 0, 64, 129, 0, 0, 0, 127, 0, 0, 127, 235, 59, 0, 56, 0, 0, 128, 192, 0, 0, 64, 64, 0, 0, 64, 64, 129, 0, 0, 0, 127, 0, 0, 127, 235, 59, 0, 56, 0, 0, 128, 192, 0, 0, 160, 64, 0, 0, 128, 63, 129, 0, 0, 0, 127, 0, 0, 127, 235, 59, 0, 56, 0, 0, 128, 192, 0, 0, 192, 64, 0, 0, 128, 63, 129, 0, 0, 0, 127, 0, 0, 127, 235, 59, 0, 56, 0, 0, 128, 192, 0, 0, 224, 64, 0, 0, 64, 64, 129, 0, 0, 0, 127, 0, 0, 127, 235, 59, 0, 56, 0, 0, 128, 192, 0, 0, 192, 64, 0, 0, 128, 191, 129, 0, 0, 0, 127, 0, 0, 127, 235, 59, 0, 56, 0, 0, 128, 192, 0, 0, 224, 64, 0, 0, 128, 191, 129, 0, 0, 0, 127, 0, 0, 127, 235, 59, 0, 56, 0, 0, 64, 192, 0, 0, 0, 0, 0, 0, 128, 63, 129, 0, 0, 0, 127, 0, 0, 127, 244, 59, 0, 56, 0, 0, 64, 192, 0, 0, 64, 64, 0, 0, 64, 64, 129, 0, 0, 0, 127, 0, 0, 127, 244, 59, 0, 56, 0, 0, 64, 192, 0, 0, 0, 0, 0, 0, 64, 64, 129, 0, 0, 0, 127, 0, 0, 127, 244, 59, 0, 56, 0, 0, 64, 192, 0, 0, 64, 64, 0, 0, 0, 64, 129, 0, 0, 0, 127, 0, 0, 127, 244, 59, 0, 56, 0, 0, 64, 192, 0, 0, 128, 64, 0, 0, 128, 63, 129, 0, 0, 0, 127, 0, 0, 127, 244, 59, 0, 56, 0, 0, 64, 192, 0, 0, 160, 64, 0, 0, 0, 64, 129, 0, 0, 0, 127, 0, 0, 127, 244, 59, 0, 56, 0, 0, 64, 192, 0, 0, 128, 64, 0, 0, 0, 128, 129, 0, 0, 0, 127, 0, 0, 127, 244, 59, 0, 56, 0, 0, 64, 192, 0, 0, 160, 64, 0, 0, 128, 63, 129, 0, 0, 0, 127, 0, 0, 127, 244, 59, 0, 56, 0, 0, 64, 192, 0, 0, 160, 64, 0, 0, 0, 128, 129, 0, 0, 0, 127, 0, 0, 127, 244, 59, 0, 56, 0, 0, 64, 192, 0, 0, 160, 64, 0, 0, 128, 192, 129, 0, 0, 0, 127, 0, 0, 127, 244, 59, 0, 56, 0, 0, 64, 192, 0, 0, 192, 64, 0, 0, 128, 63, 129, 0, 0, 0, 127, 0, 0, 127, 244, 59, 0, 56, 0, 0, 64, 192, 0, 0, 192, 64, 0, 0, 128, 191, 129, 0, 0, 0, 127, 0, 0, 127, 244, 59, 0, 56, 0, 0, 64, 192, 0, 0, 64, 64, 0, 0, 64, 64, 129, 0, 0, 0, 127, 0, 0, 127, 235, 59, 0, 56, 0, 0, 64, 192, 0, 0, 224, 64, 0, 0, 128, 64, 129, 0, 0, 0, 127, 0, 0, 127, 235, 59, 0, 56, 0, 0, 64, 192, 0, 0, 64, 64, 0, 0, 128, 64, 129, 0, 0, 0, 127, 0, 0, 127, 235, 59, 0, 56, 0, 0, 64, 192, 0, 0, 224, 64, 0, 0, 64, 64, 129, 0, 0, 0, 127, 0, 0, 127, 235, 59, 0, 56, 0, 0, 64, 192, 0, 0, 224, 64, 0, 0, 128, 191, 129, 0, 0, 0, 127, 0, 0, 127, 244, 59, 0, 56, 0, 0, 64, 192, 0, 0, 224, 64, 0, 0, 128, 192, 129, 0, 0, 0, 127, 0, 0, 127, 244, 59, 0, 56, 0, 0, 64, 192, 0, 0, 224, 64, 0, 0, 128, 191, 129, 0, 0, 0, 127, 0, 0, 127, 235, 59, 0, 56, 0, 0, 64, 192, 0, 0, 0, 65, 0, 0, 64, 64, 129, 0, 0, 0, 127, 0, 0, 127, 235, 59, 0, 56, 0, 0, 64, 192, 0, 0, 0, 65, 0, 0, 128, 191, 129, 0, 0, 0, 127, 0, 0, 127, 235, 59, 0, 56, 0, 0, 0, 192, 0, 0, 0, 0, 0, 0, 128, 192, 129, 0, 0, 0, 127, 0, 0, 127, 96, 44, 0, 56, 0, 0, 0, 192, 0, 0, 128, 64, 0, 0, 128, 63, 129, 0, 0, 0, 127, 0, 0, 127, 96, 44, 0, 56, 0, 0, 0, 192, 0, 0, 0, 0, 0, 0, 128, 63, 129, 0, 0, 0, 127, 0, 0, 127, 96, 44, 0, 56, 0, 0, 0, 192, 0, 0, 128, 64, 0, 0, 0, 128, 129, 0, 0, 0, 127, 0, 0, 127, 96, 44, 0, 56, 0, 0, 0, 192, 0, 0, 160, 64, 0, 0, 0, 128, 129, 0, 0, 0, 127, 0, 0, 127, 96, 44, 0, 56, 0, 0, 0, 192, 0, 0, 160, 64, 0, 0, 128, 192, 129, 0, 0, 0, 127, 0, 0, 127, 96, 44, 0, 56, 0, 0, 0, 192, 0, 0, 64, 64, 0, 0, 64, 64, 127, 0, 0, 0, 127, 0, 0, 127, 235, 59, 0, 56, 0, 0, 0, 192, 0, 0, 64, 64, 0, 0, 128, 64, 127, 0, 0, 0, 127, 0, 0, 127, 235, 59, 0, 56, 0, 0, 0, 192, 0, 0, 160, 64, 0, 0, 128, 64, 127, 0, 0, 0, 127, 0, 0, 127, 235, 59, 0, 56, 0, 0, 0, 192, 0, 0, 160, 64, 0, 0, 64, 64, 127, 0, 0, 0, 127, 0, 0, 127, 235, 59, 0, 56, 0, 0, 0, 192, 0, 0, 224, 64, 0, 0, 128, 191, 127, 0, 0, 0, 127, 0, 0, 127, 235, 59, 0, 56, 0, 0, 0, 192, 0, 0, 224, 64, 0, 0, 128, 63, 127, 0, 0, 0, 127, 0, 0, 127, 235, 59, 0, 56, 0, 0, 0, 192, 0, 0, 0, 65, 0, 0, 128, 63, 127, 0, 0, 0, 127, 0, 0, 127, 235, 59, 0, 56, 0, 0, 0, 192, 0, 0, 0, 65, 0, 0, 128, 191, 127, 0, 0, 0, 127, 0, 0, 127, 235, 59, 0, 56, 0, 0, 128, 191, 0, 0, 0, 0, 0, 0, 0, 64, 127, 0, 0, 0, 127, 0, 0, 127, 244, 59, 0, 56, 0, 0, 128, 191, 0, 0, 0, 0, 0, 0, 64, 64, 127, 0, 0, 0, 127, 0, 0, 127, 244, 59, 0, 56, 0, 0, 128, 191, 0, 0, 128, 64, 0, 0, 64, 64, 127, 0, 0, 0, 127, 0, 0, 127, 244, 59, 0, 56, 0, 0, 128, 191, 0, 0, 128, 64, 0, 0, 0, 64, 127, 0, 0, 0, 127, 0, 0, 127, 244, 59, 0, 56, 0, 0, 128, 191, 0, 0, 0, 0, 0, 0, 128, 192, 127, 0, 0, 0, 127, 0, 0, 127, 96, 44, 0, 56, 0, 0, 128, 191, 0, 0, 0, 0, 0, 0, 128, 63, 127, 0, 0, 0, 127, 0, 0, 127, 96, 44, 0, 56, 0, 0, 128, 191, 0, 0, 160, 64, 0, 0, 128, 63, 127, 0, 0, 0, 127, 0, 0, 127, 96, 44, 0, 56, 0, 0, 128, 191, 0, 0, 160, 64, 0, 0, 128, 192, 127, 0, 0, 0, 127, 0, 0, 127, 96, 44, 0, 56, 0, 0, 128, 191, 0, 0, 160, 64, 0, 0, 64, 64, 127, 0, 0, 0, 127, 0, 0, 127, 235, 59, 0, 56, 0, 0, 128, 191, 0, 0, 160, 64, 0, 0, 128, 64, 127, 0, 0, 0, 127, 0, 0, 127, 235, 59, 0, 56, 0, 0, 128, 191, 0, 0, 192, 64, 0, 0, 128, 64, 127, 0, 0, 0, 127, 0, 0, 127, 235, 59, 0, 56, 0, 0, 128, 191, 0, 0, 192, 64, 0, 0, 64, 64, 127, 0, 0, 0, 127, 0, 0, 127, 235, 59, 0, 56, 0, 0, 128, 191, 0, 0, 192, 64, 0, 0, 128, 192, 127, 0, 0, 0, 127, 0, 0, 127, 244, 59, 0, 56, 0, 0, 128, 191, 0, 0, 192, 64, 0, 0, 0, 128, 127, 0, 0, 0, 127, 0, 0, 127, 244, 59, 0, 56, 0, 0, 128, 191, 0, 0, 224, 64, 0, 0, 0, 128, 127, 0, 0, 0, 127, 0, 0, 127, 244, 59, 0, 56, 0, 0, 128, 191, 0, 0, 224, 64, 0, 0, 128, 192, 127, 0, 0, 0, 127, 0, 0, 127, 244, 59, 0, 56, 0, 0, 128, 191, 0, 0, 224, 64, 0, 0, 128, 63, 127, 0, 0, 0, 127, 0, 0, 127, 235, 59, 0, 56, 0, 0, 128, 191, 0, 0, 224, 64, 0, 0, 0, 64, 127, 0, 0, 0, 127, 0, 0, 127, 235, 59, 0, 56, 0, 0, 128, 191, 0, 0, 0, 65, 0, 0, 0, 64, 127, 0, 0, 0, 127, 0, 0, 127, 235, 59, 0, 56, 0, 0, 128, 191, 0, 0, 0, 65, 0, 0, 128, 63, 127, 0, 0, 0, 127, 0, 0, 127, 235, 59, 0, 56, 0, 0, 0, 0, 0, 0, 128, 64, 0, 0, 0, 64, 127, 0, 0, 0, 127, 0, 0, 127, 244, 59, 0, 56, 0, 0, 0, 0, 0, 0, 128, 64, 0, 0, 64, 64, 127, 0, 0, 0, 127, 0, 0, 127, 244, 59, 0, 56, 0, 0, 0, 0, 0, 0, 160, 64, 0, 0, 64, 64, 127, 0, 0, 0, 127, 0, 0, 127, 244, 59, 0, 56, 0, 0, 0, 0, 0, 0, 160, 64, 0, 0, 0, 64, 127, 0, 0, 0, 127, 0, 0, 127, 244, 59, 0, 56, 0, 0, 0, 0, 0, 0, 192, 64, 0, 0, 0, 128, 127, 0, 0, 0, 127, 0, 0, 127, 244, 59, 0, 56, 0, 0, 0, 0, 0, 0, 192, 64, 0, 0, 128, 63, 127, 0, 0, 0, 127, 0, 0, 127, 244, 59, 0, 56, 0, 0, 0, 0, 0, 0, 224, 64, 0, 0, 128, 63, 127, 0, 0, 0, 127, 0, 0, 127, 244, 59, 0, 56, 0, 0, 0, 0, 0, 0, 224, 64, 0, 0, 0, 128, 127, 0, 0, 0, 127, 0, 0, 127, 244, 59, 0, 56, 0, 0, 128, 63, 0, 0, 192, 64, 0, 0, 64, 64, 127, 0, 0, 0, 127, 0, 0, 127, 235, 59, 0, 56, 0, 0, 128, 63, 0, 0, 192, 64, 0, 0, 128, 64, 127, 0, 0, 0, 127, 0, 0, 127, 235, 59, 0, 56, 0, 0, 128, 63, 0, 0, 224, 64, 0, 0, 128, 64, 127, 0, 0, 0, 127, 0, 0, 127, 235, 59, 0, 56, 0, 0, 128, 63, 0, 0, 224, 64, 0, 0, 64, 64, 127, 0, 0, 0, 127, 0, 0, 127, 235, 59, 0, 56, 0, 0, 128, 63, 0, 0, 224, 64, 0, 0, 0, 64, 127, 0, 0, 0, 127, 0, 0, 127, 235, 59, 0, 56, 0, 0, 128, 63, 0, 0, 0, 65, 0, 0, 64, 64, 127, 0, 0, 0, 127, 0, 0, 127, 235, 59, 0, 56, 0, 0, 128, 63, 0, 0, 0, 65, 0, 0, 0, 64, 127, 0, 0, 0, 127, 0, 0, 127, 235, 59, 0, 56, 0, 0, 128, 64, 0, 0, 0, 0, 0, 0, 128, 63, 127, 0, 0, 0, 127, 0, 0, 127, 96, 44, 0, 56, 0, 0, 128, 64, 0, 0, 0, 0, 0, 0, 0, 64, 127, 0, 0, 0, 127, 0, 0, 127, 96, 44, 0, 56, 0, 0, 128, 64, 0, 0, 160, 64, 0, 0, 0, 64, 127, 0, 0, 0, 127, 0, 0, 127, 96, 44, 0, 56, 0, 0, 128, 64, 0, 0, 160, 64, 0, 0, 128, 63, 127, 0, 0, 0, 127, 0, 0, 127, 96, 44, 0, 56, 0, 0, 128, 64, 0, 0, 160, 64, 0, 0, 0, 64, 127, 0, 0, 0, 127, 0, 0, 127, 244, 59, 0, 56, 0, 0, 128, 64, 0, 0, 160, 64, 0, 0, 64, 64, 127, 0, 0, 0, 127, 0, 0, 127, 244, 59, 0, 56, 0, 0, 128, 64, 0, 0, 192, 64, 0, 0, 0, 64, 127, 0, 0, 0, 127, 0, 0, 127, 244, 59, 0, 56, 0, 0, 128, 64, 0, 0, 160, 64, 0, 0, 128, 192, 127, 0, 0, 0, 127, 0, 0, 127, 96, 44, 0, 56, 0, 0, 128, 64, 0, 0, 192, 64, 0, 0, 0, 64, 127, 0, 0, 0, 127, 0, 0, 127, 96, 44, 0, 56, 0, 0, 128, 64, 0, 0, 192, 64, 0, 0, 128, 63, 127, 0, 0, 0, 127, 0, 0, 127, 96, 44, 0, 56, 0, 0, 128, 64, 0, 0, 192, 64, 0, 0, 128, 192, 127, 0, 0, 0, 127, 0, 0, 127, 96, 44, 0, 56, 0, 0, 128, 64, 0, 0, 224, 64, 0, 0, 64, 64, 127, 0, 0, 0, 127, 0, 0, 127, 244, 59, 0, 56, 0, 0, 128, 64, 0, 0, 192, 64, 0, 0, 128, 63, 127, 0, 0, 0, 127, 0, 0, 127, 244, 59, 0, 56, 0, 0, 128, 64, 0, 0, 224, 64, 0, 0, 128, 63, 127, 0, 0, 0, 127, 0, 0, 127, 244, 59, 0, 56, 0, 0, 64, 192, 0, 0, 224, 64, 0, 0, 128, 64, 0, 0, 127, 0, 127, 0, 0, 129, 235, 59, 0, 56, 0, 0, 0, 192, 0, 0, 64, 64, 0, 0, 128, 64, 0, 0, 127, 0, 127, 0, 0, 129, 235, 59, 0, 56, 0, 0, 64, 192, 0, 0, 64, 64, 0, 0, 128, 64, 0, 0, 127, 0, 127, 0, 0, 129, 235, 59, 0, 56, 0, 0, 0, 192, 0, 0, 160, 64, 0, 0, 128, 64, 0, 0, 127, 0, 127, 0, 0, 129, 235, 59, 0, 56, 0, 0, 128, 191, 0, 0, 160, 64, 0, 0, 128, 64, 0, 0, 127, 0, 127, 0, 0, 129, 235, 59, 0, 56, 0, 0, 128, 191, 0, 0, 192, 64, 0, 0, 128, 64, 0, 0, 127, 0, 127, 0, 0, 129, 235, 59, 0, 56, 0, 0, 128, 63, 0, 0, 192, 64, 0, 0, 128, 64, 0, 0, 127, 0, 127, 0, 0, 129, 235, 59, 0, 56, 0, 0, 128, 63, 0, 0, 224, 64, 0, 0, 128, 64, 0, 0, 127, 0, 127, 0, 0, 129, 235, 59, 0, 56, 0, 0, 128, 192, 0, 0, 224, 64, 0, 0, 64, 64, 0, 0, 127, 0, 127, 0, 0, 129, 235, 59, 0, 56, 0, 0, 64, 192, 0, 0, 64, 64, 0, 0, 64, 64, 0, 0, 127, 0, 127, 0, 0, 129, 235, 59, 0, 56, 0, 0, 128, 192, 0, 0, 64, 64, 0, 0, 64, 64, 0, 0, 127, 0, 127, 0, 0, 129, 235, 59, 0, 56, 0, 0, 64, 192, 0, 0, 224, 64, 0, 0, 64, 64, 0, 0, 127, 0, 127, 0, 0, 129, 235, 59, 0, 56, 0, 0, 64, 192, 0, 0, 64, 64, 0, 0, 64, 64, 0, 0, 127, 0, 127, 0, 0, 129, 244, 59, 0, 56, 0, 0, 0, 192, 0, 0, 64, 64, 0, 0, 64, 64, 0, 0, 127, 0, 127, 0, 0, 129, 244, 59, 0, 56, 0, 0, 64, 192, 0, 0, 0, 0, 0, 0, 64, 64, 0, 0, 127, 0, 127, 0, 0, 129, 244, 59, 0, 56, 0, 0, 128, 191, 0, 0, 0, 0, 0, 0, 64, 64, 0, 0, 127, 0, 127, 0, 0, 129, 244, 59, 0, 56, 0, 0, 0, 192, 0, 0, 160, 64, 0, 0, 64, 64, 0, 0, 127, 0, 127, 0, 0, 129, 244, 59, 0, 56, 0, 0, 128, 191, 0, 0, 128, 64, 0, 0, 64, 64, 0, 0, 127, 0, 127, 0, 0, 129, 244, 59, 0, 56, 0, 0, 128, 191, 0, 0, 160, 64, 0, 0, 64, 64, 0, 0, 127, 0, 127, 0, 0, 129, 244, 59, 0, 56, 0, 0, 128, 191, 0, 0, 192, 64, 0, 0, 64, 64, 0, 0, 127, 0, 127, 0, 0, 129, 244, 59, 0, 56, 0, 0, 0, 0, 0, 0, 128, 64, 0, 0, 64, 64, 0, 0, 127, 0, 127, 0, 0, 129, 244, 59, 0, 56, 0, 0, 0, 0, 0, 0, 160, 64, 0, 0, 64, 64, 0, 0, 127, 0, 127, 0, 0, 129, 244, 59, 0, 56, 0, 0, 128, 63, 0, 0, 192, 64, 0, 0, 64, 64, 0, 0, 127, 0, 127, 0, 0, 129, 244, 59, 0, 56, 0, 0, 64, 192, 0, 0, 0, 65, 0, 0, 64, 64, 0, 0, 127, 0, 127, 0, 0, 129, 235, 59, 0, 56, 0, 0, 128, 63, 0, 0, 224, 64, 0, 0, 64, 64, 0, 0, 127, 0, 127, 0, 0, 129, 235, 59, 0, 56, 0, 0, 128, 63, 0, 0, 0, 65, 0, 0, 64, 64, 0, 0, 127, 0, 127, 0, 0, 129, 235, 59, 0, 56, 0, 0, 128, 64, 0, 0, 160, 64, 0, 0, 64, 64, 0, 0, 127, 0, 127, 0, 0, 129, 244, 59, 0, 56, 0, 0, 128, 63, 0, 0, 224, 64, 0, 0, 64, 64, 0, 0, 127, 0, 127, 0, 0, 129, 244, 59, 0, 56, 0, 0, 128, 64, 0, 0, 224, 64, 0, 0, 64, 64, 0, 0, 127, 0, 127, 0, 0, 129, 244, 59, 0, 56, 0, 0, 128, 191, 0, 0, 128, 64, 0, 0, 0, 64, 0, 0, 127, 0, 127, 0, 0, 129, 96, 44, 0, 56, 0, 0, 0, 0, 0, 0, 128, 64, 0, 0, 0, 64, 0, 0, 127, 0, 127, 0, 0, 129, 96, 44, 0, 56, 0, 0, 128, 191, 0, 0, 0, 0, 0, 0, 0, 64, 0, 0, 127, 0, 127, 0, 0, 129, 96, 44, 0, 56, 0, 0, 128, 64, 0, 0, 0, 0, 0, 0, 0, 64, 0, 0, 127, 0, 127, 0, 0, 129, 96, 44, 0, 56, 0, 0, 0, 0, 0, 0, 160, 64, 0, 0, 0, 64, 0, 0, 127, 0, 127, 0, 0, 129, 96, 44, 0, 56, 0, 0, 128, 64, 0, 0, 160, 64, 0, 0, 0, 64, 0, 0, 127, 0, 127, 0, 0, 129, 96, 44, 0, 56, 0, 0, 128, 192, 0, 0, 160, 64, 0, 0, 0, 64, 0, 0, 129, 0, 127, 0, 0, 127, 235, 59, 0, 56, 0, 0, 128, 192, 0, 0, 64, 64, 0, 0, 0, 64, 0, 0, 129, 0, 127, 0, 0, 127, 235, 59, 0, 56, 0, 0, 64, 192, 0, 0, 64, 64, 0, 0, 0, 64, 0, 0, 129, 0, 127, 0, 0, 127, 235, 59, 0, 56, 0, 0, 64, 192, 0, 0, 160, 64, 0, 0, 0, 64, 0, 0, 129, 0, 127, 0, 0, 127, 235, 59, 0, 56, 0, 0, 128, 191, 0, 0, 0, 65, 0, 0, 0, 64, 0, 0, 129, 0, 127, 0, 0, 127, 235, 59, 0, 56, 0, 0, 128, 191, 0, 0, 224, 64, 0, 0, 0, 64, 0, 0, 129, 0, 127, 0, 0, 127, 235, 59, 0, 56, 0, 0, 128, 63, 0, 0, 224, 64, 0, 0, 0, 64, 0, 0, 129, 0, 127, 0, 0, 127, 235, 59, 0, 56, 0, 0, 128, 63, 0, 0, 0, 65, 0, 0, 0, 64, 0, 0, 129, 0, 127, 0, 0, 127, 235, 59, 0, 56, 0, 0, 128, 192, 0, 0, 192, 64, 0, 0, 128, 63, 0, 0, 129, 0, 127, 0, 0, 127, 235, 59, 0, 56, 0, 0, 128, 192, 0, 0, 160, 64, 0, 0, 128, 63, 0, 0, 129, 0, 127, 0, 0, 127, 235, 59, 0, 56, 0, 0, 64, 192, 0, 0, 160, 64, 0, 0, 128, 63, 0, 0, 129, 0, 127, 0, 0, 127, 235, 59, 0, 56, 0, 0, 64, 192, 0, 0, 192, 64, 0, 0, 128, 63, 0, 0, 129, 0, 127, 0, 0, 127, 235, 59, 0, 56, 0, 0, 64, 192, 0, 0, 128, 64, 0, 0, 128, 63, 0, 0, 129, 0, 127, 0, 0, 127, 244, 59, 0, 56, 0, 0, 64, 192, 0, 0, 0, 0, 0, 0, 128, 63, 0, 0, 129, 0, 127, 0, 0, 127, 244, 59, 0, 56, 0, 0, 0, 192, 0, 0, 0, 0, 0, 0, 128, 63, 0, 0, 129, 0, 127, 0, 0, 127, 244, 59, 0, 56, 0, 0, 0, 192, 0, 0, 128, 64, 0, 0, 128, 63, 0, 0, 129, 0, 127, 0, 0, 127, 244, 59, 0, 56, 0, 0, 0, 192, 0, 0, 0, 65, 0, 0, 128, 63, 0, 0, 129, 0, 127, 0, 0, 127, 235, 59, 0, 56, 0, 0, 0, 192, 0, 0, 224, 64, 0, 0, 128, 63, 0, 0, 129, 0, 127, 0, 0, 127, 235, 59, 0, 56, 0, 0, 128, 191, 0, 0, 224, 64, 0, 0, 128, 63, 0, 0, 129, 0, 127, 0, 0, 127, 235, 59, 0, 56, 0, 0, 128, 191, 0, 0, 0, 65, 0, 0, 128, 63, 0, 0, 129, 0, 127, 0, 0, 127, 235, 59, 0, 56, 0, 0, 128, 191, 0, 0, 160, 64, 0, 0, 128, 63, 0, 0, 129, 0, 127, 0, 0, 127, 96, 44, 0, 56, 0, 0, 128, 191, 0, 0, 0, 0, 0, 0, 128, 63, 0, 0, 129, 0, 127, 0, 0, 127, 96, 44, 0, 56, 0, 0, 128, 64, 0, 0, 0, 0, 0, 0, 128, 63, 0, 0, 129, 0, 127, 0, 0, 127, 96, 44, 0, 56, 0, 0, 128, 64, 0, 0, 160, 64, 0, 0, 128, 63, 0, 0, 129, 0, 127, 0, 0, 127, 96, 44, 0, 56, 0, 0, 0, 0, 0, 0, 224, 64, 0, 0, 128, 63, 0, 0, 129, 0, 127, 0, 0, 127, 244, 59, 0, 56, 0, 0, 0, 0, 0, 0, 192, 64, 0, 0, 128, 63, 0, 0, 129, 0, 127, 0, 0, 127, 244, 59, 0, 56, 0, 0, 128, 64, 0, 0, 192, 64, 0, 0, 128, 63, 0, 0, 129, 0, 127, 0, 0, 127, 244, 59, 0, 56, 0, 0, 128, 64, 0, 0, 224, 64, 0, 0, 128, 63, 0, 0, 129, 0, 127, 0, 0, 127, 244, 59, 0, 56, 0, 0, 64, 192, 0, 0, 160, 64, 0, 0, 0, 128, 0, 0, 129, 0, 127, 0, 0, 127, 244, 59, 0, 56, 0, 0, 64, 192, 0, 0, 128, 64, 0, 0, 0, 128, 0, 0, 129, 0, 127, 0, 0, 127, 244, 59, 0, 56, 0, 0, 0, 192, 0, 0, 128, 64, 0, 0, 0, 128, 0, 0, 129, 0, 127, 0, 0, 127, 244, 59, 0, 56, 0, 0, 0, 192, 0, 0, 160, 64, 0, 0, 0, 128, 0, 0, 129, 0, 127, 0, 0, 127, 244, 59, 0, 56, 0, 0, 128, 191, 0, 0, 224, 64, 0, 0, 0, 128, 0, 0, 129, 0, 127, 0, 0, 127, 244, 59, 0, 56, 0, 0, 128, 191, 0, 0, 192, 64, 0, 0, 0, 128, 0, 0, 129, 0, 127, 0, 0, 127, 244, 59, 0, 56, 0, 0, 0, 0, 0, 0, 192, 64, 0, 0, 0, 128, 0, 0, 129, 0, 127, 0, 0, 127, 244, 59, 0, 56, 0, 0, 0, 0, 0, 0, 224, 64, 0, 0, 0, 128, 0, 0, 129, 0, 127, 0, 0, 127, 244, 59, 0, 56, 0, 0, 128, 192, 0, 0, 224, 64, 0, 0, 128, 191, 0, 0, 129, 0, 127, 0, 0, 127, 235, 59, 0, 56, 0, 0, 128, 192, 0, 0, 192, 64, 0, 0, 128, 191, 0, 0, 129, 0, 127, 0, 0, 127, 235, 59, 0, 56, 0, 0, 64, 192, 0, 0, 192, 64, 0, 0, 128, 191, 0, 0, 129, 0, 127, 0, 0, 127, 235, 59, 0, 56, 0, 0, 64, 192, 0, 0, 224, 64, 0, 0, 128, 191, 0, 0, 129, 0, 127, 0, 0, 127, 235, 59, 0, 56, 0, 0, 64, 192, 0, 0, 0, 65, 0, 0, 128, 191, 0, 0, 129, 0, 127, 0, 0, 127, 235, 59, 0, 56, 0, 0, 0, 192, 0, 0, 224, 64, 0, 0, 128, 191, 0, 0, 129, 0, 127, 0, 0, 127, 235, 59, 0, 56, 0, 0, 0, 192, 0, 0, 0, 65, 0, 0, 128, 191, 0, 0, 129, 0, 127, 0, 0, 127, 235, 59, 0, 56, 0, 0, 64, 192, 0, 0, 224, 64, 0, 0, 128, 192, 0, 0, 129, 0, 127, 0, 0, 127, 244, 59, 0, 56, 0, 0, 64, 192, 0, 0, 160, 64, 0, 0, 128, 192, 0, 0, 129, 0, 127, 0, 0, 127, 244, 59, 0, 56, 0, 0, 0, 192, 0, 0, 160, 64, 0, 0, 128, 192, 0, 0, 129, 0, 127, 0, 0, 127, 244, 59, 0, 56, 0, 0, 0, 192, 0, 0, 192, 64, 0, 0, 128, 192, 0, 0, 129, 0, 127, 0, 0, 127, 244, 59, 0, 56, 0, 0, 0, 192, 0, 0, 160, 64, 0, 0, 128, 192, 0, 0, 129, 0, 127, 0, 0, 127, 96, 44, 0, 56, 0, 0, 0, 192, 0, 0, 0, 0, 0, 0, 128, 192, 0, 0, 129, 0, 127, 0, 0, 127, 96, 44, 0, 56, 0, 0, 128, 191, 0, 0, 0, 0, 0, 0, 128, 192, 0, 0, 129, 0, 127, 0, 0, 127, 96, 44, 0, 56, 0, 0, 0, 192, 0, 0, 192, 64, 0, 0, 128, 192, 0, 0, 129, 0, 127, 0, 0, 127, 96, 44, 0, 56, 0, 0, 128, 191, 0, 0, 160, 64, 0, 0, 128, 192, 0, 0, 129, 0, 127, 0, 0, 127, 96, 44, 0, 56, 0, 0, 128, 191, 0, 0, 192, 64, 0, 0, 128, 192, 0, 0, 129, 0, 127, 0, 0, 127, 244, 59, 0, 56, 0, 0, 128, 191, 0, 0, 192, 64, 0, 0, 128, 192, 0, 0, 129, 0, 127, 0, 0, 127, 96, 44, 0, 56, 0, 0, 128, 191, 0, 0, 224, 64, 0, 0, 128, 192, 0, 0, 129, 0, 127, 0, 0, 127, 244, 59, 0, 56, 0, 0, 128, 64, 0, 0, 160, 64, 0, 0, 128, 192, 0, 0, 129, 0, 127, 0, 0, 127, 96, 44, 0, 56, 0, 0, 128, 64, 0, 0, 192, 64, 0, 0, 128, 192, 0, 0, 129, 0, 127, 0, 0, 127, 96, 44, 0, 56, 0, 0, 128, 191, 0, 0, 0, 0, 0, 0, 64, 64, 0, 129, 0, 0, 127, 0, 0, 127, 244, 59, 0, 56, 0, 0, 0, 192, 0, 0, 0, 0, 0, 0, 0, 64, 0, 129, 0, 0, 127, 0, 0, 127, 244, 59, 0, 56, 0, 0, 64, 192, 0, 0, 0, 0, 0, 0, 64, 64, 0, 129, 0, 0, 127, 0, 0, 127, 244, 59, 0, 56, 0, 0, 128, 191, 0, 0, 0, 0, 0, 0, 0, 64, 0, 129, 0, 0, 127, 0, 0, 127, 244, 59, 0, 56, 0, 0, 64, 192, 0, 0, 0, 0, 0, 0, 128, 63, 0, 129, 0, 0, 127, 0, 0, 127, 244, 59, 0, 56, 0, 0, 128, 64, 0, 0, 0, 0, 0, 0, 0, 64, 0, 129, 0, 0, 127, 0, 0, 127, 96, 44, 0, 56, 0, 0, 0, 192, 0, 0, 0, 0, 0, 0, 128, 63, 0, 129, 0, 0, 127, 0, 0, 127, 96, 44, 0, 56, 0, 0, 128, 191, 0, 0, 0, 0, 0, 0, 0, 64, 0, 129, 0, 0, 127, 0, 0, 127, 96, 44, 0, 56, 0, 0, 0, 192, 0, 0, 0, 0, 0, 0, 128, 63, 0, 129, 0, 0, 127, 0, 0, 127, 244, 59, 0, 56, 0, 0, 0, 192, 0, 0, 0, 0, 0, 0, 0, 64, 0, 129, 0, 0, 127, 0, 0, 127, 96, 44, 0, 56, 0, 0, 128, 191, 0, 0, 0, 0, 0, 0, 128, 63, 0, 129, 0, 0, 127, 0, 0, 127, 96, 44, 0, 56, 0, 0, 128, 64, 0, 0, 0, 0, 0, 0, 128, 63, 0, 129, 0, 0, 127, 0, 0, 127, 96, 44, 0, 56, 0, 0, 0, 192, 0, 0, 0, 0, 0, 0, 128, 192, 0, 129, 0, 0, 127, 0, 0, 127, 96, 44, 0, 56, 0, 0, 128, 191, 0, 0, 0, 0, 0, 0, 128, 192, 0, 129, 0, 0, 127, 0, 0, 127, 96, 44, 0, 56, 0, 0, 0, 192, 0, 0, 64, 64, 0, 0, 128, 64, 0, 129, 0, 0, 127, 0, 0, 127, 235, 59, 0, 56, 0, 0, 64, 192, 0, 0, 64, 64, 0, 0, 64, 64, 0, 129, 0, 0, 127, 0, 0, 127, 235, 59, 0, 56, 0, 0, 64, 192, 0, 0, 64, 64, 0, 0, 128, 64, 0, 129, 0, 0, 127, 0, 0, 127, 235, 59, 0, 56, 0, 0, 0, 192, 0, 0, 64, 64, 0, 0, 64, 64, 0, 129, 0, 0, 127, 0, 0, 127, 235, 59, 0, 56, 0, 0, 128, 192, 0, 0, 64, 64, 0, 0, 0, 64, 0, 129, 0, 0, 127, 0, 0, 127, 235, 59, 0, 56, 0, 0, 128, 192, 0, 0, 64, 64, 0, 0, 64, 64, 0, 129, 0, 0, 127, 0, 0, 127, 235, 59, 0, 56, 0, 0, 64, 192, 0, 0, 64, 64, 0, 0, 0, 64, 0, 129, 0, 0, 127, 0, 0, 127, 235, 59, 0, 56, 0, 0, 0, 0, 0, 0, 128, 64, 0, 0, 64, 64, 0, 129, 0, 0, 127, 0, 0, 127, 244, 59, 0, 56, 0, 0, 128, 191, 0, 0, 128, 64, 0, 0, 0, 64, 0, 129, 0, 0, 127, 0, 0, 127, 244, 59, 0, 56, 0, 0, 128, 191, 0, 0, 128, 64, 0, 0, 64, 64, 0, 129, 0, 0, 127, 0, 0, 127, 244, 59, 0, 56, 0, 0, 0, 0, 0, 0, 128, 64, 0, 0, 0, 64, 0, 129, 0, 0, 127, 0, 0, 127, 244, 59, 0, 56, 0, 0, 0, 192, 0, 0, 128, 64, 0, 0, 128, 63, 0, 129, 0, 0, 127, 0, 0, 127, 244, 59, 0, 56, 0, 0, 64, 192, 0, 0, 128, 64, 0, 0, 0, 128, 0, 129, 0, 0, 127, 0, 0, 127, 244, 59, 0, 56, 0, 0, 64, 192, 0, 0, 128, 64, 0, 0, 128, 63, 0, 129, 0, 0, 127, 0, 0, 127, 244, 59, 0, 56, 0, 0, 0, 192, 0, 0, 128, 64, 0, 0, 0, 128, 0, 129, 0, 0, 127, 0, 0, 127, 244, 59, 0, 56, 0, 0, 128, 191, 0, 0, 160, 64, 0, 0, 128, 64, 0, 129, 0, 0, 127, 0, 0, 127, 235, 59, 0, 56, 0, 0, 0, 192, 0, 0, 160, 64, 0, 0, 64, 64, 0, 129, 0, 0, 127, 0, 0, 127, 235, 59, 0, 56, 0, 0, 0, 192, 0, 0, 160, 64, 0, 0, 128, 64, 0, 129, 0, 0, 127, 0, 0, 127, 235, 59, 0, 56, 0, 0, 128, 191, 0, 0, 160, 64, 0, 0, 64, 64, 0, 129, 0, 0, 127, 0, 0, 127, 235, 59, 0, 56, 0, 0, 128, 64, 0, 0, 160, 64, 0, 0, 64, 64, 0, 129, 0, 0, 127, 0, 0, 127, 244, 59, 0, 56, 0, 0, 0, 0, 0, 0, 160, 64, 0, 0, 0, 64, 0, 129, 0, 0, 127, 0, 0, 127, 244, 59, 0, 56, 0, 0, 0, 0, 0, 0, 160, 64, 0, 0, 64, 64, 0, 129, 0, 0, 127, 0, 0, 127, 244, 59, 0, 56, 0, 0, 128, 64, 0, 0, 160, 64, 0, 0, 0, 64, 0, 129, 0, 0, 127, 0, 0, 127, 244, 59, 0, 56, 0, 0, 64, 192, 0, 0, 160, 64, 0, 0, 0, 64, 0, 129, 0, 0, 127, 0, 0, 127, 235, 59, 0, 56, 0, 0, 128, 192, 0, 0, 160, 64, 0, 0, 128, 63, 0, 129, 0, 0, 127, 0, 0, 127, 235, 59, 0, 56, 0, 0, 128, 192, 0, 0, 160, 64, 0, 0, 0, 64, 0, 129, 0, 0, 127, 0, 0, 127, 235, 59, 0, 56, 0, 0, 64, 192, 0, 0, 160, 64, 0, 0, 128, 63, 0, 129, 0, 0, 127, 0, 0, 127, 235, 59, 0, 56, 0, 0, 0, 192, 0, 0, 160, 64, 0, 0, 0, 128, 0, 129, 0, 0, 127, 0, 0, 127, 244, 59, 0, 56, 0, 0, 64, 192, 0, 0, 160, 64, 0, 0, 128, 192, 0, 129, 0, 0, 127, 0, 0, 127, 244, 59, 0, 56, 0, 0, 64, 192, 0, 0, 160, 64, 0, 0, 0, 128, 0, 129, 0, 0, 127, 0, 0, 127, 244, 59, 0, 56, 0, 0, 0, 192, 0, 0, 160, 64, 0, 0, 128, 192, 0, 129, 0, 0, 127, 0, 0, 127, 244, 59, 0, 56, 0, 0, 128, 64, 0, 0, 160, 64, 0, 0, 128, 63, 0, 129, 0, 0, 127, 0, 0, 127, 96, 44, 0, 56, 0, 0, 128, 191, 0, 0, 160, 64, 0, 0, 128, 192, 0, 129, 0, 0, 127, 0, 0, 127, 96, 44, 0, 56, 0, 0, 128, 191, 0, 0, 160, 64, 0, 0, 128, 63, 0, 129, 0, 0, 127, 0, 0, 127, 96, 44, 0, 56, 0, 0, 128, 64, 0, 0, 160, 64, 0, 0, 128, 192, 0, 129, 0, 0, 127, 0, 0, 127, 96, 44, 0, 56, 0, 0, 128, 63, 0, 0, 192, 64, 0, 0, 128, 64, 0, 129, 0, 0, 127, 0, 0, 127, 235, 59, 0, 56, 0, 0, 128, 191, 0, 0, 192, 64, 0, 0, 64, 64, 0, 129, 0, 0, 127, 0, 0, 127, 235, 59, 0, 56, 0, 0, 128, 191, 0, 0, 192, 64, 0, 0, 128, 64, 0, 129, 0, 0, 127, 0, 0, 127, 235, 59, 0, 56, 0, 0, 128, 63, 0, 0, 192, 64, 0, 0, 64, 64, 0, 129, 0, 0, 127, 0, 0, 127, 235, 59, 0, 56, 0, 0, 64, 192, 0, 0, 192, 64, 0, 0, 128, 63, 0, 129, 0, 0, 127, 0, 0, 127, 235, 59, 0, 56, 0, 0, 128, 192, 0, 0, 192, 64, 0, 0, 128, 191, 0, 129, 0, 0, 127, 0, 0, 127, 235, 59, 0, 56, 0, 0, 128, 192, 0, 0, 192, 64, 0, 0, 128, 63, 0, 129, 0, 0, 127, 0, 0, 127, 235, 59, 0, 56, 0, 0, 64, 192, 0, 0, 192, 64, 0, 0, 128, 191, 0, 129, 0, 0, 127, 0, 0, 127, 235, 59, 0, 56, 0, 0, 128, 64, 0, 0, 192, 64, 0, 0, 128, 63, 0, 127, 0, 0, 127, 0, 0, 127, 96, 44, 0, 56, 0, 0, 0, 0, 0, 0, 192, 64, 0, 0, 128, 63, 0, 127, 0, 0, 127, 0, 0, 127, 96, 44, 0, 56, 0, 0, 0, 0, 0, 0, 192, 64, 0, 0, 0, 128, 0, 127, 0, 0, 127, 0, 0, 127, 96, 44, 0, 56, 0, 0, 128, 191, 0, 0, 192, 64, 0, 0, 0, 128, 0, 127, 0, 0, 127, 0, 0, 127, 96, 44, 0, 56, 0, 0, 128, 191, 0, 0, 192, 64, 0, 0, 128, 192, 0, 127, 0, 0, 127, 0, 0, 127, 96, 44, 0, 56, 0, 0, 128, 64, 0, 0, 192, 64, 0, 0, 128, 192, 0, 127, 0, 0, 127, 0, 0, 127, 96, 44, 0, 56, 0, 0, 128, 63, 0, 0, 224, 64, 0, 0, 128, 64, 0, 127, 0, 0, 127, 0, 0, 127, 235, 59, 0, 56, 0, 0, 64, 192, 0, 0, 224, 64, 0, 0, 128, 64, 0, 127, 0, 0, 127, 0, 0, 127, 235, 59, 0, 56, 0, 0, 64, 192, 0, 0, 224, 64, 0, 0, 64, 64, 0, 127, 0, 0, 127, 0, 0, 127, 235, 59, 0, 56, 0, 0, 128, 63, 0, 0, 224, 64, 0, 0, 64, 64, 0, 127, 0, 0, 127, 0, 0, 127, 235, 59, 0, 56, 0, 0, 128, 64, 0, 0, 224, 64, 0, 0, 64, 64, 0, 127, 0, 0, 127, 0, 0, 127, 244, 59, 0, 56, 0, 0, 128, 63, 0, 0, 224, 64, 0, 0, 64, 64, 0, 127, 0, 0, 127, 0, 0, 127, 244, 59, 0, 56, 0, 0, 128, 63, 0, 0, 224, 64, 0, 0, 0, 64, 0, 127, 0, 0, 127, 0, 0, 127, 244, 59, 0, 56, 0, 0, 128, 191, 0, 0, 224, 64, 0, 0, 0, 64, 0, 127, 0, 0, 127, 0, 0, 127, 244, 59, 0, 56, 0, 0, 128, 191, 0, 0, 224, 64, 0, 0, 128, 63, 0, 127, 0, 0, 127, 0, 0, 127, 244, 59, 0, 56, 0, 0, 0, 0, 0, 0, 224, 64, 0, 0, 128, 63, 0, 127, 0, 0, 127, 0, 0, 127, 244, 59, 0, 56, 0, 0, 128, 64, 0, 0, 224, 64, 0, 0, 128, 63, 0, 127, 0, 0, 127, 0, 0, 127, 244, 59, 0, 56, 0, 0, 128, 191, 0, 0, 224, 64, 0, 0, 0, 128, 0, 127, 0, 0, 127, 0, 0, 127, 244, 59, 0, 56, 0, 0, 0, 192, 0, 0, 224, 64, 0, 0, 128, 63, 0, 127, 0, 0, 127, 0, 0, 127, 244, 59, 0, 56, 0, 0, 0, 0, 0, 0, 224, 64, 0, 0, 0, 128, 0, 127, 0, 0, 127, 0, 0, 127, 244, 59, 0, 56, 0, 0, 128, 192, 0, 0, 224, 64, 0, 0, 64, 64, 0, 127, 0, 0, 127, 0, 0, 127, 235, 59, 0, 56, 0, 0, 128, 192, 0, 0, 224, 64, 0, 0, 128, 191, 0, 127, 0, 0, 127, 0, 0, 127, 235, 59, 0, 56, 0, 0, 64, 192, 0, 0, 224, 64, 0, 0, 128, 191, 0, 127, 0, 0, 127, 0, 0, 127, 235, 59, 0, 56, 0, 0, 0, 192, 0, 0, 224, 64, 0, 0, 128, 191, 0, 127, 0, 0, 127, 0, 0, 127, 244, 59, 0, 56, 0, 0, 64, 192, 0, 0, 224, 64, 0, 0, 128, 191, 0, 127, 0, 0, 127, 0, 0, 127, 244, 59, 0, 56, 0, 0, 64, 192, 0, 0, 224, 64, 0, 0, 128, 192, 0, 127, 0, 0, 127, 0, 0, 127, 244, 59, 0, 56, 0, 0, 128, 191, 0, 0, 224, 64, 0, 0, 128, 192, 0, 127, 0, 0, 127, 0, 0, 127, 244, 59, 0, 56, 0, 0, 128, 63, 0, 0, 0, 65, 0, 0, 64, 64, 0, 127, 0, 0, 127, 0, 0, 127, 235, 59, 0, 56, 0, 0, 64, 192, 0, 0, 0, 65, 0, 0, 64, 64, 0, 127, 0, 0, 127, 0, 0, 127, 235, 59, 0, 56, 0, 0, 128, 191, 0, 0, 0, 65, 0, 0, 0, 64, 0, 127, 0, 0, 127, 0, 0, 127, 235, 59, 0, 56, 0, 0, 128, 63, 0, 0, 0, 65, 0, 0, 0, 64, 0, 127, 0, 0, 127, 0, 0, 127, 235, 59, 0, 56, 0, 0, 0, 192, 0, 0, 0, 65, 0, 0, 128, 63, 0, 127, 0, 0, 127, 0, 0, 127, 235, 59, 0, 56, 0, 0, 128, 191, 0, 0, 0, 65, 0, 0, 128, 63, 0, 127, 0, 0, 127, 0, 0, 127, 235, 59, 0, 56, 0, 0, 64, 192, 0, 0, 0, 65, 0, 0, 128, 191, 0, 127, 0, 0, 127, 0, 0, 127, 235, 59, 0, 56, 0, 0, 0, 192, 0, 0, 0, 65, 0, 0, 128, 191, 0, 127, 0, 0, 127, 0, 0, 127, 235, 59, 0, 56 ),
"array_index_data": PoolByteArray( 0, 0, 1, 0, 2, 0, 3, 0, 4, 0, 1, 0, 1, 0, 5, 0, 2, 0, 6, 0, 5, 0, 4, 0, 4, 0, 5, 0, 1, 0, 6, 0, 7, 0, 5, 0, 8, 0, 9, 0, 10, 0, 8, 0, 11, 0, 9, 0, 8, 0, 12, 0, 11, 0, 12, 0, 13, 0, 11, 0, 14, 0, 13, 0, 12, 0, 14, 0, 15, 0, 13, 0, 14, 0, 16, 0, 15, 0, 17, 0, 18, 0, 16, 0, 16, 0, 18, 0, 15, 0, 17, 0, 19, 0, 18, 0, 20, 0, 21, 0, 22, 0, 20, 0, 23, 0, 21, 0, 17, 0, 24, 0, 19, 0, 17, 0, 25, 0, 24, 0, 26, 0, 27, 0, 23, 0, 26, 0, 28, 0, 27, 0, 29, 0, 30, 0, 31, 0, 29, 0, 32, 0, 30, 0, 29, 0, 33, 0, 32, 0, 29, 0, 34, 0, 33, 0, 35, 0, 36, 0, 37, 0, 35, 0, 37, 0, 38, 0, 39, 0, 40, 0, 41, 0, 39, 0, 41, 0, 42, 0, 43, 0, 44, 0, 45, 0, 43, 0, 45, 0, 46, 0, 47, 0, 48, 0, 49, 0, 47, 0, 49, 0, 50, 0, 51, 0, 52, 0, 53, 0, 51, 0, 53, 0, 54, 0, 55, 0, 56, 0, 57, 0, 55, 0, 57, 0, 58, 0, 59, 0, 60, 0, 61, 0, 59, 0, 61, 0, 62, 0, 63, 0, 64, 0, 65, 0, 63, 0, 65, 0, 66, 0, 67, 0, 68, 0, 69, 0, 67, 0, 69, 0, 70, 0, 71, 0, 72, 0, 73, 0, 71, 0, 73, 0, 74, 0, 75, 0, 74, 0, 76, 0, 75, 0, 76, 0, 77, 0, 78, 0, 79, 0, 80, 0, 78, 0, 80, 0, 81, 0, 82, 0, 83, 0, 84, 0, 85, 0, 81, 0, 86, 0, 81, 0, 80, 0, 86, 0, 85, 0, 86, 0, 87, 0, 85, 0, 87, 0, 88, 0, 84, 0, 83, 0, 89, 0, 90, 0, 84, 0, 89, 0, 90, 0, 89, 0, 91, 0, 92, 0, 93, 0, 94, 0, 92, 0, 95, 0, 93, 0, 92, 0, 96, 0, 95, 0, 92, 0, 97, 0, 96, 0, 92, 0, 98, 0, 97, 0, 92, 0, 99, 0, 98, 0, 100, 0, 101, 0, 102, 0, 100, 0, 103, 0, 101, 0, 104, 0, 105, 0, 106, 0, 105, 0, 107, 0, 106, 0, 108, 0, 107, 0, 105, 0, 108, 0, 109, 0, 107, 0, 108, 0, 110, 0, 109, 0, 111, 0, 112, 0, 110, 0, 110, 0, 112, 0, 109, 0, 111, 0, 113, 0, 112, 0, 111, 0, 114, 0, 113, 0, 115, 0, 116, 0, 103, 0, 115, 0, 117, 0, 116, 0, 114, 0, 118, 0, 113, 0, 119, 0, 118, 0, 114, 0, 119, 0, 120, 0, 118, 0, 121, 0, 122, 0, 123, 0, 122, 0, 124, 0, 123, 0, 125, 0, 124, 0, 122, 0, 125, 0, 126, 0, 124, 0, 127, 0, 128, 0, 129, 0, 127, 0, 129, 0, 130, 0, 131, 0, 132, 0, 133, 0, 131, 0, 133, 0, 134, 0, 135, 0, 136, 0, 137, 0, 135, 0, 137, 0, 138, 0, 139, 0, 140, 0, 141, 0, 139, 0, 141, 0, 142, 0, 143, 0, 144, 0, 145, 0, 143, 0, 145, 0, 146, 0, 147, 0, 148, 0, 149, 0, 147, 0, 149, 0, 150, 0, 151, 0, 152, 0, 153, 0, 151, 0, 153, 0, 154, 0, 155, 0, 156, 0, 157, 0, 155, 0, 157, 0, 158, 0, 159, 0, 160, 0, 161, 0, 159, 0, 161, 0, 162, 0, 163, 0, 164, 0, 165, 0, 163, 0, 165, 0, 166, 0, 167, 0, 166, 0, 168, 0, 167, 0, 168, 0, 169, 0, 170, 0, 171, 0, 172, 0, 170, 0, 172, 0, 173, 0, 174, 0, 175, 0, 176, 0, 177, 0, 174, 0, 176, 0, 177, 0, 176, 0, 178, 0, 170, 0, 173, 0, 179, 0, 177, 0, 178, 0, 180, 0, 170, 0, 179, 0, 181, 0, 180, 0, 178, 0, 182, 0, 180, 0, 182, 0, 183, 0, 184, 0, 185, 0, 186, 0, 184, 0, 187, 0, 185, 0, 185, 0, 188, 0, 186, 0, 189, 0, 190, 0, 191, 0, 185, 0, 192, 0, 188, 0, 191, 0, 190, 0, 193, 0, 189, 0, 194, 0, 190, 0, 189, 0, 195, 0, 194, 0, 194, 0, 196, 0, 190, 0, 194, 0, 197, 0, 196, 0, 198, 0, 199, 0, 200, 0, 198, 0, 201, 0, 199, 0, 199, 0, 202, 0, 203, 0, 199, 0, 204, 0, 202, 0, 205, 0, 206, 0, 207, 0, 205, 0, 208, 0, 206, 0, 209, 0, 210, 0, 211, 0, 209, 0, 212, 0, 210, 0, 213, 0, 214, 0, 215, 0, 213, 0, 216, 0, 214, 0, 217, 0, 218, 0, 219, 0, 217, 0, 220, 0, 218, 0, 221, 0, 222, 0, 223, 0, 221, 0, 224, 0, 222, 0, 225, 0, 226, 0, 227, 0, 225, 0, 228, 0, 226, 0, 229, 0, 230, 0, 231, 0, 229, 0, 232, 0, 230, 0, 233, 0, 234, 0, 235, 0, 233, 0, 236, 0, 234, 0, 237, 0, 238, 0, 239, 0, 237, 0, 240, 0, 238, 0, 241, 0, 242, 0, 243, 0, 243, 0, 244, 0, 245, 0, 241, 0, 243, 0, 246, 0, 243, 0, 245, 0, 246, 0, 247, 0, 248, 0, 249, 0, 247, 0, 249, 0, 250, 0, 251, 0, 252, 0, 253, 0, 253, 0, 254, 0, 255, 0, 253, 0, 255, 0, 0, 1, 251, 0, 253, 0, 1, 1, 253, 0, 0, 1, 1, 1, 0, 1, 255, 0, 2, 1, 255, 0, 3, 1, 2, 1, 0, 1, 2, 1, 4, 1, 249, 0, 5, 1, 6, 1, 249, 0, 6, 1, 7, 1, 2, 1, 3, 1, 8, 1, 8, 1, 9, 1, 10, 1, 2, 1, 8, 1, 11, 1, 8, 1, 10, 1, 11, 1, 12, 1, 13, 1, 14, 1, 12, 1, 14, 1, 15, 1, 14, 1, 13, 1, 16, 1, 14, 1, 16, 1, 17, 1, 16, 1, 13, 1, 18, 1, 16, 1, 18, 1, 19, 1 ),
"blend_shape_data": [  ],
"format": 97559,
"index_count": 522,
"material": SubResource( 1 ),
"name": "palette",
"primitive": 4,
"skeleton_aabb": [  ],
"vertex_count": 276
}

[sub_resource type="BoxShape" id=3]
extents = Vector3( 6, 6, 6 )

[node name="BrokenItemCrate" type="RigidBody"]
collision_layer = 32
collision_mask = 16
mass = 100.0
script = ExtResource( 1 )

[node name="MeshInstance" type="MeshInstance" parent="."]
transform = Transform( 1.5, 0, 0, 0, 1.5, 0, 0, 0, 1.5, 0, -6, 0 )
mesh = SubResource( 2 )
material/0 = null

[node name="CollisionShape" type="CollisionShape" parent="."]
shape = SubResource( 3 )

[node name="Timer" type="Timer" parent="."]
one_shot = true
autostart = true
[connection signal="timeout" from="Timer" to="." method="_on_Timer_timeout"]
