# MagicaVoxel @ Ephtracy

# group
g StoneTile2

# material
mtllib StoneTile2.mtl
usemtl palette

# normals
vn -1 0 0
vn 1 0 0
vn 0 0 1
vn 0 0 -1
vn 0 -1 0
vn 0 1 0

# texcoords
vt 0.162109 0.5
vt 0.177734 0.5
vt 0.857422 0.5
vt 0.978516 0.5
vt 0.990234 0.5
vt 0.994141 0.5

# verts
v -10 0 10
v -10 0 6
v -10 0 -10
v -10 9 6
v -10 9 1
v -10 9 -0
v -10 9 -10
v -10 10 6
v -10 10 1
v -10 10 -0
v -10 10 -10
v -10 12 10
v -10 12 6
v -7 9 1
v -7 9 -0
v -7 10 1
v -7 10 -0
v -6 9 2
v -6 9 1
v -6 10 2
v -6 10 1
v -4 9 3
v -4 9 2
v -4 10 3
v -4 10 2
v -4 11 10
v -4 11 6
v -4 12 10
v -4 12 6
v -2 9 6
v -2 9 3
v -2 10 6
v -2 10 3
v -1 9 3
v -1 9 2
v -1 10 3
v -1 10 2
v 0 9 2
v 0 9 1
v 0 9 -9
v 0 9 -10
v 0 10 2
v 0 10 1
v 0 10 -9
v 0 10 -10
v 1 9 -7
v 1 9 -9
v 1 10 -7
v 1 10 -9
v 2 9 -1
v 2 9 -7
v 2 10 -1
v 2 10 -7
v 3 9 -0
v 3 9 -1
v 3 10 -0
v 3 10 -1
v 4 9 1
v 4 9 -0
v 4 10 1
v 4 10 -0
v 5 9 2
v 5 9 1
v 5 10 2
v 5 10 1
v 6 11 10
v 6 11 6
v 6 12 10
v 6 12 6
v 9 9 3
v 9 9 2
v 9 10 3
v 9 10 2
v -8 9 2
v -8 9 1
v -8 10 2
v -8 10 1
v -7 9 3
v -7 9 2
v -7 10 3
v -7 10 2
v -6 11 10
v -6 11 6
v -6 12 10
v -6 12 6
v -5 9 4
v -5 9 3
v -5 10 4
v -5 10 3
v -3 9 6
v -3 9 4
v -3 9 3
v -3 9 2
v -3 10 6
v -3 10 4
v -3 10 3
v -3 10 2
v -2 9 2
v -2 9 1
v -2 10 2
v -2 10 1
v -1 9 1
v -1 9 -0
v -1 9 -8
v -1 9 -10
v -1 10 1
v -1 10 -0
v -1 10 -8
v -1 10 -10
v 0 9 -6
v 0 9 -8
v 0 10 -6
v 0 10 -8
v 1 9 -0
v 1 9 -6
v 1 10 -0
v 1 10 -6
v 3 9 2
v 3 9 1
v 3 10 2
v 3 10 1
v 4 9 3
v 4 9 2
v 4 10 3
v 4 10 2
v 4 11 10
v 4 11 6
v 4 12 10
v 4 12 6
v 8 9 2
v 8 9 1
v 8 10 2
v 8 10 1
v 9 9 1
v 9 9 -0
v 9 10 1
v 9 10 -0
v 10 0 10
v 10 0 6
v 10 0 -10
v 10 9 6
v 10 9 2
v 10 9 -0
v 10 9 -10
v 10 10 6
v 10 10 2
v 10 10 -0
v 10 10 -10
v 10 12 10
v 10 12 6
v -10 0 10
v -10 12 10
v -6 11 10
v -6 12 10
v -4 11 10
v -4 12 10
v 4 11 10
v 4 12 10
v 6 11 10
v 6 12 10
v 10 0 10
v 10 12 10
v -4 9 3
v -4 10 3
v -3 9 3
v -3 10 3
v -6 9 2
v -6 10 2
v -4 9 2
v -4 10 2
v -3 9 2
v -3 10 2
v -2 9 2
v -2 10 2
v 5 9 2
v 5 10 2
v 8 9 2
v 8 10 2
v -7 9 1
v -7 10 1
v -6 9 1
v -6 10 1
v -2 9 1
v -2 10 1
v -1 9 1
v -1 10 1
v 4 9 1
v 4 10 1
v 5 9 1
v 5 10 1
v 8 9 1
v 8 10 1
v 9 9 1
v 9 10 1
v -10 9 -0
v -10 10 -0
v -7 9 -0
v -7 10 -0
v -1 9 -0
v -1 10 -0
v 1 9 -0
v 1 10 -0
v 3 9 -0
v 3 10 -0
v 4 9 -0
v 4 10 -0
v 9 9 -0
v 9 10 -0
v 10 9 -0
v 10 10 -0
v 2 9 -1
v 2 10 -1
v 3 9 -1
v 3 10 -1
v 1 9 -7
v 1 10 -7
v 2 9 -7
v 2 10 -7
v 0 9 -9
v 0 10 -9
v 1 9 -9
v 1 10 -9
v -10 10 6
v -10 12 6
v -6 11 6
v -6 12 6
v -4 11 6
v -4 12 6
v -3 9 6
v -3 10 6
v -2 9 6
v -2 10 6
v 4 11 6
v 4 12 6
v 6 11 6
v 6 12 6
v 10 10 6
v 10 12 6
v -5 9 4
v -5 10 4
v -3 9 4
v -3 10 4
v -7 9 3
v -7 10 3
v -5 9 3
v -5 10 3
v -2 9 3
v -2 10 3
v -1 9 3
v -1 10 3
v 4 9 3
v 4 10 3
v 9 9 3
v 9 10 3
v -8 9 2
v -8 10 2
v -7 9 2
v -7 10 2
v -1 9 2
v -1 10 2
v 0 9 2
v 0 10 2
v 3 9 2
v 3 10 2
v 4 9 2
v 4 10 2
v 9 9 2
v 9 10 2
v 10 9 2
v 10 10 2
v -10 9 1
v -10 10 1
v -8 9 1
v -8 10 1
v 0 9 1
v 0 10 1
v 3 9 1
v 3 10 1
v 0 9 -6
v 0 10 -6
v 1 9 -6
v 1 10 -6
v -1 9 -8
v -1 10 -8
v 0 9 -8
v 0 10 -8
v -10 0 -10
v -10 9 -10
v -10 10 -10
v -1 9 -10
v -1 10 -10
v 0 9 -10
v 0 10 -10
v 10 0 -10
v 10 9 -10
v 10 10 -10
v -10 0 10
v 10 0 10
v -10 0 6
v 10 0 6
v -10 0 -10
v 10 0 -10
v -3 9 6
v -2 9 6
v -5 9 4
v -3 9 4
v -7 9 3
v -5 9 3
v -4 9 3
v -3 9 3
v -2 9 3
v -1 9 3
v 4 9 3
v 9 9 3
v -8 9 2
v -7 9 2
v -6 9 2
v -4 9 2
v -3 9 2
v -2 9 2
v -1 9 2
v 0 9 2
v 3 9 2
v 4 9 2
v 5 9 2
v 8 9 2
v 9 9 2
v 10 9 2
v -10 9 1
v -8 9 1
v -7 9 1
v -6 9 1
v -2 9 1
v -1 9 1
v 0 9 1
v 3 9 1
v 4 9 1
v 5 9 1
v 8 9 1
v 9 9 1
v -10 9 -0
v -7 9 -0
v -1 9 -0
v 1 9 -0
v 3 9 -0
v 4 9 -0
v 9 9 -0
v 10 9 -0
v 2 9 -1
v 3 9 -1
v 0 9 -6
v 1 9 -6
v 1 9 -7
v 2 9 -7
v -1 9 -8
v 0 9 -8
v 0 9 -9
v 1 9 -9
v -1 9 -10
v 0 9 -10
v -10 10 6
v -3 10 6
v -2 10 6
v 10 10 6
v -5 10 4
v -3 10 4
v -7 10 3
v -5 10 3
v -4 10 3
v -3 10 3
v -2 10 3
v -1 10 3
v 4 10 3
v 9 10 3
v -8 10 2
v -7 10 2
v -6 10 2
v -4 10 2
v -3 10 2
v -2 10 2
v -1 10 2
v 0 10 2
v 3 10 2
v 4 10 2
v 5 10 2
v 8 10 2
v 9 10 2
v 10 10 2
v -10 10 1
v -8 10 1
v -7 10 1
v -6 10 1
v -2 10 1
v -1 10 1
v 0 10 1
v 3 10 1
v 4 10 1
v 5 10 1
v 8 10 1
v 9 10 1
v -10 10 -0
v -7 10 -0
v -1 10 -0
v 1 10 -0
v 3 10 -0
v 4 10 -0
v 9 10 -0
v 10 10 -0
v 2 10 -1
v 3 10 -1
v 0 10 -6
v 1 10 -6
v 1 10 -7
v 2 10 -7
v -1 10 -8
v 0 10 -8
v 0 10 -9
v 1 10 -9
v -10 10 -10
v -1 10 -10
v 0 10 -10
v 10 10 -10
v -6 11 10
v -4 11 10
v 4 11 10
v 6 11 10
v -6 11 6
v -4 11 6
v 4 11 6
v 6 11 6
v -10 12 10
v -6 12 10
v -4 12 10
v 4 12 10
v 6 12 10
v 10 12 10
v -10 12 6
v -6 12 6
v -4 12 6
v 4 12 6
v 6 12 6
v 10 12 6

# faces
f 4/5/1 2/5/1 1/5/1
f 4/1/1 3/1/1 2/1/1
f 5/1/1 3/1/1 4/1/1
f 6/1/1 3/1/1 5/1/1
f 7/1/1 3/1/1 6/1/1
f 8/5/1 4/5/1 1/5/1
f 8/2/1 5/2/1 4/2/1
f 9/2/1 5/2/1 8/2/1
f 10/2/1 7/2/1 6/2/1
f 11/2/1 7/2/1 10/2/1
f 12/5/1 8/5/1 1/5/1
f 13/5/1 8/5/1 12/5/1
f 16/2/1 15/2/1 14/2/1
f 17/2/1 15/2/1 16/2/1
f 20/2/1 19/2/1 18/2/1
f 21/2/1 19/2/1 20/2/1
f 24/2/1 23/2/1 22/2/1
f 25/2/1 23/2/1 24/2/1
f 28/5/1 27/5/1 26/5/1
f 29/5/1 27/5/1 28/5/1
f 32/2/1 31/2/1 30/2/1
f 33/2/1 31/2/1 32/2/1
f 36/2/1 35/2/1 34/2/1
f 37/2/1 35/2/1 36/2/1
f 42/2/1 39/2/1 38/2/1
f 43/2/1 39/2/1 42/2/1
f 44/2/1 41/2/1 40/2/1
f 45/2/1 41/2/1 44/2/1
f 48/2/1 47/2/1 46/2/1
f 49/2/1 47/2/1 48/2/1
f 52/2/1 51/2/1 50/2/1
f 53/2/1 51/2/1 52/2/1
f 56/2/1 55/2/1 54/2/1
f 57/2/1 55/2/1 56/2/1
f 60/2/1 59/2/1 58/2/1
f 61/2/1 59/2/1 60/2/1
f 64/2/1 63/2/1 62/2/1
f 65/2/1 63/2/1 64/2/1
f 68/5/1 67/5/1 66/5/1
f 69/5/1 67/5/1 68/5/1
f 72/2/1 71/2/1 70/2/1
f 73/2/1 71/2/1 72/2/1
f 74/2/2 75/2/2 76/2/2
f 76/2/2 75/2/2 77/2/2
f 78/2/2 79/2/2 80/2/2
f 80/2/2 79/2/2 81/2/2
f 82/5/2 83/5/2 84/5/2
f 84/5/2 83/5/2 85/5/2
f 86/2/2 87/2/2 88/2/2
f 88/2/2 87/2/2 89/2/2
f 90/2/2 91/2/2 94/2/2
f 94/2/2 91/2/2 95/2/2
f 92/2/2 93/2/2 96/2/2
f 96/2/2 93/2/2 97/2/2
f 98/2/2 99/2/2 100/2/2
f 100/2/2 99/2/2 101/2/2
f 102/2/2 103/2/2 106/2/2
f 106/2/2 103/2/2 107/2/2
f 104/2/2 105/2/2 108/2/2
f 108/2/2 105/2/2 109/2/2
f 110/2/2 111/2/2 112/2/2
f 112/2/2 111/2/2 113/2/2
f 114/2/2 115/2/2 116/2/2
f 116/2/2 115/2/2 117/2/2
f 118/2/2 119/2/2 120/2/2
f 120/2/2 119/2/2 121/2/2
f 122/2/2 123/2/2 124/2/2
f 124/2/2 123/2/2 125/2/2
f 126/5/2 127/5/2 128/5/2
f 128/5/2 127/5/2 129/5/2
f 130/2/2 131/2/2 132/2/2
f 132/2/2 131/2/2 133/2/2
f 134/2/2 135/2/2 136/2/2
f 136/2/2 135/2/2 137/2/2
f 138/5/2 139/5/2 141/5/2
f 139/1/2 140/1/2 141/1/2
f 141/1/2 140/1/2 142/1/2
f 142/1/2 140/1/2 143/1/2
f 143/1/2 140/1/2 144/1/2
f 138/5/2 141/5/2 145/5/2
f 141/2/2 142/2/2 145/2/2
f 145/2/2 142/2/2 146/2/2
f 143/2/2 144/2/2 147/2/2
f 147/2/2 144/2/2 148/2/2
f 138/5/2 145/5/2 149/5/2
f 149/5/2 145/5/2 150/5/2
f 153/5/3 152/5/3 151/5/3
f 154/5/3 152/5/3 153/5/3
f 155/5/3 153/5/3 151/5/3
f 157/5/3 155/5/3 151/5/3
f 157/5/3 156/5/3 155/5/3
f 158/5/3 156/5/3 157/5/3
f 159/5/3 157/5/3 151/5/3
f 161/5/3 159/5/3 151/5/3
f 161/5/3 160/5/3 159/5/3
f 162/5/3 160/5/3 161/5/3
f 165/2/3 164/2/3 163/2/3
f 166/2/3 164/2/3 165/2/3
f 169/2/3 168/2/3 167/2/3
f 170/2/3 168/2/3 169/2/3
f 173/2/3 172/2/3 171/2/3
f 174/2/3 172/2/3 173/2/3
f 177/2/3 176/2/3 175/2/3
f 178/2/3 176/2/3 177/2/3
f 181/2/3 180/2/3 179/2/3
f 182/2/3 180/2/3 181/2/3
f 185/2/3 184/2/3 183/2/3
f 186/2/3 184/2/3 185/2/3
f 189/2/3 188/2/3 187/2/3
f 190/2/3 188/2/3 189/2/3
f 193/2/3 192/2/3 191/2/3
f 194/2/3 192/2/3 193/2/3
f 197/2/3 196/2/3 195/2/3
f 198/2/3 196/2/3 197/2/3
f 201/2/3 200/2/3 199/2/3
f 202/2/3 200/2/3 201/2/3
f 205/2/3 204/2/3 203/2/3
f 206/2/3 204/2/3 205/2/3
f 209/2/3 208/2/3 207/2/3
f 210/2/3 208/2/3 209/2/3
f 213/2/3 212/2/3 211/2/3
f 214/2/3 212/2/3 213/2/3
f 217/2/3 216/2/3 215/2/3
f 218/2/3 216/2/3 217/2/3
f 221/2/3 220/2/3 219/2/3
f 222/2/3 220/2/3 221/2/3
f 223/5/4 224/5/4 225/5/4
f 225/5/4 224/5/4 226/5/4
f 223/5/4 225/5/4 227/5/4
f 223/5/4 227/5/4 230/5/4
f 227/5/4 228/5/4 230/5/4
f 229/5/4 230/5/4 231/5/4
f 230/5/4 228/5/4 232/5/4
f 231/5/4 230/5/4 232/5/4
f 232/5/4 228/5/4 233/5/4
f 233/5/4 228/5/4 234/5/4
f 232/5/4 233/5/4 235/5/4
f 232/5/4 235/5/4 237/5/4
f 235/5/4 236/5/4 237/5/4
f 237/5/4 236/5/4 238/5/4
f 239/2/4 240/2/4 241/2/4
f 241/2/4 240/2/4 242/2/4
f 243/2/4 244/2/4 245/2/4
f 245/2/4 244/2/4 246/2/4
f 247/2/4 248/2/4 249/2/4
f 249/2/4 248/2/4 250/2/4
f 251/2/4 252/2/4 253/2/4
f 253/2/4 252/2/4 254/2/4
f 255/2/4 256/2/4 257/2/4
f 257/2/4 256/2/4 258/2/4
f 259/2/4 260/2/4 261/2/4
f 261/2/4 260/2/4 262/2/4
f 263/2/4 264/2/4 265/2/4
f 265/2/4 264/2/4 266/2/4
f 267/2/4 268/2/4 269/2/4
f 269/2/4 268/2/4 270/2/4
f 271/2/4 272/2/4 273/2/4
f 273/2/4 272/2/4 274/2/4
f 275/2/4 276/2/4 277/2/4
f 277/2/4 276/2/4 278/2/4
f 279/2/4 280/2/4 281/2/4
f 281/2/4 280/2/4 282/2/4
f 283/2/4 284/2/4 285/2/4
f 285/2/4 284/2/4 286/2/4
f 287/1/4 288/1/4 290/1/4
f 288/2/4 289/2/4 290/2/4
f 290/2/4 289/2/4 291/2/4
f 287/1/4 290/1/4 292/1/4
f 287/1/4 292/1/4 294/1/4
f 292/2/4 293/2/4 295/2/4
f 294/1/4 292/1/4 295/1/4
f 295/2/4 293/2/4 296/2/4
f 299/5/5 298/5/5 297/5/5
f 300/5/5 298/5/5 299/5/5
f 301/1/5 300/1/5 299/1/5
f 302/1/5 300/1/5 301/1/5
f 303/1/6 304/1/6 306/1/6
f 305/1/6 306/1/6 308/1/6
f 308/1/6 306/1/6 309/1/6
f 306/1/6 304/1/6 310/1/6
f 309/1/6 306/1/6 310/1/6
f 310/1/6 304/1/6 311/1/6
f 308/1/6 309/1/6 316/1/6
f 307/1/6 308/1/6 316/1/6
f 316/1/6 309/1/6 317/1/6
f 317/1/6 309/1/6 318/1/6
f 311/1/6 312/1/6 319/1/6
f 310/1/6 311/1/6 319/1/6
f 319/1/6 312/1/6 320/1/6
f 320/1/6 312/1/6 321/1/6
f 313/1/6 314/1/6 324/1/6
f 324/1/6 314/1/6 325/1/6
f 325/1/6 314/1/6 326/1/6
f 326/1/6 314/1/6 327/1/6
f 316/1/6 317/1/6 330/1/6
f 315/1/6 316/1/6 330/1/6
f 330/1/6 317/1/6 331/1/6
f 331/1/6 317/1/6 332/1/6
f 321/1/6 322/1/6 333/1/6
f 320/1/6 321/1/6 333/1/6
f 333/1/6 322/1/6 334/1/6
f 334/1/6 322/1/6 335/1/6
f 324/1/6 325/1/6 336/1/6
f 323/1/6 324/1/6 336/1/6
f 336/1/6 325/1/6 337/1/6
f 337/1/6 325/1/6 338/1/6
f 327/1/6 328/1/6 339/1/6
f 326/1/6 327/1/6 339/1/6
f 339/1/6 328/1/6 340/1/6
f 330/1/6 331/1/6 341/1/6
f 329/1/6 330/1/6 341/1/6
f 341/1/6 331/1/6 342/1/6
f 334/1/6 335/1/6 343/1/6
f 335/1/6 336/1/6 343/1/6
f 336/1/6 337/1/6 343/1/6
f 343/1/6 337/1/6 344/1/6
f 344/1/6 337/1/6 345/1/6
f 345/1/6 337/1/6 346/1/6
f 340/1/6 328/1/6 347/1/6
f 347/1/6 328/1/6 348/1/6
f 344/1/6 345/1/6 349/1/6
f 349/1/6 345/1/6 350/1/6
f 344/1/6 349/1/6 352/1/6
f 352/1/6 349/1/6 353/1/6
f 351/1/6 352/1/6 353/1/6
f 353/1/6 349/1/6 354/1/6
f 351/1/6 353/1/6 356/1/6
f 356/1/6 353/1/6 357/1/6
f 355/1/6 356/1/6 357/1/6
f 357/1/6 353/1/6 358/1/6
f 355/1/6 357/1/6 359/1/6
f 359/1/6 357/1/6 360/1/6
f 361/2/6 362/2/6 365/2/6
f 365/2/6 362/2/6 366/2/6
f 361/2/6 365/2/6 367/2/6
f 367/2/6 365/2/6 368/2/6
f 363/2/6 364/2/6 371/2/6
f 371/2/6 364/2/6 372/2/6
f 372/2/6 364/2/6 373/2/6
f 373/2/6 364/2/6 374/2/6
f 361/2/6 367/2/6 375/2/6
f 375/2/6 367/2/6 376/2/6
f 369/2/6 370/2/6 378/2/6
f 378/2/6 370/2/6 379/2/6
f 372/2/6 373/2/6 381/2/6
f 381/2/6 373/2/6 382/2/6
f 382/2/6 373/2/6 383/2/6
f 383/2/6 373/2/6 384/2/6
f 374/2/6 364/2/6 387/2/6
f 387/2/6 364/2/6 388/2/6
f 361/2/6 375/2/6 389/2/6
f 389/2/6 375/2/6 390/2/6
f 379/2/6 380/2/6 392/2/6
f 377/2/6 378/2/6 392/2/6
f 378/2/6 379/2/6 392/2/6
f 392/2/6 380/2/6 393/2/6
f 382/2/6 383/2/6 395/2/6
f 395/2/6 383/2/6 396/2/6
f 385/2/6 386/2/6 398/2/6
f 398/2/6 386/2/6 399/2/6
f 393/2/6 394/2/6 402/2/6
f 391/2/6 392/2/6 402/2/6
f 392/2/6 393/2/6 402/2/6
f 402/2/6 394/2/6 403/2/6
f 399/2/6 400/2/6 406/2/6
f 398/2/6 399/2/6 406/2/6
f 397/2/6 398/2/6 406/2/6
f 406/2/6 400/2/6 407/2/6
f 405/2/6 406/2/6 410/2/6
f 407/2/6 408/2/6 410/2/6
f 406/2/6 407/2/6 410/2/6
f 403/2/6 404/2/6 411/2/6
f 402/2/6 403/2/6 411/2/6
f 401/2/6 402/2/6 411/2/6
f 411/2/6 404/2/6 412/2/6
f 409/2/6 410/2/6 414/2/6
f 401/2/6 411/2/6 415/2/6
f 415/2/6 411/2/6 416/2/6
f 413/2/6 414/2/6 418/2/6
f 401/2/6 415/2/6 419/2/6
f 419/2/6 415/2/6 420/2/6
f 417/2/6 418/2/6 421/2/6
f 410/2/6 408/2/6 422/2/6
f 421/2/6 418/2/6 422/2/6
f 414/2/6 410/2/6 422/2/6
f 418/2/6 414/2/6 422/2/6
f 423/5/6 424/5/6 427/5/6
f 427/5/6 424/5/6 428/5/6
f 425/5/6 426/5/6 429/5/6
f 429/5/6 426/5/6 430/5/6
f 431/5/6 432/5/6 437/5/6
f 437/5/6 432/5/6 438/5/6
f 433/5/6 434/5/6 439/5/6
f 439/5/6 434/5/6 440/5/6
f 435/5/6 436/5/6 441/5/6
f 441/5/6 436/5/6 442/5/6
