# MagicaVoxel @ Ephtracy

# group
g StoneTile1

# material
mtllib StoneTile1.mtl
usemtl palette

# normals
vn -1 0 0
vn 1 0 0
vn 0 0 1
vn 0 0 -1
vn 0 -1 0
vn 0 1 0

# texcoords
vt 0.162109 0.5
vt 0.177734 0.5
vt 0.978516 0.5

# verts
v -10 0 10
v -10 0 -10
v -10 9 10
v -10 9 1
v -10 9 -0
v -10 9 -10
v -10 10 10
v -10 10 1
v -10 10 -0
v -10 10 -10
v -7 9 1
v -7 9 -0
v -7 10 1
v -7 10 -0
v -6 9 2
v -6 9 1
v -6 10 2
v -6 10 1
v -4 9 3
v -4 9 2
v -4 10 3
v -4 10 2
v -2 9 6
v -2 9 3
v -2 10 6
v -2 10 3
v -1 9 7
v -1 9 6
v -1 9 3
v -1 9 2
v -1 10 7
v -1 10 6
v -1 10 3
v -1 10 2
v 0 9 10
v 0 9 7
v 0 9 2
v 0 9 1
v 0 9 -9
v 0 9 -10
v 0 10 10
v 0 10 7
v 0 10 2
v 0 10 1
v 0 10 -9
v 0 10 -10
v 1 9 -7
v 1 9 -9
v 1 10 -7
v 1 10 -9
v 2 9 -1
v 2 9 -7
v 2 10 -1
v 2 10 -7
v 3 9 -0
v 3 9 -1
v 3 10 -0
v 3 10 -1
v 4 9 1
v 4 9 -0
v 4 10 1
v 4 10 -0
v 5 9 2
v 5 9 1
v 5 10 2
v 5 10 1
v 9 9 3
v 9 9 2
v 9 10 3
v 9 10 2
v -8 9 2
v -8 9 1
v -8 10 2
v -8 10 1
v -7 9 3
v -7 9 2
v -7 10 3
v -7 10 2
v -5 9 4
v -5 9 3
v -5 10 4
v -5 10 3
v -3 9 7
v -3 9 4
v -3 9 3
v -3 9 2
v -3 10 7
v -3 10 4
v -3 10 3
v -3 10 2
v -2 9 8
v -2 9 7
v -2 9 2
v -2 9 1
v -2 10 8
v -2 10 7
v -2 10 2
v -2 10 1
v -1 9 10
v -1 9 8
v -1 9 1
v -1 9 -0
v -1 9 -8
v -1 9 -10
v -1 10 10
v -1 10 8
v -1 10 1
v -1 10 -0
v -1 10 -8
v -1 10 -10
v 0 9 -6
v 0 9 -8
v 0 10 -6
v 0 10 -8
v 1 9 -0
v 1 9 -6
v 1 10 -0
v 1 10 -6
v 3 9 2
v 3 9 1
v 3 10 2
v 3 10 1
v 4 9 3
v 4 9 2
v 4 10 3
v 4 10 2
v 8 9 2
v 8 9 1
v 8 10 2
v 8 10 1
v 9 9 1
v 9 9 -0
v 9 10 1
v 9 10 -0
v 10 0 10
v 10 0 -10
v 10 9 10
v 10 9 2
v 10 9 -0
v 10 9 -10
v 10 10 10
v 10 10 2
v 10 10 -0
v 10 10 -10
v -10 0 10
v -10 9 10
v -10 10 10
v -1 9 10
v -1 10 10
v 0 9 10
v 0 10 10
v 10 0 10
v 10 9 10
v 10 10 10
v -1 9 7
v -1 10 7
v 0 9 7
v 0 10 7
v -2 9 6
v -2 10 6
v -1 9 6
v -1 10 6
v -4 9 3
v -4 10 3
v -3 9 3
v -3 10 3
v -6 9 2
v -6 10 2
v -4 9 2
v -4 10 2
v -3 9 2
v -3 10 2
v -2 9 2
v -2 10 2
v 5 9 2
v 5 10 2
v 8 9 2
v 8 10 2
v -7 9 1
v -7 10 1
v -6 9 1
v -6 10 1
v -2 9 1
v -2 10 1
v -1 9 1
v -1 10 1
v 4 9 1
v 4 10 1
v 5 9 1
v 5 10 1
v 8 9 1
v 8 10 1
v 9 9 1
v 9 10 1
v -10 9 -0
v -10 10 -0
v -7 9 -0
v -7 10 -0
v -1 9 -0
v -1 10 -0
v 1 9 -0
v 1 10 -0
v 3 9 -0
v 3 10 -0
v 4 9 -0
v 4 10 -0
v 9 9 -0
v 9 10 -0
v 10 9 -0
v 10 10 -0
v 2 9 -1
v 2 10 -1
v 3 9 -1
v 3 10 -1
v 1 9 -7
v 1 10 -7
v 2 9 -7
v 2 10 -7
v 0 9 -9
v 0 10 -9
v 1 9 -9
v 1 10 -9
v -2 9 8
v -2 10 8
v -1 9 8
v -1 10 8
v -3 9 7
v -3 10 7
v -2 9 7
v -2 10 7
v -5 9 4
v -5 10 4
v -3 9 4
v -3 10 4
v -7 9 3
v -7 10 3
v -5 9 3
v -5 10 3
v -2 9 3
v -2 10 3
v -1 9 3
v -1 10 3
v 4 9 3
v 4 10 3
v 9 9 3
v 9 10 3
v -8 9 2
v -8 10 2
v -7 9 2
v -7 10 2
v -1 9 2
v -1 10 2
v 0 9 2
v 0 10 2
v 3 9 2
v 3 10 2
v 4 9 2
v 4 10 2
v 9 9 2
v 9 10 2
v 10 9 2
v 10 10 2
v -10 9 1
v -10 10 1
v -8 9 1
v -8 10 1
v 0 9 1
v 0 10 1
v 3 9 1
v 3 10 1
v 0 9 -6
v 0 10 -6
v 1 9 -6
v 1 10 -6
v -1 9 -8
v -1 10 -8
v 0 9 -8
v 0 10 -8
v -10 0 -10
v -10 9 -10
v -10 10 -10
v -1 9 -10
v -1 10 -10
v 0 9 -10
v 0 10 -10
v 10 0 -10
v 10 9 -10
v 10 10 -10
v -10 0 10
v 10 0 10
v -10 0 -10
v 10 0 -10
v -1 9 10
v 0 9 10
v -2 9 8
v -1 9 8
v -3 9 7
v -2 9 7
v -1 9 7
v 0 9 7
v -2 9 6
v -1 9 6
v -5 9 4
v -3 9 4
v -7 9 3
v -5 9 3
v -4 9 3
v -3 9 3
v -2 9 3
v -1 9 3
v 4 9 3
v 9 9 3
v -8 9 2
v -7 9 2
v -6 9 2
v -4 9 2
v -3 9 2
v -2 9 2
v -1 9 2
v 0 9 2
v 3 9 2
v 4 9 2
v 5 9 2
v 8 9 2
v 9 9 2
v 10 9 2
v -10 9 1
v -8 9 1
v -7 9 1
v -6 9 1
v -2 9 1
v -1 9 1
v 0 9 1
v 3 9 1
v 4 9 1
v 5 9 1
v 8 9 1
v 9 9 1
v -10 9 -0
v -7 9 -0
v -1 9 -0
v 1 9 -0
v 3 9 -0
v 4 9 -0
v 9 9 -0
v 10 9 -0
v 2 9 -1
v 3 9 -1
v 0 9 -6
v 1 9 -6
v 1 9 -7
v 2 9 -7
v -1 9 -8
v 0 9 -8
v 0 9 -9
v 1 9 -9
v -1 9 -10
v 0 9 -10
v -10 10 10
v -1 10 10
v 0 10 10
v 10 10 10
v -2 10 8
v -1 10 8
v -3 10 7
v -2 10 7
v -1 10 7
v 0 10 7
v -2 10 6
v -1 10 6
v -5 10 4
v -3 10 4
v -7 10 3
v -5 10 3
v -4 10 3
v -3 10 3
v -2 10 3
v -1 10 3
v 4 10 3
v 9 10 3
v -8 10 2
v -7 10 2
v -6 10 2
v -4 10 2
v -3 10 2
v -2 10 2
v -1 10 2
v 0 10 2
v 3 10 2
v 4 10 2
v 5 10 2
v 8 10 2
v 9 10 2
v 10 10 2
v -10 10 1
v -8 10 1
v -7 10 1
v -6 10 1
v -2 10 1
v -1 10 1
v 0 10 1
v 3 10 1
v 4 10 1
v 5 10 1
v 8 10 1
v 9 10 1
v -10 10 -0
v -7 10 -0
v -1 10 -0
v 1 10 -0
v 3 10 -0
v 4 10 -0
v 9 10 -0
v 10 10 -0
v 2 10 -1
v 3 10 -1
v 0 10 -6
v 1 10 -6
v 1 10 -7
v 2 10 -7
v -1 10 -8
v 0 10 -8
v 0 10 -9
v 1 10 -9
v -10 10 -10
v -1 10 -10
v 0 10 -10
v 10 10 -10

# faces
f 3/1/1 2/1/1 1/1/1
f 4/1/1 2/1/1 3/1/1
f 5/1/1 2/1/1 4/1/1
f 6/1/1 2/1/1 5/1/1
f 7/2/1 4/2/1 3/2/1
f 8/2/1 4/2/1 7/2/1
f 9/2/1 6/2/1 5/2/1
f 10/2/1 6/2/1 9/2/1
f 13/2/1 12/2/1 11/2/1
f 14/2/1 12/2/1 13/2/1
f 17/2/1 16/2/1 15/2/1
f 18/2/1 16/2/1 17/2/1
f 21/2/1 20/2/1 19/2/1
f 22/2/1 20/2/1 21/2/1
f 25/2/1 24/2/1 23/2/1
f 26/2/1 24/2/1 25/2/1
f 31/2/1 28/2/1 27/2/1
f 32/2/1 28/2/1 31/2/1
f 33/2/1 30/2/1 29/2/1
f 34/2/1 30/2/1 33/2/1
f 41/2/1 36/2/1 35/2/1
f 42/2/1 36/2/1 41/2/1
f 43/2/1 38/2/1 37/2/1
f 44/2/1 38/2/1 43/2/1
f 45/2/1 40/2/1 39/2/1
f 46/2/1 40/2/1 45/2/1
f 49/2/1 48/2/1 47/2/1
f 50/2/1 48/2/1 49/2/1
f 53/2/1 52/2/1 51/2/1
f 54/2/1 52/2/1 53/2/1
f 57/2/1 56/2/1 55/2/1
f 58/2/1 56/2/1 57/2/1
f 61/2/1 60/2/1 59/2/1
f 62/2/1 60/2/1 61/2/1
f 65/2/1 64/2/1 63/2/1
f 66/2/1 64/2/1 65/2/1
f 69/2/1 68/2/1 67/2/1
f 70/2/1 68/2/1 69/2/1
f 71/2/2 72/2/2 73/2/2
f 73/2/2 72/2/2 74/2/2
f 75/2/2 76/2/2 77/2/2
f 77/2/2 76/2/2 78/2/2
f 79/2/2 80/2/2 81/2/2
f 81/2/2 80/2/2 82/2/2
f 83/2/2 84/2/2 87/2/2
f 87/2/2 84/2/2 88/2/2
f 85/2/2 86/2/2 89/2/2
f 89/2/2 86/2/2 90/2/2
f 91/2/2 92/2/2 95/2/2
f 95/2/2 92/2/2 96/2/2
f 93/2/2 94/2/2 97/2/2
f 97/2/2 94/2/2 98/2/2
f 99/2/2 100/2/2 105/2/2
f 105/2/2 100/2/2 106/2/2
f 101/2/2 102/2/2 107/2/2
f 107/2/2 102/2/2 108/2/2
f 103/2/2 104/2/2 109/2/2
f 109/2/2 104/2/2 110/2/2
f 111/2/2 112/2/2 113/2/2
f 113/2/2 112/2/2 114/2/2
f 115/2/2 116/2/2 117/2/2
f 117/2/2 116/2/2 118/2/2
f 119/2/2 120/2/2 121/2/2
f 121/2/2 120/2/2 122/2/2
f 123/2/2 124/2/2 125/2/2
f 125/2/2 124/2/2 126/2/2
f 127/2/2 128/2/2 129/2/2
f 129/2/2 128/2/2 130/2/2
f 131/2/2 132/2/2 133/2/2
f 133/2/2 132/2/2 134/2/2
f 135/1/2 136/1/2 137/1/2
f 137/1/2 136/1/2 138/1/2
f 138/1/2 136/1/2 139/1/2
f 139/1/2 136/1/2 140/1/2
f 137/2/2 138/2/2 141/2/2
f 141/2/2 138/2/2 142/2/2
f 139/2/2 140/2/2 143/2/2
f 143/2/2 140/2/2 144/2/2
f 148/1/3 146/1/3 145/1/3
f 148/2/3 147/2/3 146/2/3
f 149/2/3 147/2/3 148/2/3
f 150/1/3 148/1/3 145/1/3
f 152/1/3 150/1/3 145/1/3
f 153/2/3 151/2/3 150/2/3
f 153/1/3 150/1/3 152/1/3
f 154/2/3 151/2/3 153/2/3
f 157/2/3 156/2/3 155/2/3
f 158/2/3 156/2/3 157/2/3
f 161/2/3 160/2/3 159/2/3
f 162/2/3 160/2/3 161/2/3
f 165/2/3 164/2/3 163/2/3
f 166/2/3 164/2/3 165/2/3
f 169/2/3 168/2/3 167/2/3
f 170/2/3 168/2/3 169/2/3
f 173/2/3 172/2/3 171/2/3
f 174/2/3 172/2/3 173/2/3
f 177/2/3 176/2/3 175/2/3
f 178/2/3 176/2/3 177/2/3
f 181/2/3 180/2/3 179/2/3
f 182/2/3 180/2/3 181/2/3
f 185/2/3 184/2/3 183/2/3
f 186/2/3 184/2/3 185/2/3
f 189/2/3 188/2/3 187/2/3
f 190/2/3 188/2/3 189/2/3
f 193/2/3 192/2/3 191/2/3
f 194/2/3 192/2/3 193/2/3
f 197/2/3 196/2/3 195/2/3
f 198/2/3 196/2/3 197/2/3
f 201/2/3 200/2/3 199/2/3
f 202/2/3 200/2/3 201/2/3
f 205/2/3 204/2/3 203/2/3
f 206/2/3 204/2/3 205/2/3
f 209/2/3 208/2/3 207/2/3
f 210/2/3 208/2/3 209/2/3
f 213/2/3 212/2/3 211/2/3
f 214/2/3 212/2/3 213/2/3
f 217/2/3 216/2/3 215/2/3
f 218/2/3 216/2/3 217/2/3
f 221/2/3 220/2/3 219/2/3
f 222/2/3 220/2/3 221/2/3
f 223/2/4 224/2/4 225/2/4
f 225/2/4 224/2/4 226/2/4
f 227/2/4 228/2/4 229/2/4
f 229/2/4 228/2/4 230/2/4
f 231/2/4 232/2/4 233/2/4
f 233/2/4 232/2/4 234/2/4
f 235/2/4 236/2/4 237/2/4
f 237/2/4 236/2/4 238/2/4
f 239/2/4 240/2/4 241/2/4
f 241/2/4 240/2/4 242/2/4
f 243/2/4 244/2/4 245/2/4
f 245/2/4 244/2/4 246/2/4
f 247/2/4 248/2/4 249/2/4
f 249/2/4 248/2/4 250/2/4
f 251/2/4 252/2/4 253/2/4
f 253/2/4 252/2/4 254/2/4
f 255/2/4 256/2/4 257/2/4
f 257/2/4 256/2/4 258/2/4
f 259/2/4 260/2/4 261/2/4
f 261/2/4 260/2/4 262/2/4
f 263/2/4 264/2/4 265/2/4
f 265/2/4 264/2/4 266/2/4
f 267/2/4 268/2/4 269/2/4
f 269/2/4 268/2/4 270/2/4
f 271/2/4 272/2/4 273/2/4
f 273/2/4 272/2/4 274/2/4
f 275/2/4 276/2/4 277/2/4
f 277/2/4 276/2/4 278/2/4
f 279/1/4 280/1/4 282/1/4
f 280/2/4 281/2/4 282/2/4
f 282/2/4 281/2/4 283/2/4
f 279/1/4 282/1/4 284/1/4
f 279/1/4 284/1/4 286/1/4
f 284/2/4 285/2/4 287/2/4
f 286/1/4 284/1/4 287/1/4
f 287/2/4 285/2/4 288/2/4
f 291/1/5 290/1/5 289/1/5
f 292/1/5 290/1/5 291/1/5
f 293/1/6 294/1/6 296/1/6
f 295/1/6 296/1/6 298/1/6
f 296/1/6 294/1/6 299/1/6
f 298/1/6 296/1/6 299/1/6
f 299/1/6 294/1/6 300/1/6
f 297/1/6 298/1/6 301/1/6
f 298/1/6 299/1/6 301/1/6
f 301/1/6 299/1/6 302/1/6
f 297/1/6 301/1/6 304/1/6
f 303/1/6 304/1/6 306/1/6
f 306/1/6 304/1/6 307/1/6
f 304/1/6 301/1/6 308/1/6
f 307/1/6 304/1/6 308/1/6
f 308/1/6 301/1/6 309/1/6
f 306/1/6 307/1/6 314/1/6
f 305/1/6 306/1/6 314/1/6
f 314/1/6 307/1/6 315/1/6
f 315/1/6 307/1/6 316/1/6
f 309/1/6 310/1/6 317/1/6
f 308/1/6 309/1/6 317/1/6
f 317/1/6 310/1/6 318/1/6
f 318/1/6 310/1/6 319/1/6
f 311/1/6 312/1/6 322/1/6
f 322/1/6 312/1/6 323/1/6
f 323/1/6 312/1/6 324/1/6
f 324/1/6 312/1/6 325/1/6
f 314/1/6 315/1/6 328/1/6
f 313/1/6 314/1/6 328/1/6
f 328/1/6 315/1/6 329/1/6
f 329/1/6 315/1/6 330/1/6
f 319/1/6 320/1/6 331/1/6
f 318/1/6 319/1/6 331/1/6
f 331/1/6 320/1/6 332/1/6
f 332/1/6 320/1/6 333/1/6
f 322/1/6 323/1/6 334/1/6
f 321/1/6 322/1/6 334/1/6
f 334/1/6 323/1/6 335/1/6
f 335/1/6 323/1/6 336/1/6
f 325/1/6 326/1/6 337/1/6
f 324/1/6 325/1/6 337/1/6
f 337/1/6 326/1/6 338/1/6
f 328/1/6 329/1/6 339/1/6
f 327/1/6 328/1/6 339/1/6
f 339/1/6 329/1/6 340/1/6
f 332/1/6 333/1/6 341/1/6
f 333/1/6 334/1/6 341/1/6
f 334/1/6 335/1/6 341/1/6
f 341/1/6 335/1/6 342/1/6
f 342/1/6 335/1/6 343/1/6
f 343/1/6 335/1/6 344/1/6
f 338/1/6 326/1/6 345/1/6
f 345/1/6 326/1/6 346/1/6
f 342/1/6 343/1/6 347/1/6
f 347/1/6 343/1/6 348/1/6
f 342/1/6 347/1/6 350/1/6
f 350/1/6 347/1/6 351/1/6
f 349/1/6 350/1/6 351/1/6
f 351/1/6 347/1/6 352/1/6
f 349/1/6 351/1/6 354/1/6
f 354/1/6 351/1/6 355/1/6
f 353/1/6 354/1/6 355/1/6
f 355/1/6 351/1/6 356/1/6
f 353/1/6 355/1/6 357/1/6
f 357/1/6 355/1/6 358/1/6
f 359/2/6 360/2/6 363/2/6
f 363/2/6 360/2/6 364/2/6
f 359/2/6 363/2/6 365/2/6
f 365/2/6 363/2/6 366/2/6
f 361/2/6 362/2/6 368/2/6
f 367/2/6 368/2/6 370/2/6
f 359/2/6 365/2/6 371/2/6
f 371/2/6 365/2/6 372/2/6
f 359/2/6 371/2/6 373/2/6
f 373/2/6 371/2/6 374/2/6
f 369/2/6 370/2/6 377/2/6
f 370/2/6 368/2/6 378/2/6
f 377/2/6 370/2/6 378/2/6
f 368/2/6 362/2/6 379/2/6
f 378/2/6 368/2/6 379/2/6
f 379/2/6 362/2/6 380/2/6
f 359/2/6 373/2/6 381/2/6
f 381/2/6 373/2/6 382/2/6
f 375/2/6 376/2/6 384/2/6
f 384/2/6 376/2/6 385/2/6
f 378/2/6 379/2/6 387/2/6
f 387/2/6 379/2/6 388/2/6
f 388/2/6 379/2/6 389/2/6
f 389/2/6 379/2/6 390/2/6
f 380/2/6 362/2/6 393/2/6
f 393/2/6 362/2/6 394/2/6
f 359/2/6 381/2/6 395/2/6
f 395/2/6 381/2/6 396/2/6
f 385/2/6 386/2/6 398/2/6
f 383/2/6 384/2/6 398/2/6
f 384/2/6 385/2/6 398/2/6
f 398/2/6 386/2/6 399/2/6
f 388/2/6 389/2/6 401/2/6
f 401/2/6 389/2/6 402/2/6
f 391/2/6 392/2/6 404/2/6
f 404/2/6 392/2/6 405/2/6
f 399/2/6 400/2/6 408/2/6
f 397/2/6 398/2/6 408/2/6
f 398/2/6 399/2/6 408/2/6
f 408/2/6 400/2/6 409/2/6
f 405/2/6 406/2/6 412/2/6
f 404/2/6 405/2/6 412/2/6
f 403/2/6 404/2/6 412/2/6
f 412/2/6 406/2/6 413/2/6
f 411/2/6 412/2/6 416/2/6
f 413/2/6 414/2/6 416/2/6
f 412/2/6 413/2/6 416/2/6
f 409/2/6 410/2/6 417/2/6
f 408/2/6 409/2/6 417/2/6
f 407/2/6 408/2/6 417/2/6
f 417/2/6 410/2/6 418/2/6
f 415/2/6 416/2/6 420/2/6
f 407/2/6 417/2/6 421/2/6
f 421/2/6 417/2/6 422/2/6
f 419/2/6 420/2/6 424/2/6
f 407/2/6 421/2/6 425/2/6
f 425/2/6 421/2/6 426/2/6
f 423/2/6 424/2/6 427/2/6
f 416/2/6 414/2/6 428/2/6
f 427/2/6 424/2/6 428/2/6
f 420/2/6 416/2/6 428/2/6
f 424/2/6 420/2/6 428/2/6
