[gd_resource type="ShaderMaterial" load_steps=2 format=2]

[ext_resource path="res://Shaders/HologramShader.tres" type="Shader" id=1]

[resource]
shader = ExtResource( 1 )
shader_param/Metalic = 0.2
shader_param/Smoothness = 10.0
shader_param/FresnelColor = Color( 0.235294, 0.847059, 0.164706, 1 )
shader_param/Emission = null
