[gd_resource type="ShaderMaterial" load_steps=3 format=2]

[ext_resource path="res://Shaders/lavaShader.shader" type="Shader" id=1]
[ext_resource path="res://Sprites/Shaders/Water.png" type="Texture" id=2]

[resource]
shader = ExtResource( 1 )
shader_param/amplitude = Vector2( 29.8, 0.1 )
shader_param/frequency = Vector2( 14.32, 1.6 )
shader_param/time_factor = Vector2( 1, 4.5 )
shader_param/texture_scale = Vector2( 12, 12 )
shader_param/texturemap = ExtResource( 2 )

