[gd_resource type="ShaderMaterial" load_steps=3 format=2]

[ext_resource path="res://Shaders/waterShader.shader" type="Shader" id=1]
[ext_resource path="res://Sprites/Shaders/Acid.png" type="Texture" id=2]

[resource]
shader = ExtResource( 1 )
shader_param/amplitude = Vector2( 6.42, 2.15 )
shader_param/frequency = Vector2( 5.32, 2.81 )
shader_param/time_factor = Vector2( 1.5, 3 )
shader_param/texture_scale = Vector2( 12, 12 )
shader_param/texturemap = ExtResource( 2 )

