[gd_scene load_steps=28 format=2]

[ext_resource path="res://Scenes/Enviroment/MidDay.tscn" type="PackedScene" id=1]
[ext_resource path="res://Scripts/Objects/Deathzone.gd" type="Script" id=2]
[ext_resource path="res://Others/MeshLibs/GrassTiles.meshlib" type="MeshLibrary" id=3]
[ext_resource path="res://Scenes/RaceSegments/Checkpoint.tscn" type="PackedScene" id=4]
[ext_resource path="res://Scenes/Objects/GroundTorch.tscn" type="PackedScene" id=5]
[ext_resource path="res://Scripts/Map/Podium.gd" type="Script" id=6]
[ext_resource path="res://Music/Draw.ogg" type="AudioStream" id=7]
[ext_resource path="res://Music/Win.ogg" type="AudioStream" id=8]
[ext_resource path="res://Scenes/UIElements/SplitScreen.tscn" type="PackedScene" id=9]
[ext_resource path="res://Sprites/Buttons/BorderedBlock.png" type="Texture" id=10]
[ext_resource path="res://Fonts/Ode to Idle Gaming.otf" type="DynamicFontData" id=11]
[ext_resource path="res://Scenes/UIElements/TrophyProfile.tscn" type="PackedScene" id=12]
[ext_resource path="res://Sprites/Buttons/profile3.png" type="Texture" id=13]
[ext_resource path="res://Sprites/Buttons/ExitButton.png" type="Texture" id=14]
[ext_resource path="res://Scenes/ViewportShots/TrophyShot.tscn" type="PackedScene" id=15]
[ext_resource path="res://Scenes/UIElements/CoinsProfile2.tscn" type="PackedScene" id=16]
[ext_resource path="res://Scenes/ViewportShots/CoinShot.tscn" type="PackedScene" id=17]
[ext_resource path="res://Scenes/UIElements/Profiles.tscn" type="PackedScene" id=18]

[sub_resource type="ProceduralSky" id=1]
sky_top_color = Color( 0.219608, 0.94902, 0.796078, 1 )
sky_horizon_color = Color( 0.996078, 0.984314, 0.705882, 1 )
ground_bottom_color = Color( 0.423529, 0.964706, 0.960784, 1 )
ground_horizon_color = Color( 0.996078, 0.984314, 0.705882, 1 )

[sub_resource type="Environment" id=2]
background_mode = 2
background_sky = SubResource( 1 )

[sub_resource type="BoxShape" id=3]
extents = Vector3( 140.99, 90.9306, 9.7054 )

[sub_resource type="BoxShape" id=4]

[sub_resource type="BoxShape" id=5]
extents = Vector3( 2400, 1, 2400 )

[sub_resource type="BoxShape" id=6]
extents = Vector3( 120.126, 11.1819, 19.9857 )

[sub_resource type="DynamicFont" id=7]
size = 50
font_data = ExtResource( 11 )

[sub_resource type="DynamicFont" id=8]
size = 50
font_data = ExtResource( 11 )

[sub_resource type="Animation" id=9]
length = 2.0
tracks/0/type = "value"
tracks/0/path = NodePath("Camera:translation")
tracks/0/interp = 1
tracks/0/loop_wrap = true
tracks/0/imported = false
tracks/0/enabled = true
tracks/0/keys = {
"times": PoolRealArray( 0, 0.5, 1.5, 2 ),
"transitions": PoolRealArray( 1, 1, 1, 1 ),
"update": 0,
"values": [ Vector3( 0, 126.79, 233.725 ), Vector3( 0, 61.7899, 183.725 ), Vector3( 0, 46.7899, 73.7254 ), Vector3( 0, 131.79, 21.835 ) ]
}
tracks/1/type = "value"
tracks/1/path = NodePath("Camera:rotation_degrees")
tracks/1/interp = 1
tracks/1/loop_wrap = true
tracks/1/imported = false
tracks/1/enabled = true
tracks/1/keys = {
"times": PoolRealArray( 0, 0.5, 1.5, 2 ),
"transitions": PoolRealArray( 1, 1, 1, 1 ),
"update": 0,
"values": [ Vector3( -50.2122, 0, 0 ), Vector3( -25.2122, 0, 0 ), Vector3( -25.2122, 0, 0 ), Vector3( -25.212, 0, 0 ) ]
}

[node name="Podium" type="Spatial"]

[node name="DirectionalLight" type="DirectionalLight" parent="."]
transform = Transform( 0.747828, 0.310469, 0.586824, -0.663414, 0.383022, 0.642788, -0.0252013, -0.870002, 0.492404, 0, -9.13419e-007, -1.46841e-006 )
shadow_bias = 2.5
directional_shadow_depth_range = 1
directional_shadow_max_distance = 1000.0

[node name="WorldEnvironment" parent="." instance=ExtResource( 1 )]
environment = SubResource( 2 )

[node name="Map" type="Spatial" parent="."]
editor/display_folded = true
transform = Transform( 1, 0, 0, 0, 1, 0, 0, 0, 1, 0, 0, -25 )

[node name="StaticBody" type="StaticBody" parent="Map"]
transform = Transform( 1, 0, 0, 0, 1, 0, 0, 0, 1, 0, -25, -10 )

[node name="CollisionShape" type="CollisionShape" parent="Map/StaticBody"]
transform = Transform( 1, 0, 0, 0, 1, 0, 0, 0, 1, 0, 90, 0 )
shape = SubResource( 3 )

[node name="DeathZone" type="KinematicBody" parent="Map"]
editor/display_folded = true
transform = Transform( 1, 0, 0, 0, 1.09169e-008, 1, 0, -1, 1.09169e-008, 10, -932, 50 )
script = ExtResource( 2 )
loop = true

[node name="CollisionShape" type="CollisionShape" parent="Map/DeathZone"]
transform = Transform( 1, 0, 0, 0, 1, 0, 0, 0, 1, 0, -2.40172e-007, 5.45845e-007 )
shape = SubResource( 4 )
disabled = true

[node name="Area" type="Area" parent="Map/DeathZone"]
editor/display_folded = true
transform = Transform( 1, 0, 0, 0, 1, 0, 0, 0, 1, 0, -2.40172e-007, 5.45845e-007 )
collision_layer = 16

[node name="CollisionShape" type="CollisionShape" parent="Map/DeathZone/Area"]
transform = Transform( 1, 0, 0, 0, -4.37114e-008, 1, 0, -1, -4.37114e-008, 0, 1.30368e-006, -2.49648 )
shape = SubResource( 5 )

[node name="GridMap" type="GridMap" parent="Map" groups=[
"Ground",
]]
editor/display_folded = true
mesh_library = ExtResource( 3 )
cell_size = Vector3( 20, 1, 20 )
collision_layer = 16
data = {
"cells": PoolIntArray( 0, 0, 536870919, 1, 0, 7, 2, 0, 1441792, 3, 0, 538312705, 4, 0, 1441792, 5, 0, 1441792, 6, 0, 1048579, 65529, 0, 1441795, 65530, 0, 1441792, 65531, 0, 1441792, 65532, 0, 1441792, 65533, 0, 1441793, 65534, 0, 7, 65535, 0, 7, 0, 1, 7, 1, 1, 7, 2, 1, 1441792, 3, 1, 1441792, 4, 1, 1048578, 5, 1, 1441792, 6, 1, 1048579, 65529, 1, 1441795, 65530, 1, 1, 65531, 1, 1441792, 65532, 1, 1441792, 65533, 1, 1441792, 65534, 1, 7, 65535, 1, 7, 0, 2, 7, 1, 2, 7, 2, 2, 1441792, 3, 2, 1441792, 4, 2, 1441792, 5, 2, 1441792, 6, 2, 1048579, 65529, 2, 1441795, 65530, 2, 1441793, 65531, 2, 1441792, 65532, 2, 1441792, 65533, 2, 1441792, 65534, 2, 7, 65535, 2, 536870919, 0, 3, 7, 1, 3, 7, 2, 3, 538312704, 3, 3, 1441792, 4, 3, 538312704, 5, 3, 1441792, 6, 3, 1048579, 65529, 3, 538312707, 65530, 3, 1441792, 65531, 3, 2, 65532, 3, 1441792, 65533, 3, 1441792, 65534, 3, 7, 65535, 3, 7, 0, 4, 7, 1, 4, 7, 2, 4, 1441792, 3, 4, 1441793, 4, 4, 1441792, 5, 4, 1441792, 6, 4, 1048579, 65529, 4, 1441795, 65530, 4, 1441792, 65531, 4, 1441792, 65532, 4, 1441792, 65533, 4, 1441793, 65534, 4, 7, 65535, 4, 7, 0, 5, 7, 1, 5, 7, 2, 5, 538312704, 3, 5, 538312704, 4, 5, 1048578, 5, 5, 1441792, 6, 5, 1048579, 65529, 5, 1441795, 65530, 5, 536870913, 65531, 5, 1441792, 65532, 5, 1441792, 65533, 5, 538312704, 65534, 5, 536870919, 65535, 5, 536870919, 0, 6, 536870919, 1, 6, 536870919, 2, 6, 538312704, 3, 6, 538312704, 4, 6, 538312704, 5, 6, 538312704, 6, 6, 537919491, 65529, 6, 538312707, 65530, 6, 538312704, 65531, 6, 538312704, 65532, 6, 538312704, 65533, 6, 538312704, 65534, 6, 536870919, 65535, 6, 536870919, 0, 7, 536870919, 1, 7, 536870919, 2, 7, 538312704, 3, 7, 538312704, 4, 7, 538312704, 5, 7, 538312704, 6, 7, 537919491, 65529, 7, 538312707, 65530, 7, 537919490, 65531, 7, 538312704, 65532, 7, 538312704, 65533, 7, 538312704, 65534, 7, 536870919, 65535, 7, 7, 0, 8, 536870919, 1, 8, 7, 2, 8, 538312704, 3, 8, 538312704, 4, 8, 538312704, 5, 8, 538312705, 6, 8, 537919491, 65529, 8, 538312707, 65530, 8, 538312704, 65531, 8, 538312704, 65532, 8, 538312704, 65533, 8, 538312704, 65534, 8, 536870919, 65535, 8, 536870919, 0, 9, 536870919, 1, 9, 536870919, 2, 9, 538312704, 3, 9, 1441792, 4, 9, 536870914, 5, 9, 538312704, 6, 9, 1048579, 65529, 9, 538312707, 65530, 9, 538312705, 65531, 9, 1441792, 65532, 9, 538312704, 65533, 9, 538312704, 65534, 9, 536870919, 65535, 9, 536870919, 0, 10, 7, 1, 10, 7, 2, 10, 538312704, 3, 10, 538312704, 4, 10, 538312704, 5, 10, 1441792, 6, 10, 1048579, 65529, 10, 538312707, 65530, 10, 538312704, 65531, 10, 538312704, 65532, 10, 1, 65533, 10, 538312704, 65534, 10, 7, 65535, 10, 536870919, 0, 11, 536870919, 1, 11, 536870919, 2, 11, 538312704, 3, 11, 1441792, 4, 11, 538312705, 5, 11, 1441792, 6, 11, 537919491, 65529, 11, 1441795, 65530, 11, 538312704, 65531, 11, 1441792, 65532, 11, 537919490, 65533, 11, 538312704, 65534, 11, 536870919, 65535, 11, 536870919, 0, 12, 7, 1, 12, 536870919, 2, 12, 538312704, 3, 12, 538312704, 4, 12, 1441792, 5, 12, 1441792, 6, 12, 537919491, 65529, 12, 538312707, 65530, 12, 1441793, 65531, 12, 1441792, 65532, 12, 1441792, 65533, 12, 538312704, 65534, 12, 536870919, 65535, 12, 536870919, 0, 13, 536870919, 1, 13, 7, 2, 13, 536870915, 3, 13, 536870917, 4, 13, 3, 5, 13, 5, 6, 13, 536870916, 65529, 13, 1441796, 65530, 13, 3, 65531, 13, 536870915, 65532, 13, 536870915, 65533, 13, 536870915, 65534, 13, 7, 65535, 13, 536870919, 0, 65529, 7, 1, 65529, 7, 2, 65529, 7, 3, 65529, 536870919, 4, 65529, 7, 5, 65529, 655363, 6, 65529, 1048580, 65529, 65529, 537526276, 65530, 65529, 537526275, 65531, 65529, 536870919, 65532, 65529, 7, 65533, 65529, 536870919, 65534, 65529, 7, 65535, 65529, 536870919, 0, 65530, 536870919, 1, 65530, 536870919, 2, 65530, 536870919, 3, 65530, 536870919, 4, 65530, 7, 5, 65530, 1, 6, 65530, 537919491, 65529, 65530, 538312707, 65530, 65530, 1441792, 65531, 65530, 7, 65532, 65530, 7, 65533, 65530, 7, 65534, 65530, 7, 65535, 65530, 7, 0, 65531, 7, 1, 65531, 7, 2, 65531, 7, 3, 65531, 7, 4, 65531, 7, 5, 65531, 538312704, 6, 65531, 537919491, 65529, 65531, 538312707, 65530, 65531, 655362, 65531, 65531, 7, 65532, 65531, 7, 65533, 65531, 536870919, 65534, 65531, 536870919, 65535, 65531, 7, 0, 65532, 536870919, 1, 65532, 536870919, 2, 65532, 536870919, 3, 65532, 536870919, 4, 65532, 536870919, 5, 65532, 538312705, 6, 65532, 537919491, 65529, 65532, 538312707, 65530, 65532, 538312704, 65531, 65532, 536870919, 65532, 65532, 536870919, 65533, 65532, 536870919, 65534, 65532, 536870919, 65535, 65532, 536870919, 0, 65533, 536870919, 1, 65533, 536870919, 2, 65533, 538312704, 3, 65533, 538312704, 4, 65533, 538312704, 5, 65533, 1441792, 6, 65533, 537919491, 65529, 65533, 1441795, 65530, 65533, 1441793, 65531, 65533, 1441793, 65532, 65533, 538312704, 65533, 65533, 538312704, 65534, 65533, 7, 65535, 65533, 536870919, 0, 65534, 536870919, 1, 65534, 536870919, 2, 65534, 1441792, 3, 65534, 1441792, 4, 65534, 1441792, 5, 65534, 538312704, 6, 65534, 537919491, 65529, 65534, 1441795, 65530, 65534, 538312705, 65531, 65534, 1441792, 65532, 65534, 1441792, 65533, 65534, 1441792, 65534, 65534, 7, 65535, 65534, 7, 0, 65535, 7, 1, 65535, 7, 2, 65535, 1441792, 3, 65535, 1441792, 4, 65535, 1441792, 5, 65535, 1441792, 6, 65535, 1048579, 65529, 65535, 1441795, 65530, 65535, 1441792, 65531, 65535, 2, 65532, 65535, 1441792, 65533, 65535, 538312704, 65534, 65535, 536870919, 65535, 65535, 536870919 )
}
__meta__ = {
"_editor_clip_": 0,
"_editor_floor_": Vector3( 0, 0, 0 )
}

[node name="Checkpoint4" parent="Map/GridMap" instance=ExtResource( 4 )]
transform = Transform( 1, 0, 0, 0, 1, 0, 0, 0, 1, 0, 40, -1150 )
id = 3

[node name="FinishLine" type="Area" parent="Map/GridMap"]
editor/display_folded = true
transform = Transform( 1, 0, 0, 0, 1, 0, 0, 0, 1, 0, 20, -1162.5 )

[node name="CollisionShape" type="CollisionShape" parent="Map/GridMap/FinishLine"]
transform = Transform( 1, 0, 0, 0, 1, 0, 0, 0, 1, 0, 5.27174, 2.62146 )
shape = SubResource( 6 )

[node name="p1" type="Spatial" parent="Map"]
transform = Transform( 1, 0, 0, 0, 1, 0, 0, 0, 1, -60, 10.5, -115 )

[node name="p2" type="Spatial" parent="Map"]
transform = Transform( 1, 0, 0, 0, 1, 0, 0, 0, 1, -20, 10.5, -115 )

[node name="p3" type="Spatial" parent="Map"]
transform = Transform( 1, 0, 0, 0, 1, 0, 0, 0, 1, 20, 10.5, -115 )

[node name="p4" type="Spatial" parent="Map"]
transform = Transform( 1, 0, 0, 0, 1, 0, 0, 0, 1, 60, 10.5, -115 )

[node name="GroundTorch1" parent="Map" instance=ExtResource( 5 )]
transform = Transform( 1, 0, 0, 0, 1, 0, 0, 0, 1, -40, 9, -60 )

[node name="GroundTorch3" parent="Map" instance=ExtResource( 5 )]
transform = Transform( 1, 0, 0, 0, 1, 0, 0, 0, 1, -40, 9, 0 )

[node name="GroundTorch5" parent="Map" instance=ExtResource( 5 )]
transform = Transform( 1, 0, 0, 0, 1, 0, 0, 0, 1, -40, 9, 60 )

[node name="GroundTorch7" parent="Map" instance=ExtResource( 5 )]
transform = Transform( 1, 0, 0, 0, 1, 0, 0, 0, 1, -40, 9, 120 )

[node name="GroundTorch9" parent="Map" instance=ExtResource( 5 )]
transform = Transform( 1, 0, 0, 0, 1, 0, 0, 0, 1, -40, 9, 180 )

[node name="GroundTorch11" parent="Map" instance=ExtResource( 5 )]
transform = Transform( 1, 0, 0, 0, 1, 0, 0, 0, 1, -40, 9, 240 )

[node name="GroundTorch15" parent="Map" instance=ExtResource( 5 )]
transform = Transform( 1, 0, 0, 0, 1, 0, 0, 0, 1, -100, 9, -60 )

[node name="GroundTorch2" parent="Map" instance=ExtResource( 5 )]
transform = Transform( 1, 0, 0, 0, 1, 0, 0, 0, 1, 40, 9, -60 )

[node name="GroundTorch4" parent="Map" instance=ExtResource( 5 )]
transform = Transform( 1, 0, 0, 0, 1, 0, 0, 0, 1, 40, 9, 0 )

[node name="GroundTorch6" parent="Map" instance=ExtResource( 5 )]
transform = Transform( 1, 0, 0, 0, 1, 0, 0, 0, 1, 40, 9, 60 )

[node name="GroundTorch8" parent="Map" instance=ExtResource( 5 )]
transform = Transform( 1, 0, 0, 0, 1, 0, 0, 0, 1, 40, 9, 120 )

[node name="GroundTorch10" parent="Map" instance=ExtResource( 5 )]
transform = Transform( 1, 0, 0, 0, 1, 0, 0, 0, 1, 40, 9, 180 )

[node name="GroundTorch12" parent="Map" instance=ExtResource( 5 )]
transform = Transform( 1, 0, 0, 0, 1, 0, 0, 0, 1, 40, 9, 240 )

[node name="GroundTorch16" parent="Map" instance=ExtResource( 5 )]
transform = Transform( 1, 0, 0, 0, 1, 0, 0, 0, 1, 100, 9, -60 )

[node name="MapSetup" type="Spatial" parent="."]
script = ExtResource( 6 )
cameraMode = 0
mode = "Podium"

[node name="Musics" type="Node" parent="MapSetup"]

[node name="Draw" type="AudioStreamPlayer" parent="MapSetup/Musics"]
pause_mode = 2
stream = ExtResource( 7 )
volume_db = -20.0

[node name="Win" type="AudioStreamPlayer" parent="MapSetup/Musics"]
pause_mode = 2
stream = ExtResource( 8 )
volume_db = -20.0

[node name="SplitScreen" parent="MapSetup" instance=ExtResource( 9 )]

[node name="Viewport" type="Viewport" parent="MapSetup"]
editor/display_folded = true
size = Vector2( 100, 100 )
render_target_update_mode = 3

[node name="CameraTop" type="Camera" parent="MapSetup/Viewport"]
transform = Transform( -4.37114e-008, -1, -4.37114e-008, 0, -4.37114e-008, 1, -1, 4.37114e-008, 1.91069e-015, -1.16871e-005, 573.33, 17.75 )
projection = 1
current = true
size = 318.453
far = 750.0

[node name="Camera" type="Camera" parent="MapSetup"]
transform = Transform( 1, 0, 0, 0, 0.639946, 0.76842, 0, -0.76842, 0.639946, 0, 126.79, 233.725 )
far = 500.0

[node name="P" type="Spatial" parent="MapSetup"]
editor/display_folded = true

[node name="P1" type="Spatial" parent="MapSetup/P"]
transform = Transform( 1, 0, 0, 0, 1, 0, 0, 0, 1, -60, 10, -145 )

[node name="P2" type="Spatial" parent="MapSetup/P"]
transform = Transform( 1, 0, 0, 0, 1, 0, 0, 0, 1, -20, 10, -145 )

[node name="P3" type="Spatial" parent="MapSetup/P"]
transform = Transform( 1, 0, 0, 0, 1, 0, 0, 0, 1, 20, 10, -145 )

[node name="P4" type="Spatial" parent="MapSetup/P"]
transform = Transform( 1, 0, 0, 0, 1, 0, 0, 0, 1, 60, 10, -145 )

[node name="WinnerText" type="Control" parent="MapSetup"]
editor/display_folded = true
visible = false
margin_left = 446.0
margin_top = 940.0
margin_right = 1474.0
margin_bottom = 1082.0
grow_horizontal = 0
grow_vertical = 0

[node name="Panel2" type="TextureRect" parent="MapSetup/WinnerText"]
modulate = Color( 0, 0, 0, 1 )
anchor_right = 1.0
anchor_bottom = 1.0
margin_left = -16.0
margin_top = -10.0
margin_right = 16.0
texture = ExtResource( 10 )
expand = true
stretch_mode = 1

[node name="Panel" type="TextureRect" parent="MapSetup/WinnerText"]
modulate = Color( 0.317647, 0.305882, 0.733333, 0.415686 )
anchor_right = 1.0
anchor_bottom = 1.0
margin_left = 4.0
margin_top = 10.0
margin_right = -4.0
texture = ExtResource( 10 )
expand = true
stretch_mode = 1

[node name="LabelShadow" type="Label" parent="MapSetup/WinnerText"]
modulate = Color( 0, 0, 0, 1 )
margin_left = 14.0
margin_top = 22.0
margin_right = 1028.0
margin_bottom = 150.0
custom_fonts/font = SubResource( 7 )
text = "0"
align = 1
valign = 1

[node name="Label" type="Label" parent="MapSetup/WinnerText"]
margin_left = 8.0
margin_top = 12.0
margin_right = 1018.0
margin_bottom = 142.0
custom_fonts/font = SubResource( 8 )
text = "0"
align = 1
valign = 1

[node name="TrophyProfiles" type="Control" parent="MapSetup"]
editor/display_folded = true
visible = false
margin_top = -376.2
margin_right = 40.0
margin_bottom = -336.2

[node name="TrophyProfile1" parent="MapSetup/TrophyProfiles" instance=ExtResource( 12 )]
editor/display_folded = true
margin_left = 13.2229
margin_top = 506.2
margin_right = 253.223
margin_bottom = 626.199
numID = 0

[node name="Panel2" parent="MapSetup/TrophyProfiles/TrophyProfile1" index="0"]
margin_left = 237.0
margin_top = 110.0
margin_right = 237.0
margin_bottom = 110.001
rect_rotation = 180.0
texture = ExtResource( 13 )

[node name="Panel" parent="MapSetup/TrophyProfiles/TrophyProfile1" index="1"]
margin_left = 227.0
margin_top = 100.0
margin_right = 207.0
margin_bottom = 80.0005
rect_rotation = 180.0
texture = ExtResource( 14 )

[node name="Sprite" parent="MapSetup/TrophyProfiles/TrophyProfile1" index="2"]
position = Vector2( 66.7771, 50.03 )

[node name="LabelShadow" parent="MapSetup/TrophyProfiles/TrophyProfile1" index="3"]
margin_top = -6.304
margin_bottom = 99.696

[node name="Label" parent="MapSetup/TrophyProfiles/TrophyProfile1" index="4"]
margin_top = -6.304
margin_bottom = 99.696

[node name="TrophyProfile2" parent="MapSetup/TrophyProfiles" instance=ExtResource( 12 )]
editor/display_folded = true
margin_left = 1670.44
margin_top = 506.2
margin_right = 1910.44
margin_bottom = 626.199

[node name="Panel2" parent="MapSetup/TrophyProfiles/TrophyProfile2" index="0"]
margin_left = 237.0
margin_top = 110.0
margin_right = 237.0
margin_bottom = 110.001
rect_rotation = 180.0
texture = ExtResource( 13 )

[node name="Panel" parent="MapSetup/TrophyProfiles/TrophyProfile2" index="1"]
margin_left = 227.0
margin_top = 100.0
margin_right = 207.0
margin_bottom = 80.0005
rect_rotation = 180.0
texture = ExtResource( 14 )

[node name="Sprite" parent="MapSetup/TrophyProfiles/TrophyProfile2" index="2"]
position = Vector2( 66.7771, 50.03 )

[node name="LabelShadow" parent="MapSetup/TrophyProfiles/TrophyProfile2" index="3"]
margin_top = -6.304
margin_bottom = 99.696

[node name="Label" parent="MapSetup/TrophyProfiles/TrophyProfile2" index="4"]
margin_top = -6.304
margin_bottom = 99.696

[node name="TrophyProfile3" parent="MapSetup/TrophyProfiles" instance=ExtResource( 12 )]
editor/display_folded = true
margin_left = 13.2229
margin_top = 1226.2
margin_right = 253.223
margin_bottom = 1346.2
numID = 2

[node name="Panel2" parent="MapSetup/TrophyProfiles/TrophyProfile3" index="0"]
margin_left = 237.0
margin_top = 110.0
margin_right = 237.0
margin_bottom = 110.001
rect_rotation = 180.0
texture = ExtResource( 13 )

[node name="Panel" parent="MapSetup/TrophyProfiles/TrophyProfile3" index="1"]
margin_left = 227.0
margin_top = 100.0
margin_right = 207.0
margin_bottom = 80.0005
rect_rotation = 180.0
texture = ExtResource( 14 )

[node name="Sprite" parent="MapSetup/TrophyProfiles/TrophyProfile3" index="2"]
position = Vector2( 66.7771, 50.03 )

[node name="LabelShadow" parent="MapSetup/TrophyProfiles/TrophyProfile3" index="3"]
margin_top = -6.304
margin_bottom = 99.696

[node name="Label" parent="MapSetup/TrophyProfiles/TrophyProfile3" index="4"]
margin_top = -6.304
margin_bottom = 99.696

[node name="TrophyProfile4" parent="MapSetup/TrophyProfiles" instance=ExtResource( 12 )]
editor/display_folded = true
margin_left = 1670.44
margin_top = 1226.2
margin_right = 1910.44
margin_bottom = 1346.2
numID = 3

[node name="Panel2" parent="MapSetup/TrophyProfiles/TrophyProfile4" index="0"]
margin_left = 237.0
margin_top = 110.0
margin_right = 237.0
margin_bottom = 110.001
rect_rotation = 180.0
texture = ExtResource( 13 )

[node name="Panel" parent="MapSetup/TrophyProfiles/TrophyProfile4" index="1"]
margin_left = 227.0
margin_top = 100.0
margin_right = 207.0
margin_bottom = 80.0005
rect_rotation = 180.0
texture = ExtResource( 14 )

[node name="Sprite" parent="MapSetup/TrophyProfiles/TrophyProfile4" index="2"]
position = Vector2( 66.7771, 50.03 )

[node name="LabelShadow" parent="MapSetup/TrophyProfiles/TrophyProfile4" index="3"]
margin_top = -6.304
margin_bottom = 99.696

[node name="Label" parent="MapSetup/TrophyProfiles/TrophyProfile4" index="4"]
margin_top = -6.304
margin_bottom = 99.696

[node name="Viewport1" type="Viewport" parent="MapSetup/TrophyProfiles"]
pause_mode = 1
editor/display_folded = true
size = Vector2( 60, 60 )
own_world = true
transparent_bg = true

[node name="TrophyShot" parent="MapSetup/TrophyProfiles/Viewport1" instance=ExtResource( 15 )]

[node name="CoinProfiles" type="Control" parent="MapSetup"]
editor/display_folded = true
visible = false
margin_top = 45.0
margin_right = 40.0
margin_bottom = 85.0

[node name="CoinsProfile1" parent="MapSetup/CoinProfiles" instance=ExtResource( 16 )]
margin_left = 9.8393
margin_top = 74.6145
margin_right = 249.839
margin_bottom = 194.614

[node name="CoinsProfile2" parent="MapSetup/CoinProfiles" instance=ExtResource( 16 )]
margin_left = 1649.84
margin_top = 75.0
margin_right = 1889.84
margin_bottom = 195.0
numID = 1

[node name="CoinsProfile3" parent="MapSetup/CoinProfiles" instance=ExtResource( 16 )]
margin_left = 10.0
margin_top = 815.0
margin_right = 250.0
margin_bottom = 935.0
numID = 2

[node name="CoinsProfile4" parent="MapSetup/CoinProfiles" instance=ExtResource( 16 )]
margin_left = 1650.0
margin_top = 815.0
margin_right = 1890.0
margin_bottom = 935.0
numID = 3

[node name="Viewport2" type="Viewport" parent="MapSetup/CoinProfiles"]
pause_mode = 1
size = Vector2( 60, 60 )
own_world = true
transparent_bg = true

[node name="CoinShot" parent="MapSetup/CoinProfiles/Viewport2" instance=ExtResource( 17 )]

[node name="Profiles" parent="MapSetup" instance=ExtResource( 18 )]

[node name="AnimationPlayer" type="AnimationPlayer" parent="MapSetup"]
anims/CameraAnim = SubResource( 9 )

[connection signal="body_shape_entered" from="Map/DeathZone/Area" to="Map/DeathZone" method="_on_Area_body_shape_entered"]
[connection signal="body_shape_entered" from="Map/GridMap/FinishLine" to="MapSetup" method="_on_FinishLine_body_shape_entered"]
[connection signal="animation_finished" from="MapSetup/AnimationPlayer" to="MapSetup" method="_on_AnimationPlayer_animation_finished"]

[editable path="MapSetup/TrophyProfiles/TrophyProfile1"]

[editable path="MapSetup/TrophyProfiles/TrophyProfile2"]

[editable path="MapSetup/TrophyProfiles/TrophyProfile3"]

[editable path="MapSetup/TrophyProfiles/TrophyProfile4"]
