[gd_scene load_steps=4 format=2]

[ext_resource path="res://Scripts/Weapons/BaseWeapon.gd" type="Script" id=1]
[ext_resource path="res://Models/ObjType/Weapons/BoxingGlove.obj" type="ArrayMesh" id=2]
[ext_resource path="res://Sfx/GlovePunch.ogg" type="AudioStream" id=3]

[node name="BoxingGlove" type="Spatial"]
script = ExtResource( 1 )
boneName = "arm6R"
animName = "Punch"
fixPos = Vector3( 0.5, -0.5, -1 )
fixRot = Vector3( 90, 0, 0 )
damage = 4
knockbackForce = 4
hideBodyPart = true

[node name="MeshInstance" type="MeshInstance" parent="."]
transform = Transform( 2.29282e-015, -5.24537e-008, -1.2, -1.2, -5.24537e-008, 3.01496e-024, -5.24537e-008, 1.2, -5.24537e-008, -0.5, 0, -4.25 )
mesh = ExtResource( 2 )
material/0 = null

[node name="Sound" type="AudioStreamPlayer3D" parent="."]
stream = ExtResource( 3 )

