[gd_scene load_steps=12 format=2]

[ext_resource path="res://Scripts/Weapons/BaseWeapon.gd" type="Script" id=1]
[ext_resource path="res://Models/ObjType/Weapons/JetBoots.png" type="Texture" id=2]

[sub_resource type="SpatialMaterial" id=1]
resource_name = "palette"
albedo_texture = ExtResource( 2 )

[sub_resource type="ArrayMesh" id=2]
surfaces/0 = {
"aabb": AABB( -3, 0, -5, 6, 7, 9 ),
"array_data": PoolByteArray( 0, 0, 64, 192, 0, 0, 0, 0, 0, 0, 0, 128, 129, 0, 0, 0, 127, 0, 0, 127, 227, 59, 0, 56, 0, 0, 64, 192, 0, 0, 128, 63, 0, 0, 0, 128, 129, 0, 0, 0, 127, 0, 0, 127, 227, 59, 0, 56, 0, 0, 64, 192, 0, 0, 0, 0, 0, 0, 0, 64, 129, 0, 0, 0, 127, 0, 0, 127, 227, 59, 0, 56, 0, 0, 64, 192, 0, 0, 0, 0, 0, 0, 64, 192, 129, 0, 0, 0, 127, 0, 0, 127, 220, 59, 0, 56, 0, 0, 64, 192, 0, 0, 128, 63, 0, 0, 0, 128, 129, 0, 0, 0, 127, 0, 0, 127, 220, 59, 0, 56, 0, 0, 64, 192, 0, 0, 0, 0, 0, 0, 0, 128, 129, 0, 0, 0, 127, 0, 0, 127, 220, 59, 0, 56, 0, 0, 64, 192, 0, 0, 128, 63, 0, 0, 128, 191, 129, 0, 0, 0, 127, 0, 0, 127, 220, 59, 0, 56, 0, 0, 64, 192, 0, 0, 0, 64, 0, 0, 0, 64, 129, 0, 0, 0, 127, 0, 0, 127, 227, 59, 0, 56, 0, 0, 64, 192, 0, 0, 128, 63, 0, 0, 128, 191, 129, 0, 0, 0, 127, 0, 0, 127, 227, 59, 0, 56, 0, 0, 64, 192, 0, 0, 0, 64, 0, 0, 0, 128, 129, 0, 0, 0, 127, 0, 0, 127, 227, 59, 0, 56, 0, 0, 64, 192, 0, 0, 0, 64, 0, 0, 128, 191, 129, 0, 0, 0, 127, 0, 0, 127, 220, 59, 0, 56, 0, 0, 64, 192, 0, 0, 0, 64, 0, 0, 128, 191, 129, 0, 0, 0, 127, 0, 0, 127, 227, 59, 0, 56, 0, 0, 64, 192, 0, 0, 0, 64, 0, 0, 0, 192, 129, 0, 0, 0, 127, 0, 0, 127, 220, 59, 0, 56, 0, 0, 64, 192, 0, 0, 64, 64, 0, 0, 0, 128, 129, 0, 0, 0, 127, 0, 0, 127, 227, 59, 0, 56, 0, 0, 64, 192, 0, 0, 0, 64, 0, 0, 0, 192, 129, 0, 0, 0, 127, 0, 0, 127, 227, 59, 0, 56, 0, 0, 64, 192, 0, 0, 64, 64, 0, 0, 128, 191, 129, 0, 0, 0, 127, 0, 0, 127, 227, 59, 0, 56, 0, 0, 64, 192, 0, 0, 64, 64, 0, 0, 0, 192, 129, 0, 0, 0, 127, 0, 0, 127, 220, 59, 0, 56, 0, 0, 64, 192, 0, 0, 64, 64, 0, 0, 0, 192, 129, 0, 0, 0, 127, 0, 0, 127, 227, 59, 0, 56, 0, 0, 64, 192, 0, 0, 64, 64, 0, 0, 64, 192, 129, 0, 0, 0, 127, 0, 0, 127, 220, 59, 0, 56, 0, 0, 64, 192, 0, 0, 128, 64, 0, 0, 0, 192, 129, 0, 0, 0, 127, 0, 0, 127, 227, 59, 0, 56, 0, 0, 64, 192, 0, 0, 64, 64, 0, 0, 64, 192, 129, 0, 0, 0, 127, 0, 0, 127, 227, 59, 0, 56, 0, 0, 64, 192, 0, 0, 128, 64, 0, 0, 64, 192, 129, 0, 0, 0, 127, 0, 0, 127, 227, 59, 0, 56, 0, 0, 64, 192, 0, 0, 160, 64, 0, 0, 128, 191, 129, 0, 0, 0, 127, 0, 0, 127, 227, 59, 0, 56, 0, 0, 64, 192, 0, 0, 160, 64, 0, 0, 0, 192, 129, 0, 0, 0, 127, 0, 0, 127, 227, 59, 0, 56, 0, 0, 0, 192, 0, 0, 0, 0, 0, 0, 0, 64, 129, 0, 0, 0, 127, 0, 0, 127, 227, 59, 0, 56, 0, 0, 0, 192, 0, 0, 0, 64, 0, 0, 64, 64, 129, 0, 0, 0, 127, 0, 0, 127, 227, 59, 0, 56, 0, 0, 0, 192, 0, 0, 0, 0, 0, 0, 64, 64, 129, 0, 0, 0, 127, 0, 0, 127, 227, 59, 0, 56, 0, 0, 0, 192, 0, 0, 0, 64, 0, 0, 0, 64, 129, 0, 0, 0, 127, 0, 0, 127, 227, 59, 0, 56, 0, 0, 0, 192, 0, 0, 0, 64, 0, 0, 0, 128, 129, 0, 0, 0, 127, 0, 0, 127, 227, 59, 0, 56, 0, 0, 0, 192, 0, 0, 64, 64, 0, 0, 0, 64, 129, 0, 0, 0, 127, 0, 0, 127, 227, 59, 0, 56, 0, 0, 0, 192, 0, 0, 64, 64, 0, 0, 0, 128, 129, 0, 0, 0, 127, 0, 0, 127, 227, 59, 0, 56, 0, 0, 0, 192, 0, 0, 0, 0, 0, 0, 128, 192, 129, 0, 0, 0, 127, 0, 0, 127, 227, 59, 0, 56, 0, 0, 0, 192, 0, 0, 64, 64, 0, 0, 64, 192, 129, 0, 0, 0, 127, 0, 0, 127, 227, 59, 0, 56, 0, 0, 0, 192, 0, 0, 0, 0, 0, 0, 64, 192, 129, 0, 0, 0, 127, 0, 0, 127, 227, 59, 0, 56, 0, 0, 0, 192, 0, 0, 128, 64, 0, 0, 64, 192, 129, 0, 0, 0, 127, 0, 0, 127, 227, 59, 0, 56, 0, 0, 0, 192, 0, 0, 128, 64, 0, 0, 128, 192, 129, 0, 0, 0, 127, 0, 0, 127, 227, 59, 0, 56, 0, 0, 0, 192, 0, 0, 64, 64, 0, 0, 128, 191, 129, 0, 0, 0, 127, 0, 0, 127, 227, 59, 0, 56, 0, 0, 0, 192, 0, 0, 160, 64, 0, 0, 128, 191, 129, 0, 0, 0, 127, 0, 0, 127, 227, 59, 0, 56, 0, 0, 0, 192, 0, 0, 128, 64, 0, 0, 64, 192, 129, 0, 0, 0, 127, 0, 0, 127, 112, 51, 0, 56, 0, 0, 0, 192, 0, 0, 160, 64, 0, 0, 0, 192, 129, 0, 0, 0, 127, 0, 0, 127, 112, 51, 0, 56, 0, 0, 0, 192, 0, 0, 128, 64, 0, 0, 0, 192, 129, 0, 0, 0, 127, 0, 0, 127, 112, 51, 0, 56, 0, 0, 0, 192, 0, 0, 192, 64, 0, 0, 0, 128, 129, 0, 0, 0, 127, 0, 0, 127, 227, 59, 0, 56, 0, 0, 0, 192, 0, 0, 192, 64, 0, 0, 128, 191, 129, 0, 0, 0, 127, 0, 0, 127, 112, 51, 0, 56, 0, 0, 0, 192, 0, 0, 160, 64, 0, 0, 128, 191, 129, 0, 0, 0, 127, 0, 0, 127, 112, 51, 0, 56, 0, 0, 0, 192, 0, 0, 192, 64, 0, 0, 128, 191, 129, 0, 0, 0, 127, 0, 0, 127, 227, 59, 0, 56, 0, 0, 0, 192, 0, 0, 192, 64, 0, 0, 64, 192, 129, 0, 0, 0, 127, 0, 0, 127, 112, 51, 0, 56, 0, 0, 128, 191, 0, 0, 0, 0, 0, 0, 64, 64, 129, 0, 0, 0, 127, 0, 0, 127, 227, 59, 0, 56, 0, 0, 128, 191, 0, 0, 0, 64, 0, 0, 128, 64, 129, 0, 0, 0, 127, 0, 0, 127, 227, 59, 0, 56, 0, 0, 128, 191, 0, 0, 0, 0, 0, 0, 128, 64, 129, 0, 0, 0, 127, 0, 0, 127, 227, 59, 0, 56, 0, 0, 128, 191, 0, 0, 0, 64, 0, 0, 64, 64, 129, 0, 0, 0, 127, 0, 0, 127, 227, 59, 0, 56, 0, 0, 128, 191, 0, 0, 0, 64, 0, 0, 0, 64, 129, 0, 0, 0, 127, 0, 0, 127, 227, 59, 0, 56, 0, 0, 128, 191, 0, 0, 64, 64, 0, 0, 64, 64, 129, 0, 0, 0, 127, 0, 0, 127, 227, 59, 0, 56, 0, 0, 128, 191, 0, 0, 64, 64, 0, 0, 0, 64, 129, 0, 0, 0, 127, 0, 0, 127, 227, 59, 0, 56, 0, 0, 128, 191, 0, 0, 0, 0, 0, 0, 160, 192, 129, 0, 0, 0, 127, 0, 0, 127, 227, 59, 0, 56, 0, 0, 128, 191, 0, 0, 64, 64, 0, 0, 128, 192, 129, 0, 0, 0, 127, 0, 0, 127, 227, 59, 0, 56, 0, 0, 128, 191, 0, 0, 0, 0, 0, 0, 128, 192, 129, 0, 0, 0, 127, 0, 0, 127, 227, 59, 0, 56, 0, 0, 128, 191, 0, 0, 64, 64, 0, 0, 160, 192, 129, 0, 0, 0, 127, 0, 0, 127, 227, 59, 0, 56, 0, 0, 128, 191, 0, 0, 64, 64, 0, 0, 0, 128, 129, 0, 0, 0, 127, 0, 0, 127, 220, 59, 0, 56, 0, 0, 128, 191, 0, 0, 128, 64, 0, 0, 0, 64, 129, 0, 0, 0, 127, 0, 0, 127, 220, 59, 0, 56, 0, 0, 128, 191, 0, 0, 64, 64, 0, 0, 0, 64, 129, 0, 0, 0, 127, 0, 0, 127, 220, 59, 0, 56, 0, 0, 128, 191, 0, 0, 128, 64, 0, 0, 128, 63, 129, 0, 0, 0, 127, 0, 0, 127, 220, 59, 0, 56, 0, 0, 128, 191, 0, 0, 192, 64, 0, 0, 128, 63, 129, 0, 0, 0, 127, 0, 0, 127, 220, 59, 0, 56, 0, 0, 128, 191, 0, 0, 192, 64, 0, 0, 0, 128, 129, 0, 0, 0, 127, 0, 0, 127, 220, 59, 0, 56, 0, 0, 128, 191, 0, 0, 128, 64, 0, 0, 128, 192, 129, 0, 0, 0, 127, 0, 0, 127, 112, 51, 0, 56, 0, 0, 128, 191, 0, 0, 192, 64, 0, 0, 64, 192, 129, 0, 0, 0, 127, 0, 0, 127, 112, 51, 0, 56, 0, 0, 128, 191, 0, 0, 128, 64, 0, 0, 64, 192, 129, 0, 0, 0, 127, 0, 0, 127, 112, 51, 0, 56, 0, 0, 128, 191, 0, 0, 192, 64, 0, 0, 128, 192, 129, 0, 0, 0, 127, 0, 0, 127, 112, 51, 0, 56, 0, 0, 128, 191, 0, 0, 192, 64, 0, 0, 128, 191, 129, 0, 0, 0, 127, 0, 0, 127, 227, 59, 0, 56, 0, 0, 128, 191, 0, 0, 224, 64, 0, 0, 0, 128, 129, 0, 0, 0, 127, 0, 0, 127, 227, 59, 0, 56, 0, 0, 128, 191, 0, 0, 192, 64, 0, 0, 0, 128, 129, 0, 0, 0, 127, 0, 0, 127, 227, 59, 0, 56, 0, 0, 128, 191, 0, 0, 224, 64, 0, 0, 128, 191, 129, 0, 0, 0, 127, 0, 0, 127, 112, 51, 0, 56, 0, 0, 128, 191, 0, 0, 192, 64, 0, 0, 128, 191, 129, 0, 0, 0, 127, 0, 0, 127, 112, 51, 0, 56, 0, 0, 128, 191, 0, 0, 224, 64, 0, 0, 128, 191, 129, 0, 0, 0, 127, 0, 0, 127, 227, 59, 0, 56, 0, 0, 128, 191, 0, 0, 224, 64, 0, 0, 64, 192, 129, 0, 0, 0, 127, 0, 0, 127, 112, 51, 0, 56, 0, 0, 128, 63, 0, 0, 0, 0, 0, 0, 64, 64, 127, 0, 0, 0, 127, 0, 0, 127, 227, 59, 0, 56, 0, 0, 128, 63, 0, 0, 0, 0, 0, 0, 128, 64, 127, 0, 0, 0, 127, 0, 0, 127, 227, 59, 0, 56, 0, 0, 128, 63, 0, 0, 0, 64, 0, 0, 128, 64, 127, 0, 0, 0, 127, 0, 0, 127, 227, 59, 0, 56, 0, 0, 128, 63, 0, 0, 0, 64, 0, 0, 64, 64, 127, 0, 0, 0, 127, 0, 0, 127, 227, 59, 0, 56, 0, 0, 128, 63, 0, 0, 0, 64, 0, 0, 0, 64, 127, 0, 0, 0, 127, 0, 0, 127, 227, 59, 0, 56, 0, 0, 128, 63, 0, 0, 64, 64, 0, 0, 64, 64, 127, 0, 0, 0, 127, 0, 0, 127, 227, 59, 0, 56, 0, 0, 128, 63, 0, 0, 64, 64, 0, 0, 0, 64, 127, 0, 0, 0, 127, 0, 0, 127, 227, 59, 0, 56, 0, 0, 128, 63, 0, 0, 0, 0, 0, 0, 160, 192, 127, 0, 0, 0, 127, 0, 0, 127, 227, 59, 0, 56, 0, 0, 128, 63, 0, 0, 0, 0, 0, 0, 128, 192, 127, 0, 0, 0, 127, 0, 0, 127, 227, 59, 0, 56, 0, 0, 128, 63, 0, 0, 64, 64, 0, 0, 128, 192, 127, 0, 0, 0, 127, 0, 0, 127, 227, 59, 0, 56, 0, 0, 128, 63, 0, 0, 64, 64, 0, 0, 160, 192, 127, 0, 0, 0, 127, 0, 0, 127, 227, 59, 0, 56, 0, 0, 128, 63, 0, 0, 64, 64, 0, 0, 0, 128, 127, 0, 0, 0, 127, 0, 0, 127, 220, 59, 0, 56, 0, 0, 128, 63, 0, 0, 64, 64, 0, 0, 0, 64, 127, 0, 0, 0, 127, 0, 0, 127, 220, 59, 0, 56, 0, 0, 128, 63, 0, 0, 128, 64, 0, 0, 0, 64, 127, 0, 0, 0, 127, 0, 0, 127, 220, 59, 0, 56, 0, 0, 128, 63, 0, 0, 128, 64, 0, 0, 128, 63, 127, 0, 0, 0, 127, 0, 0, 127, 220, 59, 0, 56, 0, 0, 128, 63, 0, 0, 192, 64, 0, 0, 128, 63, 127, 0, 0, 0, 127, 0, 0, 127, 220, 59, 0, 56, 0, 0, 128, 63, 0, 0, 192, 64, 0, 0, 0, 128, 127, 0, 0, 0, 127, 0, 0, 127, 220, 59, 0, 56, 0, 0, 128, 63, 0, 0, 128, 64, 0, 0, 128, 192, 127, 0, 0, 0, 127, 0, 0, 127, 112, 51, 0, 56, 0, 0, 128, 63, 0, 0, 128, 64, 0, 0, 64, 192, 127, 0, 0, 0, 127, 0, 0, 127, 112, 51, 0, 56, 0, 0, 128, 63, 0, 0, 192, 64, 0, 0, 64, 192, 127, 0, 0, 0, 127, 0, 0, 127, 112, 51, 0, 56, 0, 0, 128, 63, 0, 0, 192, 64, 0, 0, 128, 192, 127, 0, 0, 0, 127, 0, 0, 127, 112, 51, 0, 56, 0, 0, 128, 63, 0, 0, 192, 64, 0, 0, 128, 191, 127, 0, 0, 0, 127, 0, 0, 127, 227, 59, 0, 56, 0, 0, 128, 63, 0, 0, 192, 64, 0, 0, 0, 128, 127, 0, 0, 0, 127, 0, 0, 127, 227, 59, 0, 56, 0, 0, 128, 63, 0, 0, 224, 64, 0, 0, 0, 128, 127, 0, 0, 0, 127, 0, 0, 127, 227, 59, 0, 56, 0, 0, 128, 63, 0, 0, 192, 64, 0, 0, 128, 191, 127, 0, 0, 0, 127, 0, 0, 127, 112, 51, 0, 56, 0, 0, 128, 63, 0, 0, 224, 64, 0, 0, 128, 191, 127, 0, 0, 0, 127, 0, 0, 127, 112, 51, 0, 56, 0, 0, 128, 63, 0, 0, 224, 64, 0, 0, 128, 191, 127, 0, 0, 0, 127, 0, 0, 127, 227, 59, 0, 56, 0, 0, 128, 63, 0, 0, 224, 64, 0, 0, 64, 192, 127, 0, 0, 0, 127, 0, 0, 127, 112, 51, 0, 56, 0, 0, 0, 64, 0, 0, 0, 0, 0, 0, 0, 64, 127, 0, 0, 0, 127, 0, 0, 127, 227, 59, 0, 56, 0, 0, 0, 64, 0, 0, 0, 0, 0, 0, 64, 64, 127, 0, 0, 0, 127, 0, 0, 127, 227, 59, 0, 56, 0, 0, 0, 64, 0, 0, 0, 64, 0, 0, 64, 64, 127, 0, 0, 0, 127, 0, 0, 127, 227, 59, 0, 56, 0, 0, 0, 64, 0, 0, 0, 64, 0, 0, 0, 64, 127, 0, 0, 0, 127, 0, 0, 127, 227, 59, 0, 56, 0, 0, 0, 64, 0, 0, 0, 64, 0, 0, 0, 128, 127, 0, 0, 0, 127, 0, 0, 127, 227, 59, 0, 56, 0, 0, 0, 64, 0, 0, 64, 64, 0, 0, 0, 64, 127, 0, 0, 0, 127, 0, 0, 127, 227, 59, 0, 56, 0, 0, 0, 64, 0, 0, 64, 64, 0, 0, 0, 128, 127, 0, 0, 0, 127, 0, 0, 127, 227, 59, 0, 56, 0, 0, 0, 64, 0, 0, 0, 0, 0, 0, 128, 192, 127, 0, 0, 0, 127, 0, 0, 127, 227, 59, 0, 56, 0, 0, 0, 64, 0, 0, 0, 0, 0, 0, 64, 192, 127, 0, 0, 0, 127, 0, 0, 127, 227, 59, 0, 56, 0, 0, 0, 64, 0, 0, 64, 64, 0, 0, 64, 192, 127, 0, 0, 0, 127, 0, 0, 127, 227, 59, 0, 56, 0, 0, 0, 64, 0, 0, 128, 64, 0, 0, 64, 192, 127, 0, 0, 0, 127, 0, 0, 127, 227, 59, 0, 56, 0, 0, 0, 64, 0, 0, 128, 64, 0, 0, 128, 192, 127, 0, 0, 0, 127, 0, 0, 127, 227, 59, 0, 56, 0, 0, 0, 64, 0, 0, 64, 64, 0, 0, 128, 191, 127, 0, 0, 0, 127, 0, 0, 127, 227, 59, 0, 56, 0, 0, 0, 64, 0, 0, 160, 64, 0, 0, 128, 191, 127, 0, 0, 0, 127, 0, 0, 127, 227, 59, 0, 56, 0, 0, 0, 64, 0, 0, 128, 64, 0, 0, 64, 192, 127, 0, 0, 0, 127, 0, 0, 127, 112, 51, 0, 56, 0, 0, 0, 64, 0, 0, 128, 64, 0, 0, 0, 192, 127, 0, 0, 0, 127, 0, 0, 127, 112, 51, 0, 56, 0, 0, 0, 64, 0, 0, 160, 64, 0, 0, 0, 192, 127, 0, 0, 0, 127, 0, 0, 127, 112, 51, 0, 56, 0, 0, 0, 64, 0, 0, 192, 64, 0, 0, 0, 128, 127, 0, 0, 0, 127, 0, 0, 127, 227, 59, 0, 56, 0, 0, 0, 64, 0, 0, 160, 64, 0, 0, 128, 191, 127, 0, 0, 0, 127, 0, 0, 127, 112, 51, 0, 56, 0, 0, 0, 64, 0, 0, 192, 64, 0, 0, 128, 191, 127, 0, 0, 0, 127, 0, 0, 127, 112, 51, 0, 56, 0, 0, 0, 64, 0, 0, 192, 64, 0, 0, 128, 191, 127, 0, 0, 0, 127, 0, 0, 127, 227, 59, 0, 56, 0, 0, 0, 64, 0, 0, 192, 64, 0, 0, 64, 192, 127, 0, 0, 0, 127, 0, 0, 127, 112, 51, 0, 56, 0, 0, 64, 64, 0, 0, 0, 0, 0, 0, 0, 128, 127, 0, 0, 0, 127, 0, 0, 127, 227, 59, 0, 56, 0, 0, 64, 64, 0, 0, 0, 0, 0, 0, 0, 64, 127, 0, 0, 0, 127, 0, 0, 127, 227, 59, 0, 56, 0, 0, 64, 64, 0, 0, 128, 63, 0, 0, 0, 128, 127, 0, 0, 0, 127, 0, 0, 127, 227, 59, 0, 56, 0, 0, 64, 64, 0, 0, 0, 0, 0, 0, 64, 192, 127, 0, 0, 0, 127, 0, 0, 127, 220, 59, 0, 56, 0, 0, 64, 64, 0, 0, 0, 0, 0, 0, 0, 128, 127, 0, 0, 0, 127, 0, 0, 127, 220, 59, 0, 56, 0, 0, 64, 64, 0, 0, 128, 63, 0, 0, 0, 128, 127, 0, 0, 0, 127, 0, 0, 127, 220, 59, 0, 56, 0, 0, 64, 64, 0, 0, 128, 63, 0, 0, 128, 191, 127, 0, 0, 0, 127, 0, 0, 127, 220, 59, 0, 56, 0, 0, 64, 64, 0, 0, 0, 64, 0, 0, 0, 64, 127, 0, 0, 0, 127, 0, 0, 127, 227, 59, 0, 56, 0, 0, 64, 64, 0, 0, 128, 63, 0, 0, 128, 191, 127, 0, 0, 0, 127, 0, 0, 127, 227, 59, 0, 56, 0, 0, 64, 64, 0, 0, 0, 64, 0, 0, 0, 128, 127, 0, 0, 0, 127, 0, 0, 127, 227, 59, 0, 56, 0, 0, 64, 64, 0, 0, 0, 64, 0, 0, 128, 191, 127, 0, 0, 0, 127, 0, 0, 127, 220, 59, 0, 56, 0, 0, 64, 64, 0, 0, 0, 64, 0, 0, 128, 191, 127, 0, 0, 0, 127, 0, 0, 127, 227, 59, 0, 56, 0, 0, 64, 64, 0, 0, 0, 64, 0, 0, 0, 192, 127, 0, 0, 0, 127, 0, 0, 127, 220, 59, 0, 56, 0, 0, 64, 64, 0, 0, 64, 64, 0, 0, 0, 128, 127, 0, 0, 0, 127, 0, 0, 127, 227, 59, 0, 56, 0, 0, 64, 64, 0, 0, 0, 64, 0, 0, 0, 192, 127, 0, 0, 0, 127, 0, 0, 127, 227, 59, 0, 56, 0, 0, 64, 64, 0, 0, 64, 64, 0, 0, 128, 191, 127, 0, 0, 0, 127, 0, 0, 127, 227, 59, 0, 56, 0, 0, 64, 64, 0, 0, 64, 64, 0, 0, 0, 192, 127, 0, 0, 0, 127, 0, 0, 127, 220, 59, 0, 56, 0, 0, 64, 64, 0, 0, 64, 64, 0, 0, 0, 192, 127, 0, 0, 0, 127, 0, 0, 127, 227, 59, 0, 56, 0, 0, 64, 64, 0, 0, 64, 64, 0, 0, 64, 192, 127, 0, 0, 0, 127, 0, 0, 127, 220, 59, 0, 56, 0, 0, 64, 64, 0, 0, 128, 64, 0, 0, 0, 192, 127, 0, 0, 0, 127, 0, 0, 127, 227, 59, 0, 56, 0, 0, 64, 64, 0, 0, 64, 64, 0, 0, 64, 192, 127, 0, 0, 0, 127, 0, 0, 127, 227, 59, 0, 56, 0, 0, 64, 64, 0, 0, 128, 64, 0, 0, 64, 192, 127, 0, 0, 0, 127, 0, 0, 127, 227, 59, 0, 56, 0, 0, 64, 64, 0, 0, 160, 64, 0, 0, 128, 191, 127, 0, 0, 0, 127, 0, 0, 127, 227, 59, 0, 56, 0, 0, 64, 64, 0, 0, 160, 64, 0, 0, 0, 192, 127, 0, 0, 0, 127, 0, 0, 127, 227, 59, 0, 56, 0, 0, 128, 191, 0, 0, 0, 64, 0, 0, 128, 64, 0, 0, 127, 0, 127, 0, 0, 129, 227, 59, 0, 56, 0, 0, 128, 63, 0, 0, 0, 0, 0, 0, 128, 64, 0, 0, 127, 0, 127, 0, 0, 129, 227, 59, 0, 56, 0, 0, 128, 191, 0, 0, 0, 0, 0, 0, 128, 64, 0, 0, 127, 0, 127, 0, 0, 129, 227, 59, 0, 56, 0, 0, 128, 63, 0, 0, 0, 64, 0, 0, 128, 64, 0, 0, 127, 0, 127, 0, 0, 129, 227, 59, 0, 56, 0, 0, 0, 192, 0, 0, 0, 64, 0, 0, 64, 64, 0, 0, 127, 0, 127, 0, 0, 129, 227, 59, 0, 56, 0, 0, 128, 191, 0, 0, 0, 0, 0, 0, 64, 64, 0, 0, 127, 0, 127, 0, 0, 129, 227, 59, 0, 56, 0, 0, 0, 192, 0, 0, 0, 0, 0, 0, 64, 64, 0, 0, 127, 0, 127, 0, 0, 129, 227, 59, 0, 56, 0, 0, 128, 191, 0, 0, 0, 64, 0, 0, 64, 64, 0, 0, 127, 0, 127, 0, 0, 129, 227, 59, 0, 56, 0, 0, 128, 191, 0, 0, 64, 64, 0, 0, 64, 64, 0, 0, 127, 0, 127, 0, 0, 129, 227, 59, 0, 56, 0, 0, 128, 63, 0, 0, 0, 64, 0, 0, 64, 64, 0, 0, 127, 0, 127, 0, 0, 129, 227, 59, 0, 56, 0, 0, 128, 63, 0, 0, 64, 64, 0, 0, 64, 64, 0, 0, 127, 0, 127, 0, 0, 129, 227, 59, 0, 56, 0, 0, 0, 64, 0, 0, 0, 0, 0, 0, 64, 64, 0, 0, 127, 0, 127, 0, 0, 129, 227, 59, 0, 56, 0, 0, 128, 63, 0, 0, 0, 0, 0, 0, 64, 64, 0, 0, 127, 0, 127, 0, 0, 129, 227, 59, 0, 56, 0, 0, 0, 64, 0, 0, 0, 64, 0, 0, 64, 64, 0, 0, 127, 0, 127, 0, 0, 129, 227, 59, 0, 56, 0, 0, 64, 192, 0, 0, 0, 64, 0, 0, 0, 64, 0, 0, 127, 0, 127, 0, 0, 129, 227, 59, 0, 56, 0, 0, 0, 192, 0, 0, 0, 0, 0, 0, 0, 64, 0, 0, 127, 0, 127, 0, 0, 129, 227, 59, 0, 56, 0, 0, 64, 192, 0, 0, 0, 0, 0, 0, 0, 64, 0, 0, 127, 0, 127, 0, 0, 129, 227, 59, 0, 56, 0, 0, 0, 192, 0, 0, 0, 64, 0, 0, 0, 64, 0, 0, 127, 0, 127, 0, 0, 129, 227, 59, 0, 56, 0, 0, 0, 192, 0, 0, 64, 64, 0, 0, 0, 64, 0, 0, 127, 0, 127, 0, 0, 129, 227, 59, 0, 56, 0, 0, 128, 191, 0, 0, 0, 64, 0, 0, 0, 64, 0, 0, 127, 0, 127, 0, 0, 129, 227, 59, 0, 56, 0, 0, 128, 191, 0, 0, 64, 64, 0, 0, 0, 64, 0, 0, 127, 0, 127, 0, 0, 129, 227, 59, 0, 56, 0, 0, 128, 191, 0, 0, 128, 64, 0, 0, 0, 64, 0, 0, 127, 0, 127, 0, 0, 129, 220, 59, 0, 56, 0, 0, 128, 63, 0, 0, 64, 64, 0, 0, 0, 64, 0, 0, 127, 0, 127, 0, 0, 129, 220, 59, 0, 56, 0, 0, 128, 191, 0, 0, 64, 64, 0, 0, 0, 64, 0, 0, 127, 0, 127, 0, 0, 129, 220, 59, 0, 56, 0, 0, 128, 63, 0, 0, 128, 64, 0, 0, 0, 64, 0, 0, 127, 0, 127, 0, 0, 129, 220, 59, 0, 56, 0, 0, 128, 63, 0, 0, 64, 64, 0, 0, 0, 64, 0, 0, 127, 0, 127, 0, 0, 129, 227, 59, 0, 56, 0, 0, 0, 64, 0, 0, 0, 64, 0, 0, 0, 64, 0, 0, 127, 0, 127, 0, 0, 129, 227, 59, 0, 56, 0, 0, 128, 63, 0, 0, 0, 64, 0, 0, 0, 64, 0, 0, 127, 0, 127, 0, 0, 129, 227, 59, 0, 56, 0, 0, 0, 64, 0, 0, 64, 64, 0, 0, 0, 64, 0, 0, 127, 0, 127, 0, 0, 129, 227, 59, 0, 56, 0, 0, 64, 64, 0, 0, 0, 0, 0, 0, 0, 64, 0, 0, 127, 0, 127, 0, 0, 129, 227, 59, 0, 56, 0, 0, 0, 64, 0, 0, 0, 0, 0, 0, 0, 64, 0, 0, 127, 0, 127, 0, 0, 129, 227, 59, 0, 56, 0, 0, 64, 64, 0, 0, 0, 64, 0, 0, 0, 64, 0, 0, 127, 0, 127, 0, 0, 129, 227, 59, 0, 56, 0, 0, 128, 191, 0, 0, 192, 64, 0, 0, 128, 63, 0, 0, 127, 0, 127, 0, 0, 129, 220, 59, 0, 56, 0, 0, 128, 63, 0, 0, 128, 64, 0, 0, 128, 63, 0, 0, 127, 0, 127, 0, 0, 129, 220, 59, 0, 56, 0, 0, 128, 191, 0, 0, 128, 64, 0, 0, 128, 63, 0, 0, 127, 0, 127, 0, 0, 129, 220, 59, 0, 56, 0, 0, 128, 63, 0, 0, 192, 64, 0, 0, 128, 63, 0, 0, 127, 0, 127, 0, 0, 129, 220, 59, 0, 56, 0, 0, 64, 192, 0, 0, 64, 64, 0, 0, 0, 128, 0, 0, 127, 0, 127, 0, 0, 129, 227, 59, 0, 56, 0, 0, 0, 192, 0, 0, 0, 64, 0, 0, 0, 128, 0, 0, 127, 0, 127, 0, 0, 129, 227, 59, 0, 56, 0, 0, 64, 192, 0, 0, 0, 64, 0, 0, 0, 128, 0, 0, 127, 0, 127, 0, 0, 129, 227, 59, 0, 56, 0, 0, 0, 192, 0, 0, 64, 64, 0, 0, 0, 128, 0, 0, 127, 0, 127, 0, 0, 129, 227, 59, 0, 56, 0, 0, 0, 192, 0, 0, 192, 64, 0, 0, 0, 128, 0, 0, 127, 0, 127, 0, 0, 129, 227, 59, 0, 56, 0, 0, 128, 191, 0, 0, 64, 64, 0, 0, 0, 128, 0, 0, 127, 0, 127, 0, 0, 129, 227, 59, 0, 56, 0, 0, 128, 191, 0, 0, 192, 64, 0, 0, 0, 128, 0, 0, 127, 0, 127, 0, 0, 129, 227, 59, 0, 56, 0, 0, 128, 191, 0, 0, 224, 64, 0, 0, 0, 128, 0, 0, 127, 0, 127, 0, 0, 129, 227, 59, 0, 56, 0, 0, 128, 63, 0, 0, 192, 64, 0, 0, 0, 128, 0, 0, 127, 0, 127, 0, 0, 129, 227, 59, 0, 56, 0, 0, 128, 63, 0, 0, 224, 64, 0, 0, 0, 128, 0, 0, 127, 0, 127, 0, 0, 129, 227, 59, 0, 56, 0, 0, 0, 64, 0, 0, 64, 64, 0, 0, 0, 128, 0, 0, 127, 0, 127, 0, 0, 129, 227, 59, 0, 56, 0, 0, 128, 63, 0, 0, 64, 64, 0, 0, 0, 128, 0, 0, 127, 0, 127, 0, 0, 129, 227, 59, 0, 56, 0, 0, 0, 64, 0, 0, 192, 64, 0, 0, 0, 128, 0, 0, 127, 0, 127, 0, 0, 129, 227, 59, 0, 56, 0, 0, 64, 64, 0, 0, 0, 64, 0, 0, 0, 128, 0, 0, 127, 0, 127, 0, 0, 129, 227, 59, 0, 56, 0, 0, 0, 64, 0, 0, 0, 64, 0, 0, 0, 128, 0, 0, 127, 0, 127, 0, 0, 129, 227, 59, 0, 56, 0, 0, 64, 64, 0, 0, 64, 64, 0, 0, 0, 128, 0, 0, 127, 0, 127, 0, 0, 129, 227, 59, 0, 56, 0, 0, 64, 192, 0, 0, 160, 64, 0, 0, 128, 191, 0, 0, 127, 0, 127, 0, 0, 129, 227, 59, 0, 56, 0, 0, 0, 192, 0, 0, 64, 64, 0, 0, 128, 191, 0, 0, 127, 0, 127, 0, 0, 129, 227, 59, 0, 56, 0, 0, 64, 192, 0, 0, 64, 64, 0, 0, 128, 191, 0, 0, 127, 0, 127, 0, 0, 129, 227, 59, 0, 56, 0, 0, 0, 192, 0, 0, 160, 64, 0, 0, 128, 191, 0, 0, 127, 0, 127, 0, 0, 129, 227, 59, 0, 56, 0, 0, 0, 64, 0, 0, 160, 64, 0, 0, 128, 191, 0, 0, 127, 0, 127, 0, 0, 129, 227, 59, 0, 56, 0, 0, 64, 64, 0, 0, 64, 64, 0, 0, 128, 191, 0, 0, 127, 0, 127, 0, 0, 129, 227, 59, 0, 56, 0, 0, 0, 64, 0, 0, 64, 64, 0, 0, 128, 191, 0, 0, 127, 0, 127, 0, 0, 129, 227, 59, 0, 56, 0, 0, 64, 64, 0, 0, 160, 64, 0, 0, 128, 191, 0, 0, 127, 0, 127, 0, 0, 129, 227, 59, 0, 56, 0, 0, 64, 192, 0, 0, 160, 64, 0, 0, 0, 192, 0, 0, 129, 0, 127, 0, 0, 127, 227, 59, 0, 56, 0, 0, 64, 192, 0, 0, 128, 64, 0, 0, 0, 192, 0, 0, 129, 0, 127, 0, 0, 127, 227, 59, 0, 56, 0, 0, 0, 192, 0, 0, 128, 64, 0, 0, 0, 192, 0, 0, 129, 0, 127, 0, 0, 127, 227, 59, 0, 56, 0, 0, 0, 192, 0, 0, 160, 64, 0, 0, 0, 192, 0, 0, 129, 0, 127, 0, 0, 127, 227, 59, 0, 56, 0, 0, 0, 64, 0, 0, 160, 64, 0, 0, 0, 192, 0, 0, 129, 0, 127, 0, 0, 127, 227, 59, 0, 56, 0, 0, 0, 64, 0, 0, 128, 64, 0, 0, 0, 192, 0, 0, 129, 0, 127, 0, 0, 127, 227, 59, 0, 56, 0, 0, 64, 64, 0, 0, 128, 64, 0, 0, 0, 192, 0, 0, 129, 0, 127, 0, 0, 127, 227, 59, 0, 56, 0, 0, 64, 64, 0, 0, 160, 64, 0, 0, 0, 192, 0, 0, 129, 0, 127, 0, 0, 127, 227, 59, 0, 56, 0, 0, 64, 192, 0, 0, 64, 64, 0, 0, 64, 192, 0, 0, 129, 0, 127, 0, 0, 127, 220, 59, 0, 56, 0, 0, 64, 192, 0, 0, 0, 0, 0, 0, 64, 192, 0, 0, 129, 0, 127, 0, 0, 127, 220, 59, 0, 56, 0, 0, 0, 192, 0, 0, 0, 0, 0, 0, 64, 192, 0, 0, 129, 0, 127, 0, 0, 127, 220, 59, 0, 56, 0, 0, 64, 192, 0, 0, 128, 64, 0, 0, 64, 192, 0, 0, 129, 0, 127, 0, 0, 127, 227, 59, 0, 56, 0, 0, 64, 192, 0, 0, 64, 64, 0, 0, 64, 192, 0, 0, 129, 0, 127, 0, 0, 127, 227, 59, 0, 56, 0, 0, 0, 192, 0, 0, 64, 64, 0, 0, 64, 192, 0, 0, 129, 0, 127, 0, 0, 127, 227, 59, 0, 56, 0, 0, 0, 192, 0, 0, 64, 64, 0, 0, 64, 192, 0, 0, 129, 0, 127, 0, 0, 127, 220, 59, 0, 56, 0, 0, 0, 192, 0, 0, 128, 64, 0, 0, 64, 192, 0, 0, 129, 0, 127, 0, 0, 127, 227, 59, 0, 56, 0, 0, 0, 192, 0, 0, 192, 64, 0, 0, 64, 192, 0, 0, 129, 0, 127, 0, 0, 127, 112, 51, 0, 56, 0, 0, 0, 192, 0, 0, 128, 64, 0, 0, 64, 192, 0, 0, 129, 0, 127, 0, 0, 127, 112, 51, 0, 56, 0, 0, 128, 191, 0, 0, 128, 64, 0, 0, 64, 192, 0, 0, 129, 0, 127, 0, 0, 127, 112, 51, 0, 56, 0, 0, 128, 191, 0, 0, 192, 64, 0, 0, 64, 192, 0, 0, 129, 0, 127, 0, 0, 127, 112, 51, 0, 56, 0, 0, 128, 191, 0, 0, 224, 64, 0, 0, 64, 192, 0, 0, 129, 0, 127, 0, 0, 127, 112, 51, 0, 56, 0, 0, 128, 63, 0, 0, 192, 64, 0, 0, 64, 192, 0, 0, 129, 0, 127, 0, 0, 127, 112, 51, 0, 56, 0, 0, 128, 63, 0, 0, 224, 64, 0, 0, 64, 192, 0, 0, 129, 0, 127, 0, 0, 127, 112, 51, 0, 56, 0, 0, 128, 63, 0, 0, 128, 64, 0, 0, 64, 192, 0, 0, 129, 0, 127, 0, 0, 127, 112, 51, 0, 56, 0, 0, 0, 64, 0, 0, 128, 64, 0, 0, 64, 192, 0, 0, 129, 0, 127, 0, 0, 127, 112, 51, 0, 56, 0, 0, 0, 64, 0, 0, 192, 64, 0, 0, 64, 192, 0, 0, 129, 0, 127, 0, 0, 127, 112, 51, 0, 56, 0, 0, 0, 64, 0, 0, 64, 64, 0, 0, 64, 192, 0, 0, 129, 0, 127, 0, 0, 127, 220, 59, 0, 56, 0, 0, 0, 64, 0, 0, 0, 0, 0, 0, 64, 192, 0, 0, 129, 0, 127, 0, 0, 127, 220, 59, 0, 56, 0, 0, 64, 64, 0, 0, 0, 0, 0, 0, 64, 192, 0, 0, 129, 0, 127, 0, 0, 127, 220, 59, 0, 56, 0, 0, 0, 64, 0, 0, 128, 64, 0, 0, 64, 192, 0, 0, 129, 0, 127, 0, 0, 127, 227, 59, 0, 56, 0, 0, 0, 64, 0, 0, 64, 64, 0, 0, 64, 192, 0, 0, 129, 0, 127, 0, 0, 127, 227, 59, 0, 56, 0, 0, 64, 64, 0, 0, 64, 64, 0, 0, 64, 192, 0, 0, 129, 0, 127, 0, 0, 127, 227, 59, 0, 56, 0, 0, 64, 64, 0, 0, 64, 64, 0, 0, 64, 192, 0, 0, 129, 0, 127, 0, 0, 127, 220, 59, 0, 56, 0, 0, 64, 64, 0, 0, 128, 64, 0, 0, 64, 192, 0, 0, 129, 0, 127, 0, 0, 127, 227, 59, 0, 56, 0, 0, 0, 192, 0, 0, 128, 64, 0, 0, 128, 192, 0, 0, 129, 0, 127, 0, 0, 127, 227, 59, 0, 56, 0, 0, 0, 192, 0, 0, 0, 0, 0, 0, 128, 192, 0, 0, 129, 0, 127, 0, 0, 127, 227, 59, 0, 56, 0, 0, 128, 191, 0, 0, 0, 0, 0, 0, 128, 192, 0, 0, 129, 0, 127, 0, 0, 127, 227, 59, 0, 56, 0, 0, 128, 191, 0, 0, 64, 64, 0, 0, 128, 192, 0, 0, 129, 0, 127, 0, 0, 127, 227, 59, 0, 56, 0, 0, 128, 191, 0, 0, 128, 64, 0, 0, 128, 192, 0, 0, 129, 0, 127, 0, 0, 127, 227, 59, 0, 56, 0, 0, 128, 191, 0, 0, 192, 64, 0, 0, 128, 192, 0, 0, 129, 0, 127, 0, 0, 127, 112, 51, 0, 56, 0, 0, 128, 191, 0, 0, 128, 64, 0, 0, 128, 192, 0, 0, 129, 0, 127, 0, 0, 127, 112, 51, 0, 56, 0, 0, 128, 63, 0, 0, 64, 64, 0, 0, 128, 192, 0, 0, 129, 0, 127, 0, 0, 127, 112, 51, 0, 56, 0, 0, 128, 191, 0, 0, 64, 64, 0, 0, 128, 192, 0, 0, 129, 0, 127, 0, 0, 127, 112, 51, 0, 56, 0, 0, 128, 63, 0, 0, 128, 64, 0, 0, 128, 192, 0, 0, 129, 0, 127, 0, 0, 127, 112, 51, 0, 56, 0, 0, 128, 63, 0, 0, 192, 64, 0, 0, 128, 192, 0, 0, 129, 0, 127, 0, 0, 127, 112, 51, 0, 56, 0, 0, 128, 63, 0, 0, 64, 64, 0, 0, 128, 192, 0, 0, 129, 0, 127, 0, 0, 127, 227, 59, 0, 56, 0, 0, 128, 63, 0, 0, 0, 0, 0, 0, 128, 192, 0, 0, 129, 0, 127, 0, 0, 127, 227, 59, 0, 56, 0, 0, 0, 64, 0, 0, 0, 0, 0, 0, 128, 192, 0, 0, 129, 0, 127, 0, 0, 127, 227, 59, 0, 56, 0, 0, 128, 63, 0, 0, 128, 64, 0, 0, 128, 192, 0, 0, 129, 0, 127, 0, 0, 127, 227, 59, 0, 56, 0, 0, 0, 64, 0, 0, 128, 64, 0, 0, 128, 192, 0, 0, 129, 0, 127, 0, 0, 127, 227, 59, 0, 56, 0, 0, 128, 191, 0, 0, 64, 64, 0, 0, 160, 192, 0, 0, 129, 0, 127, 0, 0, 127, 227, 59, 0, 56, 0, 0, 128, 191, 0, 0, 0, 0, 0, 0, 160, 192, 0, 0, 129, 0, 127, 0, 0, 127, 227, 59, 0, 56, 0, 0, 128, 63, 0, 0, 0, 0, 0, 0, 160, 192, 0, 0, 129, 0, 127, 0, 0, 127, 227, 59, 0, 56, 0, 0, 128, 63, 0, 0, 64, 64, 0, 0, 160, 192, 0, 0, 129, 0, 127, 0, 0, 127, 227, 59, 0, 56, 0, 0, 128, 63, 0, 0, 0, 0, 0, 0, 128, 64, 0, 129, 0, 0, 127, 0, 0, 127, 227, 59, 0, 56, 0, 0, 128, 191, 0, 0, 0, 0, 0, 0, 64, 64, 0, 129, 0, 0, 127, 0, 0, 127, 227, 59, 0, 56, 0, 0, 128, 191, 0, 0, 0, 0, 0, 0, 128, 64, 0, 129, 0, 0, 127, 0, 0, 127, 227, 59, 0, 56, 0, 0, 128, 63, 0, 0, 0, 0, 0, 0, 64, 64, 0, 129, 0, 0, 127, 0, 0, 127, 227, 59, 0, 56, 0, 0, 0, 192, 0, 0, 0, 0, 0, 0, 0, 64, 0, 129, 0, 0, 127, 0, 0, 127, 227, 59, 0, 56, 0, 0, 0, 192, 0, 0, 0, 0, 0, 0, 64, 64, 0, 129, 0, 0, 127, 0, 0, 127, 227, 59, 0, 56, 0, 0, 0, 64, 0, 0, 0, 0, 0, 0, 64, 64, 0, 129, 0, 0, 127, 0, 0, 127, 227, 59, 0, 56, 0, 0, 0, 64, 0, 0, 0, 0, 0, 0, 0, 64, 0, 129, 0, 0, 127, 0, 0, 127, 227, 59, 0, 56, 0, 0, 64, 192, 0, 0, 0, 0, 0, 0, 0, 128, 0, 129, 0, 0, 127, 0, 0, 127, 227, 59, 0, 56, 0, 0, 64, 192, 0, 0, 0, 0, 0, 0, 0, 64, 0, 129, 0, 0, 127, 0, 0, 127, 227, 59, 0, 56, 0, 0, 64, 64, 0, 0, 0, 0, 0, 0, 0, 64, 0, 129, 0, 0, 127, 0, 0, 127, 227, 59, 0, 56, 0, 0, 0, 192, 0, 0, 0, 0, 0, 0, 0, 128, 0, 129, 0, 0, 127, 0, 0, 127, 227, 59, 0, 56, 0, 0, 0, 64, 0, 0, 0, 0, 0, 0, 0, 128, 0, 129, 0, 0, 127, 0, 0, 127, 227, 59, 0, 56, 0, 0, 64, 64, 0, 0, 0, 0, 0, 0, 0, 128, 0, 129, 0, 0, 127, 0, 0, 127, 227, 59, 0, 56, 0, 0, 0, 192, 0, 0, 0, 0, 0, 0, 0, 128, 0, 129, 0, 0, 127, 0, 0, 127, 220, 59, 0, 56, 0, 0, 64, 192, 0, 0, 0, 0, 0, 0, 64, 192, 0, 129, 0, 0, 127, 0, 0, 127, 220, 59, 0, 56, 0, 0, 64, 192, 0, 0, 0, 0, 0, 0, 0, 128, 0, 129, 0, 0, 127, 0, 0, 127, 220, 59, 0, 56, 0, 0, 0, 192, 0, 0, 0, 0, 0, 0, 64, 192, 0, 129, 0, 0, 127, 0, 0, 127, 227, 59, 0, 56, 0, 0, 0, 192, 0, 0, 0, 0, 0, 0, 64, 192, 0, 129, 0, 0, 127, 0, 0, 127, 220, 59, 0, 56, 0, 0, 64, 64, 0, 0, 0, 0, 0, 0, 0, 128, 0, 129, 0, 0, 127, 0, 0, 127, 220, 59, 0, 56, 0, 0, 0, 64, 0, 0, 0, 0, 0, 0, 64, 192, 0, 129, 0, 0, 127, 0, 0, 127, 220, 59, 0, 56, 0, 0, 0, 64, 0, 0, 0, 0, 0, 0, 0, 128, 0, 129, 0, 0, 127, 0, 0, 127, 220, 59, 0, 56, 0, 0, 0, 64, 0, 0, 0, 0, 0, 0, 64, 192, 0, 129, 0, 0, 127, 0, 0, 127, 227, 59, 0, 56, 0, 0, 64, 64, 0, 0, 0, 0, 0, 0, 64, 192, 0, 129, 0, 0, 127, 0, 0, 127, 220, 59, 0, 56, 0, 0, 0, 192, 0, 0, 0, 0, 0, 0, 128, 192, 0, 129, 0, 0, 127, 0, 0, 127, 227, 59, 0, 56, 0, 0, 128, 191, 0, 0, 0, 0, 0, 0, 128, 192, 0, 129, 0, 0, 127, 0, 0, 127, 227, 59, 0, 56, 0, 0, 128, 63, 0, 0, 0, 0, 0, 0, 128, 192, 0, 129, 0, 0, 127, 0, 0, 127, 227, 59, 0, 56, 0, 0, 0, 64, 0, 0, 0, 0, 0, 0, 128, 192, 0, 129, 0, 0, 127, 0, 0, 127, 227, 59, 0, 56, 0, 0, 128, 191, 0, 0, 0, 0, 0, 0, 160, 192, 0, 129, 0, 0, 127, 0, 0, 127, 227, 59, 0, 56, 0, 0, 128, 63, 0, 0, 0, 0, 0, 0, 160, 192, 0, 129, 0, 0, 127, 0, 0, 127, 227, 59, 0, 56, 0, 0, 128, 63, 0, 0, 0, 64, 0, 0, 128, 64, 0, 127, 0, 0, 127, 0, 0, 127, 227, 59, 0, 56, 0, 0, 128, 191, 0, 0, 0, 64, 0, 0, 128, 64, 0, 127, 0, 0, 127, 0, 0, 127, 227, 59, 0, 56, 0, 0, 128, 191, 0, 0, 0, 64, 0, 0, 64, 64, 0, 127, 0, 0, 127, 0, 0, 127, 227, 59, 0, 56, 0, 0, 128, 63, 0, 0, 0, 64, 0, 0, 64, 64, 0, 127, 0, 0, 127, 0, 0, 127, 227, 59, 0, 56, 0, 0, 0, 192, 0, 0, 0, 64, 0, 0, 64, 64, 0, 127, 0, 0, 127, 0, 0, 127, 227, 59, 0, 56, 0, 0, 0, 192, 0, 0, 0, 64, 0, 0, 0, 64, 0, 127, 0, 0, 127, 0, 0, 127, 227, 59, 0, 56, 0, 0, 128, 191, 0, 0, 0, 64, 0, 0, 0, 64, 0, 127, 0, 0, 127, 0, 0, 127, 227, 59, 0, 56, 0, 0, 0, 64, 0, 0, 0, 64, 0, 0, 64, 64, 0, 127, 0, 0, 127, 0, 0, 127, 227, 59, 0, 56, 0, 0, 128, 63, 0, 0, 0, 64, 0, 0, 0, 64, 0, 127, 0, 0, 127, 0, 0, 127, 227, 59, 0, 56, 0, 0, 0, 64, 0, 0, 0, 64, 0, 0, 0, 64, 0, 127, 0, 0, 127, 0, 0, 127, 227, 59, 0, 56, 0, 0, 64, 192, 0, 0, 0, 64, 0, 0, 0, 64, 0, 127, 0, 0, 127, 0, 0, 127, 227, 59, 0, 56, 0, 0, 64, 192, 0, 0, 0, 64, 0, 0, 0, 128, 0, 127, 0, 0, 127, 0, 0, 127, 227, 59, 0, 56, 0, 0, 0, 192, 0, 0, 0, 64, 0, 0, 0, 128, 0, 127, 0, 0, 127, 0, 0, 127, 227, 59, 0, 56, 0, 0, 64, 64, 0, 0, 0, 64, 0, 0, 0, 64, 0, 127, 0, 0, 127, 0, 0, 127, 227, 59, 0, 56, 0, 0, 0, 64, 0, 0, 0, 64, 0, 0, 0, 128, 0, 127, 0, 0, 127, 0, 0, 127, 227, 59, 0, 56, 0, 0, 64, 64, 0, 0, 0, 64, 0, 0, 0, 128, 0, 127, 0, 0, 127, 0, 0, 127, 227, 59, 0, 56, 0, 0, 128, 63, 0, 0, 64, 64, 0, 0, 64, 64, 0, 127, 0, 0, 127, 0, 0, 127, 227, 59, 0, 56, 0, 0, 128, 191, 0, 0, 64, 64, 0, 0, 64, 64, 0, 127, 0, 0, 127, 0, 0, 127, 227, 59, 0, 56, 0, 0, 128, 191, 0, 0, 64, 64, 0, 0, 0, 64, 0, 127, 0, 0, 127, 0, 0, 127, 227, 59, 0, 56, 0, 0, 128, 63, 0, 0, 64, 64, 0, 0, 0, 64, 0, 127, 0, 0, 127, 0, 0, 127, 227, 59, 0, 56, 0, 0, 0, 192, 0, 0, 64, 64, 0, 0, 0, 64, 0, 127, 0, 0, 127, 0, 0, 127, 227, 59, 0, 56, 0, 0, 0, 192, 0, 0, 64, 64, 0, 0, 0, 128, 0, 127, 0, 0, 127, 0, 0, 127, 227, 59, 0, 56, 0, 0, 128, 191, 0, 0, 64, 64, 0, 0, 0, 128, 0, 127, 0, 0, 127, 0, 0, 127, 227, 59, 0, 56, 0, 0, 0, 64, 0, 0, 64, 64, 0, 0, 0, 64, 0, 127, 0, 0, 127, 0, 0, 127, 227, 59, 0, 56, 0, 0, 128, 63, 0, 0, 64, 64, 0, 0, 0, 128, 0, 127, 0, 0, 127, 0, 0, 127, 227, 59, 0, 56, 0, 0, 0, 64, 0, 0, 64, 64, 0, 0, 0, 128, 0, 127, 0, 0, 127, 0, 0, 127, 227, 59, 0, 56, 0, 0, 64, 192, 0, 0, 64, 64, 0, 0, 0, 128, 0, 127, 0, 0, 127, 0, 0, 127, 227, 59, 0, 56, 0, 0, 64, 192, 0, 0, 64, 64, 0, 0, 128, 191, 0, 127, 0, 0, 127, 0, 0, 127, 227, 59, 0, 56, 0, 0, 0, 192, 0, 0, 64, 64, 0, 0, 128, 191, 0, 127, 0, 0, 127, 0, 0, 127, 227, 59, 0, 56, 0, 0, 64, 64, 0, 0, 64, 64, 0, 0, 0, 128, 0, 127, 0, 0, 127, 0, 0, 127, 227, 59, 0, 56, 0, 0, 0, 64, 0, 0, 64, 64, 0, 0, 128, 191, 0, 127, 0, 0, 127, 0, 0, 127, 227, 59, 0, 56, 0, 0, 64, 64, 0, 0, 64, 64, 0, 0, 128, 191, 0, 127, 0, 0, 127, 0, 0, 127, 227, 59, 0, 56, 0, 0, 128, 63, 0, 0, 64, 64, 0, 0, 128, 192, 0, 127, 0, 0, 127, 0, 0, 127, 227, 59, 0, 56, 0, 0, 128, 191, 0, 0, 64, 64, 0, 0, 128, 192, 0, 127, 0, 0, 127, 0, 0, 127, 227, 59, 0, 56, 0, 0, 128, 191, 0, 0, 64, 64, 0, 0, 160, 192, 0, 127, 0, 0, 127, 0, 0, 127, 227, 59, 0, 56, 0, 0, 128, 63, 0, 0, 64, 64, 0, 0, 160, 192, 0, 127, 0, 0, 127, 0, 0, 127, 227, 59, 0, 56, 0, 0, 128, 63, 0, 0, 128, 64, 0, 0, 0, 64, 0, 127, 0, 0, 127, 0, 0, 127, 220, 59, 0, 56, 0, 0, 128, 191, 0, 0, 128, 64, 0, 0, 0, 64, 0, 127, 0, 0, 127, 0, 0, 127, 220, 59, 0, 56, 0, 0, 128, 191, 0, 0, 128, 64, 0, 0, 128, 63, 0, 127, 0, 0, 127, 0, 0, 127, 220, 59, 0, 56, 0, 0, 128, 63, 0, 0, 128, 64, 0, 0, 128, 63, 0, 127, 0, 0, 127, 0, 0, 127, 220, 59, 0, 56, 0, 0, 0, 192, 0, 0, 128, 64, 0, 0, 0, 192, 0, 127, 0, 0, 127, 0, 0, 127, 227, 59, 0, 56, 0, 0, 64, 192, 0, 0, 128, 64, 0, 0, 0, 192, 0, 127, 0, 0, 127, 0, 0, 127, 227, 59, 0, 56, 0, 0, 64, 192, 0, 0, 128, 64, 0, 0, 64, 192, 0, 127, 0, 0, 127, 0, 0, 127, 227, 59, 0, 56, 0, 0, 0, 192, 0, 0, 128, 64, 0, 0, 64, 192, 0, 127, 0, 0, 127, 0, 0, 127, 227, 59, 0, 56, 0, 0, 64, 64, 0, 0, 128, 64, 0, 0, 0, 192, 0, 127, 0, 0, 127, 0, 0, 127, 227, 59, 0, 56, 0, 0, 0, 64, 0, 0, 128, 64, 0, 0, 0, 192, 0, 127, 0, 0, 127, 0, 0, 127, 227, 59, 0, 56, 0, 0, 0, 64, 0, 0, 128, 64, 0, 0, 64, 192, 0, 127, 0, 0, 127, 0, 0, 127, 227, 59, 0, 56, 0, 0, 64, 64, 0, 0, 128, 64, 0, 0, 64, 192, 0, 127, 0, 0, 127, 0, 0, 127, 227, 59, 0, 56, 0, 0, 128, 191, 0, 0, 128, 64, 0, 0, 64, 192, 0, 127, 0, 0, 127, 0, 0, 127, 227, 59, 0, 56, 0, 0, 0, 192, 0, 0, 128, 64, 0, 0, 128, 192, 0, 127, 0, 0, 127, 0, 0, 127, 227, 59, 0, 56, 0, 0, 128, 191, 0, 0, 128, 64, 0, 0, 128, 192, 0, 127, 0, 0, 127, 0, 0, 127, 227, 59, 0, 56, 0, 0, 128, 63, 0, 0, 128, 64, 0, 0, 64, 192, 0, 127, 0, 0, 127, 0, 0, 127, 227, 59, 0, 56, 0, 0, 128, 63, 0, 0, 128, 64, 0, 0, 128, 192, 0, 127, 0, 0, 127, 0, 0, 127, 227, 59, 0, 56, 0, 0, 0, 64, 0, 0, 128, 64, 0, 0, 128, 192, 0, 127, 0, 0, 127, 0, 0, 127, 227, 59, 0, 56, 0, 0, 0, 192, 0, 0, 160, 64, 0, 0, 128, 191, 0, 127, 0, 0, 127, 0, 0, 127, 227, 59, 0, 56, 0, 0, 64, 192, 0, 0, 160, 64, 0, 0, 128, 191, 0, 127, 0, 0, 127, 0, 0, 127, 227, 59, 0, 56, 0, 0, 64, 192, 0, 0, 160, 64, 0, 0, 0, 192, 0, 127, 0, 0, 127, 0, 0, 127, 227, 59, 0, 56, 0, 0, 0, 192, 0, 0, 160, 64, 0, 0, 0, 192, 0, 127, 0, 0, 127, 0, 0, 127, 227, 59, 0, 56, 0, 0, 64, 64, 0, 0, 160, 64, 0, 0, 128, 191, 0, 127, 0, 0, 127, 0, 0, 127, 227, 59, 0, 56, 0, 0, 0, 64, 0, 0, 160, 64, 0, 0, 128, 191, 0, 127, 0, 0, 127, 0, 0, 127, 227, 59, 0, 56, 0, 0, 0, 64, 0, 0, 160, 64, 0, 0, 0, 192, 0, 127, 0, 0, 127, 0, 0, 127, 227, 59, 0, 56, 0, 0, 64, 64, 0, 0, 160, 64, 0, 0, 0, 192, 0, 127, 0, 0, 127, 0, 0, 127, 227, 59, 0, 56, 0, 0, 128, 63, 0, 0, 192, 64, 0, 0, 128, 63, 0, 127, 0, 0, 127, 0, 0, 127, 220, 59, 0, 56, 0, 0, 128, 191, 0, 0, 192, 64, 0, 0, 128, 63, 0, 127, 0, 0, 127, 0, 0, 127, 220, 59, 0, 56, 0, 0, 128, 191, 0, 0, 192, 64, 0, 0, 0, 128, 0, 127, 0, 0, 127, 0, 0, 127, 220, 59, 0, 56, 0, 0, 128, 63, 0, 0, 192, 64, 0, 0, 0, 128, 0, 127, 0, 0, 127, 0, 0, 127, 220, 59, 0, 56, 0, 0, 128, 191, 0, 0, 192, 64, 0, 0, 0, 128, 0, 127, 0, 0, 127, 0, 0, 127, 227, 59, 0, 56, 0, 0, 0, 192, 0, 0, 192, 64, 0, 0, 0, 128, 0, 127, 0, 0, 127, 0, 0, 127, 227, 59, 0, 56, 0, 0, 0, 192, 0, 0, 192, 64, 0, 0, 128, 191, 0, 127, 0, 0, 127, 0, 0, 127, 227, 59, 0, 56, 0, 0, 128, 191, 0, 0, 192, 64, 0, 0, 128, 191, 0, 127, 0, 0, 127, 0, 0, 127, 227, 59, 0, 56, 0, 0, 0, 64, 0, 0, 192, 64, 0, 0, 0, 128, 0, 127, 0, 0, 127, 0, 0, 127, 227, 59, 0, 56, 0, 0, 128, 63, 0, 0, 192, 64, 0, 0, 0, 128, 0, 127, 0, 0, 127, 0, 0, 127, 227, 59, 0, 56, 0, 0, 128, 63, 0, 0, 192, 64, 0, 0, 128, 191, 0, 127, 0, 0, 127, 0, 0, 127, 227, 59, 0, 56, 0, 0, 0, 64, 0, 0, 192, 64, 0, 0, 128, 191, 0, 127, 0, 0, 127, 0, 0, 127, 227, 59, 0, 56, 0, 0, 128, 191, 0, 0, 192, 64, 0, 0, 128, 191, 0, 127, 0, 0, 127, 0, 0, 127, 112, 51, 0, 56, 0, 0, 0, 192, 0, 0, 192, 64, 0, 0, 128, 191, 0, 127, 0, 0, 127, 0, 0, 127, 112, 51, 0, 56, 0, 0, 0, 192, 0, 0, 192, 64, 0, 0, 64, 192, 0, 127, 0, 0, 127, 0, 0, 127, 112, 51, 0, 56, 0, 0, 128, 191, 0, 0, 192, 64, 0, 0, 64, 192, 0, 127, 0, 0, 127, 0, 0, 127, 112, 51, 0, 56, 0, 0, 0, 64, 0, 0, 192, 64, 0, 0, 128, 191, 0, 127, 0, 0, 127, 0, 0, 127, 112, 51, 0, 56, 0, 0, 128, 63, 0, 0, 192, 64, 0, 0, 128, 191, 0, 127, 0, 0, 127, 0, 0, 127, 112, 51, 0, 56, 0, 0, 128, 63, 0, 0, 192, 64, 0, 0, 64, 192, 0, 127, 0, 0, 127, 0, 0, 127, 112, 51, 0, 56, 0, 0, 0, 64, 0, 0, 192, 64, 0, 0, 64, 192, 0, 127, 0, 0, 127, 0, 0, 127, 112, 51, 0, 56, 0, 0, 128, 191, 0, 0, 192, 64, 0, 0, 128, 192, 0, 127, 0, 0, 127, 0, 0, 127, 112, 51, 0, 56, 0, 0, 128, 63, 0, 0, 192, 64, 0, 0, 128, 192, 0, 127, 0, 0, 127, 0, 0, 127, 112, 51, 0, 56, 0, 0, 128, 63, 0, 0, 224, 64, 0, 0, 0, 128, 0, 127, 0, 0, 127, 0, 0, 127, 227, 59, 0, 56, 0, 0, 128, 191, 0, 0, 224, 64, 0, 0, 0, 128, 0, 127, 0, 0, 127, 0, 0, 127, 227, 59, 0, 56, 0, 0, 128, 191, 0, 0, 224, 64, 0, 0, 128, 191, 0, 127, 0, 0, 127, 0, 0, 127, 227, 59, 0, 56, 0, 0, 128, 63, 0, 0, 224, 64, 0, 0, 128, 191, 0, 127, 0, 0, 127, 0, 0, 127, 227, 59, 0, 56, 0, 0, 128, 63, 0, 0, 224, 64, 0, 0, 128, 191, 0, 127, 0, 0, 127, 0, 0, 127, 112, 51, 0, 56, 0, 0, 128, 191, 0, 0, 224, 64, 0, 0, 128, 191, 0, 127, 0, 0, 127, 0, 0, 127, 112, 51, 0, 56, 0, 0, 128, 191, 0, 0, 224, 64, 0, 0, 64, 192, 0, 127, 0, 0, 127, 0, 0, 127, 112, 51, 0, 56, 0, 0, 128, 63, 0, 0, 224, 64, 0, 0, 64, 192, 0, 127, 0, 0, 127, 0, 0, 127, 112, 51, 0, 56 ),
"array_index_data": PoolByteArray( 0, 0, 1, 0, 2, 0, 3, 0, 4, 0, 5, 0, 3, 0, 6, 0, 4, 0, 1, 0, 7, 0, 2, 0, 8, 0, 7, 0, 1, 0, 8, 0, 9, 0, 7, 0, 3, 0, 10, 0, 6, 0, 8, 0, 11, 0, 9, 0, 3, 0, 12, 0, 10, 0, 11, 0, 13, 0, 9, 0, 14, 0, 13, 0, 11, 0, 14, 0, 15, 0, 13, 0, 3, 0, 16, 0, 12, 0, 14, 0, 17, 0, 15, 0, 3, 0, 18, 0, 16, 0, 17, 0, 19, 0, 15, 0, 20, 0, 19, 0, 17, 0, 20, 0, 21, 0, 19, 0, 19, 0, 22, 0, 15, 0, 19, 0, 23, 0, 22, 0, 24, 0, 25, 0, 26, 0, 24, 0, 27, 0, 25, 0, 28, 0, 29, 0, 27, 0, 28, 0, 30, 0, 29, 0, 31, 0, 32, 0, 33, 0, 31, 0, 34, 0, 32, 0, 31, 0, 35, 0, 34, 0, 36, 0, 37, 0, 30, 0, 38, 0, 39, 0, 40, 0, 37, 0, 41, 0, 30, 0, 39, 0, 42, 0, 43, 0, 37, 0, 44, 0, 41, 0, 38, 0, 45, 0, 39, 0, 39, 0, 45, 0, 42, 0, 46, 0, 47, 0, 48, 0, 46, 0, 49, 0, 47, 0, 50, 0, 51, 0, 49, 0, 50, 0, 52, 0, 51, 0, 53, 0, 54, 0, 55, 0, 53, 0, 56, 0, 54, 0, 57, 0, 58, 0, 59, 0, 57, 0, 60, 0, 58, 0, 57, 0, 61, 0, 60, 0, 57, 0, 62, 0, 61, 0, 63, 0, 64, 0, 65, 0, 63, 0, 66, 0, 64, 0, 67, 0, 68, 0, 69, 0, 64, 0, 70, 0, 71, 0, 67, 0, 72, 0, 68, 0, 64, 0, 73, 0, 70, 0, 74, 0, 75, 0, 76, 0, 74, 0, 76, 0, 77, 0, 78, 0, 77, 0, 79, 0, 78, 0, 79, 0, 80, 0, 81, 0, 82, 0, 83, 0, 81, 0, 83, 0, 84, 0, 85, 0, 86, 0, 87, 0, 85, 0, 87, 0, 88, 0, 85, 0, 88, 0, 89, 0, 85, 0, 89, 0, 90, 0, 91, 0, 92, 0, 93, 0, 91, 0, 93, 0, 94, 0, 95, 0, 96, 0, 97, 0, 93, 0, 98, 0, 99, 0, 95, 0, 97, 0, 100, 0, 93, 0, 99, 0, 101, 0, 102, 0, 103, 0, 104, 0, 102, 0, 104, 0, 105, 0, 106, 0, 105, 0, 107, 0, 106, 0, 107, 0, 108, 0, 109, 0, 110, 0, 111, 0, 109, 0, 111, 0, 112, 0, 109, 0, 112, 0, 113, 0, 114, 0, 108, 0, 115, 0, 116, 0, 117, 0, 118, 0, 115, 0, 108, 0, 119, 0, 118, 0, 120, 0, 121, 0, 115, 0, 119, 0, 122, 0, 116, 0, 118, 0, 123, 0, 118, 0, 121, 0, 123, 0, 124, 0, 125, 0, 126, 0, 127, 0, 128, 0, 129, 0, 127, 0, 129, 0, 130, 0, 126, 0, 125, 0, 131, 0, 132, 0, 126, 0, 131, 0, 132, 0, 131, 0, 133, 0, 127, 0, 130, 0, 134, 0, 132, 0, 133, 0, 135, 0, 127, 0, 134, 0, 136, 0, 135, 0, 133, 0, 137, 0, 138, 0, 135, 0, 137, 0, 138, 0, 137, 0, 139, 0, 127, 0, 136, 0, 140, 0, 138, 0, 139, 0, 141, 0, 127, 0, 140, 0, 142, 0, 141, 0, 139, 0, 143, 0, 144, 0, 141, 0, 143, 0, 144, 0, 143, 0, 145, 0, 143, 0, 139, 0, 146, 0, 143, 0, 146, 0, 147, 0, 148, 0, 149, 0, 150, 0, 148, 0, 151, 0, 149, 0, 152, 0, 153, 0, 154, 0, 152, 0, 155, 0, 153, 0, 156, 0, 157, 0, 155, 0, 156, 0, 158, 0, 157, 0, 157, 0, 159, 0, 160, 0, 157, 0, 161, 0, 159, 0, 162, 0, 163, 0, 164, 0, 162, 0, 165, 0, 163, 0, 166, 0, 167, 0, 165, 0, 166, 0, 168, 0, 167, 0, 169, 0, 170, 0, 171, 0, 169, 0, 172, 0, 170, 0, 173, 0, 174, 0, 175, 0, 173, 0, 176, 0, 174, 0, 174, 0, 177, 0, 178, 0, 174, 0, 179, 0, 177, 0, 180, 0, 181, 0, 182, 0, 180, 0, 183, 0, 181, 0, 184, 0, 185, 0, 186, 0, 184, 0, 187, 0, 185, 0, 188, 0, 189, 0, 187, 0, 188, 0, 190, 0, 189, 0, 191, 0, 192, 0, 190, 0, 191, 0, 193, 0, 192, 0, 192, 0, 194, 0, 195, 0, 192, 0, 196, 0, 194, 0, 194, 0, 197, 0, 198, 0, 194, 0, 199, 0, 197, 0, 200, 0, 201, 0, 202, 0, 200, 0, 203, 0, 201, 0, 204, 0, 205, 0, 206, 0, 204, 0, 207, 0, 205, 0, 208, 0, 209, 0, 210, 0, 208, 0, 210, 0, 211, 0, 212, 0, 213, 0, 214, 0, 212, 0, 214, 0, 215, 0, 216, 0, 217, 0, 218, 0, 219, 0, 220, 0, 221, 0, 216, 0, 218, 0, 222, 0, 219, 0, 221, 0, 223, 0, 224, 0, 225, 0, 226, 0, 224, 0, 226, 0, 227, 0, 228, 0, 227, 0, 229, 0, 228, 0, 229, 0, 230, 0, 229, 0, 231, 0, 232, 0, 229, 0, 232, 0, 233, 0, 234, 0, 235, 0, 236, 0, 237, 0, 238, 0, 239, 0, 234, 0, 236, 0, 240, 0, 237, 0, 239, 0, 241, 0, 242, 0, 243, 0, 244, 0, 242, 0, 244, 0, 245, 0, 242, 0, 245, 0, 246, 0, 247, 0, 248, 0, 249, 0, 248, 0, 250, 0, 249, 0, 247, 0, 249, 0, 251, 0, 247, 0, 251, 0, 252, 0, 253, 0, 254, 0, 255, 0, 0, 1, 253, 0, 255, 0, 0, 1, 255, 0, 1, 1, 2, 1, 3, 1, 4, 1, 2, 1, 4, 1, 5, 1, 6, 1, 7, 1, 8, 1, 6, 1, 9, 1, 7, 1, 7, 1, 10, 1, 11, 1, 12, 1, 10, 1, 9, 1, 9, 1, 10, 1, 7, 1, 12, 1, 13, 1, 10, 1, 10, 1, 14, 1, 15, 1, 16, 1, 14, 1, 13, 1, 13, 1, 14, 1, 10, 1, 16, 1, 17, 1, 14, 1, 16, 1, 18, 1, 17, 1, 16, 1, 19, 1, 18, 1, 20, 1, 21, 1, 22, 1, 18, 1, 23, 1, 17, 1, 20, 1, 24, 1, 21, 1, 25, 1, 26, 1, 27, 1, 18, 1, 28, 1, 23, 1, 25, 1, 29, 1, 26, 1, 28, 1, 30, 1, 23, 1, 28, 1, 31, 1, 30, 1, 28, 1, 32, 1, 31, 1, 28, 1, 33, 1, 32, 1, 32, 1, 34, 1, 31, 1, 32, 1, 35, 1, 34, 1, 36, 1, 37, 1, 38, 1, 36, 1, 38, 1, 39, 1, 38, 1, 40, 1, 41, 1, 38, 1, 41, 1, 42, 1, 43, 1, 39, 1, 44, 1, 43, 1, 44, 1, 45, 1, 41, 1, 46, 1, 47, 1, 41, 1, 47, 1, 48, 1, 49, 1, 45, 1, 50, 1, 49, 1, 50, 1, 51, 1, 52, 1, 53, 1, 54, 1, 52, 1, 54, 1, 55, 1, 54, 1, 56, 1, 57, 1, 54, 1, 57, 1, 58, 1, 59, 1, 55, 1, 60, 1, 59, 1, 60, 1, 61, 1, 57, 1, 62, 1, 63, 1, 57, 1, 63, 1, 64, 1, 65, 1, 61, 1, 66, 1, 65, 1, 66, 1, 67, 1, 68, 1, 69, 1, 70, 1, 68, 1, 70, 1, 71, 1, 72, 1, 73, 1, 74, 1, 72, 1, 74, 1, 75, 1, 76, 1, 77, 1, 78, 1, 76, 1, 78, 1, 79, 1, 80, 1, 81, 1, 82, 1, 80, 1, 82, 1, 83, 1, 84, 1, 79, 1, 85, 1, 84, 1, 85, 1, 86, 1, 82, 1, 87, 1, 88, 1, 82, 1, 88, 1, 89, 1, 90, 1, 91, 1, 92, 1, 90, 1, 92, 1, 93, 1, 94, 1, 95, 1, 96, 1, 94, 1, 96, 1, 97, 1, 98, 1, 99, 1, 100, 1, 98, 1, 100, 1, 101, 1, 102, 1, 103, 1, 104, 1, 102, 1, 104, 1, 105, 1, 106, 1, 107, 1, 108, 1, 106, 1, 108, 1, 109, 1, 110, 1, 111, 1, 112, 1, 110, 1, 112, 1, 113, 1, 114, 1, 115, 1, 116, 1, 114, 1, 116, 1, 117, 1, 116, 1, 113, 1, 118, 1, 116, 1, 118, 1, 119, 1, 120, 1, 121, 1, 122, 1, 120, 1, 122, 1, 123, 1, 124, 1, 125, 1, 126, 1, 124, 1, 126, 1, 127, 1 ),
"blend_shape_data": [  ],
"format": 97559,
"index_count": 720,
"material": SubResource( 1 ),
"name": "palette",
"primitive": 4,
"skeleton_aabb": [  ],
"vertex_count": 384
}

[sub_resource type="Gradient" id=3]
offsets = PoolRealArray( 0, 0.520767, 1 )
colors = PoolColorArray( 1, 0.585938, 0, 1, 1, 0.170128, 0, 1, 1, 0, 0, 1 )

[sub_resource type="GradientTexture" id=4]
gradient = SubResource( 3 )

[sub_resource type="Curve" id=5]
_data = [ Vector2( 0, 1 ), 0.0, 0.0, 0, 0, Vector2( 1, 0 ), -2.98976, 0.0, 0, 0 ]

[sub_resource type="CurveTexture" id=6]
curve = SubResource( 5 )

[sub_resource type="ParticlesMaterial" id=7]
emission_shape = 2
emission_box_extents = Vector3( 2, 2, 2 )
spread = 0.0
gravity = Vector3( 0, 0, 0 )
initial_velocity = 5.0
angular_velocity = 350.0
angular_velocity_random = 1.0
linear_accel = 5.0
angle = 45.0
scale = 0.75
scale_curve = SubResource( 6 )
color_ramp = SubResource( 4 )

[sub_resource type="SpatialMaterial" id=8]
vertex_color_use_as_albedo = true
roughness = 0.0

[sub_resource type="CubeMesh" id=9]
material = SubResource( 8 )

[node name="JetBootsL" type="Spatial"]
script = ExtResource( 1 )
boneName = "leg6L"
animName = "Punch"
typeName = "Boot"
fixPos = Vector3( 0.75, 0.75, -2 )
fixRot = Vector3( 0, 180, -122.5 )
hideBodyPart = true

[node name="MeshInstance" type="MeshInstance" parent="."]
transform = Transform( 1.1, 3.67482e-022, 0, -3.67482e-022, 1.1, 0, 0, 0, 1.1, 2.68211e-008, 2.28527e-008, 5.36422e-008 )
mesh = SubResource( 2 )
material/0 = null

[node name="Particles" type="Particles" parent="MeshInstance"]
transform = Transform( 1, 1.04498e-036, 1.00088e-029, 1.00088e-029, -4.37114e-008, -1, 0, 1, -4.37114e-008, 0, 0, -1.5 )
emitting = false
amount = 10
speed_scale = 2.0
visibility_aabb = AABB( -0.001, -0.001, -0.001, 0.002, 0.002, 0.002 )
process_material = SubResource( 7 )
draw_pass_1 = SubResource( 9 )

