[gd_scene load_steps=3 format=2]

[ext_resource path="res://Scripts/Weapons/BaseWeapon.gd" type="Script" id=1]
[ext_resource path="res://Models/VoxType/Objects/TopHat.vox" type="ArrayMesh" id=2]

[node name="TopHat" type="Spatial"]
script = ExtResource( 1 )
boneName = "head"
fixPos = Vector3( 0, 0, -6 )
fixRot = Vector3( 255, 0, 0 )

[node name="MeshInstance" type="MeshInstance" parent="."]
mesh = ExtResource( 2 )
material/0 = null

