[gd_scene load_steps=3 format=2]

[ext_resource path="res://Scripts/UIElements/ObjectRotations.gd" type="Script" id=1]
[ext_resource path="res://Models/ObjType/Trophy/Trophy.obj" type="ArrayMesh" id=2]

[node name="TrophyShot" type="Spatial"]
script = ExtResource( 1 )

[node name="Model" type="Spatial" parent="."]
transform = Transform( 1, 0, 0, 0, 1, 0, 0, 0, 1, 0, 19.8849, -12.1413 )

[node name="Trophy" type="MeshInstance" parent="Model"]
transform = Transform( 1.1, 0, 0, 0, 1.1, 0, 0, 0, 1.1, 0, -5, -0.1622 )
mesh = ExtResource( 2 )
material/0 = null

[node name="Camera" type="Camera" parent="."]
transform = Transform( 1, 0, 0, 0, 1, 0, 0, 0, 1, 0, 20, 0.0875263 )
projection = 1
fov = 65.0
size = 11.0

[node name="OmniLight" type="OmniLight" parent="."]
transform = Transform( -0.217889, 0, 0.975974, 0, 1, 0, -0.975974, 0, -0.217889, 4.75997e-007, 20.5229, 0.121518 )
light_energy = 12.0
light_specular = 0.04
light_bake_mode = 2
omni_range = 15.0
omni_attenuation = 1.86606

[node name="Timer" type="Timer" parent="."]
one_shot = true
autostart = true

[connection signal="timeout" from="Timer" to="." method="_on_Timer_timeout"]
