# MagicaVoxel @ Ephtracy

# group
g 5

# material
mtllib 5.mtl
usemtl palette

# normals
vn -1 0 0
vn 1 0 0
vn 0 0 1
vn 0 0 -1
vn 0 -1 0
vn 0 1 0

# texcoords
vt 0.00195313 0.5
vt 0.736328 0.5
vt 0.830078 0.5
vt 0.845703 0.5
vt 0.990234 0.5

# verts
v -12.5 0 11.5
v -12.5 0 -11.5
v -12.5 22 11.5
v -12.5 22 10.5
v -12.5 22 -10.5
v -12.5 22 -11.5
v -12.5 23 10.5
v -12.5 23 9.5
v -12.5 23 -9.5
v -12.5 23 -10.5
v -12.5 24 9.5
v -12.5 24 -9.5
v -11.5 0 12.5
v -11.5 0 11.5
v -11.5 0 -11.5
v -11.5 0 -12.5
v -11.5 22 12.5
v -11.5 22 11.5
v -11.5 22 10.5
v -11.5 22 -10.5
v -11.5 22 -11.5
v -11.5 22 -12.5
v -11.5 23 11.5
v -11.5 23 10.5
v -11.5 23 9.5
v -11.5 23 -9.5
v -11.5 23 -10.5
v -11.5 23 -11.5
v -11.5 24 10.5
v -11.5 24 9.5
v -11.5 24 -9.5
v -11.5 24 -10.5
v -11.5 25 9.5
v -11.5 25 -9.5
v -10.5 22 12.5
v -10.5 22 11.5
v -10.5 22 -11.5
v -10.5 22 -12.5
v -10.5 23 12.5
v -10.5 23 11.5
v -10.5 23 10.5
v -10.5 23 -10.5
v -10.5 23 -11.5
v -10.5 23 -12.5
v -10.5 24 11.5
v -10.5 24 10.5
v -10.5 24 9.5
v -10.5 24 -9.5
v -10.5 24 -10.5
v -10.5 24 -11.5
v -10.5 25 10.5
v -10.5 25 9.5
v -10.5 25 -9.5
v -10.5 25 -10.5
v -9.5 23 12.5
v -9.5 23 11.5
v -9.5 23 -11.5
v -9.5 23 -12.5
v -9.5 24 12.5
v -9.5 24 11.5
v -9.5 24 10.5
v -9.5 24 -10.5
v -9.5 24 -11.5
v -9.5 24 -12.5
v -9.5 25 11.5
v -9.5 25 10.5
v -9.5 25 -10.5
v -9.5 25 -11.5
v 9.5 23 12.5
v 9.5 23 11.5
v 9.5 23 -11.5
v 9.5 23 -12.5
v 9.5 24 12.5
v 9.5 24 11.5
v 9.5 24 10.5
v 9.5 24 -10.5
v 9.5 24 -11.5
v 9.5 24 -12.5
v 9.5 25 11.5
v 9.5 25 10.5
v 9.5 25 -10.5
v 9.5 25 -11.5
v 10.5 22 12.5
v 10.5 22 11.5
v 10.5 22 -11.5
v 10.5 22 -12.5
v 10.5 23 12.5
v 10.5 23 11.5
v 10.5 23 10.5
v 10.5 23 -10.5
v 10.5 23 -11.5
v 10.5 23 -12.5
v 10.5 24 11.5
v 10.5 24 10.5
v 10.5 24 9.5
v 10.5 24 -9.5
v 10.5 24 -10.5
v 10.5 24 -11.5
v 10.5 25 10.5
v 10.5 25 9.5
v 10.5 25 -9.5
v 10.5 25 -10.5
v 11.5 0 12.5
v 11.5 0 11.5
v 11.5 0 -11.5
v 11.5 0 -12.5
v 11.5 22 12.5
v 11.5 22 11.5
v 11.5 22 10.5
v 11.5 22 -10.5
v 11.5 22 -11.5
v 11.5 22 -12.5
v 11.5 23 11.5
v 11.5 23 10.5
v 11.5 23 9.5
v 11.5 23 -9.5
v 11.5 23 -10.5
v 11.5 23 -11.5
v 11.5 24 10.5
v 11.5 24 9.5
v 11.5 24 -9.5
v 11.5 24 -10.5
v 11.5 25 9.5
v 11.5 25 -9.5
v 12.5 0 11.5
v 12.5 0 -11.5
v 12.5 22 11.5
v 12.5 22 10.5
v 12.5 22 -10.5
v 12.5 22 -11.5
v 12.5 23 10.5
v 12.5 23 9.5
v 12.5 23 -9.5
v 12.5 23 -10.5
v 12.5 24 9.5
v 12.5 24 -9.5
v -11.5 0 12.5
v -11.5 22 12.5
v -10.5 22 12.5
v -10.5 23 12.5
v -9.5 23 12.5
v -9.5 24 12.5
v 9.5 23 12.5
v 9.5 24 12.5
v 10.5 22 12.5
v 10.5 23 12.5
v 11.5 0 12.5
v 11.5 22 12.5
v -12.5 0 11.5
v -12.5 22 11.5
v -11.5 0 11.5
v -11.5 22 11.5
v -11.5 23 11.5
v -10.5 22 11.5
v -10.5 23 11.5
v -10.5 24 11.5
v -9.5 23 11.5
v -9.5 24 11.5
v -9.5 25 11.5
v 9.5 23 11.5
v 9.5 24 11.5
v 9.5 25 11.5
v 10.5 22 11.5
v 10.5 23 11.5
v 10.5 24 11.5
v 11.5 0 11.5
v 11.5 22 11.5
v 11.5 23 11.5
v 12.5 0 11.5
v 12.5 22 11.5
v -12.5 22 10.5
v -12.5 23 10.5
v -11.5 22 10.5
v -11.5 23 10.5
v -11.5 24 10.5
v -10.5 23 10.5
v -10.5 24 10.5
v -10.5 25 10.5
v -9.5 24 10.5
v -9.5 25 10.5
v 9.5 24 10.5
v 9.5 25 10.5
v 10.5 23 10.5
v 10.5 24 10.5
v 10.5 25 10.5
v 11.5 22 10.5
v 11.5 23 10.5
v 11.5 24 10.5
v 12.5 22 10.5
v 12.5 23 10.5
v -12.5 23 9.5
v -12.5 24 9.5
v -11.5 23 9.5
v -11.5 24 9.5
v -11.5 25 9.5
v -10.5 24 9.5
v -10.5 25 9.5
v 10.5 24 9.5
v 10.5 25 9.5
v 11.5 23 9.5
v 11.5 24 9.5
v 11.5 25 9.5
v 12.5 23 9.5
v 12.5 24 9.5
v -12.5 23 -9.5
v -12.5 24 -9.5
v -11.5 23 -9.5
v -11.5 24 -9.5
v -11.5 25 -9.5
v -10.5 24 -9.5
v -10.5 25 -9.5
v 10.5 24 -9.5
v 10.5 25 -9.5
v 11.5 23 -9.5
v 11.5 24 -9.5
v 11.5 25 -9.5
v 12.5 23 -9.5
v 12.5 24 -9.5
v -12.5 22 -10.5
v -12.5 23 -10.5
v -11.5 22 -10.5
v -11.5 23 -10.5
v -11.5 24 -10.5
v -10.5 23 -10.5
v -10.5 24 -10.5
v -10.5 25 -10.5
v -9.5 24 -10.5
v -9.5 25 -10.5
v 9.5 24 -10.5
v 9.5 25 -10.5
v 10.5 23 -10.5
v 10.5 24 -10.5
v 10.5 25 -10.5
v 11.5 22 -10.5
v 11.5 23 -10.5
v 11.5 24 -10.5
v 12.5 22 -10.5
v 12.5 23 -10.5
v -12.5 0 -11.5
v -12.5 22 -11.5
v -11.5 0 -11.5
v -11.5 22 -11.5
v -11.5 23 -11.5
v -10.5 22 -11.5
v -10.5 23 -11.5
v -10.5 24 -11.5
v -9.5 23 -11.5
v -9.5 24 -11.5
v -9.5 25 -11.5
v 9.5 23 -11.5
v 9.5 24 -11.5
v 9.5 25 -11.5
v 10.5 22 -11.5
v 10.5 23 -11.5
v 10.5 24 -11.5
v 11.5 0 -11.5
v 11.5 22 -11.5
v 11.5 23 -11.5
v 12.5 0 -11.5
v 12.5 22 -11.5
v -11.5 0 -12.5
v -11.5 22 -12.5
v -10.5 22 -12.5
v -10.5 23 -12.5
v -9.5 23 -12.5
v -9.5 24 -12.5
v 9.5 23 -12.5
v 9.5 24 -12.5
v 10.5 22 -12.5
v 10.5 23 -12.5
v 11.5 0 -12.5
v 11.5 22 -12.5
v -11.5 0 12.5
v 11.5 0 12.5
v -12.5 0 11.5
v -11.5 0 11.5
v 11.5 0 11.5
v 12.5 0 11.5
v -12.5 0 -11.5
v -11.5 0 -11.5
v 11.5 0 -11.5
v 12.5 0 -11.5
v -11.5 0 -12.5
v 11.5 0 -12.5
v -11.5 22 12.5
v -10.5 22 12.5
v 10.5 22 12.5
v 11.5 22 12.5
v -12.5 22 11.5
v -11.5 22 11.5
v -10.5 22 11.5
v 10.5 22 11.5
v 11.5 22 11.5
v 12.5 22 11.5
v -12.5 22 10.5
v -11.5 22 10.5
v 11.5 22 10.5
v 12.5 22 10.5
v -12.5 22 -10.5
v -11.5 22 -10.5
v 11.5 22 -10.5
v 12.5 22 -10.5
v -12.5 22 -11.5
v -11.5 22 -11.5
v -10.5 22 -11.5
v 10.5 22 -11.5
v 11.5 22 -11.5
v 12.5 22 -11.5
v -11.5 22 -12.5
v -10.5 22 -12.5
v 10.5 22 -12.5
v 11.5 22 -12.5
v -10.5 23 12.5
v -9.5 23 12.5
v 9.5 23 12.5
v 10.5 23 12.5
v -11.5 23 11.5
v -10.5 23 11.5
v -9.5 23 11.5
v 9.5 23 11.5
v 10.5 23 11.5
v 11.5 23 11.5
v -12.5 23 10.5
v -11.5 23 10.5
v -10.5 23 10.5
v 10.5 23 10.5
v 11.5 23 10.5
v 12.5 23 10.5
v -12.5 23 9.5
v -11.5 23 9.5
v 11.5 23 9.5
v 12.5 23 9.5
v -12.5 23 -9.5
v -11.5 23 -9.5
v 11.5 23 -9.5
v 12.5 23 -9.5
v -12.5 23 -10.5
v -11.5 23 -10.5
v -10.5 23 -10.5
v 10.5 23 -10.5
v 11.5 23 -10.5
v 12.5 23 -10.5
v -11.5 23 -11.5
v -10.5 23 -11.5
v -9.5 23 -11.5
v 9.5 23 -11.5
v 10.5 23 -11.5
v 11.5 23 -11.5
v -10.5 23 -12.5
v -9.5 23 -12.5
v 9.5 23 -12.5
v 10.5 23 -12.5
v -9.5 24 12.5
v 9.5 24 12.5
v -10.5 24 11.5
v -9.5 24 11.5
v 9.5 24 11.5
v 10.5 24 11.5
v -11.5 24 10.5
v -10.5 24 10.5
v -9.5 24 10.5
v 9.5 24 10.5
v 10.5 24 10.5
v 11.5 24 10.5
v -12.5 24 9.5
v -11.5 24 9.5
v -10.5 24 9.5
v 10.5 24 9.5
v 11.5 24 9.5
v 12.5 24 9.5
v -12.5 24 -9.5
v -11.5 24 -9.5
v -10.5 24 -9.5
v 10.5 24 -9.5
v 11.5 24 -9.5
v 12.5 24 -9.5
v -11.5 24 -10.5
v -10.5 24 -10.5
v -9.5 24 -10.5
v 9.5 24 -10.5
v 10.5 24 -10.5
v 11.5 24 -10.5
v -10.5 24 -11.5
v -9.5 24 -11.5
v 9.5 24 -11.5
v 10.5 24 -11.5
v -9.5 24 -12.5
v 9.5 24 -12.5
v -9.5 25 11.5
v 9.5 25 11.5
v -10.5 25 10.5
v -9.5 25 10.5
v 9.5 25 10.5
v 10.5 25 10.5
v -11.5 25 9.5
v -10.5 25 9.5
v -8.5 25 9.5
v 8.5 25 9.5
v 10.5 25 9.5
v 11.5 25 9.5
v -9.5 25 8.5
v -8.5 25 8.5
v 8.5 25 8.5
v 9.5 25 8.5
v -5.5 25 7.5
v 3.5 25 7.5
v -4.5 25 6.5
v 2.5 25 6.5
v 3.5 25 6.5
v 4.5 25 6.5
v 2.5 25 5.5
v 3.5 25 5.5
v 4.5 25 5.5
v 5.5 25 5.5
v -5.5 25 4.5
v -4.5 25 4.5
v -3.5 25 4.5
v -1.5 25 4.5
v 1.5 25 4.5
v 3.5 25 4.5
v 4.5 25 4.5
v -4.5 25 3.5
v -3.5 25 3.5
v -1.5 25 3.5
v 1.5 25 3.5
v 2.5 25 3.5
v -5.5 25 2.5
v -3.5 25 2.5
v -4.5 25 1.5
v -1.5 25 1.5
v 1.5 25 1.5
v 2.5 25 1.5
v -6.5 25 0.5
v -5.5 25 0.5
v -4.5 25 0.5
v -1.5 25 0.5
v 1.5 25 0.5
v 3.5 25 0.5
v 4.5 25 0.5
v -3.5 25 -0.5
v -2.5 25 -0.5
v 2.5 25 -0.5
v 3.5 25 -0.5
v 4.5 25 -0.5
v 5.5 25 -0.5
v -2.5 25 -1.5
v 2.5 25 -1.5
v 3.5 25 -1.5
v 4.5 25 -1.5
v -1.5 25 -2.5
v 3.5 25 -2.5
v -3.5 25 -3.5
v -2.5 25 -3.5
v -1.5 25 -3.5
v 4.5 25 -3.5
v -6.5 25 -4.5
v -5.5 25 -4.5
v -4.5 25 -4.5
v -2.5 25 -4.5
v 4.5 25 -4.5
v 5.5 25 -4.5
v -5.5 25 -6.5
v -4.5 25 -6.5
v 4.5 25 -6.5
v -4.5 25 -7.5
v 5.5 25 -7.5
v -9.5 25 -8.5
v -8.5 25 -8.5
v 8.5 25 -8.5
v 9.5 25 -8.5
v -11.5 25 -9.5
v -10.5 25 -9.5
v -8.5 25 -9.5
v 8.5 25 -9.5
v 10.5 25 -9.5
v 11.5 25 -9.5
v -10.5 25 -10.5
v -9.5 25 -10.5
v 9.5 25 -10.5
v 10.5 25 -10.5
v -9.5 25 -11.5
v 9.5 25 -11.5

# faces
f 3/5/1 2/5/1 1/5/1
f 4/5/1 2/5/1 3/5/1
f 5/5/1 2/5/1 4/5/1
f 6/5/1 2/5/1 5/5/1
f 7/5/1 5/5/1 4/5/1
f 8/5/1 5/5/1 7/5/1
f 9/5/1 5/5/1 8/5/1
f 10/5/1 5/5/1 9/5/1
f 11/5/1 9/5/1 8/5/1
f 12/5/1 9/5/1 11/5/1
f 17/5/1 14/5/1 13/5/1
f 18/5/1 14/5/1 17/5/1
f 21/5/1 16/5/1 15/5/1
f 22/5/1 16/5/1 21/5/1
f 23/5/1 19/5/1 18/5/1
f 24/5/1 19/5/1 23/5/1
f 27/5/1 21/5/1 20/5/1
f 28/5/1 21/5/1 27/5/1
f 29/5/1 25/5/1 24/5/1
f 30/5/1 25/5/1 29/5/1
f 31/5/1 27/5/1 26/5/1
f 32/5/1 27/5/1 31/5/1
f 33/5/1 31/5/1 30/5/1
f 34/5/1 31/5/1 33/5/1
f 39/5/1 36/5/1 35/5/1
f 40/5/1 36/5/1 39/5/1
f 43/5/1 38/5/1 37/5/1
f 44/5/1 38/5/1 43/5/1
f 45/5/1 41/5/1 40/5/1
f 46/5/1 41/5/1 45/5/1
f 49/5/1 43/5/1 42/5/1
f 50/5/1 43/5/1 49/5/1
f 51/5/1 47/5/1 46/5/1
f 52/5/1 47/5/1 51/5/1
f 53/5/1 49/5/1 48/5/1
f 54/5/1 49/5/1 53/5/1
f 59/5/1 56/5/1 55/5/1
f 60/5/1 56/5/1 59/5/1
f 63/5/1 58/5/1 57/5/1
f 64/5/1 58/5/1 63/5/1
f 65/5/1 61/5/1 60/5/1
f 66/5/1 61/5/1 65/5/1
f 67/5/1 63/5/1 62/5/1
f 68/5/1 63/5/1 67/5/1
f 69/5/2 70/5/2 73/5/2
f 73/5/2 70/5/2 74/5/2
f 71/5/2 72/5/2 77/5/2
f 77/5/2 72/5/2 78/5/2
f 74/5/2 75/5/2 79/5/2
f 79/5/2 75/5/2 80/5/2
f 76/5/2 77/5/2 81/5/2
f 81/5/2 77/5/2 82/5/2
f 83/5/2 84/5/2 87/5/2
f 87/5/2 84/5/2 88/5/2
f 85/5/2 86/5/2 91/5/2
f 91/5/2 86/5/2 92/5/2
f 88/5/2 89/5/2 93/5/2
f 93/5/2 89/5/2 94/5/2
f 90/5/2 91/5/2 97/5/2
f 97/5/2 91/5/2 98/5/2
f 94/5/2 95/5/2 99/5/2
f 99/5/2 95/5/2 100/5/2
f 96/5/2 97/5/2 101/5/2
f 101/5/2 97/5/2 102/5/2
f 103/5/2 104/5/2 107/5/2
f 107/5/2 104/5/2 108/5/2
f 105/5/2 106/5/2 111/5/2
f 111/5/2 106/5/2 112/5/2
f 108/5/2 109/5/2 113/5/2
f 113/5/2 109/5/2 114/5/2
f 110/5/2 111/5/2 117/5/2
f 117/5/2 111/5/2 118/5/2
f 114/5/2 115/5/2 119/5/2
f 119/5/2 115/5/2 120/5/2
f 116/5/2 117/5/2 121/5/2
f 121/5/2 117/5/2 122/5/2
f 120/5/2 121/5/2 123/5/2
f 123/5/2 121/5/2 124/5/2
f 125/5/2 126/5/2 127/5/2
f 127/5/2 126/5/2 128/5/2
f 128/5/2 126/5/2 129/5/2
f 129/5/2 126/5/2 130/5/2
f 128/5/2 129/5/2 131/5/2
f 131/5/2 129/5/2 132/5/2
f 132/5/2 129/5/2 133/5/2
f 133/5/2 129/5/2 134/5/2
f 132/5/2 133/5/2 135/5/2
f 135/5/2 133/5/2 136/5/2
f 139/5/3 138/5/3 137/5/3
f 141/5/3 140/5/3 139/5/3
f 143/5/3 141/5/3 139/5/3
f 143/5/3 142/5/3 141/5/3
f 144/5/3 142/5/3 143/5/3
f 145/5/3 139/5/3 137/5/3
f 145/5/3 143/5/3 139/5/3
f 146/5/3 143/5/3 145/5/3
f 147/5/3 145/5/3 137/5/3
f 148/5/3 145/5/3 147/5/3
f 151/5/3 150/5/3 149/5/3
f 152/5/3 150/5/3 151/5/3
f 154/5/3 153/5/3 152/5/3
f 155/5/3 153/5/3 154/5/3
f 157/5/3 156/5/3 155/5/3
f 158/5/3 156/5/3 157/5/3
f 161/5/3 159/5/3 158/5/3
f 162/5/3 159/5/3 161/5/3
f 164/5/3 161/5/3 160/5/3
f 165/5/3 161/5/3 164/5/3
f 167/5/3 164/5/3 163/5/3
f 168/5/3 164/5/3 167/5/3
f 169/5/3 167/5/3 166/5/3
f 170/5/3 167/5/3 169/5/3
f 173/5/3 172/5/3 171/5/3
f 174/5/3 172/5/3 173/5/3
f 176/5/3 175/5/3 174/5/3
f 177/5/3 175/5/3 176/5/3
f 179/5/3 178/5/3 177/5/3
f 180/5/3 178/5/3 179/5/3
f 184/5/3 182/5/3 181/5/3
f 185/5/3 182/5/3 184/5/3
f 187/5/3 184/5/3 183/5/3
f 188/5/3 184/5/3 187/5/3
f 189/5/3 187/5/3 186/5/3
f 190/5/3 187/5/3 189/5/3
f 193/5/3 192/5/3 191/5/3
f 194/5/3 192/5/3 193/5/3
f 196/5/3 195/5/3 194/5/3
f 197/5/3 195/5/3 196/5/3
f 201/5/3 199/5/3 198/5/3
f 202/5/3 199/5/3 201/5/3
f 203/5/3 201/5/3 200/5/3
f 204/5/3 201/5/3 203/5/3
f 205/5/4 206/5/4 207/5/4
f 207/5/4 206/5/4 208/5/4
f 208/5/4 209/5/4 210/5/4
f 210/5/4 209/5/4 211/5/4
f 212/5/4 213/5/4 215/5/4
f 215/5/4 213/5/4 216/5/4
f 214/5/4 215/5/4 217/5/4
f 217/5/4 215/5/4 218/5/4
f 219/5/4 220/5/4 221/5/4
f 221/5/4 220/5/4 222/5/4
f 222/5/4 223/5/4 224/5/4
f 224/5/4 223/5/4 225/5/4
f 225/5/4 226/5/4 227/5/4
f 227/5/4 226/5/4 228/5/4
f 229/5/4 230/5/4 232/5/4
f 232/5/4 230/5/4 233/5/4
f 231/5/4 232/5/4 235/5/4
f 235/5/4 232/5/4 236/5/4
f 234/5/4 235/5/4 237/5/4
f 237/5/4 235/5/4 238/5/4
f 239/5/4 240/5/4 241/5/4
f 241/5/4 240/5/4 242/5/4
f 242/5/4 243/5/4 244/5/4
f 244/5/4 243/5/4 245/5/4
f 245/5/4 246/5/4 247/5/4
f 247/5/4 246/5/4 248/5/4
f 248/5/4 249/5/4 251/5/4
f 251/5/4 249/5/4 252/5/4
f 250/5/4 251/5/4 254/5/4
f 254/5/4 251/5/4 255/5/4
f 253/5/4 254/5/4 257/5/4
f 257/5/4 254/5/4 258/5/4
f 256/5/4 257/5/4 259/5/4
f 259/5/4 257/5/4 260/5/4
f 261/5/4 262/5/4 263/5/4
f 263/5/4 264/5/4 265/5/4
f 263/5/4 265/5/4 267/5/4
f 265/5/4 266/5/4 267/5/4
f 267/5/4 266/5/4 268/5/4
f 261/5/4 263/5/4 269/5/4
f 263/5/4 267/5/4 269/5/4
f 269/5/4 267/5/4 270/5/4
f 261/5/4 269/5/4 271/5/4
f 271/5/4 269/5/4 272/5/4
f 276/5/5 274/5/5 273/5/5
f 277/5/5 274/5/5 276/5/5
f 279/5/5 276/5/5 275/5/5
f 279/5/5 278/5/5 277/5/5
f 279/5/5 277/5/5 276/5/5
f 280/5/5 278/5/5 279/5/5
f 281/5/5 278/5/5 280/5/5
f 282/5/5 278/5/5 281/5/5
f 283/5/5 281/5/5 280/5/5
f 284/5/5 281/5/5 283/5/5
f 285/5/6 286/5/6 290/5/6
f 290/5/6 286/5/6 291/5/6
f 287/5/6 288/5/6 292/5/6
f 292/5/6 288/5/6 293/5/6
f 289/5/6 290/5/6 295/5/6
f 295/5/6 290/5/6 296/5/6
f 293/5/6 294/5/6 297/5/6
f 297/5/6 294/5/6 298/5/6
f 299/5/6 300/5/6 303/5/6
f 303/5/6 300/5/6 304/5/6
f 301/5/6 302/5/6 307/5/6
f 307/5/6 302/5/6 308/5/6
f 304/5/6 305/5/6 309/5/6
f 309/5/6 305/5/6 310/5/6
f 306/5/6 307/5/6 311/5/6
f 311/5/6 307/5/6 312/5/6
f 313/5/6 314/5/6 318/5/6
f 318/5/6 314/5/6 319/5/6
f 315/5/6 316/5/6 320/5/6
f 320/5/6 316/5/6 321/5/6
f 317/5/6 318/5/6 324/5/6
f 324/5/6 318/5/6 325/5/6
f 321/5/6 322/5/6 326/5/6
f 326/5/6 322/5/6 327/5/6
f 323/5/6 324/5/6 329/5/6
f 329/5/6 324/5/6 330/5/6
f 327/5/6 328/5/6 331/5/6
f 331/5/6 328/5/6 332/5/6
f 333/5/6 334/5/6 337/5/6
f 337/5/6 334/5/6 338/5/6
f 335/5/6 336/5/6 341/5/6
f 341/5/6 336/5/6 342/5/6
f 338/5/6 339/5/6 343/5/6
f 343/5/6 339/5/6 344/5/6
f 340/5/6 341/5/6 347/5/6
f 347/5/6 341/5/6 348/5/6
f 344/5/6 345/5/6 349/5/6
f 349/5/6 345/5/6 350/5/6
f 346/5/6 347/5/6 351/5/6
f 351/5/6 347/5/6 352/5/6
f 353/5/6 354/5/6 356/5/6
f 356/5/6 354/5/6 357/5/6
f 355/5/6 356/5/6 360/5/6
f 360/5/6 356/5/6 361/5/6
f 357/5/6 358/5/6 362/5/6
f 362/5/6 358/5/6 363/5/6
f 359/5/6 360/5/6 366/5/6
f 366/5/6 360/5/6 367/5/6
f 363/5/6 364/5/6 368/5/6
f 368/5/6 364/5/6 369/5/6
f 365/5/6 366/5/6 371/5/6
f 371/5/6 366/5/6 372/5/6
f 369/5/6 370/5/6 375/5/6
f 375/5/6 370/5/6 376/5/6
f 372/5/6 373/5/6 377/5/6
f 377/5/6 373/5/6 378/5/6
f 374/5/6 375/5/6 381/5/6
f 381/5/6 375/5/6 382/5/6
f 378/5/6 379/5/6 383/5/6
f 383/5/6 379/5/6 384/5/6
f 380/5/6 381/5/6 385/5/6
f 385/5/6 381/5/6 386/5/6
f 384/5/6 385/5/6 387/5/6
f 387/5/6 385/5/6 388/5/6
f 389/5/6 390/5/6 392/5/6
f 392/5/6 390/5/6 393/5/6
f 391/5/6 392/5/6 396/5/6
f 393/5/6 394/5/6 396/5/6
f 392/5/6 393/5/6 396/5/6
f 396/5/6 394/5/6 397/5/6
f 397/5/6 394/5/6 398/5/6
f 398/5/6 394/5/6 399/5/6
f 395/5/6 396/5/6 401/5/6
f 396/5/6 397/5/6 401/5/6
f 397/4/6 398/4/6 402/4/6
f 401/5/6 397/5/6 402/5/6
f 399/5/6 400/5/6 403/5/6
f 402/4/6 398/4/6 403/4/6
f 398/5/6 399/5/6 403/5/6
f 403/5/6 400/5/6 404/5/6
f 401/4/6 402/4/6 405/4/6
f 402/4/6 403/4/6 405/4/6
f 403/4/6 404/4/6 405/4/6
f 405/4/6 404/4/6 406/4/6
f 405/5/6 406/5/6 407/5/6
f 407/5/6 406/5/6 408/5/6
f 406/4/6 404/4/6 409/4/6
f 408/5/6 406/5/6 409/5/6
f 409/4/6 404/4/6 410/4/6
f 407/3/6 408/3/6 411/3/6
f 408/5/6 409/5/6 411/5/6
f 409/5/6 410/5/6 411/5/6
f 411/5/6 410/5/6 412/5/6
f 410/4/6 404/4/6 413/4/6
f 412/5/6 410/5/6 413/5/6
f 413/4/6 404/4/6 414/4/6
f 401/4/6 405/4/6 415/4/6
f 405/5/6 407/5/6 415/5/6
f 411/3/6 412/3/6 416/3/6
f 415/5/6 407/5/6 416/5/6
f 407/3/6 411/3/6 416/3/6
f 416/3/6 412/3/6 417/3/6
f 417/3/6 412/3/6 418/3/6
f 418/3/6 412/3/6 419/3/6
f 413/5/6 414/5/6 420/5/6
f 419/3/6 412/3/6 420/3/6
f 412/5/6 413/5/6 420/5/6
f 420/5/6 414/5/6 421/5/6
f 415/4/6 416/4/6 422/4/6
f 416/5/6 417/5/6 422/5/6
f 417/3/6 418/3/6 423/3/6
f 422/5/6 417/5/6 423/5/6
f 418/5/6 419/5/6 424/5/6
f 423/3/6 418/3/6 424/3/6
f 420/3/6 421/3/6 425/3/6
f 424/5/6 419/5/6 425/5/6
f 419/3/6 420/3/6 425/3/6
f 425/3/6 421/3/6 426/3/6
f 401/4/6 415/4/6 427/4/6
f 422/4/6 423/4/6 427/4/6
f 415/4/6 422/4/6 427/4/6
f 425/5/6 426/5/6 428/5/6
f 427/4/6 423/4/6 428/4/6
f 424/5/6 425/5/6 428/5/6
f 423/5/6 424/5/6 428/5/6
f 427/5/6 428/5/6 429/5/6
f 428/5/6 426/5/6 430/5/6
f 429/5/6 428/5/6 430/5/6
f 430/5/6 426/5/6 431/5/6
f 426/3/6 421/3/6 432/3/6
f 431/5/6 426/5/6 432/5/6
f 401/4/6 427/4/6 433/4/6
f 427/5/6 429/5/6 434/5/6
f 433/4/6 427/4/6 434/4/6
f 429/3/6 430/3/6 435/3/6
f 434/5/6 429/5/6 435/5/6
f 430/5/6 431/5/6 436/5/6
f 435/3/6 430/3/6 436/3/6
f 431/3/6 432/3/6 437/3/6
f 436/5/6 431/5/6 437/5/6
f 432/3/6 421/3/6 438/3/6
f 437/3/6 432/3/6 438/3/6
f 421/5/6 414/5/6 439/5/6
f 438/3/6 421/3/6 439/3/6
f 434/3/6 435/3/6 440/3/6
f 436/3/6 437/3/6 440/3/6
f 437/3/6 438/3/6 440/3/6
f 435/3/6 436/3/6 440/3/6
f 440/3/6 438/3/6 441/3/6
f 441/3/6 438/3/6 442/3/6
f 438/5/6 439/5/6 443/5/6
f 442/3/6 438/3/6 443/3/6
f 439/5/6 414/5/6 444/5/6
f 443/5/6 439/5/6 444/5/6
f 414/4/6 404/4/6 445/4/6
f 444/5/6 414/5/6 445/5/6
f 441/3/6 442/3/6 446/3/6
f 440/5/6 441/5/6 446/5/6
f 443/5/6 444/5/6 447/5/6
f 446/3/6 442/3/6 447/3/6
f 442/5/6 443/5/6 447/5/6
f 447/5/6 444/5/6 448/5/6
f 444/4/6 445/4/6 449/4/6
f 448/5/6 444/5/6 449/5/6
f 447/5/6 448/5/6 450/5/6
f 446/5/6 447/5/6 450/5/6
f 448/4/6 449/4/6 451/4/6
f 450/5/6 448/5/6 451/5/6
f 440/5/6 446/5/6 452/5/6
f 434/3/6 440/3/6 452/3/6
f 446/5/6 450/5/6 452/5/6
f 452/5/6 450/5/6 453/5/6
f 450/4/6 451/4/6 454/4/6
f 453/5/6 450/5/6 454/5/6
f 451/4/6 449/4/6 455/4/6
f 454/4/6 451/4/6 455/4/6
f 449/4/6 445/4/6 455/4/6
f 433/5/6 434/5/6 456/5/6
f 401/4/6 433/4/6 456/4/6
f 434/3/6 452/3/6 457/3/6
f 456/5/6 434/5/6 457/5/6
f 452/3/6 453/3/6 457/3/6
f 457/3/6 453/3/6 458/3/6
f 453/5/6 454/5/6 459/5/6
f 458/3/6 453/3/6 459/3/6
f 454/5/6 455/5/6 459/5/6
f 455/4/6 445/4/6 460/4/6
f 459/5/6 455/5/6 460/5/6
f 445/4/6 404/4/6 461/4/6
f 460/4/6 445/4/6 461/4/6
f 457/5/6 458/5/6 462/5/6
f 456/4/6 457/4/6 462/4/6
f 459/3/6 460/3/6 463/3/6
f 462/5/6 458/5/6 463/5/6
f 458/3/6 459/3/6 463/3/6
f 460/5/6 461/5/6 464/5/6
f 463/3/6 460/3/6 464/3/6
f 462/4/6 463/4/6 465/4/6
f 463/5/6 464/5/6 465/5/6
f 461/4/6 404/4/6 466/4/6
f 465/5/6 464/5/6 466/5/6
f 464/5/6 461/5/6 466/5/6
f 395/5/6 401/5/6 467/5/6
f 462/4/6 465/4/6 467/4/6
f 465/4/6 466/4/6 467/4/6
f 456/4/6 462/4/6 467/4/6
f 401/4/6 456/4/6 467/4/6
f 467/4/6 466/4/6 468/4/6
f 466/4/6 404/4/6 469/4/6
f 468/4/6 466/4/6 469/4/6
f 404/5/6 400/5/6 470/5/6
f 469/4/6 404/4/6 470/4/6
f 467/5/6 468/5/6 471/5/6
f 395/5/6 467/5/6 471/5/6
f 471/5/6 468/5/6 472/5/6
f 468/4/6 469/4/6 473/4/6
f 472/5/6 468/5/6 473/5/6
f 469/5/6 470/5/6 474/5/6
f 473/4/6 469/4/6 474/4/6
f 470/5/6 400/5/6 475/5/6
f 474/5/6 470/5/6 475/5/6
f 475/5/6 400/5/6 476/5/6
f 473/5/6 474/5/6 477/5/6
f 474/5/6 475/5/6 477/5/6
f 472/5/6 473/5/6 477/5/6
f 477/5/6 475/5/6 478/5/6
f 478/5/6 475/5/6 479/5/6
f 479/5/6 475/5/6 480/5/6
f 478/5/6 479/5/6 481/5/6
f 481/5/6 479/5/6 482/5/6
