# MagicaVoxel @ Ephtracy

# group
g MirrorFrame

# material
mtllib MirrorFrame.mtl
usemtl palette

# normals
vn -1 0 0
vn 1 0 0
vn 0 0 1
vn 0 0 -1
vn 0 -1 0
vn 0 1 0

# texcoords
vt 0.966797 0.5
vt 0.974609 0.5
vt 0.986328 0.5

# verts
v -20 14 2.5
v -20 14 -2.5
v -20 26 2.5
v -20 26 -2.5
v -19 11 2.5
v -19 11 -2.5
v -19 14 2.5
v -19 14 -2.5
v -19 26 2.5
v -19 26 -2.5
v -19 29 2.5
v -19 29 -2.5
v -18 9 2.5
v -18 9 -2.5
v -18 11 2.5
v -18 11 -2.5
v -18 29 2.5
v -18 29 -2.5
v -18 31 2.5
v -18 31 -2.5
v -17 7 2.5
v -17 7 -2.5
v -17 9 2.5
v -17 9 -2.5
v -17 31 2.5
v -17 31 -2.5
v -17 33 2.5
v -17 33 -2.5
v -16 6 2.5
v -16 6 -2.5
v -16 7 2.5
v -16 7 -2.5
v -16 33 2.5
v -16 33 -2.5
v -16 34 2.5
v -16 34 -2.5
v -15 5 2.5
v -15 5 -2.5
v -15 6 2.5
v -15 6 -2.5
v -15 34 2.5
v -15 34 -2.5
v -15 35 2.5
v -15 35 -2.5
v -14 4 2.5
v -14 4 -2.5
v -14 5 2.5
v -14 5 -2.5
v -14 35 2.5
v -14 35 -2.5
v -14 36 2.5
v -14 36 -2.5
v -13 3 2.5
v -13 3 -2.5
v -13 4 2.5
v -13 4 -2.5
v -13 36 2.5
v -13 36 -2.5
v -13 37 2.5
v -13 37 -2.5
v -11 2 2.5
v -11 2 -2.5
v -11 3 2.5
v -11 3 -2.5
v -11 37 2.5
v -11 37 -2.5
v -11 38 2.5
v -11 38 -2.5
v -9 1 2.5
v -9 1 -2.5
v -9 2 2.5
v -9 2 -2.5
v -9 38 2.5
v -9 38 -2.5
v -9 39 2.5
v -9 39 -2.5
v -6 0 2.5
v -6 0 -2.5
v -6 1 2.5
v -6 1 -2.5
v -6 39 2.5
v -6 39 -2.5
v -6 40 2.5
v -6 40 -2.5
v 5 6 2.5
v 5 6 -2.5
v 5 7 2.5
v 5 7 -2.5
v 5 33 2.5
v 5 33 -2.5
v 5 34 2.5
v 5 34 -2.5
v 8 7 2.5
v 8 7 -2.5
v 8 8 2.5
v 8 8 -2.5
v 8 32 2.5
v 8 32 -2.5
v 8 33 2.5
v 8 33 -2.5
v 10 8 2.5
v 10 8 -2.5
v 10 9 2.5
v 10 9 -2.5
v 10 31 2.5
v 10 31 -2.5
v 10 32 2.5
v 10 32 -2.5
v 11 9 2.5
v 11 9 -2.5
v 11 10 2.5
v 11 10 -2.5
v 11 30 2.5
v 11 30 -2.5
v 11 31 2.5
v 11 31 -2.5
v 12 10 2.5
v 12 10 -2.5
v 12 12 2.5
v 12 12 -2.5
v 12 28 2.5
v 12 28 -2.5
v 12 30 2.5
v 12 30 -2.5
v 13 12 2.5
v 13 12 -2.5
v 13 15 2.5
v 13 15 -2.5
v 13 25 2.5
v 13 25 -2.5
v 13 28 2.5
v 13 28 -2.5
v 14 15 2.5
v 14 15 -2.5
v 14 25 2.5
v 14 25 -2.5
v -14 15 2.5
v -14 15 -2.5
v -14 25 2.5
v -14 25 -2.5
v -13 12 2.5
v -13 12 -2.5
v -13 15 2.5
v -13 15 -2.5
v -13 25 2.5
v -13 25 -2.5
v -13 28 2.5
v -13 28 -2.5
v -12 10 2.5
v -12 10 -2.5
v -12 12 2.5
v -12 12 -2.5
v -12 28 2.5
v -12 28 -2.5
v -12 30 2.5
v -12 30 -2.5
v -11 9 2.5
v -11 9 -2.5
v -11 10 2.5
v -11 10 -2.5
v -11 30 2.5
v -11 30 -2.5
v -11 31 2.5
v -11 31 -2.5
v -10 8 2.5
v -10 8 -2.5
v -10 9 2.5
v -10 9 -2.5
v -10 31 2.5
v -10 31 -2.5
v -10 32 2.5
v -10 32 -2.5
v -8 7 2.5
v -8 7 -2.5
v -8 8 2.5
v -8 8 -2.5
v -8 32 2.5
v -8 32 -2.5
v -8 33 2.5
v -8 33 -2.5
v -5 6 2.5
v -5 6 -2.5
v -5 7 2.5
v -5 7 -2.5
v -5 33 2.5
v -5 33 -2.5
v -5 34 2.5
v -5 34 -2.5
v 6 0 2.5
v 6 0 -2.5
v 6 1 2.5
v 6 1 -2.5
v 6 39 2.5
v 6 39 -2.5
v 6 40 2.5
v 6 40 -2.5
v 9 1 2.5
v 9 1 -2.5
v 9 2 2.5
v 9 2 -2.5
v 9 38 2.5
v 9 38 -2.5
v 9 39 2.5
v 9 39 -2.5
v 11 2 2.5
v 11 2 -2.5
v 11 3 2.5
v 11 3 -2.5
v 11 37 2.5
v 11 37 -2.5
v 11 38 2.5
v 11 38 -2.5
v 13 3 2.5
v 13 3 -2.5
v 13 4 2.5
v 13 4 -2.5
v 13 36 2.5
v 13 36 -2.5
v 13 37 2.5
v 13 37 -2.5
v 14 4 2.5
v 14 4 -2.5
v 14 5 2.5
v 14 5 -2.5
v 14 35 2.5
v 14 35 -2.5
v 14 36 2.5
v 14 36 -2.5
v 15 5 2.5
v 15 5 -2.5
v 15 6 2.5
v 15 6 -2.5
v 15 34 2.5
v 15 34 -2.5
v 15 35 2.5
v 15 35 -2.5
v 16 6 2.5
v 16 6 -2.5
v 16 7 2.5
v 16 7 -2.5
v 16 33 2.5
v 16 33 -2.5
v 16 34 2.5
v 16 34 -2.5
v 17 7 2.5
v 17 7 -2.5
v 17 9 2.5
v 17 9 -2.5
v 17 31 2.5
v 17 31 -2.5
v 17 33 2.5
v 17 33 -2.5
v 18 9 2.5
v 18 9 -2.5
v 18 11 2.5
v 18 11 -2.5
v 18 29 2.5
v 18 29 -2.5
v 18 31 2.5
v 18 31 -2.5
v 19 11 2.5
v 19 11 -2.5
v 19 14 2.5
v 19 14 -2.5
v 19 26 2.5
v 19 26 -2.5
v 19 29 2.5
v 19 29 -2.5
v 20 14 2.5
v 20 14 -2.5
v 20 26 2.5
v 20 26 -2.5
v -20 14 2.5
v -20 26 2.5
v -19 11 2.5
v -19 14 2.5
v -19 15 2.5
v -19 25 2.5
v -19 26 2.5
v -19 29 2.5
v -18 9 2.5
v -18 11 2.5
v -18 12 2.5
v -18 15 2.5
v -18 25 2.5
v -18 28 2.5
v -18 29 2.5
v -18 31 2.5
v -17 7 2.5
v -17 9 2.5
v -17 10 2.5
v -17 12 2.5
v -17 15 2.5
v -17 25 2.5
v -17 28 2.5
v -17 30 2.5
v -17 31 2.5
v -17 33 2.5
v -16 6 2.5
v -16 7 2.5
v -16 8 2.5
v -16 10 2.5
v -16 12 2.5
v -16 14 2.5
v -16 26 2.5
v -16 28 2.5
v -16 30 2.5
v -16 32 2.5
v -16 33 2.5
v -16 34 2.5
v -15 5 2.5
v -15 6 2.5
v -15 7 2.5
v -15 8 2.5
v -15 10 2.5
v -15 11 2.5
v -15 14 2.5
v -15 26 2.5
v -15 29 2.5
v -15 30 2.5
v -15 32 2.5
v -15 33 2.5
v -15 34 2.5
v -15 35 2.5
v -14 4 2.5
v -14 5 2.5
v -14 6 2.5
v -14 7 2.5
v -14 8 2.5
v -14 9 2.5
v -14 11 2.5
v -14 14 2.5
v -14 15 2.5
v -14 25 2.5
v -14 26 2.5
v -14 29 2.5
v -14 31 2.5
v -14 32 2.5
v -14 33 2.5
v -14 34 2.5
v -14 35 2.5
v -14 36 2.5
v -13 3 2.5
v -13 4 2.5
v -13 5 2.5
v -13 6 2.5
v -13 7 2.5
v -13 8 2.5
v -13 9 2.5
v -13 11 2.5
v -13 12 2.5
v -13 15 2.5
v -13 25 2.5
v -13 28 2.5
v -13 29 2.5
v -13 31 2.5
v -13 32 2.5
v -13 33 2.5
v -13 34 2.5
v -13 35 2.5
v -13 36 2.5
v -13 37 2.5
v -12 4 2.5
v -12 5 2.5
v -12 6 2.5
v -12 7 2.5
v -12 8 2.5
v -12 9 2.5
v -12 10 2.5
v -12 12 2.5
v -12 28 2.5
v -12 30 2.5
v -12 31 2.5
v -12 32 2.5
v -12 33 2.5
v -12 34 2.5
v -12 35 2.5
v -12 36 2.5
v -11 2 2.5
v -11 3 2.5
v -11 6 2.5
v -11 7 2.5
v -11 8 2.5
v -11 9 2.5
v -11 10 2.5
v -11 30 2.5
v -11 31 2.5
v -11 32 2.5
v -11 33 2.5
v -11 34 2.5
v -11 37 2.5
v -11 38 2.5
v -10 3 2.5
v -10 4 2.5
v -10 5 2.5
v -10 8 2.5
v -10 9 2.5
v -10 31 2.5
v -10 32 2.5
v -10 35 2.5
v -10 36 2.5
v -10 37 2.5
v -9 1 2.5
v -9 2 2.5
v -9 5 2.5
v -9 6 2.5
v -9 7 2.5
v -9 33 2.5
v -9 34 2.5
v -9 35 2.5
v -9 38 2.5
v -9 39 2.5
v -8 2 2.5
v -8 3 2.5
v -8 4 2.5
v -8 7 2.5
v -8 8 2.5
v -8 32 2.5
v -8 33 2.5
v -8 36 2.5
v -8 37 2.5
v -8 38 2.5
v -6 0 2.5
v -6 1 2.5
v -6 4 2.5
v -6 5 2.5
v -6 6 2.5
v -6 34 2.5
v -6 35 2.5
v -6 36 2.5
v -6 39 2.5
v -6 40 2.5
v -5 1 2.5
v -5 2 2.5
v -5 3 2.5
v -5 6 2.5
v -5 7 2.5
v -5 33 2.5
v -5 34 2.5
v -5 37 2.5
v -5 38 2.5
v -5 39 2.5
v 5 1 2.5
v 5 2 2.5
v 5 3 2.5
v 5 6 2.5
v 5 7 2.5
v 5 33 2.5
v 5 34 2.5
v 5 37 2.5
v 5 38 2.5
v 5 39 2.5
v 6 0 2.5
v 6 1 2.5
v 6 4 2.5
v 6 5 2.5
v 6 6 2.5
v 6 34 2.5
v 6 35 2.5
v 6 36 2.5
v 6 39 2.5
v 6 40 2.5
v 8 2 2.5
v 8 3 2.5
v 8 4 2.5
v 8 7 2.5
v 8 8 2.5
v 8 32 2.5
v 8 33 2.5
v 8 36 2.5
v 8 37 2.5
v 8 38 2.5
v 9 1 2.5
v 9 2 2.5
v 9 5 2.5
v 9 6 2.5
v 9 7 2.5
v 9 33 2.5
v 9 34 2.5
v 9 35 2.5
v 9 38 2.5
v 9 39 2.5
v 10 3 2.5
v 10 4 2.5
v 10 5 2.5
v 10 8 2.5
v 10 9 2.5
v 10 31 2.5
v 10 32 2.5
v 10 35 2.5
v 10 36 2.5
v 10 37 2.5
v 11 2 2.5
v 11 3 2.5
v 11 6 2.5
v 11 7 2.5
v 11 8 2.5
v 11 9 2.5
v 11 10 2.5
v 11 30 2.5
v 11 31 2.5
v 11 32 2.5
v 11 33 2.5
v 11 34 2.5
v 11 37 2.5
v 11 38 2.5
v 12 4 2.5
v 12 5 2.5
v 12 6 2.5
v 12 7 2.5
v 12 8 2.5
v 12 9 2.5
v 12 10 2.5
v 12 12 2.5
v 12 28 2.5
v 12 30 2.5
v 12 31 2.5
v 12 32 2.5
v 12 33 2.5
v 12 34 2.5
v 12 35 2.5
v 12 36 2.5
v 13 3 2.5
v 13 4 2.5
v 13 5 2.5
v 13 6 2.5
v 13 7 2.5
v 13 8 2.5
v 13 9 2.5
v 13 11 2.5
v 13 12 2.5
v 13 15 2.5
v 13 25 2.5
v 13 28 2.5
v 13 29 2.5
v 13 31 2.5
v 13 32 2.5
v 13 33 2.5
v 13 34 2.5
v 13 35 2.5
v 13 36 2.5
v 13 37 2.5
v 14 4 2.5
v 14 5 2.5
v 14 6 2.5
v 14 7 2.5
v 14 8 2.5
v 14 9 2.5
v 14 11 2.5
v 14 14 2.5
v 14 15 2.5
v 14 25 2.5
v 14 26 2.5
v 14 29 2.5
v 14 31 2.5
v 14 32 2.5
v 14 33 2.5
v 14 34 2.5
v 14 35 2.5
v 14 36 2.5
v 15 5 2.5
v 15 6 2.5
v 15 7 2.5
v 15 8 2.5
v 15 10 2.5
v 15 11 2.5
v 15 14 2.5
v 15 26 2.5
v 15 29 2.5
v 15 30 2.5
v 15 32 2.5
v 15 33 2.5
v 15 34 2.5
v 15 35 2.5
v 16 6 2.5
v 16 7 2.5
v 16 8 2.5
v 16 10 2.5
v 16 12 2.5
v 16 14 2.5
v 16 26 2.5
v 16 28 2.5
v 16 30 2.5
v 16 32 2.5
v 16 33 2.5
v 16 34 2.5
v 17 7 2.5
v 17 9 2.5
v 17 10 2.5
v 17 12 2.5
v 17 15 2.5
v 17 25 2.5
v 17 28 2.5
v 17 30 2.5
v 17 31 2.5
v 17 33 2.5
v 18 9 2.5
v 18 11 2.5
v 18 12 2.5
v 18 15 2.5
v 18 25 2.5
v 18 28 2.5
v 18 29 2.5
v 18 31 2.5
v 19 11 2.5
v 19 14 2.5
v 19 15 2.5
v 19 25 2.5
v 19 26 2.5
v 19 29 2.5
v 20 14 2.5
v 20 26 2.5
v -20 14 -2.5
v -20 26 -2.5
v -19 11 -2.5
v -19 14 -2.5
v -19 15 -2.5
v -19 25 -2.5
v -19 26 -2.5
v -19 29 -2.5
v -18 9 -2.5
v -18 11 -2.5
v -18 12 -2.5
v -18 15 -2.5
v -18 25 -2.5
v -18 28 -2.5
v -18 29 -2.5
v -18 31 -2.5
v -17 7 -2.5
v -17 9 -2.5
v -17 10 -2.5
v -17 12 -2.5
v -17 15 -2.5
v -17 25 -2.5
v -17 28 -2.5
v -17 30 -2.5
v -17 31 -2.5
v -17 33 -2.5
v -16 6 -2.5
v -16 7 -2.5
v -16 8 -2.5
v -16 10 -2.5
v -16 12 -2.5
v -16 14 -2.5
v -16 26 -2.5
v -16 28 -2.5
v -16 30 -2.5
v -16 32 -2.5
v -16 33 -2.5
v -16 34 -2.5
v -15 5 -2.5
v -15 6 -2.5
v -15 7 -2.5
v -15 8 -2.5
v -15 10 -2.5
v -15 11 -2.5
v -15 14 -2.5
v -15 26 -2.5
v -15 29 -2.5
v -15 30 -2.5
v -15 32 -2.5
v -15 33 -2.5
v -15 34 -2.5
v -15 35 -2.5
v -14 4 -2.5
v -14 5 -2.5
v -14 6 -2.5
v -14 7 -2.5
v -14 8 -2.5
v -14 9 -2.5
v -14 11 -2.5
v -14 14 -2.5
v -14 15 -2.5
v -14 25 -2.5
v -14 26 -2.5
v -14 29 -2.5
v -14 31 -2.5
v -14 32 -2.5
v -14 33 -2.5
v -14 34 -2.5
v -14 35 -2.5
v -14 36 -2.5
v -13 3 -2.5
v -13 4 -2.5
v -13 5 -2.5
v -13 6 -2.5
v -13 7 -2.5
v -13 8 -2.5
v -13 9 -2.5
v -13 11 -2.5
v -13 12 -2.5
v -13 15 -2.5
v -13 25 -2.5
v -13 28 -2.5
v -13 29 -2.5
v -13 31 -2.5
v -13 32 -2.5
v -13 33 -2.5
v -13 34 -2.5
v -13 35 -2.5
v -13 36 -2.5
v -13 37 -2.5
v -12 4 -2.5
v -12 5 -2.5
v -12 6 -2.5
v -12 7 -2.5
v -12 8 -2.5
v -12 9 -2.5
v -12 10 -2.5
v -12 12 -2.5
v -12 28 -2.5
v -12 30 -2.5
v -12 31 -2.5
v -12 32 -2.5
v -12 33 -2.5
v -12 34 -2.5
v -12 35 -2.5
v -12 36 -2.5
v -11 2 -2.5
v -11 3 -2.5
v -11 6 -2.5
v -11 7 -2.5
v -11 8 -2.5
v -11 9 -2.5
v -11 10 -2.5
v -11 30 -2.5
v -11 31 -2.5
v -11 32 -2.5
v -11 33 -2.5
v -11 34 -2.5
v -11 37 -2.5
v -11 38 -2.5
v -10 3 -2.5
v -10 4 -2.5
v -10 5 -2.5
v -10 8 -2.5
v -10 9 -2.5
v -10 31 -2.5
v -10 32 -2.5
v -10 35 -2.5
v -10 36 -2.5
v -10 37 -2.5
v -9 1 -2.5
v -9 2 -2.5
v -9 5 -2.5
v -9 6 -2.5
v -9 7 -2.5
v -9 33 -2.5
v -9 34 -2.5
v -9 35 -2.5
v -9 38 -2.5
v -9 39 -2.5
v -8 2 -2.5
v -8 3 -2.5
v -8 4 -2.5
v -8 7 -2.5
v -8 8 -2.5
v -8 32 -2.5
v -8 33 -2.5
v -8 36 -2.5
v -8 37 -2.5
v -8 38 -2.5
v -6 0 -2.5
v -6 1 -2.5
v -6 4 -2.5
v -6 5 -2.5
v -6 6 -2.5
v -6 34 -2.5
v -6 35 -2.5
v -6 36 -2.5
v -6 39 -2.5
v -6 40 -2.5
v -5 1 -2.5
v -5 2 -2.5
v -5 3 -2.5
v -5 6 -2.5
v -5 7 -2.5
v -5 33 -2.5
v -5 34 -2.5
v -5 37 -2.5
v -5 38 -2.5
v -5 39 -2.5
v 5 1 -2.5
v 5 2 -2.5
v 5 3 -2.5
v 5 6 -2.5
v 5 7 -2.5
v 5 33 -2.5
v 5 34 -2.5
v 5 37 -2.5
v 5 38 -2.5
v 5 39 -2.5
v 6 0 -2.5
v 6 1 -2.5
v 6 4 -2.5
v 6 5 -2.5
v 6 6 -2.5
v 6 34 -2.5
v 6 35 -2.5
v 6 36 -2.5
v 6 39 -2.5
v 6 40 -2.5
v 8 2 -2.5
v 8 3 -2.5
v 8 4 -2.5
v 8 7 -2.5
v 8 8 -2.5
v 8 32 -2.5
v 8 33 -2.5
v 8 36 -2.5
v 8 37 -2.5
v 8 38 -2.5
v 9 1 -2.5
v 9 2 -2.5
v 9 5 -2.5
v 9 6 -2.5
v 9 7 -2.5
v 9 33 -2.5
v 9 34 -2.5
v 9 35 -2.5
v 9 38 -2.5
v 9 39 -2.5
v 10 3 -2.5
v 10 4 -2.5
v 10 5 -2.5
v 10 8 -2.5
v 10 9 -2.5
v 10 31 -2.5
v 10 32 -2.5
v 10 35 -2.5
v 10 36 -2.5
v 10 37 -2.5
v 11 2 -2.5
v 11 3 -2.5
v 11 6 -2.5
v 11 7 -2.5
v 11 8 -2.5
v 11 9 -2.5
v 11 10 -2.5
v 11 30 -2.5
v 11 31 -2.5
v 11 32 -2.5
v 11 33 -2.5
v 11 34 -2.5
v 11 37 -2.5
v 11 38 -2.5
v 12 4 -2.5
v 12 5 -2.5
v 12 6 -2.5
v 12 7 -2.5
v 12 8 -2.5
v 12 9 -2.5
v 12 10 -2.5
v 12 12 -2.5
v 12 28 -2.5
v 12 30 -2.5
v 12 31 -2.5
v 12 32 -2.5
v 12 33 -2.5
v 12 34 -2.5
v 12 35 -2.5
v 12 36 -2.5
v 13 3 -2.5
v 13 4 -2.5
v 13 5 -2.5
v 13 6 -2.5
v 13 7 -2.5
v 13 8 -2.5
v 13 9 -2.5
v 13 11 -2.5
v 13 12 -2.5
v 13 15 -2.5
v 13 25 -2.5
v 13 28 -2.5
v 13 29 -2.5
v 13 31 -2.5
v 13 32 -2.5
v 13 33 -2.5
v 13 34 -2.5
v 13 35 -2.5
v 13 36 -2.5
v 13 37 -2.5
v 14 4 -2.5
v 14 5 -2.5
v 14 6 -2.5
v 14 7 -2.5
v 14 8 -2.5
v 14 9 -2.5
v 14 11 -2.5
v 14 14 -2.5
v 14 15 -2.5
v 14 25 -2.5
v 14 26 -2.5
v 14 29 -2.5
v 14 31 -2.5
v 14 32 -2.5
v 14 33 -2.5
v 14 34 -2.5
v 14 35 -2.5
v 14 36 -2.5
v 15 5 -2.5
v 15 6 -2.5
v 15 7 -2.5
v 15 8 -2.5
v 15 10 -2.5
v 15 11 -2.5
v 15 14 -2.5
v 15 26 -2.5
v 15 29 -2.5
v 15 30 -2.5
v 15 32 -2.5
v 15 33 -2.5
v 15 34 -2.5
v 15 35 -2.5
v 16 6 -2.5
v 16 7 -2.5
v 16 8 -2.5
v 16 10 -2.5
v 16 12 -2.5
v 16 14 -2.5
v 16 26 -2.5
v 16 28 -2.5
v 16 30 -2.5
v 16 32 -2.5
v 16 33 -2.5
v 16 34 -2.5
v 17 7 -2.5
v 17 9 -2.5
v 17 10 -2.5
v 17 12 -2.5
v 17 15 -2.5
v 17 25 -2.5
v 17 28 -2.5
v 17 30 -2.5
v 17 31 -2.5
v 17 33 -2.5
v 18 9 -2.5
v 18 11 -2.5
v 18 12 -2.5
v 18 15 -2.5
v 18 25 -2.5
v 18 28 -2.5
v 18 29 -2.5
v 18 31 -2.5
v 19 11 -2.5
v 19 14 -2.5
v 19 15 -2.5
v 19 25 -2.5
v 19 26 -2.5
v 19 29 -2.5
v 20 14 -2.5
v 20 26 -2.5
v -6 0 2.5
v 6 0 2.5
v -6 0 -2.5
v 6 0 -2.5
v -9 1 2.5
v -6 1 2.5
v 6 1 2.5
v 9 1 2.5
v -9 1 -2.5
v -6 1 -2.5
v 6 1 -2.5
v 9 1 -2.5
v -11 2 2.5
v -9 2 2.5
v 9 2 2.5
v 11 2 2.5
v -11 2 -2.5
v -9 2 -2.5
v 9 2 -2.5
v 11 2 -2.5
v -13 3 2.5
v -11 3 2.5
v 11 3 2.5
v 13 3 2.5
v -13 3 -2.5
v -11 3 -2.5
v 11 3 -2.5
v 13 3 -2.5
v -14 4 2.5
v -13 4 2.5
v 13 4 2.5
v 14 4 2.5
v -14 4 -2.5
v -13 4 -2.5
v 13 4 -2.5
v 14 4 -2.5
v -15 5 2.5
v -14 5 2.5
v 14 5 2.5
v 15 5 2.5
v -15 5 -2.5
v -14 5 -2.5
v 14 5 -2.5
v 15 5 -2.5
v -16 6 2.5
v -15 6 2.5
v 15 6 2.5
v 16 6 2.5
v -16 6 -2.5
v -15 6 -2.5
v 15 6 -2.5
v 16 6 -2.5
v -17 7 2.5
v -16 7 2.5
v 16 7 2.5
v 17 7 2.5
v -17 7 -2.5
v -16 7 -2.5
v 16 7 -2.5
v 17 7 -2.5
v -18 9 2.5
v -17 9 2.5
v 17 9 2.5
v 18 9 2.5
v -18 9 -2.5
v -17 9 -2.5
v 17 9 -2.5
v 18 9 -2.5
v -19 11 2.5
v -18 11 2.5
v 18 11 2.5
v 19 11 2.5
v -19 11 -2.5
v -18 11 -2.5
v 18 11 -2.5
v 19 11 -2.5
v -20 14 2.5
v -19 14 2.5
v 19 14 2.5
v 20 14 2.5
v -20 14 -2.5
v -19 14 -2.5
v 19 14 -2.5
v 20 14 -2.5
v -14 25 2.5
v -13 25 2.5
v 13 25 2.5
v 14 25 2.5
v -14 25 -2.5
v -13 25 -2.5
v 13 25 -2.5
v 14 25 -2.5
v -13 28 2.5
v -12 28 2.5
v 12 28 2.5
v 13 28 2.5
v -13 28 -2.5
v -12 28 -2.5
v 12 28 -2.5
v 13 28 -2.5
v -12 30 2.5
v -11 30 2.5
v 11 30 2.5
v 12 30 2.5
v -12 30 -2.5
v -11 30 -2.5
v 11 30 -2.5
v 12 30 -2.5
v -11 31 2.5
v -10 31 2.5
v 10 31 2.5
v 11 31 2.5
v -11 31 -2.5
v -10 31 -2.5
v 10 31 -2.5
v 11 31 -2.5
v -10 32 2.5
v -8 32 2.5
v 8 32 2.5
v 10 32 2.5
v -10 32 -2.5
v -8 32 -2.5
v 8 32 -2.5
v 10 32 -2.5
v -8 33 2.5
v -5 33 2.5
v 5 33 2.5
v 8 33 2.5
v -8 33 -2.5
v -5 33 -2.5
v 5 33 -2.5
v 8 33 -2.5
v -5 34 2.5
v 5 34 2.5
v -5 34 -2.5
v 5 34 -2.5
v -5 6 2.5
v 5 6 2.5
v -5 6 -2.5
v 5 6 -2.5
v -8 7 2.5
v -5 7 2.5
v 5 7 2.5
v 8 7 2.5
v -8 7 -2.5
v -5 7 -2.5
v 5 7 -2.5
v 8 7 -2.5
v -10 8 2.5
v -8 8 2.5
v 8 8 2.5
v 10 8 2.5
v -10 8 -2.5
v -8 8 -2.5
v 8 8 -2.5
v 10 8 -2.5
v -11 9 2.5
v -10 9 2.5
v 10 9 2.5
v 11 9 2.5
v -11 9 -2.5
v -10 9 -2.5
v 10 9 -2.5
v 11 9 -2.5
v -12 10 2.5
v -11 10 2.5
v 11 10 2.5
v 12 10 2.5
v -12 10 -2.5
v -11 10 -2.5
v 11 10 -2.5
v 12 10 -2.5
v -13 12 2.5
v -12 12 2.5
v 12 12 2.5
v 13 12 2.5
v -13 12 -2.5
v -12 12 -2.5
v 12 12 -2.5
v 13 12 -2.5
v -14 15 2.5
v -13 15 2.5
v 13 15 2.5
v 14 15 2.5
v -14 15 -2.5
v -13 15 -2.5
v 13 15 -2.5
v 14 15 -2.5
v -20 26 2.5
v -19 26 2.5
v 19 26 2.5
v 20 26 2.5
v -20 26 -2.5
v -19 26 -2.5
v 19 26 -2.5
v 20 26 -2.5
v -19 29 2.5
v -18 29 2.5
v 18 29 2.5
v 19 29 2.5
v -19 29 -2.5
v -18 29 -2.5
v 18 29 -2.5
v 19 29 -2.5
v -18 31 2.5
v -17 31 2.5
v 17 31 2.5
v 18 31 2.5
v -18 31 -2.5
v -17 31 -2.5
v 17 31 -2.5
v 18 31 -2.5
v -17 33 2.5
v -16 33 2.5
v 16 33 2.5
v 17 33 2.5
v -17 33 -2.5
v -16 33 -2.5
v 16 33 -2.5
v 17 33 -2.5
v -16 34 2.5
v -15 34 2.5
v 15 34 2.5
v 16 34 2.5
v -16 34 -2.5
v -15 34 -2.5
v 15 34 -2.5
v 16 34 -2.5
v -15 35 2.5
v -14 35 2.5
v 14 35 2.5
v 15 35 2.5
v -15 35 -2.5
v -14 35 -2.5
v 14 35 -2.5
v 15 35 -2.5
v -14 36 2.5
v -13 36 2.5
v 13 36 2.5
v 14 36 2.5
v -14 36 -2.5
v -13 36 -2.5
v 13 36 -2.5
v 14 36 -2.5
v -13 37 2.5
v -11 37 2.5
v 11 37 2.5
v 13 37 2.5
v -13 37 -2.5
v -11 37 -2.5
v 11 37 -2.5
v 13 37 -2.5
v -11 38 2.5
v -9 38 2.5
v 9 38 2.5
v 11 38 2.5
v -11 38 -2.5
v -9 38 -2.5
v 9 38 -2.5
v 11 38 -2.5
v -9 39 2.5
v -6 39 2.5
v 6 39 2.5
v 9 39 2.5
v -9 39 -2.5
v -6 39 -2.5
v 6 39 -2.5
v 9 39 -2.5
v -6 40 2.5
v 6 40 2.5
v -6 40 -2.5
v 6 40 -2.5

# faces
f 3/3/1 2/3/1 1/3/1
f 4/3/1 2/3/1 3/3/1
f 7/3/1 6/3/1 5/3/1
f 8/3/1 6/3/1 7/3/1
f 11/3/1 10/3/1 9/3/1
f 12/3/1 10/3/1 11/3/1
f 15/3/1 14/3/1 13/3/1
f 16/3/1 14/3/1 15/3/1
f 19/3/1 18/3/1 17/3/1
f 20/3/1 18/3/1 19/3/1
f 23/3/1 22/3/1 21/3/1
f 24/3/1 22/3/1 23/3/1
f 27/3/1 26/3/1 25/3/1
f 28/3/1 26/3/1 27/3/1
f 31/3/1 30/3/1 29/3/1
f 32/3/1 30/3/1 31/3/1
f 35/3/1 34/3/1 33/3/1
f 36/3/1 34/3/1 35/3/1
f 39/3/1 38/3/1 37/3/1
f 40/3/1 38/3/1 39/3/1
f 43/3/1 42/3/1 41/3/1
f 44/3/1 42/3/1 43/3/1
f 47/3/1 46/3/1 45/3/1
f 48/3/1 46/3/1 47/3/1
f 51/3/1 50/3/1 49/3/1
f 52/3/1 50/3/1 51/3/1
f 55/3/1 54/3/1 53/3/1
f 56/3/1 54/3/1 55/3/1
f 59/3/1 58/3/1 57/3/1
f 60/3/1 58/3/1 59/3/1
f 63/3/1 62/3/1 61/3/1
f 64/3/1 62/3/1 63/3/1
f 67/3/1 66/3/1 65/3/1
f 68/3/1 66/3/1 67/3/1
f 71/3/1 70/3/1 69/3/1
f 72/3/1 70/3/1 71/3/1
f 75/3/1 74/3/1 73/3/1
f 76/3/1 74/3/1 75/3/1
f 79/3/1 78/3/1 77/3/1
f 80/3/1 78/3/1 79/3/1
f 83/3/1 82/3/1 81/3/1
f 84/3/1 82/3/1 83/3/1
f 87/3/1 86/3/1 85/3/1
f 88/3/1 86/3/1 87/3/1
f 91/3/1 90/3/1 89/3/1
f 92/3/1 90/3/1 91/3/1
f 95/3/1 94/3/1 93/3/1
f 96/3/1 94/3/1 95/3/1
f 99/3/1 98/3/1 97/3/1
f 100/3/1 98/3/1 99/3/1
f 103/3/1 102/3/1 101/3/1
f 104/3/1 102/3/1 103/3/1
f 107/3/1 106/3/1 105/3/1
f 108/3/1 106/3/1 107/3/1
f 111/3/1 110/3/1 109/3/1
f 112/3/1 110/3/1 111/3/1
f 115/3/1 114/3/1 113/3/1
f 116/3/1 114/3/1 115/3/1
f 119/3/1 118/3/1 117/3/1
f 120/3/1 118/3/1 119/3/1
f 123/3/1 122/3/1 121/3/1
f 124/3/1 122/3/1 123/3/1
f 127/3/1 126/3/1 125/3/1
f 128/3/1 126/3/1 127/3/1
f 131/3/1 130/3/1 129/3/1
f 132/3/1 130/3/1 131/3/1
f 135/3/1 134/3/1 133/3/1
f 136/3/1 134/3/1 135/3/1
f 137/3/2 138/3/2 139/3/2
f 139/3/2 138/3/2 140/3/2
f 141/3/2 142/3/2 143/3/2
f 143/3/2 142/3/2 144/3/2
f 145/3/2 146/3/2 147/3/2
f 147/3/2 146/3/2 148/3/2
f 149/3/2 150/3/2 151/3/2
f 151/3/2 150/3/2 152/3/2
f 153/3/2 154/3/2 155/3/2
f 155/3/2 154/3/2 156/3/2
f 157/3/2 158/3/2 159/3/2
f 159/3/2 158/3/2 160/3/2
f 161/3/2 162/3/2 163/3/2
f 163/3/2 162/3/2 164/3/2
f 165/3/2 166/3/2 167/3/2
f 167/3/2 166/3/2 168/3/2
f 169/3/2 170/3/2 171/3/2
f 171/3/2 170/3/2 172/3/2
f 173/3/2 174/3/2 175/3/2
f 175/3/2 174/3/2 176/3/2
f 177/3/2 178/3/2 179/3/2
f 179/3/2 178/3/2 180/3/2
f 181/3/2 182/3/2 183/3/2
f 183/3/2 182/3/2 184/3/2
f 185/3/2 186/3/2 187/3/2
f 187/3/2 186/3/2 188/3/2
f 189/3/2 190/3/2 191/3/2
f 191/3/2 190/3/2 192/3/2
f 193/3/2 194/3/2 195/3/2
f 195/3/2 194/3/2 196/3/2
f 197/3/2 198/3/2 199/3/2
f 199/3/2 198/3/2 200/3/2
f 201/3/2 202/3/2 203/3/2
f 203/3/2 202/3/2 204/3/2
f 205/3/2 206/3/2 207/3/2
f 207/3/2 206/3/2 208/3/2
f 209/3/2 210/3/2 211/3/2
f 211/3/2 210/3/2 212/3/2
f 213/3/2 214/3/2 215/3/2
f 215/3/2 214/3/2 216/3/2
f 217/3/2 218/3/2 219/3/2
f 219/3/2 218/3/2 220/3/2
f 221/3/2 222/3/2 223/3/2
f 223/3/2 222/3/2 224/3/2
f 225/3/2 226/3/2 227/3/2
f 227/3/2 226/3/2 228/3/2
f 229/3/2 230/3/2 231/3/2
f 231/3/2 230/3/2 232/3/2
f 233/3/2 234/3/2 235/3/2
f 235/3/2 234/3/2 236/3/2
f 237/3/2 238/3/2 239/3/2
f 239/3/2 238/3/2 240/3/2
f 241/3/2 242/3/2 243/3/2
f 243/3/2 242/3/2 244/3/2
f 245/3/2 246/3/2 247/3/2
f 247/3/2 246/3/2 248/3/2
f 249/3/2 250/3/2 251/3/2
f 251/3/2 250/3/2 252/3/2
f 253/3/2 254/3/2 255/3/2
f 255/3/2 254/3/2 256/3/2
f 257/3/2 258/3/2 259/3/2
f 259/3/2 258/3/2 260/3/2
f 261/3/2 262/3/2 263/3/2
f 263/3/2 262/3/2 264/3/2
f 265/3/2 266/3/2 267/3/2
f 267/3/2 266/3/2 268/3/2
f 269/3/2 270/3/2 271/3/2
f 271/3/2 270/3/2 272/3/2
f 276/3/3 274/3/3 273/3/3
f 277/3/3 274/3/3 276/3/3
f 278/3/3 274/3/3 277/3/3
f 279/3/3 274/3/3 278/3/3
f 282/3/3 276/3/3 275/3/3
f 282/3/3 277/3/3 276/3/3
f 283/3/3 277/3/3 282/3/3
f 284/2/3 278/2/3 277/2/3
f 284/3/3 277/3/3 283/3/3
f 285/3/3 280/3/3 279/3/3
f 285/2/3 278/2/3 284/2/3
f 285/3/3 279/3/3 278/3/3
f 286/3/3 280/3/3 285/3/3
f 287/3/3 280/3/3 286/3/3
f 290/3/3 282/3/3 281/3/3
f 290/3/3 283/3/3 282/3/3
f 291/3/3 283/3/3 290/3/3
f 292/2/3 284/2/3 283/2/3
f 292/3/3 283/3/3 291/3/3
f 293/1/3 285/1/3 284/1/3
f 293/2/3 284/2/3 292/2/3
f 294/2/3 286/2/3 285/2/3
f 294/1/3 285/1/3 293/1/3
f 295/3/3 288/3/3 287/3/3
f 295/2/3 286/2/3 294/2/3
f 295/3/3 287/3/3 286/3/3
f 296/3/3 288/3/3 295/3/3
f 297/3/3 288/3/3 296/3/3
f 300/3/3 291/3/3 290/3/3
f 300/3/3 290/3/3 289/3/3
f 301/3/3 291/3/3 300/3/3
f 302/2/3 292/2/3 291/2/3
f 302/3/3 291/3/3 301/3/3
f 303/1/3 294/1/3 293/1/3
f 303/2/3 292/2/3 302/2/3
f 303/1/3 293/1/3 292/1/3
f 303/1/3 295/1/3 294/1/3
f 304/1/3 295/1/3 303/1/3
f 305/1/3 295/1/3 304/1/3
f 306/2/3 296/2/3 295/2/3
f 306/1/3 295/1/3 305/1/3
f 307/3/3 298/3/3 297/3/3
f 307/2/3 296/2/3 306/2/3
f 307/3/3 297/3/3 296/3/3
f 308/3/3 298/3/3 307/3/3
f 309/3/3 298/3/3 308/3/3
f 312/3/3 301/3/3 300/3/3
f 312/3/3 300/3/3 299/3/3
f 313/3/3 301/3/3 312/3/3
f 314/2/3 302/2/3 301/2/3
f 314/3/3 301/3/3 313/3/3
f 315/1/3 304/1/3 303/1/3
f 315/2/3 302/2/3 314/2/3
f 315/1/3 303/1/3 302/1/3
f 316/1/3 304/1/3 315/1/3
f 317/2/3 305/2/3 304/2/3
f 317/1/3 304/1/3 316/1/3
f 318/1/3 306/1/3 305/1/3
f 318/2/3 305/2/3 317/2/3
f 318/1/3 307/1/3 306/1/3
f 319/1/3 307/1/3 318/1/3
f 320/2/3 308/2/3 307/2/3
f 320/1/3 307/1/3 319/1/3
f 321/3/3 310/3/3 309/3/3
f 321/2/3 308/2/3 320/2/3
f 321/3/3 309/3/3 308/3/3
f 322/3/3 310/3/3 321/3/3
f 323/3/3 310/3/3 322/3/3
f 326/3/3 313/3/3 312/3/3
f 326/3/3 312/3/3 311/3/3
f 327/3/3 313/3/3 326/3/3
f 328/2/3 314/2/3 313/2/3
f 328/3/3 313/3/3 327/3/3
f 329/1/3 316/1/3 315/1/3
f 329/2/3 314/2/3 328/2/3
f 329/1/3 315/1/3 314/1/3
f 330/1/3 316/1/3 329/1/3
f 331/2/3 317/2/3 316/2/3
f 331/1/3 316/1/3 330/1/3
f 332/3/3 318/3/3 317/3/3
f 332/2/3 317/2/3 331/2/3
f 333/3/3 318/3/3 332/3/3
f 334/3/3 318/3/3 333/3/3
f 335/2/3 319/2/3 318/2/3
f 335/3/3 318/3/3 334/3/3
f 336/1/3 320/1/3 319/1/3
f 336/2/3 319/2/3 335/2/3
f 336/1/3 321/1/3 320/1/3
f 337/1/3 321/1/3 336/1/3
f 338/2/3 322/2/3 321/2/3
f 338/1/3 321/1/3 337/1/3
f 339/3/3 324/3/3 323/3/3
f 339/2/3 322/2/3 338/2/3
f 339/3/3 323/3/3 322/3/3
f 340/3/3 324/3/3 339/3/3
f 341/3/3 324/3/3 340/3/3
f 344/3/3 327/3/3 326/3/3
f 344/3/3 326/3/3 325/3/3
f 345/3/3 327/3/3 344/3/3
f 346/2/3 328/2/3 327/2/3
f 346/3/3 327/3/3 345/3/3
f 347/1/3 330/1/3 329/1/3
f 347/2/3 328/2/3 346/2/3
f 347/1/3 329/1/3 328/1/3
f 348/1/3 330/1/3 347/1/3
f 349/2/3 331/2/3 330/2/3
f 349/1/3 330/1/3 348/1/3
f 350/3/3 333/3/3 332/3/3
f 350/2/3 331/2/3 349/2/3
f 350/3/3 332/3/3 331/3/3
f 351/3/3 333/3/3 350/3/3
f 352/3/3 333/3/3 351/3/3
f 353/3/3 335/3/3 334/3/3
f 353/3/3 336/3/3 335/3/3
f 354/3/3 336/3/3 353/3/3
f 355/2/3 337/2/3 336/2/3
f 355/3/3 336/3/3 354/3/3
f 356/1/3 338/1/3 337/1/3
f 356/2/3 337/2/3 355/2/3
f 356/1/3 339/1/3 338/1/3
f 357/1/3 339/1/3 356/1/3
f 358/2/3 340/2/3 339/2/3
f 358/1/3 339/1/3 357/1/3
f 359/3/3 341/3/3 340/3/3
f 359/2/3 340/2/3 358/2/3
f 359/3/3 342/3/3 341/3/3
f 360/3/3 342/3/3 359/3/3
f 361/3/3 342/3/3 360/3/3
f 363/3/3 345/3/3 344/3/3
f 363/3/3 344/3/3 343/3/3
f 364/2/3 346/2/3 345/2/3
f 364/3/3 345/3/3 363/3/3
f 365/1/3 348/1/3 347/1/3
f 365/2/3 346/2/3 364/2/3
f 365/1/3 347/1/3 346/1/3
f 366/1/3 348/1/3 365/1/3
f 367/2/3 349/2/3 348/2/3
f 367/1/3 348/1/3 366/1/3
f 368/3/3 351/3/3 350/3/3
f 368/2/3 349/2/3 367/2/3
f 368/3/3 350/3/3 349/3/3
f 369/3/3 351/3/3 368/3/3
f 370/3/3 351/3/3 369/3/3
f 371/3/3 355/3/3 354/3/3
f 371/3/3 356/3/3 355/3/3
f 372/3/3 356/3/3 371/3/3
f 373/2/3 357/2/3 356/2/3
f 373/3/3 356/3/3 372/3/3
f 374/1/3 358/1/3 357/1/3
f 374/2/3 357/2/3 373/2/3
f 374/1/3 359/1/3 358/1/3
f 375/1/3 359/1/3 374/1/3
f 376/2/3 360/2/3 359/2/3
f 376/1/3 359/1/3 375/1/3
f 377/3/3 362/3/3 361/3/3
f 377/2/3 360/2/3 376/2/3
f 377/3/3 361/3/3 360/3/3
f 378/3/3 362/3/3 377/3/3
f 380/3/3 363/3/3 343/3/3
f 381/1/3 366/1/3 365/1/3
f 381/1/3 365/1/3 364/1/3
f 382/2/3 367/2/3 366/2/3
f 382/1/3 366/1/3 381/1/3
f 383/3/3 369/3/3 368/3/3
f 383/2/3 367/2/3 382/2/3
f 383/3/3 368/3/3 367/3/3
f 384/3/3 369/3/3 383/3/3
f 385/3/3 369/3/3 384/3/3
f 386/3/3 373/3/3 372/3/3
f 386/3/3 374/3/3 373/3/3
f 387/3/3 374/3/3 386/3/3
f 388/2/3 375/2/3 374/2/3
f 388/3/3 374/3/3 387/3/3
f 389/1/3 377/1/3 376/1/3
f 389/2/3 375/2/3 388/2/3
f 389/1/3 376/1/3 375/1/3
f 390/1/3 377/1/3 389/1/3
f 391/3/3 362/3/3 378/3/3
f 393/3/3 380/3/3 379/3/3
f 393/3/3 363/3/3 380/3/3
f 394/2/3 364/2/3 363/2/3
f 394/3/3 363/3/3 393/3/3
f 395/1/3 381/1/3 364/1/3
f 395/2/3 364/2/3 394/2/3
f 396/3/3 384/3/3 383/3/3
f 396/3/3 383/3/3 382/3/3
f 397/3/3 384/3/3 396/3/3
f 398/3/3 388/3/3 387/3/3
f 398/3/3 389/3/3 388/3/3
f 399/3/3 389/3/3 398/3/3
f 400/1/3 377/1/3 390/1/3
f 400/2/3 378/2/3 377/2/3
f 401/3/3 392/3/3 391/3/3
f 401/2/3 378/2/3 400/2/3
f 401/3/3 391/3/3 378/3/3
f 402/3/3 392/3/3 401/3/3
f 404/3/3 393/3/3 379/3/3
f 405/1/3 381/1/3 395/1/3
f 405/1/3 395/1/3 394/1/3
f 406/2/3 382/2/3 381/2/3
f 406/1/3 381/1/3 405/1/3
f 407/3/3 396/3/3 382/3/3
f 407/2/3 382/2/3 406/2/3
f 408/3/3 389/3/3 399/3/3
f 408/2/3 390/2/3 389/2/3
f 409/1/3 400/1/3 390/1/3
f 409/2/3 390/2/3 408/2/3
f 409/1/3 401/1/3 400/1/3
f 410/1/3 401/1/3 409/1/3
f 411/3/3 392/3/3 402/3/3
f 413/3/3 404/3/3 403/3/3
f 413/3/3 393/3/3 404/3/3
f 414/2/3 394/2/3 393/2/3
f 414/3/3 393/3/3 413/3/3
f 415/1/3 405/1/3 394/1/3
f 415/2/3 394/2/3 414/2/3
f 416/3/3 396/3/3 407/3/3
f 416/3/3 407/3/3 406/3/3
f 417/3/3 396/3/3 416/3/3
f 418/3/3 408/3/3 399/3/3
f 418/3/3 409/3/3 408/3/3
f 419/3/3 409/3/3 418/3/3
f 420/1/3 401/1/3 410/1/3
f 420/2/3 402/2/3 401/2/3
f 421/3/3 412/3/3 411/3/3
f 421/2/3 402/2/3 420/2/3
f 421/3/3 411/3/3 402/3/3
f 422/3/3 412/3/3 421/3/3
f 424/3/3 413/3/3 403/3/3
f 425/1/3 405/1/3 415/1/3
f 425/1/3 415/1/3 414/1/3
f 426/2/3 406/2/3 405/2/3
f 426/1/3 405/1/3 425/1/3
f 427/3/3 416/3/3 406/3/3
f 427/2/3 406/2/3 426/2/3
f 428/3/3 409/3/3 419/3/3
f 428/2/3 410/2/3 409/2/3
f 429/1/3 420/1/3 410/1/3
f 429/2/3 410/2/3 428/2/3
f 429/1/3 421/1/3 420/1/3
f 430/1/3 421/1/3 429/1/3
f 431/3/3 412/3/3 422/3/3
f 433/3/3 424/3/3 423/3/3
f 433/3/3 413/3/3 424/3/3
f 434/2/3 414/2/3 413/2/3
f 434/3/3 413/3/3 433/3/3
f 435/1/3 425/1/3 414/1/3
f 435/2/3 414/2/3 434/2/3
f 436/3/3 416/3/3 427/3/3
f 436/3/3 427/3/3 426/3/3
f 437/3/3 416/3/3 436/3/3
f 438/3/3 428/3/3 419/3/3
f 438/3/3 429/3/3 428/3/3
f 439/3/3 429/3/3 438/3/3
f 440/1/3 421/1/3 430/1/3
f 440/2/3 422/2/3 421/2/3
f 441/3/3 432/3/3 431/3/3
f 441/2/3 422/2/3 440/2/3
f 441/3/3 431/3/3 422/3/3
f 442/3/3 432/3/3 441/3/3
f 443/3/3 433/3/3 423/3/3
f 443/2/3 434/2/3 433/2/3
f 444/1/3 435/1/3 434/1/3
f 444/2/3 434/2/3 443/2/3
f 445/1/3 425/1/3 435/1/3
f 445/1/3 435/1/3 444/1/3
f 446/3/3 436/3/3 426/3/3
f 449/3/3 429/3/3 439/3/3
f 450/1/3 440/1/3 430/1/3
f 450/1/3 441/1/3 440/1/3
f 451/2/3 442/2/3 441/2/3
f 451/1/3 441/1/3 450/1/3
f 452/3/3 432/3/3 442/3/3
f 452/2/3 442/2/3 451/2/3
f 453/3/3 444/3/3 443/3/3
f 453/3/3 443/3/3 423/3/3
f 454/3/3 444/3/3 453/3/3
f 455/2/3 426/2/3 425/2/3
f 455/1/3 425/1/3 445/1/3
f 456/3/3 447/3/3 446/3/3
f 456/2/3 426/2/3 455/2/3
f 456/3/3 446/3/3 426/3/3
f 457/3/3 447/3/3 456/3/3
f 458/3/3 449/3/3 448/3/3
f 458/3/3 429/3/3 449/3/3
f 459/2/3 430/2/3 429/2/3
f 459/3/3 429/3/3 458/3/3
f 460/1/3 450/1/3 430/1/3
f 460/2/3 430/2/3 459/2/3
f 461/3/3 432/3/3 452/3/3
f 461/3/3 452/3/3 451/3/3
f 462/3/3 432/3/3 461/3/3
f 463/3/3 444/3/3 454/3/3
f 463/2/3 445/2/3 444/2/3
f 464/1/3 455/1/3 445/1/3
f 464/2/3 445/2/3 463/2/3
f 464/1/3 456/1/3 455/1/3
f 465/1/3 456/1/3 464/1/3
f 466/3/3 447/3/3 457/3/3
f 469/3/3 458/3/3 448/3/3
f 470/1/3 450/1/3 460/1/3
f 470/1/3 460/1/3 459/1/3
f 471/2/3 451/2/3 450/2/3
f 471/1/3 450/1/3 470/1/3
f 472/3/3 461/3/3 451/3/3
f 472/2/3 451/2/3 471/2/3
f 473/3/3 463/3/3 454/3/3
f 473/3/3 464/3/3 463/3/3
f 474/3/3 464/3/3 473/3/3
f 475/1/3 456/1/3 465/1/3
f 475/2/3 457/2/3 456/2/3
f 476/3/3 467/3/3 466/3/3
f 476/2/3 457/2/3 475/2/3
f 476/3/3 466/3/3 457/3/3
f 477/3/3 467/3/3 476/3/3
f 478/3/3 469/3/3 468/3/3
f 478/3/3 458/3/3 469/3/3
f 479/2/3 459/2/3 458/2/3
f 479/3/3 458/3/3 478/3/3
f 480/1/3 470/1/3 459/1/3
f 480/2/3 459/2/3 479/2/3
f 481/3/3 461/3/3 472/3/3
f 481/3/3 472/3/3 471/3/3
f 482/3/3 461/3/3 481/3/3
f 483/3/3 464/3/3 474/3/3
f 483/2/3 465/2/3 464/2/3
f 484/1/3 475/1/3 465/1/3
f 484/2/3 465/2/3 483/2/3
f 484/1/3 476/1/3 475/1/3
f 485/1/3 476/1/3 484/1/3
f 486/3/3 467/3/3 477/3/3
f 489/3/3 478/3/3 468/3/3
f 490/1/3 470/1/3 480/1/3
f 490/1/3 480/1/3 479/1/3
f 491/2/3 471/2/3 470/2/3
f 491/1/3 470/1/3 490/1/3
f 492/3/3 481/3/3 471/3/3
f 492/2/3 471/2/3 491/2/3
f 493/3/3 483/3/3 474/3/3
f 493/3/3 484/3/3 483/3/3
f 494/3/3 484/3/3 493/3/3
f 495/1/3 476/1/3 485/1/3
f 495/2/3 477/2/3 476/2/3
f 496/3/3 487/3/3 486/3/3
f 496/2/3 477/2/3 495/2/3
f 496/3/3 486/3/3 477/3/3
f 497/3/3 487/3/3 496/3/3
f 498/3/3 487/3/3 497/3/3
f 501/3/3 489/3/3 488/3/3
f 502/3/3 478/3/3 489/3/3
f 502/3/3 489/3/3 501/3/3
f 503/2/3 479/2/3 478/2/3
f 503/3/3 478/3/3 502/3/3
f 504/1/3 490/1/3 479/1/3
f 504/2/3 479/2/3 503/2/3
f 505/3/3 481/3/3 492/3/3
f 505/3/3 492/3/3 491/3/3
f 506/3/3 481/3/3 505/3/3
f 507/3/3 484/3/3 494/3/3
f 507/2/3 485/2/3 484/2/3
f 508/1/3 495/1/3 485/1/3
f 508/2/3 485/2/3 507/2/3
f 508/1/3 496/1/3 495/1/3
f 509/1/3 496/1/3 508/1/3
f 510/2/3 497/2/3 496/2/3
f 510/1/3 496/1/3 509/1/3
f 511/3/3 499/3/3 498/3/3
f 511/2/3 497/2/3 510/2/3
f 511/3/3 498/3/3 497/3/3
f 512/3/3 499/3/3 511/3/3
f 513/3/3 499/3/3 512/3/3
f 516/3/3 502/3/3 501/3/3
f 516/3/3 501/3/3 500/3/3
f 517/3/3 502/3/3 516/3/3
f 518/2/3 503/2/3 502/2/3
f 518/3/3 502/3/3 517/3/3
f 519/1/3 504/1/3 503/1/3
f 519/2/3 503/2/3 518/2/3
f 520/1/3 490/1/3 504/1/3
f 520/1/3 504/1/3 519/1/3
f 521/2/3 491/2/3 490/2/3
f 521/1/3 490/1/3 520/1/3
f 522/3/3 505/3/3 491/3/3
f 522/2/3 491/2/3 521/2/3
f 523/3/3 507/3/3 494/3/3
f 523/3/3 508/3/3 507/3/3
f 524/3/3 508/3/3 523/3/3
f 525/2/3 509/2/3 508/2/3
f 525/3/3 508/3/3 524/3/3
f 526/1/3 510/1/3 509/1/3
f 526/2/3 509/2/3 525/2/3
f 526/1/3 511/1/3 510/1/3
f 527/1/3 511/1/3 526/1/3
f 528/2/3 512/2/3 511/2/3
f 528/1/3 511/1/3 527/1/3
f 529/3/3 514/3/3 513/3/3
f 529/2/3 512/2/3 528/2/3
f 529/3/3 513/3/3 512/3/3
f 530/3/3 514/3/3 529/3/3
f 531/3/3 514/3/3 530/3/3
f 534/3/3 517/3/3 516/3/3
f 534/3/3 516/3/3 515/3/3
f 535/3/3 517/3/3 534/3/3
f 536/2/3 518/2/3 517/2/3
f 536/3/3 517/3/3 535/3/3
f 537/1/3 520/1/3 519/1/3
f 537/2/3 518/2/3 536/2/3
f 537/1/3 519/1/3 518/1/3
f 538/1/3 520/1/3 537/1/3
f 539/2/3 521/2/3 520/2/3
f 539/1/3 520/1/3 538/1/3
f 540/3/3 522/3/3 521/3/3
f 540/2/3 521/2/3 539/2/3
f 541/3/3 505/3/3 522/3/3
f 541/3/3 522/3/3 540/3/3
f 542/3/3 505/3/3 541/3/3
f 543/3/3 525/3/3 524/3/3
f 543/3/3 526/3/3 525/3/3
f 544/3/3 526/3/3 543/3/3
f 545/2/3 527/2/3 526/2/3
f 545/3/3 526/3/3 544/3/3
f 546/1/3 528/1/3 527/1/3
f 546/2/3 527/2/3 545/2/3
f 546/1/3 529/1/3 528/1/3
f 547/1/3 529/1/3 546/1/3
f 548/2/3 530/2/3 529/2/3
f 548/1/3 529/1/3 547/1/3
f 549/3/3 532/3/3 531/3/3
f 549/2/3 530/2/3 548/2/3
f 549/3/3 531/3/3 530/3/3
f 550/3/3 532/3/3 549/3/3
f 551/3/3 532/3/3 550/3/3
f 552/3/3 534/3/3 533/3/3
f 552/3/3 535/3/3 534/3/3
f 553/3/3 535/3/3 552/3/3
f 554/2/3 536/2/3 535/2/3
f 554/3/3 535/3/3 553/3/3
f 555/1/3 538/1/3 537/1/3
f 555/2/3 536/2/3 554/2/3
f 555/1/3 537/1/3 536/1/3
f 556/1/3 538/1/3 555/1/3
f 557/2/3 539/2/3 538/2/3
f 557/1/3 538/1/3 556/1/3
f 558/3/3 540/3/3 539/3/3
f 558/2/3 539/2/3 557/2/3
f 558/3/3 541/3/3 540/3/3
f 559/3/3 541/3/3 558/3/3
f 560/3/3 541/3/3 559/3/3
f 561/3/3 545/3/3 544/3/3
f 561/3/3 546/3/3 545/3/3
f 562/3/3 546/3/3 561/3/3
f 563/2/3 547/2/3 546/2/3
f 563/3/3 546/3/3 562/3/3
f 564/1/3 548/1/3 547/1/3
f 564/2/3 547/2/3 563/2/3
f 564/1/3 549/1/3 548/1/3
f 565/1/3 549/1/3 564/1/3
f 566/2/3 550/2/3 549/2/3
f 566/1/3 549/1/3 565/1/3
f 567/3/3 553/3/3 552/3/3
f 567/2/3 550/2/3 566/2/3
f 567/3/3 551/3/3 550/3/3
f 567/3/3 552/3/3 551/3/3
f 568/2/3 554/2/3 553/2/3
f 568/3/3 553/3/3 567/3/3
f 569/1/3 555/1/3 554/1/3
f 569/2/3 554/2/3 568/2/3
f 569/1/3 556/1/3 555/1/3
f 570/1/3 556/1/3 569/1/3
f 571/2/3 557/2/3 556/2/3
f 571/1/3 556/1/3 570/1/3
f 572/3/3 559/3/3 558/3/3
f 572/2/3 557/2/3 571/2/3
f 572/3/3 558/3/3 557/3/3
f 573/3/3 559/3/3 572/3/3
f 574/3/3 559/3/3 573/3/3
f 575/3/3 564/3/3 563/3/3
f 575/3/3 563/3/3 562/3/3
f 576/3/3 564/3/3 575/3/3
f 577/2/3 565/2/3 564/2/3
f 577/3/3 564/3/3 576/3/3
f 578/1/3 566/1/3 565/1/3
f 578/2/3 565/2/3 577/2/3
f 578/1/3 567/1/3 566/1/3
f 579/1/3 567/1/3 578/1/3
f 580/2/3 568/2/3 567/2/3
f 580/1/3 567/1/3 579/1/3
f 581/1/3 570/1/3 569/1/3
f 581/2/3 568/2/3 580/2/3
f 581/1/3 569/1/3 568/1/3
f 582/1/3 570/1/3 581/1/3
f 583/2/3 571/2/3 570/2/3
f 583/1/3 570/1/3 582/1/3
f 584/3/3 573/3/3 572/3/3
f 584/2/3 571/2/3 583/2/3
f 584/3/3 572/3/3 571/3/3
f 585/3/3 573/3/3 584/3/3
f 586/3/3 573/3/3 585/3/3
f 587/3/3 577/3/3 576/3/3
f 587/3/3 578/3/3 577/3/3
f 588/3/3 578/3/3 587/3/3
f 589/2/3 579/2/3 578/2/3
f 589/3/3 578/3/3 588/3/3
f 590/1/3 580/1/3 579/1/3
f 590/2/3 579/2/3 589/2/3
f 590/1/3 582/1/3 581/1/3
f 590/1/3 581/1/3 580/1/3
f 591/1/3 582/1/3 590/1/3
f 592/1/3 582/1/3 591/1/3
f 593/2/3 583/2/3 582/2/3
f 593/1/3 582/1/3 592/1/3
f 594/3/3 585/3/3 584/3/3
f 594/2/3 583/2/3 593/2/3
f 594/3/3 584/3/3 583/3/3
f 595/3/3 585/3/3 594/3/3
f 596/3/3 585/3/3 595/3/3
f 597/3/3 589/3/3 588/3/3
f 597/3/3 590/3/3 589/3/3
f 598/3/3 590/3/3 597/3/3
f 599/2/3 591/2/3 590/2/3
f 599/3/3 590/3/3 598/3/3
f 600/1/3 592/1/3 591/1/3
f 600/2/3 591/2/3 599/2/3
f 601/2/3 593/2/3 592/2/3
f 601/1/3 592/1/3 600/1/3
f 602/3/3 595/3/3 594/3/3
f 602/2/3 593/2/3 601/2/3
f 602/3/3 594/3/3 593/3/3
f 603/3/3 595/3/3 602/3/3
f 604/3/3 595/3/3 603/3/3
f 605/3/3 599/3/3 598/3/3
f 605/3/3 600/3/3 599/3/3
f 606/3/3 600/3/3 605/3/3
f 607/2/3 601/2/3 600/2/3
f 607/3/3 600/3/3 606/3/3
f 608/3/3 603/3/3 602/3/3
f 608/2/3 601/2/3 607/2/3
f 608/3/3 602/3/3 601/3/3
f 609/3/3 603/3/3 608/3/3
f 610/3/3 603/3/3 609/3/3
f 611/3/3 607/3/3 606/3/3
f 611/3/3 609/3/3 608/3/3
f 611/3/3 608/3/3 607/3/3
f 612/3/3 609/3/3 611/3/3
f 613/3/4 614/3/4 616/3/4
f 616/3/4 614/3/4 617/3/4
f 617/3/4 614/3/4 618/3/4
f 618/3/4 614/3/4 619/3/4
f 615/3/4 616/3/4 622/3/4
f 616/3/4 617/3/4 622/3/4
f 622/3/4 617/3/4 623/3/4
f 617/2/4 618/2/4 624/2/4
f 623/3/4 617/3/4 624/3/4
f 619/3/4 620/3/4 625/3/4
f 624/2/4 618/2/4 625/2/4
f 618/3/4 619/3/4 625/3/4
f 625/3/4 620/3/4 626/3/4
f 626/3/4 620/3/4 627/3/4
f 621/3/4 622/3/4 630/3/4
f 622/3/4 623/3/4 630/3/4
f 630/3/4 623/3/4 631/3/4
f 623/2/4 624/2/4 632/2/4
f 631/3/4 623/3/4 632/3/4
f 624/1/4 625/1/4 633/1/4
f 632/2/4 624/2/4 633/2/4
f 625/2/4 626/2/4 634/2/4
f 633/1/4 625/1/4 634/1/4
f 627/3/4 628/3/4 635/3/4
f 634/2/4 626/2/4 635/2/4
f 626/3/4 627/3/4 635/3/4
f 635/3/4 628/3/4 636/3/4
f 636/3/4 628/3/4 637/3/4
f 630/3/4 631/3/4 640/3/4
f 629/3/4 630/3/4 640/3/4
f 640/3/4 631/3/4 641/3/4
f 631/2/4 632/2/4 642/2/4
f 641/3/4 631/3/4 642/3/4
f 633/1/4 634/1/4 643/1/4
f 642/2/4 632/2/4 643/2/4
f 632/1/4 633/1/4 643/1/4
f 634/1/4 635/1/4 643/1/4
f 643/1/4 635/1/4 644/1/4
f 644/1/4 635/1/4 645/1/4
f 635/2/4 636/2/4 646/2/4
f 645/1/4 635/1/4 646/1/4
f 637/3/4 638/3/4 647/3/4
f 646/2/4 636/2/4 647/2/4
f 636/3/4 637/3/4 647/3/4
f 647/3/4 638/3/4 648/3/4
f 648/3/4 638/3/4 649/3/4
f 640/3/4 641/3/4 652/3/4
f 639/3/4 640/3/4 652/3/4
f 652/3/4 641/3/4 653/3/4
f 641/2/4 642/2/4 654/2/4
f 653/3/4 641/3/4 654/3/4
f 643/1/4 644/1/4 655/1/4
f 654/2/4 642/2/4 655/2/4
f 642/1/4 643/1/4 655/1/4
f 655/1/4 644/1/4 656/1/4
f 644/2/4 645/2/4 657/2/4
f 656/1/4 644/1/4 657/1/4
f 645/1/4 646/1/4 658/1/4
f 657/2/4 645/2/4 658/2/4
f 646/1/4 647/1/4 658/1/4
f 658/1/4 647/1/4 659/1/4
f 647/2/4 648/2/4 660/2/4
f 659/1/4 647/1/4 660/1/4
f 649/3/4 650/3/4 661/3/4
f 660/2/4 648/2/4 661/2/4
f 648/3/4 649/3/4 661/3/4
f 661/3/4 650/3/4 662/3/4
f 662/3/4 650/3/4 663/3/4
f 652/3/4 653/3/4 666/3/4
f 651/3/4 652/3/4 666/3/4
f 666/3/4 653/3/4 667/3/4
f 653/2/4 654/2/4 668/2/4
f 667/3/4 653/3/4 668/3/4
f 655/1/4 656/1/4 669/1/4
f 668/2/4 654/2/4 669/2/4
f 654/1/4 655/1/4 669/1/4
f 669/1/4 656/1/4 670/1/4
f 656/2/4 657/2/4 671/2/4
f 670/1/4 656/1/4 671/1/4
f 657/3/4 658/3/4 672/3/4
f 671/2/4 657/2/4 672/2/4
f 672/3/4 658/3/4 673/3/4
f 673/3/4 658/3/4 674/3/4
f 658/2/4 659/2/4 675/2/4
f 674/3/4 658/3/4 675/3/4
f 659/1/4 660/1/4 676/1/4
f 675/2/4 659/2/4 676/2/4
f 660/1/4 661/1/4 676/1/4
f 676/1/4 661/1/4 677/1/4
f 661/2/4 662/2/4 678/2/4
f 677/1/4 661/1/4 678/1/4
f 663/3/4 664/3/4 679/3/4
f 678/2/4 662/2/4 679/2/4
f 662/3/4 663/3/4 679/3/4
f 679/3/4 664/3/4 680/3/4
f 680/3/4 664/3/4 681/3/4
f 666/3/4 667/3/4 684/3/4
f 665/3/4 666/3/4 684/3/4
f 684/3/4 667/3/4 685/3/4
f 667/2/4 668/2/4 686/2/4
f 685/3/4 667/3/4 686/3/4
f 669/1/4 670/1/4 687/1/4
f 686/2/4 668/2/4 687/2/4
f 668/1/4 669/1/4 687/1/4
f 687/1/4 670/1/4 688/1/4
f 670/2/4 671/2/4 689/2/4
f 688/1/4 670/1/4 689/1/4
f 672/3/4 673/3/4 690/3/4
f 689/2/4 671/2/4 690/2/4
f 671/3/4 672/3/4 690/3/4
f 690/3/4 673/3/4 691/3/4
f 691/3/4 673/3/4 692/3/4
f 674/3/4 675/3/4 693/3/4
f 675/3/4 676/3/4 693/3/4
f 693/3/4 676/3/4 694/3/4
f 676/2/4 677/2/4 695/2/4
f 694/3/4 676/3/4 695/3/4
f 677/1/4 678/1/4 696/1/4
f 695/2/4 677/2/4 696/2/4
f 678/1/4 679/1/4 696/1/4
f 696/1/4 679/1/4 697/1/4
f 679/2/4 680/2/4 698/2/4
f 697/1/4 679/1/4 698/1/4
f 680/3/4 681/3/4 699/3/4
f 698/2/4 680/2/4 699/2/4
f 681/3/4 682/3/4 699/3/4
f 699/3/4 682/3/4 700/3/4
f 700/3/4 682/3/4 701/3/4
f 684/3/4 685/3/4 703/3/4
f 683/3/4 684/3/4 703/3/4
f 685/2/4 686/2/4 704/2/4
f 703/3/4 685/3/4 704/3/4
f 687/1/4 688/1/4 705/1/4
f 704/2/4 686/2/4 705/2/4
f 686/1/4 687/1/4 705/1/4
f 705/1/4 688/1/4 706/1/4
f 688/2/4 689/2/4 707/2/4
f 706/1/4 688/1/4 707/1/4
f 690/3/4 691/3/4 708/3/4
f 707/2/4 689/2/4 708/2/4
f 689/3/4 690/3/4 708/3/4
f 708/3/4 691/3/4 709/3/4
f 709/3/4 691/3/4 710/3/4
f 694/3/4 695/3/4 711/3/4
f 695/3/4 696/3/4 711/3/4
f 711/3/4 696/3/4 712/3/4
f 696/2/4 697/2/4 713/2/4
f 712/3/4 696/3/4 713/3/4
f 697/1/4 698/1/4 714/1/4
f 713/2/4 697/2/4 714/2/4
f 698/1/4 699/1/4 714/1/4
f 714/1/4 699/1/4 715/1/4
f 699/2/4 700/2/4 716/2/4
f 715/1/4 699/1/4 716/1/4
f 701/3/4 702/3/4 717/3/4
f 716/2/4 700/2/4 717/2/4
f 700/3/4 701/3/4 717/3/4
f 717/3/4 702/3/4 718/3/4
f 683/3/4 703/3/4 720/3/4
f 705/1/4 706/1/4 721/1/4
f 704/1/4 705/1/4 721/1/4
f 706/2/4 707/2/4 722/2/4
f 721/1/4 706/1/4 722/1/4
f 708/3/4 709/3/4 723/3/4
f 722/2/4 707/2/4 723/2/4
f 707/3/4 708/3/4 723/3/4
f 723/3/4 709/3/4 724/3/4
f 724/3/4 709/3/4 725/3/4
f 712/3/4 713/3/4 726/3/4
f 713/3/4 714/3/4 726/3/4
f 726/3/4 714/3/4 727/3/4
f 714/2/4 715/2/4 728/2/4
f 727/3/4 714/3/4 728/3/4
f 716/1/4 717/1/4 729/1/4
f 728/2/4 715/2/4 729/2/4
f 715/1/4 716/1/4 729/1/4
f 729/1/4 717/1/4 730/1/4
f 718/3/4 702/3/4 731/3/4
f 719/3/4 720/3/4 733/3/4
f 720/3/4 703/3/4 733/3/4
f 703/2/4 704/2/4 734/2/4
f 733/3/4 703/3/4 734/3/4
f 704/1/4 721/1/4 735/1/4
f 734/2/4 704/2/4 735/2/4
f 723/3/4 724/3/4 736/3/4
f 722/3/4 723/3/4 736/3/4
f 736/3/4 724/3/4 737/3/4
f 727/3/4 728/3/4 738/3/4
f 728/3/4 729/3/4 738/3/4
f 738/3/4 729/3/4 739/3/4
f 730/1/4 717/1/4 740/1/4
f 717/2/4 718/2/4 740/2/4
f 731/3/4 732/3/4 741/3/4
f 740/2/4 718/2/4 741/2/4
f 718/3/4 731/3/4 741/3/4
f 741/3/4 732/3/4 742/3/4
f 719/3/4 733/3/4 744/3/4
f 735/1/4 721/1/4 745/1/4
f 734/1/4 735/1/4 745/1/4
f 721/2/4 722/2/4 746/2/4
f 745/1/4 721/1/4 746/1/4
f 722/3/4 736/3/4 747/3/4
f 746/2/4 722/2/4 747/2/4
f 739/3/4 729/3/4 748/3/4
f 729/2/4 730/2/4 748/2/4
f 730/1/4 740/1/4 749/1/4
f 748/2/4 730/2/4 749/2/4
f 740/1/4 741/1/4 749/1/4
f 749/1/4 741/1/4 750/1/4
f 742/3/4 732/3/4 751/3/4
f 743/3/4 744/3/4 753/3/4
f 744/3/4 733/3/4 753/3/4
f 733/2/4 734/2/4 754/2/4
f 753/3/4 733/3/4 754/3/4
f 734/1/4 745/1/4 755/1/4
f 754/2/4 734/2/4 755/2/4
f 747/3/4 736/3/4 756/3/4
f 746/3/4 747/3/4 756/3/4
f 756/3/4 736/3/4 757/3/4
f 739/3/4 748/3/4 758/3/4
f 748/3/4 749/3/4 758/3/4
f 758/3/4 749/3/4 759/3/4
f 750/1/4 741/1/4 760/1/4
f 741/2/4 742/2/4 760/2/4
f 751/3/4 752/3/4 761/3/4
f 760/2/4 742/2/4 761/2/4
f 742/3/4 751/3/4 761/3/4
f 761/3/4 752/3/4 762/3/4
f 743/3/4 753/3/4 764/3/4
f 755/1/4 745/1/4 765/1/4
f 754/1/4 755/1/4 765/1/4
f 745/2/4 746/2/4 766/2/4
f 765/1/4 745/1/4 766/1/4
f 746/3/4 756/3/4 767/3/4
f 766/2/4 746/2/4 767/2/4
f 759/3/4 749/3/4 768/3/4
f 749/2/4 750/2/4 768/2/4
f 750/1/4 760/1/4 769/1/4
f 768/2/4 750/2/4 769/2/4
f 760/1/4 761/1/4 769/1/4
f 769/1/4 761/1/4 770/1/4
f 762/3/4 752/3/4 771/3/4
f 763/3/4 764/3/4 773/3/4
f 764/3/4 753/3/4 773/3/4
f 753/2/4 754/2/4 774/2/4
f 773/3/4 753/3/4 774/3/4
f 754/1/4 765/1/4 775/1/4
f 774/2/4 754/2/4 775/2/4
f 767/3/4 756/3/4 776/3/4
f 766/3/4 767/3/4 776/3/4
f 776/3/4 756/3/4 777/3/4
f 759/3/4 768/3/4 778/3/4
f 768/3/4 769/3/4 778/3/4
f 778/3/4 769/3/4 779/3/4
f 770/1/4 761/1/4 780/1/4
f 761/2/4 762/2/4 780/2/4
f 771/3/4 772/3/4 781/3/4
f 780/2/4 762/2/4 781/2/4
f 762/3/4 771/3/4 781/3/4
f 781/3/4 772/3/4 782/3/4
f 763/3/4 773/3/4 783/3/4
f 773/2/4 774/2/4 783/2/4
f 774/1/4 775/1/4 784/1/4
f 783/2/4 774/2/4 784/2/4
f 775/1/4 765/1/4 785/1/4
f 784/1/4 775/1/4 785/1/4
f 766/3/4 776/3/4 786/3/4
f 779/3/4 769/3/4 789/3/4
f 770/1/4 780/1/4 790/1/4
f 780/1/4 781/1/4 790/1/4
f 781/2/4 782/2/4 791/2/4
f 790/1/4 781/1/4 791/1/4
f 782/3/4 772/3/4 792/3/4
f 791/2/4 782/2/4 792/2/4
f 783/3/4 784/3/4 793/3/4
f 763/3/4 783/3/4 793/3/4
f 793/3/4 784/3/4 794/3/4
f 765/2/4 766/2/4 795/2/4
f 785/1/4 765/1/4 795/1/4
f 786/3/4 787/3/4 796/3/4
f 795/2/4 766/2/4 796/2/4
f 766/3/4 786/3/4 796/3/4
f 796/3/4 787/3/4 797/3/4
f 788/3/4 789/3/4 798/3/4
f 789/3/4 769/3/4 798/3/4
f 769/2/4 770/2/4 799/2/4
f 798/3/4 769/3/4 799/3/4
f 770/1/4 790/1/4 800/1/4
f 799/2/4 770/2/4 800/2/4
f 792/3/4 772/3/4 801/3/4
f 791/3/4 792/3/4 801/3/4
f 801/3/4 772/3/4 802/3/4
f 794/3/4 784/3/4 803/3/4
f 784/2/4 785/2/4 803/2/4
f 785/1/4 795/1/4 804/1/4
f 803/2/4 785/2/4 804/2/4
f 795/1/4 796/1/4 804/1/4
f 804/1/4 796/1/4 805/1/4
f 797/3/4 787/3/4 806/3/4
f 788/3/4 798/3/4 809/3/4
f 800/1/4 790/1/4 810/1/4
f 799/1/4 800/1/4 810/1/4
f 790/2/4 791/2/4 811/2/4
f 810/1/4 790/1/4 811/1/4
f 791/3/4 801/3/4 812/3/4
f 811/2/4 791/2/4 812/2/4
f 794/3/4 803/3/4 813/3/4
f 803/3/4 804/3/4 813/3/4
f 813/3/4 804/3/4 814/3/4
f 805/1/4 796/1/4 815/1/4
f 796/2/4 797/2/4 815/2/4
f 806/3/4 807/3/4 816/3/4
f 815/2/4 797/2/4 816/2/4
f 797/3/4 806/3/4 816/3/4
f 816/3/4 807/3/4 817/3/4
f 808/3/4 809/3/4 818/3/4
f 809/3/4 798/3/4 818/3/4
f 798/2/4 799/2/4 819/2/4
f 818/3/4 798/3/4 819/3/4
f 799/1/4 810/1/4 820/1/4
f 819/2/4 799/2/4 820/2/4
f 812/3/4 801/3/4 821/3/4
f 811/3/4 812/3/4 821/3/4
f 821/3/4 801/3/4 822/3/4
f 814/3/4 804/3/4 823/3/4
f 804/2/4 805/2/4 823/2/4
f 805/1/4 815/1/4 824/1/4
f 823/2/4 805/2/4 824/2/4
f 815/1/4 816/1/4 824/1/4
f 824/1/4 816/1/4 825/1/4
f 817/3/4 807/3/4 826/3/4
f 808/3/4 818/3/4 829/3/4
f 820/1/4 810/1/4 830/1/4
f 819/1/4 820/1/4 830/1/4
f 810/2/4 811/2/4 831/2/4
f 830/1/4 810/1/4 831/1/4
f 811/3/4 821/3/4 832/3/4
f 831/2/4 811/2/4 832/2/4
f 814/3/4 823/3/4 833/3/4
f 823/3/4 824/3/4 833/3/4
f 833/3/4 824/3/4 834/3/4
f 825/1/4 816/1/4 835/1/4
f 816/2/4 817/2/4 835/2/4
f 826/3/4 827/3/4 836/3/4
f 835/2/4 817/2/4 836/2/4
f 817/3/4 826/3/4 836/3/4
f 836/3/4 827/3/4 837/3/4
f 837/3/4 827/3/4 838/3/4
f 828/3/4 829/3/4 841/3/4
f 829/3/4 818/3/4 842/3/4
f 841/3/4 829/3/4 842/3/4
f 818/2/4 819/2/4 843/2/4
f 842/3/4 818/3/4 843/3/4
f 819/1/4 830/1/4 844/1/4
f 843/2/4 819/2/4 844/2/4
f 832/3/4 821/3/4 845/3/4
f 831/3/4 832/3/4 845/3/4
f 845/3/4 821/3/4 846/3/4
f 834/3/4 824/3/4 847/3/4
f 824/2/4 825/2/4 847/2/4
f 825/1/4 835/1/4 848/1/4
f 847/2/4 825/2/4 848/2/4
f 835/1/4 836/1/4 848/1/4
f 848/1/4 836/1/4 849/1/4
f 836/2/4 837/2/4 850/2/4
f 849/1/4 836/1/4 850/1/4
f 838/3/4 839/3/4 851/3/4
f 850/2/4 837/2/4 851/2/4
f 837/3/4 838/3/4 851/3/4
f 851/3/4 839/3/4 852/3/4
f 852/3/4 839/3/4 853/3/4
f 841/3/4 842/3/4 856/3/4
f 840/3/4 841/3/4 856/3/4
f 856/3/4 842/3/4 857/3/4
f 842/2/4 843/2/4 858/2/4
f 857/3/4 842/3/4 858/3/4
f 843/1/4 844/1/4 859/1/4
f 858/2/4 843/2/4 859/2/4
f 844/1/4 830/1/4 860/1/4
f 859/1/4 844/1/4 860/1/4
f 830/2/4 831/2/4 861/2/4
f 860/1/4 830/1/4 861/1/4
f 831/3/4 845/3/4 862/3/4
f 861/2/4 831/2/4 862/2/4
f 834/3/4 847/3/4 863/3/4
f 847/3/4 848/3/4 863/3/4
f 863/3/4 848/3/4 864/3/4
f 848/2/4 849/2/4 865/2/4
f 864/3/4 848/3/4 865/3/4
f 849/1/4 850/1/4 866/1/4
f 865/2/4 849/2/4 866/2/4
f 850/1/4 851/1/4 866/1/4
f 866/1/4 851/1/4 867/1/4
f 851/2/4 852/2/4 868/2/4
f 867/1/4 851/1/4 868/1/4
f 853/3/4 854/3/4 869/3/4
f 868/2/4 852/2/4 869/2/4
f 852/3/4 853/3/4 869/3/4
f 869/3/4 854/3/4 870/3/4
f 870/3/4 854/3/4 871/3/4
f 856/3/4 857/3/4 874/3/4
f 855/3/4 856/3/4 874/3/4
f 874/3/4 857/3/4 875/3/4
f 857/2/4 858/2/4 876/2/4
f 875/3/4 857/3/4 876/3/4
f 859/1/4 860/1/4 877/1/4
f 876/2/4 858/2/4 877/2/4
f 858/1/4 859/1/4 877/1/4
f 877/1/4 860/1/4 878/1/4
f 860/2/4 861/2/4 879/2/4
f 878/1/4 860/1/4 879/1/4
f 861/3/4 862/3/4 880/3/4
f 879/2/4 861/2/4 880/2/4
f 862/3/4 845/3/4 881/3/4
f 880/3/4 862/3/4 881/3/4
f 881/3/4 845/3/4 882/3/4
f 864/3/4 865/3/4 883/3/4
f 865/3/4 866/3/4 883/3/4
f 883/3/4 866/3/4 884/3/4
f 866/2/4 867/2/4 885/2/4
f 884/3/4 866/3/4 885/3/4
f 867/1/4 868/1/4 886/1/4
f 885/2/4 867/2/4 886/2/4
f 868/1/4 869/1/4 886/1/4
f 886/1/4 869/1/4 887/1/4
f 869/2/4 870/2/4 888/2/4
f 887/1/4 869/1/4 888/1/4
f 871/3/4 872/3/4 889/3/4
f 888/2/4 870/2/4 889/2/4
f 870/3/4 871/3/4 889/3/4
f 889/3/4 872/3/4 890/3/4
f 890/3/4 872/3/4 891/3/4
f 873/3/4 874/3/4 892/3/4
f 874/3/4 875/3/4 892/3/4
f 892/3/4 875/3/4 893/3/4
f 875/2/4 876/2/4 894/2/4
f 893/3/4 875/3/4 894/3/4
f 877/1/4 878/1/4 895/1/4
f 894/2/4 876/2/4 895/2/4
f 876/1/4 877/1/4 895/1/4
f 895/1/4 878/1/4 896/1/4
f 878/2/4 879/2/4 897/2/4
f 896/1/4 878/1/4 897/1/4
f 879/3/4 880/3/4 898/3/4
f 897/2/4 879/2/4 898/2/4
f 880/3/4 881/3/4 898/3/4
f 898/3/4 881/3/4 899/3/4
f 899/3/4 881/3/4 900/3/4
f 884/3/4 885/3/4 901/3/4
f 885/3/4 886/3/4 901/3/4
f 901/3/4 886/3/4 902/3/4
f 886/2/4 887/2/4 903/2/4
f 902/3/4 886/3/4 903/3/4
f 887/1/4 888/1/4 904/1/4
f 903/2/4 887/2/4 904/2/4
f 888/1/4 889/1/4 904/1/4
f 904/1/4 889/1/4 905/1/4
f 889/2/4 890/2/4 906/2/4
f 905/1/4 889/1/4 906/1/4
f 892/3/4 893/3/4 907/3/4
f 906/2/4 890/2/4 907/2/4
f 890/3/4 891/3/4 907/3/4
f 891/3/4 892/3/4 907/3/4
f 893/2/4 894/2/4 908/2/4
f 907/3/4 893/3/4 908/3/4
f 894/1/4 895/1/4 909/1/4
f 908/2/4 894/2/4 909/2/4
f 895/1/4 896/1/4 909/1/4
f 909/1/4 896/1/4 910/1/4
f 896/2/4 897/2/4 911/2/4
f 910/1/4 896/1/4 911/1/4
f 898/3/4 899/3/4 912/3/4
f 911/2/4 897/2/4 912/2/4
f 897/3/4 898/3/4 912/3/4
f 912/3/4 899/3/4 913/3/4
f 913/3/4 899/3/4 914/3/4
f 903/3/4 904/3/4 915/3/4
f 902/3/4 903/3/4 915/3/4
f 915/3/4 904/3/4 916/3/4
f 904/2/4 905/2/4 917/2/4
f 916/3/4 904/3/4 917/3/4
f 905/1/4 906/1/4 918/1/4
f 917/2/4 905/2/4 918/2/4
f 906/1/4 907/1/4 918/1/4
f 918/1/4 907/1/4 919/1/4
f 907/2/4 908/2/4 920/2/4
f 919/1/4 907/1/4 920/1/4
f 909/1/4 910/1/4 921/1/4
f 920/2/4 908/2/4 921/2/4
f 908/1/4 909/1/4 921/1/4
f 921/1/4 910/1/4 922/1/4
f 910/2/4 911/2/4 923/2/4
f 922/1/4 910/1/4 923/1/4
f 912/3/4 913/3/4 924/3/4
f 923/2/4 911/2/4 924/2/4
f 911/3/4 912/3/4 924/3/4
f 924/3/4 913/3/4 925/3/4
f 925/3/4 913/3/4 926/3/4
f 916/3/4 917/3/4 927/3/4
f 917/3/4 918/3/4 927/3/4
f 927/3/4 918/3/4 928/3/4
f 918/2/4 919/2/4 929/2/4
f 928/3/4 918/3/4 929/3/4
f 919/1/4 920/1/4 930/1/4
f 929/2/4 919/2/4 930/2/4
f 921/1/4 922/1/4 930/1/4
f 920/1/4 921/1/4 930/1/4
f 930/1/4 922/1/4 931/1/4
f 931/1/4 922/1/4 932/1/4
f 922/2/4 923/2/4 933/2/4
f 932/1/4 922/1/4 933/1/4
f 924/3/4 925/3/4 934/3/4
f 933/2/4 923/2/4 934/2/4
f 923/3/4 924/3/4 934/3/4
f 934/3/4 925/3/4 935/3/4
f 935/3/4 925/3/4 936/3/4
f 928/3/4 929/3/4 937/3/4
f 929/3/4 930/3/4 937/3/4
f 937/3/4 930/3/4 938/3/4
f 930/2/4 931/2/4 939/2/4
f 938/3/4 930/3/4 939/3/4
f 931/1/4 932/1/4 940/1/4
f 939/2/4 931/2/4 940/2/4
f 932/2/4 933/2/4 941/2/4
f 940/1/4 932/1/4 941/1/4
f 934/3/4 935/3/4 942/3/4
f 941/2/4 933/2/4 942/2/4
f 933/3/4 934/3/4 942/3/4
f 942/3/4 935/3/4 943/3/4
f 943/3/4 935/3/4 944/3/4
f 938/3/4 939/3/4 945/3/4
f 939/3/4 940/3/4 945/3/4
f 945/3/4 940/3/4 946/3/4
f 940/2/4 941/2/4 947/2/4
f 946/3/4 940/3/4 947/3/4
f 942/3/4 943/3/4 948/3/4
f 947/2/4 941/2/4 948/2/4
f 941/3/4 942/3/4 948/3/4
f 948/3/4 943/3/4 949/3/4
f 949/3/4 943/3/4 950/3/4
f 946/3/4 947/3/4 951/3/4
f 948/3/4 949/3/4 951/3/4
f 947/3/4 948/3/4 951/3/4
f 951/3/4 949/3/4 952/3/4
f 955/3/5 954/3/5 953/3/5
f 956/3/5 954/3/5 955/3/5
f 961/3/5 958/3/5 957/3/5
f 962/3/5 958/3/5 961/3/5
f 963/3/5 960/3/5 959/3/5
f 964/3/5 960/3/5 963/3/5
f 969/3/5 966/3/5 965/3/5
f 970/3/5 966/3/5 969/3/5
f 971/3/5 968/3/5 967/3/5
f 972/3/5 968/3/5 971/3/5
f 977/3/5 974/3/5 973/3/5
f 978/3/5 974/3/5 977/3/5
f 979/3/5 976/3/5 975/3/5
f 980/3/5 976/3/5 979/3/5
f 985/3/5 982/3/5 981/3/5
f 986/3/5 982/3/5 985/3/5
f 987/3/5 984/3/5 983/3/5
f 988/3/5 984/3/5 987/3/5
f 993/3/5 990/3/5 989/3/5
f 994/3/5 990/3/5 993/3/5
f 995/3/5 992/3/5 991/3/5
f 996/3/5 992/3/5 995/3/5
f 1001/3/5 998/3/5 997/3/5
f 1002/3/5 998/3/5 1001/3/5
f 1003/3/5 1000/3/5 999/3/5
f 1004/3/5 1000/3/5 1003/3/5
f 1009/3/5 1006/3/5 1005/3/5
f 1010/3/5 1006/3/5 1009/3/5
f 1011/3/5 1008/3/5 1007/3/5
f 1012/3/5 1008/3/5 1011/3/5
f 1017/3/5 1014/3/5 1013/3/5
f 1018/3/5 1014/3/5 1017/3/5
f 1019/3/5 1016/3/5 1015/3/5
f 1020/3/5 1016/3/5 1019/3/5
f 1025/3/5 1022/3/5 1021/3/5
f 1026/3/5 1022/3/5 1025/3/5
f 1027/3/5 1024/3/5 1023/3/5
f 1028/3/5 1024/3/5 1027/3/5
f 1033/3/5 1030/3/5 1029/3/5
f 1034/3/5 1030/3/5 1033/3/5
f 1035/3/5 1032/3/5 1031/3/5
f 1036/3/5 1032/3/5 1035/3/5
f 1041/3/5 1038/3/5 1037/3/5
f 1042/3/5 1038/3/5 1041/3/5
f 1043/3/5 1040/3/5 1039/3/5
f 1044/3/5 1040/3/5 1043/3/5
f 1049/3/5 1046/3/5 1045/3/5
f 1050/3/5 1046/3/5 1049/3/5
f 1051/3/5 1048/3/5 1047/3/5
f 1052/3/5 1048/3/5 1051/3/5
f 1057/3/5 1054/3/5 1053/3/5
f 1058/3/5 1054/3/5 1057/3/5
f 1059/3/5 1056/3/5 1055/3/5
f 1060/3/5 1056/3/5 1059/3/5
f 1065/3/5 1062/3/5 1061/3/5
f 1066/3/5 1062/3/5 1065/3/5
f 1067/3/5 1064/3/5 1063/3/5
f 1068/3/5 1064/3/5 1067/3/5
f 1073/3/5 1070/3/5 1069/3/5
f 1074/3/5 1070/3/5 1073/3/5
f 1075/3/5 1072/3/5 1071/3/5
f 1076/3/5 1072/3/5 1075/3/5
f 1081/3/5 1078/3/5 1077/3/5
f 1082/3/5 1078/3/5 1081/3/5
f 1083/3/5 1080/3/5 1079/3/5
f 1084/3/5 1080/3/5 1083/3/5
f 1087/3/5 1086/3/5 1085/3/5
f 1088/3/5 1086/3/5 1087/3/5
f 1089/3/6 1090/3/6 1091/3/6
f 1091/3/6 1090/3/6 1092/3/6
f 1093/3/6 1094/3/6 1097/3/6
f 1097/3/6 1094/3/6 1098/3/6
f 1095/3/6 1096/3/6 1099/3/6
f 1099/3/6 1096/3/6 1100/3/6
f 1101/3/6 1102/3/6 1105/3/6
f 1105/3/6 1102/3/6 1106/3/6
f 1103/3/6 1104/3/6 1107/3/6
f 1107/3/6 1104/3/6 1108/3/6
f 1109/3/6 1110/3/6 1113/3/6
f 1113/3/6 1110/3/6 1114/3/6
f 1111/3/6 1112/3/6 1115/3/6
f 1115/3/6 1112/3/6 1116/3/6
f 1117/3/6 1118/3/6 1121/3/6
f 1121/3/6 1118/3/6 1122/3/6
f 1119/3/6 1120/3/6 1123/3/6
f 1123/3/6 1120/3/6 1124/3/6
f 1125/3/6 1126/3/6 1129/3/6
f 1129/3/6 1126/3/6 1130/3/6
f 1127/3/6 1128/3/6 1131/3/6
f 1131/3/6 1128/3/6 1132/3/6
f 1133/3/6 1134/3/6 1137/3/6
f 1137/3/6 1134/3/6 1138/3/6
f 1135/3/6 1136/3/6 1139/3/6
f 1139/3/6 1136/3/6 1140/3/6
f 1141/3/6 1142/3/6 1145/3/6
f 1145/3/6 1142/3/6 1146/3/6
f 1143/3/6 1144/3/6 1147/3/6
f 1147/3/6 1144/3/6 1148/3/6
f 1149/3/6 1150/3/6 1153/3/6
f 1153/3/6 1150/3/6 1154/3/6
f 1151/3/6 1152/3/6 1155/3/6
f 1155/3/6 1152/3/6 1156/3/6
f 1157/3/6 1158/3/6 1161/3/6
f 1161/3/6 1158/3/6 1162/3/6
f 1159/3/6 1160/3/6 1163/3/6
f 1163/3/6 1160/3/6 1164/3/6
f 1165/3/6 1166/3/6 1169/3/6
f 1169/3/6 1166/3/6 1170/3/6
f 1167/3/6 1168/3/6 1171/3/6
f 1171/3/6 1168/3/6 1172/3/6
f 1173/3/6 1174/3/6 1177/3/6
f 1177/3/6 1174/3/6 1178/3/6
f 1175/3/6 1176/3/6 1179/3/6
f 1179/3/6 1176/3/6 1180/3/6
f 1181/3/6 1182/3/6 1185/3/6
f 1185/3/6 1182/3/6 1186/3/6
f 1183/3/6 1184/3/6 1187/3/6
f 1187/3/6 1184/3/6 1188/3/6
f 1189/3/6 1190/3/6 1193/3/6
f 1193/3/6 1190/3/6 1194/3/6
f 1191/3/6 1192/3/6 1195/3/6
f 1195/3/6 1192/3/6 1196/3/6
f 1197/3/6 1198/3/6 1201/3/6
f 1201/3/6 1198/3/6 1202/3/6
f 1199/3/6 1200/3/6 1203/3/6
f 1203/3/6 1200/3/6 1204/3/6
f 1205/3/6 1206/3/6 1209/3/6
f 1209/3/6 1206/3/6 1210/3/6
f 1207/3/6 1208/3/6 1211/3/6
f 1211/3/6 1208/3/6 1212/3/6
f 1213/3/6 1214/3/6 1217/3/6
f 1217/3/6 1214/3/6 1218/3/6
f 1215/3/6 1216/3/6 1219/3/6
f 1219/3/6 1216/3/6 1220/3/6
f 1221/3/6 1222/3/6 1223/3/6
f 1223/3/6 1222/3/6 1224/3/6
