# MagicaVoxel @ Ephtracy

# group
g Table

# material
mtllib Table.mtl
usemtl palette

# normals
vn -1 0 0
vn 1 0 0
vn 0 0 1
vn 0 0 -1
vn 0 -1 0
vn 0 1 0

# texcoords
vt 0.0253906 0.5
vt 0.0371094 0.5

# verts
v -63 0 6
v -63 0 -6
v -63 18 6
v -63 18 -6
v 60 0 6
v 60 0 5
v 60 0 -5
v 60 0 -6
v 60 15 6
v 60 15 5
v 60 15 -5
v 60 15 -6
v -60 0 6
v -60 0 5
v -60 0 -5
v -60 0 -6
v -60 15 6
v -60 15 5
v -60 15 -5
v -60 15 -6
v 63 0 6
v 63 0 -6
v 63 18 6
v 63 18 -6
v -63 0 6
v -63 18 6
v -60 0 6
v -60 15 6
v 60 0 6
v 60 15 6
v 63 0 6
v 63 18 6
v -63 0 -6
v -63 18 -6
v -60 0 -6
v -60 15 -6
v 60 0 -6
v 60 15 -6
v 63 0 -6
v 63 18 -6
v -63 0 6
v -60 0 6
v 60 0 6
v 63 0 6
v -62 0 5
v -60 0 5
v 60 0 5
v 62 0 5
v -62 0 -5
v -60 0 -5
v 60 0 -5
v 62 0 -5
v -63 0 -6
v -60 0 -6
v 60 0 -6
v 63 0 -6
v -60 15 6
v 60 15 6
v -60 15 5
v 60 15 5
v -60 15 -5
v 60 15 -5
v -60 15 -6
v 60 15 -6
v -63 18 6
v 63 18 6
v -62 18 5
v 62 18 5
v -62 18 -5
v 62 18 -5
v -63 18 -6
v 63 18 -6

# faces
f 3/2/1 2/2/1 1/2/1
f 4/2/1 2/2/1 3/2/1
f 9/2/1 6/2/1 5/2/1
f 10/1/1 7/1/1 6/1/1
f 10/2/1 6/2/1 9/2/1
f 11/2/1 8/2/1 7/2/1
f 11/1/1 7/1/1 10/1/1
f 12/2/1 8/2/1 11/2/1
f 13/2/2 14/2/2 17/2/2
f 14/1/2 15/1/2 18/1/2
f 17/2/2 14/2/2 18/2/2
f 15/2/2 16/2/2 19/2/2
f 18/1/2 15/1/2 19/1/2
f 19/2/2 16/2/2 20/2/2
f 21/2/2 22/2/2 23/2/2
f 23/2/2 22/2/2 24/2/2
f 27/2/3 26/2/3 25/2/3
f 28/2/3 26/2/3 27/2/3
f 30/2/3 26/2/3 28/2/3
f 31/2/3 30/2/3 29/2/3
f 32/2/3 26/2/3 30/2/3
f 32/2/3 30/2/3 31/2/3
f 33/2/4 34/2/4 35/2/4
f 35/2/4 34/2/4 36/2/4
f 36/2/4 34/2/4 38/2/4
f 37/2/4 38/2/4 39/2/4
f 38/2/4 34/2/4 40/2/4
f 39/2/4 38/2/4 40/2/4
f 45/2/5 42/2/5 41/2/5
f 46/2/5 42/2/5 45/2/5
f 47/2/5 44/2/5 43/2/5
f 48/2/5 44/2/5 47/2/5
f 49/1/5 46/1/5 45/1/5
f 49/2/5 45/2/5 41/2/5
f 50/1/5 46/1/5 49/1/5
f 51/1/5 48/1/5 47/1/5
f 52/2/5 44/2/5 48/2/5
f 52/1/5 48/1/5 51/1/5
f 53/2/5 50/2/5 49/2/5
f 53/2/5 49/2/5 41/2/5
f 54/2/5 50/2/5 53/2/5
f 55/2/5 52/2/5 51/2/5
f 56/2/5 44/2/5 52/2/5
f 56/2/5 52/2/5 55/2/5
f 59/2/5 58/2/5 57/2/5
f 60/2/5 58/2/5 59/2/5
f 61/1/5 60/1/5 59/1/5
f 62/1/5 60/1/5 61/1/5
f 63/2/5 62/2/5 61/2/5
f 64/2/5 62/2/5 63/2/5
f 65/2/6 66/2/6 67/2/6
f 67/2/6 66/2/6 68/2/6
f 65/2/6 67/2/6 69/2/6
f 67/1/6 68/1/6 69/1/6
f 68/2/6 66/2/6 70/2/6
f 69/1/6 68/1/6 70/1/6
f 65/2/6 69/2/6 71/2/6
f 69/2/6 70/2/6 71/2/6
f 70/2/6 66/2/6 72/2/6
f 71/2/6 70/2/6 72/2/6
