# MagicaVoxel @ Ephtracy

# group
g 1

# material
mtllib 1.mtl
usemtl palette

# normals
vn -1 0 0
vn 1 0 0
vn 0 0 1
vn 0 0 -1
vn 0 -1 0
vn 0 1 0

# texcoords
vt 0.958984 0.5
vt 0.990234 0.5

# verts
v -11.5 0 0.5
v -11.5 0 -0.5
v -11.5 15 0.5
v -11.5 15 -0.5
v 1.5 10 0.5
v 1.5 10 -0.5
v 1.5 12 0.5
v 1.5 12 -0.5
v 2.5 9 0.5
v 2.5 9 -0.5
v 2.5 10 0.5
v 2.5 10 -0.5
v 2.5 12 0.5
v 2.5 12 -0.5
v 2.5 13 0.5
v 2.5 13 -0.5
v 3.5 1 0.5
v 3.5 1 -0.5
v 3.5 4 0.5
v 3.5 4 -0.5
v 3.5 13 0.5
v 3.5 13 -0.5
v 3.5 14 0.5
v 3.5 14 -0.5
v 4.5 0 0.5
v 4.5 0 -0.5
v 4.5 1 0.5
v 4.5 1 -0.5
v 4.5 4 0.5
v 4.5 4 -0.5
v 4.5 8 0.5
v 4.5 8 -0.5
v 5.5 8 0.5
v 5.5 8 -0.5
v 5.5 10 0.5
v 5.5 10 -0.5
v 5.5 14 0.5
v 5.5 14 -0.5
v 5.5 15 0.5
v 5.5 15 -0.5
v -6.5 0 0.5
v -6.5 0 -0.5
v -6.5 4 0.5
v -6.5 4 -0.5
v -2.5 4 0.5
v -2.5 4 -0.5
v -2.5 5 0.5
v -2.5 5 -0.5
v -2.5 14 0.5
v -2.5 14 -0.5
v -2.5 15 0.5
v -2.5 15 -0.5
v -1.5 5 0.5
v -1.5 5 -0.5
v -1.5 6 0.5
v -1.5 6 -0.5
v -1.5 13 0.5
v -1.5 13 -0.5
v -1.5 14 0.5
v -1.5 14 -0.5
v -0.5 6 0.5
v -0.5 6 -0.5
v -0.5 7 0.5
v -0.5 7 -0.5
v -0.5 12 0.5
v -0.5 12 -0.5
v -0.5 13 0.5
v -0.5 13 -0.5
v 0.5 7 0.5
v 0.5 7 -0.5
v 0.5 12 0.5
v 0.5 12 -0.5
v 4.5 9 0.5
v 4.5 9 -0.5
v 4.5 10 0.5
v 4.5 10 -0.5
v 7.5 0 0.5
v 7.5 0 -0.5
v 7.5 1 0.5
v 7.5 1 -0.5
v 8.5 1 0.5
v 8.5 1 -0.5
v 8.5 4 0.5
v 8.5 4 -0.5
v 8.5 14 0.5
v 8.5 14 -0.5
v 8.5 15 0.5
v 8.5 15 -0.5
v 9.5 4 0.5
v 9.5 4 -0.5
v 9.5 8 0.5
v 9.5 8 -0.5
v 9.5 12 0.5
v 9.5 12 -0.5
v 9.5 14 0.5
v 9.5 14 -0.5
v 10.5 8 0.5
v 10.5 8 -0.5
v 10.5 12 0.5
v 10.5 12 -0.5
v -11.5 0 0.5
v -11.5 15 0.5
v -10.5 1 0.5
v -10.5 14 0.5
v -7.5 1 0.5
v -7.5 5 0.5
v -7.5 8 0.5
v -7.5 11 0.5
v -6.5 0 0.5
v -6.5 4 0.5
v -4.5 8 0.5
v -4.5 9 0.5
v -4.5 10 0.5
v -4.5 11 0.5
v -3.5 5 0.5
v -3.5 6 0.5
v -3.5 9 0.5
v -3.5 10 0.5
v -3.5 13 0.5
v -3.5 14 0.5
v -2.5 4 0.5
v -2.5 5 0.5
v -2.5 6 0.5
v -2.5 7 0.5
v -2.5 12 0.5
v -2.5 13 0.5
v -2.5 14 0.5
v -2.5 15 0.5
v -1.5 5 0.5
v -1.5 6 0.5
v -1.5 7 0.5
v -1.5 8 0.5
v -1.5 11 0.5
v -1.5 12 0.5
v -1.5 13 0.5
v -1.5 14 0.5
v -0.5 6 0.5
v -0.5 7 0.5
v -0.5 8 0.5
v -0.5 11 0.5
v -0.5 12 0.5
v -0.5 13 0.5
v 0.5 7 0.5
v 0.5 12 0.5
v 1.5 10 0.5
v 1.5 12 0.5
v 2.5 9 0.5
v 2.5 10 0.5
v 2.5 12 0.5
v 2.5 13 0.5
v 3.5 1 0.5
v 3.5 4 0.5
v 3.5 12 0.5
v 3.5 13 0.5
v 3.5 14 0.5
v 4.5 0 0.5
v 4.5 1 0.5
v 4.5 4 0.5
v 4.5 8 0.5
v 4.5 9 0.5
v 4.5 10 0.5
v 4.5 11 0.5
v 5.5 4 0.5
v 5.5 8 0.5
v 5.5 10 0.5
v 5.5 13 0.5
v 5.5 14 0.5
v 5.5 15 0.5
v 6.5 8 0.5
v 6.5 11 0.5
v 7.5 0 0.5
v 7.5 1 0.5
v 7.5 4 0.5
v 8.5 1 0.5
v 8.5 4 0.5
v 8.5 8 0.5
v 8.5 12 0.5
v 8.5 14 0.5
v 8.5 15 0.5
v 9.5 4 0.5
v 9.5 8 0.5
v 9.5 12 0.5
v 9.5 14 0.5
v 10.5 8 0.5
v 10.5 12 0.5
v -11.5 0 -0.5
v -11.5 15 -0.5
v -10.5 1 -0.5
v -10.5 14 -0.5
v -7.5 1 -0.5
v -7.5 5 -0.5
v -7.5 8 -0.5
v -7.5 11 -0.5
v -6.5 0 -0.5
v -6.5 4 -0.5
v -4.5 8 -0.5
v -4.5 9 -0.5
v -4.5 10 -0.5
v -4.5 11 -0.5
v -3.5 5 -0.5
v -3.5 6 -0.5
v -3.5 9 -0.5
v -3.5 10 -0.5
v -3.5 13 -0.5
v -3.5 14 -0.5
v -2.5 4 -0.5
v -2.5 5 -0.5
v -2.5 6 -0.5
v -2.5 7 -0.5
v -2.5 12 -0.5
v -2.5 13 -0.5
v -2.5 14 -0.5
v -2.5 15 -0.5
v -1.5 5 -0.5
v -1.5 6 -0.5
v -1.5 7 -0.5
v -1.5 8 -0.5
v -1.5 11 -0.5
v -1.5 12 -0.5
v -1.5 13 -0.5
v -1.5 14 -0.5
v -0.5 6 -0.5
v -0.5 7 -0.5
v -0.5 8 -0.5
v -0.5 11 -0.5
v -0.5 12 -0.5
v -0.5 13 -0.5
v 0.5 7 -0.5
v 0.5 12 -0.5
v 1.5 10 -0.5
v 1.5 12 -0.5
v 2.5 9 -0.5
v 2.5 10 -0.5
v 2.5 12 -0.5
v 2.5 13 -0.5
v 3.5 1 -0.5
v 3.5 4 -0.5
v 3.5 12 -0.5
v 3.5 13 -0.5
v 3.5 14 -0.5
v 4.5 0 -0.5
v 4.5 1 -0.5
v 4.5 4 -0.5
v 4.5 8 -0.5
v 4.5 9 -0.5
v 4.5 10 -0.5
v 4.5 11 -0.5
v 5.5 4 -0.5
v 5.5 8 -0.5
v 5.5 10 -0.5
v 5.5 13 -0.5
v 5.5 14 -0.5
v 5.5 15 -0.5
v 6.5 8 -0.5
v 6.5 11 -0.5
v 7.5 0 -0.5
v 7.5 1 -0.5
v 7.5 4 -0.5
v 8.5 1 -0.5
v 8.5 4 -0.5
v 8.5 8 -0.5
v 8.5 12 -0.5
v 8.5 14 -0.5
v 8.5 15 -0.5
v 9.5 4 -0.5
v 9.5 8 -0.5
v 9.5 12 -0.5
v 9.5 14 -0.5
v 10.5 8 -0.5
v 10.5 12 -0.5
v -11.5 0 0.5
v -6.5 0 0.5
v 4.5 0 0.5
v 7.5 0 0.5
v -11.5 0 -0.5
v -6.5 0 -0.5
v 4.5 0 -0.5
v 7.5 0 -0.5
v 3.5 1 0.5
v 4.5 1 0.5
v 7.5 1 0.5
v 8.5 1 0.5
v 3.5 1 -0.5
v 4.5 1 -0.5
v 7.5 1 -0.5
v 8.5 1 -0.5
v -6.5 4 0.5
v -2.5 4 0.5
v 8.5 4 0.5
v 9.5 4 0.5
v -6.5 4 -0.5
v -2.5 4 -0.5
v 8.5 4 -0.5
v 9.5 4 -0.5
v -2.5 5 0.5
v -1.5 5 0.5
v -2.5 5 -0.5
v -1.5 5 -0.5
v -1.5 6 0.5
v -0.5 6 0.5
v -1.5 6 -0.5
v -0.5 6 -0.5
v -0.5 7 0.5
v 0.5 7 0.5
v -0.5 7 -0.5
v 0.5 7 -0.5
v 9.5 8 0.5
v 10.5 8 0.5
v 9.5 8 -0.5
v 10.5 8 -0.5
v 2.5 9 0.5
v 4.5 9 0.5
v 2.5 9 -0.5
v 4.5 9 -0.5
v 1.5 10 0.5
v 2.5 10 0.5
v 4.5 10 0.5
v 5.5 10 0.5
v 1.5 10 -0.5
v 2.5 10 -0.5
v 4.5 10 -0.5
v 5.5 10 -0.5
v 3.5 4 0.5
v 4.5 4 0.5
v 3.5 4 -0.5
v 4.5 4 -0.5
v 4.5 8 0.5
v 5.5 8 0.5
v 4.5 8 -0.5
v 5.5 8 -0.5
v -0.5 12 0.5
v 0.5 12 0.5
v 1.5 12 0.5
v 2.5 12 0.5
v 9.5 12 0.5
v 10.5 12 0.5
v -0.5 12 -0.5
v 0.5 12 -0.5
v 1.5 12 -0.5
v 2.5 12 -0.5
v 9.5 12 -0.5
v 10.5 12 -0.5
v -1.5 13 0.5
v -0.5 13 0.5
v 2.5 13 0.5
v 3.5 13 0.5
v -1.5 13 -0.5
v -0.5 13 -0.5
v 2.5 13 -0.5
v 3.5 13 -0.5
v -2.5 14 0.5
v -1.5 14 0.5
v 3.5 14 0.5
v 5.5 14 0.5
v 8.5 14 0.5
v 9.5 14 0.5
v -2.5 14 -0.5
v -1.5 14 -0.5
v 3.5 14 -0.5
v 5.5 14 -0.5
v 8.5 14 -0.5
v 9.5 14 -0.5
v -11.5 15 0.5
v -2.5 15 0.5
v 5.5 15 0.5
v 8.5 15 0.5
v -11.5 15 -0.5
v -2.5 15 -0.5
v 5.5 15 -0.5
v 8.5 15 -0.5

# faces
f 3/2/1 2/2/1 1/2/1
f 4/2/1 2/2/1 3/2/1
f 7/2/1 6/2/1 5/2/1
f 8/2/1 6/2/1 7/2/1
f 11/2/1 10/2/1 9/2/1
f 12/2/1 10/2/1 11/2/1
f 15/2/1 14/2/1 13/2/1
f 16/2/1 14/2/1 15/2/1
f 19/2/1 18/2/1 17/2/1
f 20/2/1 18/2/1 19/2/1
f 23/2/1 22/2/1 21/2/1
f 24/2/1 22/2/1 23/2/1
f 27/2/1 26/2/1 25/2/1
f 28/2/1 26/2/1 27/2/1
f 31/2/1 30/2/1 29/2/1
f 32/2/1 30/2/1 31/2/1
f 35/2/1 34/2/1 33/2/1
f 36/2/1 34/2/1 35/2/1
f 39/2/1 38/2/1 37/2/1
f 40/2/1 38/2/1 39/2/1
f 41/2/2 42/2/2 43/2/2
f 43/2/2 42/2/2 44/2/2
f 45/2/2 46/2/2 47/2/2
f 47/2/2 46/2/2 48/2/2
f 49/2/2 50/2/2 51/2/2
f 51/2/2 50/2/2 52/2/2
f 53/2/2 54/2/2 55/2/2
f 55/2/2 54/2/2 56/2/2
f 57/2/2 58/2/2 59/2/2
f 59/2/2 58/2/2 60/2/2
f 61/2/2 62/2/2 63/2/2
f 63/2/2 62/2/2 64/2/2
f 65/2/2 66/2/2 67/2/2
f 67/2/2 66/2/2 68/2/2
f 69/2/2 70/2/2 71/2/2
f 71/2/2 70/2/2 72/2/2
f 73/2/2 74/2/2 75/2/2
f 75/2/2 74/2/2 76/2/2
f 77/2/2 78/2/2 79/2/2
f 79/2/2 78/2/2 80/2/2
f 81/2/2 82/2/2 83/2/2
f 83/2/2 82/2/2 84/2/2
f 85/2/2 86/2/2 87/2/2
f 87/2/2 86/2/2 88/2/2
f 89/2/2 90/2/2 91/2/2
f 91/2/2 90/2/2 92/2/2
f 93/2/2 94/2/2 95/2/2
f 95/2/2 94/2/2 96/2/2
f 97/2/2 98/2/2 99/2/2
f 99/2/2 98/2/2 100/2/2
f 103/2/3 102/2/3 101/2/3
f 104/2/3 102/2/3 103/2/3
f 105/2/3 103/2/3 101/2/3
f 105/1/3 104/1/3 103/1/3
f 106/1/3 104/1/3 105/1/3
f 107/1/3 104/1/3 106/1/3
f 108/1/3 104/1/3 107/1/3
f 109/2/3 105/2/3 101/2/3
f 109/2/3 106/2/3 105/2/3
f 110/2/3 106/2/3 109/2/3
f 111/2/3 108/2/3 107/2/3
f 111/1/3 107/1/3 106/1/3
f 112/2/3 108/2/3 111/2/3
f 113/2/3 108/2/3 112/2/3
f 114/1/3 104/1/3 108/1/3
f 114/2/3 108/2/3 113/2/3
f 115/2/3 106/2/3 110/2/3
f 115/1/3 111/1/3 106/1/3
f 115/1/3 112/1/3 111/1/3
f 116/1/3 112/1/3 115/1/3
f 117/2/3 113/2/3 112/2/3
f 117/1/3 112/1/3 116/1/3
f 118/1/3 114/1/3 113/1/3
f 118/2/3 113/2/3 117/2/3
f 119/1/3 104/1/3 114/1/3
f 119/1/3 114/1/3 118/1/3
f 120/2/3 102/2/3 104/2/3
f 120/1/3 104/1/3 119/1/3
f 121/2/3 116/2/3 115/2/3
f 121/2/3 115/2/3 110/2/3
f 122/2/3 116/2/3 121/2/3
f 123/1/3 119/1/3 118/1/3
f 123/2/3 116/2/3 122/2/3
f 123/1/3 118/1/3 117/1/3
f 123/1/3 117/1/3 116/1/3
f 124/1/3 119/1/3 123/1/3
f 125/1/3 119/1/3 124/1/3
f 126/2/3 120/2/3 119/2/3
f 126/1/3 119/1/3 125/1/3
f 127/2/3 102/2/3 120/2/3
f 127/2/3 120/2/3 126/2/3
f 128/2/3 102/2/3 127/2/3
f 129/2/3 123/2/3 122/2/3
f 129/2/3 124/2/3 123/2/3
f 130/2/3 124/2/3 129/2/3
f 131/1/3 125/1/3 124/1/3
f 131/2/3 124/2/3 130/2/3
f 132/1/3 125/1/3 131/1/3
f 133/1/3 125/1/3 132/1/3
f 134/2/3 126/2/3 125/2/3
f 134/1/3 125/1/3 133/1/3
f 134/2/3 127/2/3 126/2/3
f 135/2/3 127/2/3 134/2/3
f 136/2/3 127/2/3 135/2/3
f 137/2/3 132/2/3 131/2/3
f 137/2/3 131/2/3 130/2/3
f 138/2/3 132/2/3 137/2/3
f 139/1/3 133/1/3 132/1/3
f 139/2/3 132/2/3 138/2/3
f 140/2/3 135/2/3 134/2/3
f 140/1/3 133/1/3 139/1/3
f 140/2/3 134/2/3 133/2/3
f 141/2/3 135/2/3 140/2/3
f 142/2/3 135/2/3 141/2/3
f 143/2/3 139/2/3 138/2/3
f 143/2/3 141/2/3 140/2/3
f 143/2/3 140/2/3 139/2/3
f 144/2/3 141/2/3 143/2/3
f 148/2/3 146/2/3 145/2/3
f 149/2/3 146/2/3 148/2/3
f 153/1/3 149/1/3 148/1/3
f 153/2/3 150/2/3 149/2/3
f 154/2/3 150/2/3 153/2/3
f 157/2/3 152/2/3 151/2/3
f 158/2/3 152/2/3 157/2/3
f 160/2/3 148/2/3 147/2/3
f 161/1/3 154/1/3 153/1/3
f 161/2/3 148/2/3 160/2/3
f 161/1/3 153/1/3 148/1/3
f 162/1/3 154/1/3 161/1/3
f 163/2/3 159/2/3 158/2/3
f 163/1/3 158/1/3 157/1/3
f 164/2/3 159/2/3 163/2/3
f 165/2/3 162/2/3 161/2/3
f 166/2/3 155/2/3 154/2/3
f 166/1/3 154/1/3 162/1/3
f 167/2/3 155/2/3 166/2/3
f 169/2/3 165/2/3 164/2/3
f 169/1/3 164/1/3 163/1/3
f 170/1/3 167/1/3 166/1/3
f 170/2/3 165/2/3 169/2/3
f 170/2/3 162/2/3 165/2/3
f 170/1/3 166/1/3 162/1/3
f 171/2/3 157/2/3 156/2/3
f 172/1/3 169/1/3 163/1/3
f 172/2/3 157/2/3 171/2/3
f 172/1/3 163/1/3 157/1/3
f 172/1/3 170/1/3 169/1/3
f 173/1/3 170/1/3 172/1/3
f 174/2/3 173/2/3 172/2/3
f 175/1/3 170/1/3 173/1/3
f 175/2/3 173/2/3 174/2/3
f 176/1/3 170/1/3 175/1/3
f 177/1/3 167/1/3 170/1/3
f 177/1/3 170/1/3 176/1/3
f 178/2/3 168/2/3 167/2/3
f 178/1/3 167/1/3 177/1/3
f 179/2/3 168/2/3 178/2/3
f 180/2/3 176/2/3 175/2/3
f 181/1/3 177/1/3 176/1/3
f 181/2/3 176/2/3 180/2/3
f 182/2/3 178/2/3 177/2/3
f 182/1/3 177/1/3 181/1/3
f 183/2/3 178/2/3 182/2/3
f 184/2/3 182/2/3 181/2/3
f 185/2/3 182/2/3 184/2/3
f 186/2/4 187/2/4 188/2/4
f 188/2/4 187/2/4 189/2/4
f 186/2/4 188/2/4 190/2/4
f 188/1/4 189/1/4 190/1/4
f 190/1/4 189/1/4 191/1/4
f 191/1/4 189/1/4 192/1/4
f 192/1/4 189/1/4 193/1/4
f 186/2/4 190/2/4 194/2/4
f 190/2/4 191/2/4 194/2/4
f 194/2/4 191/2/4 195/2/4
f 192/2/4 193/2/4 196/2/4
f 191/1/4 192/1/4 196/1/4
f 196/2/4 193/2/4 197/2/4
f 197/2/4 193/2/4 198/2/4
f 193/1/4 189/1/4 199/1/4
f 198/2/4 193/2/4 199/2/4
f 195/2/4 191/2/4 200/2/4
f 191/1/4 196/1/4 200/1/4
f 196/1/4 197/1/4 200/1/4
f 200/1/4 197/1/4 201/1/4
f 197/2/4 198/2/4 202/2/4
f 201/1/4 197/1/4 202/1/4
f 198/1/4 199/1/4 203/1/4
f 202/2/4 198/2/4 203/2/4
f 199/1/4 189/1/4 204/1/4
f 203/1/4 199/1/4 204/1/4
f 189/2/4 187/2/4 205/2/4
f 204/1/4 189/1/4 205/1/4
f 200/2/4 201/2/4 206/2/4
f 195/2/4 200/2/4 206/2/4
f 206/2/4 201/2/4 207/2/4
f 203/1/4 204/1/4 208/1/4
f 207/2/4 201/2/4 208/2/4
f 202/1/4 203/1/4 208/1/4
f 201/1/4 202/1/4 208/1/4
f 208/1/4 204/1/4 209/1/4
f 209/1/4 204/1/4 210/1/4
f 204/2/4 205/2/4 211/2/4
f 210/1/4 204/1/4 211/1/4
f 205/2/4 187/2/4 212/2/4
f 211/2/4 205/2/4 212/2/4
f 212/2/4 187/2/4 213/2/4
f 207/2/4 208/2/4 214/2/4
f 208/2/4 209/2/4 214/2/4
f 214/2/4 209/2/4 215/2/4
f 209/1/4 210/1/4 216/1/4
f 215/2/4 209/2/4 216/2/4
f 216/1/4 210/1/4 217/1/4
f 217/1/4 210/1/4 218/1/4
f 210/2/4 211/2/4 219/2/4
f 218/1/4 210/1/4 219/1/4
f 211/2/4 212/2/4 219/2/4
f 219/2/4 212/2/4 220/2/4
f 220/2/4 212/2/4 221/2/4
f 216/2/4 217/2/4 222/2/4
f 215/2/4 216/2/4 222/2/4
f 222/2/4 217/2/4 223/2/4
f 217/1/4 218/1/4 224/1/4
f 223/2/4 217/2/4 224/2/4
f 219/2/4 220/2/4 225/2/4
f 224/1/4 218/1/4 225/1/4
f 218/2/4 219/2/4 225/2/4
f 225/2/4 220/2/4 226/2/4
f 226/2/4 220/2/4 227/2/4
f 223/2/4 224/2/4 228/2/4
f 225/2/4 226/2/4 228/2/4
f 224/2/4 225/2/4 228/2/4
f 228/2/4 226/2/4 229/2/4
f 230/2/4 231/2/4 233/2/4
f 233/2/4 231/2/4 234/2/4
f 233/1/4 234/1/4 238/1/4
f 234/2/4 235/2/4 238/2/4
f 238/2/4 235/2/4 239/2/4
f 236/2/4 237/2/4 242/2/4
f 242/2/4 237/2/4 243/2/4
f 232/2/4 233/2/4 245/2/4
f 238/1/4 239/1/4 246/1/4
f 245/2/4 233/2/4 246/2/4
f 233/1/4 238/1/4 246/1/4
f 246/1/4 239/1/4 247/1/4
f 243/2/4 244/2/4 248/2/4
f 242/1/4 243/1/4 248/1/4
f 248/2/4 244/2/4 249/2/4
f 246/2/4 247/2/4 250/2/4
f 239/2/4 240/2/4 251/2/4
f 247/1/4 239/1/4 251/1/4
f 251/2/4 240/2/4 252/2/4
f 249/2/4 250/2/4 254/2/4
f 248/1/4 249/1/4 254/1/4
f 251/1/4 252/1/4 255/1/4
f 254/2/4 250/2/4 255/2/4
f 250/2/4 247/2/4 255/2/4
f 247/1/4 251/1/4 255/1/4
f 241/2/4 242/2/4 256/2/4
f 248/1/4 254/1/4 257/1/4
f 256/2/4 242/2/4 257/2/4
f 242/1/4 248/1/4 257/1/4
f 254/1/4 255/1/4 257/1/4
f 257/1/4 255/1/4 258/1/4
f 257/2/4 258/2/4 259/2/4
f 258/1/4 255/1/4 260/1/4
f 259/2/4 258/2/4 260/2/4
f 260/1/4 255/1/4 261/1/4
f 255/1/4 252/1/4 262/1/4
f 261/1/4 255/1/4 262/1/4
f 252/2/4 253/2/4 263/2/4
f 262/1/4 252/1/4 263/1/4
f 263/2/4 253/2/4 264/2/4
f 260/2/4 261/2/4 265/2/4
f 261/1/4 262/1/4 266/1/4
f 265/2/4 261/2/4 266/2/4
f 262/2/4 263/2/4 267/2/4
f 266/1/4 262/1/4 267/1/4
f 267/2/4 263/2/4 268/2/4
f 266/2/4 267/2/4 269/2/4
f 269/2/4 267/2/4 270/2/4
f 275/2/5 272/2/5 271/2/5
f 276/2/5 272/2/5 275/2/5
f 277/2/5 274/2/5 273/2/5
f 278/2/5 274/2/5 277/2/5
f 283/2/5 280/2/5 279/2/5
f 284/2/5 280/2/5 283/2/5
f 285/2/5 282/2/5 281/2/5
f 286/2/5 282/2/5 285/2/5
f 291/2/5 288/2/5 287/2/5
f 292/2/5 288/2/5 291/2/5
f 293/2/5 290/2/5 289/2/5
f 294/2/5 290/2/5 293/2/5
f 297/2/5 296/2/5 295/2/5
f 298/2/5 296/2/5 297/2/5
f 301/2/5 300/2/5 299/2/5
f 302/2/5 300/2/5 301/2/5
f 305/2/5 304/2/5 303/2/5
f 306/2/5 304/2/5 305/2/5
f 309/2/5 308/2/5 307/2/5
f 310/2/5 308/2/5 309/2/5
f 313/2/5 312/2/5 311/2/5
f 314/2/5 312/2/5 313/2/5
f 319/2/5 316/2/5 315/2/5
f 320/2/5 316/2/5 319/2/5
f 321/2/5 318/2/5 317/2/5
f 322/2/5 318/2/5 321/2/5
f 323/2/6 324/2/6 325/2/6
f 325/2/6 324/2/6 326/2/6
f 327/2/6 328/2/6 329/2/6
f 329/2/6 328/2/6 330/2/6
f 331/2/6 332/2/6 337/2/6
f 337/2/6 332/2/6 338/2/6
f 333/2/6 334/2/6 339/2/6
f 339/2/6 334/2/6 340/2/6
f 335/2/6 336/2/6 341/2/6
f 341/2/6 336/2/6 342/2/6
f 343/2/6 344/2/6 347/2/6
f 347/2/6 344/2/6 348/2/6
f 345/2/6 346/2/6 349/2/6
f 349/2/6 346/2/6 350/2/6
f 351/2/6 352/2/6 357/2/6
f 357/2/6 352/2/6 358/2/6
f 353/2/6 354/2/6 359/2/6
f 359/2/6 354/2/6 360/2/6
f 355/2/6 356/2/6 361/2/6
f 361/2/6 356/2/6 362/2/6
f 363/2/6 364/2/6 367/2/6
f 367/2/6 364/2/6 368/2/6
f 365/2/6 366/2/6 369/2/6
f 369/2/6 366/2/6 370/2/6
