# MagicaVoxel @ Ephtracy

# group
g 3

# material
mtllib 3.mtl
usemtl palette

# normals
vn -1 0 0
vn 1 0 0
vn 0 0 1
vn 0 0 -1
vn 0 -1 0
vn 0 1 0

# texcoords
vt 0.958984 0.5
vt 0.990234 0.5

# verts
v -13.5 0 0.5
v -13.5 0 -0.5
v -13.5 15 0.5
v -13.5 15 -0.5
v -0.5 2 0.5
v -0.5 2 -0.5
v -0.5 5 0.5
v -0.5 5 -0.5
v -0.5 10 0.5
v -0.5 10 -0.5
v -0.5 13 0.5
v -0.5 13 -0.5
v 0.5 1 0.5
v 0.5 1 -0.5
v 0.5 2 0.5
v 0.5 2 -0.5
v 0.5 5 0.5
v 0.5 5 -0.5
v 0.5 6 0.5
v 0.5 6 -0.5
v 0.5 9 0.5
v 0.5 9 -0.5
v 0.5 10 0.5
v 0.5 10 -0.5
v 0.5 13 0.5
v 0.5 13 -0.5
v 0.5 14 0.5
v 0.5 14 -0.5
v 1.5 0 0.5
v 1.5 0 -0.5
v 1.5 1 0.5
v 1.5 1 -0.5
v 1.5 6 0.5
v 1.5 6 -0.5
v 1.5 7 0.5
v 1.5 7 -0.5
v 1.5 8 0.5
v 1.5 8 -0.5
v 1.5 9 0.5
v 1.5 9 -0.5
v 1.5 14 0.5
v 1.5 14 -0.5
v 1.5 15 0.5
v 1.5 15 -0.5
v 6.5 6 0.5
v 6.5 6 -0.5
v 6.5 9 0.5
v 6.5 9 -0.5
v 7.5 5 0.5
v 7.5 5 -0.5
v 7.5 6 0.5
v 7.5 6 -0.5
v 7.5 9 0.5
v 7.5 9 -0.5
v 7.5 10 0.5
v 7.5 10 -0.5
v -8.5 0 0.5
v -8.5 0 -0.5
v -8.5 4 0.5
v -8.5 4 -0.5
v -4.5 4 0.5
v -4.5 4 -0.5
v -4.5 5 0.5
v -4.5 5 -0.5
v -4.5 14 0.5
v -4.5 14 -0.5
v -4.5 15 0.5
v -4.5 15 -0.5
v -3.5 5 0.5
v -3.5 5 -0.5
v -3.5 6 0.5
v -3.5 6 -0.5
v -3.5 13 0.5
v -3.5 13 -0.5
v -3.5 14 0.5
v -3.5 14 -0.5
v -2.5 6 0.5
v -2.5 6 -0.5
v -2.5 7 0.5
v -2.5 7 -0.5
v -2.5 12 0.5
v -2.5 12 -0.5
v -2.5 13 0.5
v -2.5 13 -0.5
v -1.5 7 0.5
v -1.5 7 -0.5
v -1.5 12 0.5
v -1.5 12 -0.5
v 4.5 6 0.5
v 4.5 6 -0.5
v 4.5 7 0.5
v 4.5 7 -0.5
v 4.5 8 0.5
v 4.5 8 -0.5
v 4.5 9 0.5
v 4.5 9 -0.5
v 5.5 5 0.5
v 5.5 5 -0.5
v 5.5 6 0.5
v 5.5 6 -0.5
v 5.5 9 0.5
v 5.5 9 -0.5
v 5.5 10 0.5
v 5.5 10 -0.5
v 11.5 0 0.5
v 11.5 0 -0.5
v 11.5 1 0.5
v 11.5 1 -0.5
v 11.5 14 0.5
v 11.5 14 -0.5
v 11.5 15 0.5
v 11.5 15 -0.5
v 12.5 1 0.5
v 12.5 1 -0.5
v 12.5 2 0.5
v 12.5 2 -0.5
v 12.5 7 0.5
v 12.5 7 -0.5
v 12.5 8 0.5
v 12.5 8 -0.5
v 12.5 13 0.5
v 12.5 13 -0.5
v 12.5 14 0.5
v 12.5 14 -0.5
v 13.5 2 0.5
v 13.5 2 -0.5
v 13.5 3 0.5
v 13.5 3 -0.5
v 13.5 6 0.5
v 13.5 6 -0.5
v 13.5 7 0.5
v 13.5 7 -0.5
v 13.5 8 0.5
v 13.5 8 -0.5
v 13.5 9 0.5
v 13.5 9 -0.5
v 13.5 12 0.5
v 13.5 12 -0.5
v 13.5 13 0.5
v 13.5 13 -0.5
v 14.5 3 0.5
v 14.5 3 -0.5
v 14.5 6 0.5
v 14.5 6 -0.5
v 14.5 9 0.5
v 14.5 9 -0.5
v 14.5 12 0.5
v 14.5 12 -0.5
v -13.5 0 0.5
v -13.5 15 0.5
v -12.5 1 0.5
v -12.5 14 0.5
v -9.5 1 0.5
v -9.5 5 0.5
v -9.5 8 0.5
v -9.5 11 0.5
v -8.5 0 0.5
v -8.5 4 0.5
v -6.5 8 0.5
v -6.5 9 0.5
v -6.5 10 0.5
v -6.5 11 0.5
v -5.5 5 0.5
v -5.5 6 0.5
v -5.5 9 0.5
v -5.5 10 0.5
v -5.5 13 0.5
v -5.5 14 0.5
v -4.5 4 0.5
v -4.5 5 0.5
v -4.5 6 0.5
v -4.5 7 0.5
v -4.5 12 0.5
v -4.5 13 0.5
v -4.5 14 0.5
v -4.5 15 0.5
v -3.5 5 0.5
v -3.5 6 0.5
v -3.5 7 0.5
v -3.5 8 0.5
v -3.5 11 0.5
v -3.5 12 0.5
v -3.5 13 0.5
v -3.5 14 0.5
v -2.5 6 0.5
v -2.5 7 0.5
v -2.5 8 0.5
v -2.5 11 0.5
v -2.5 12 0.5
v -2.5 13 0.5
v -1.5 7 0.5
v -1.5 12 0.5
v -0.5 2 0.5
v -0.5 5 0.5
v -0.5 10 0.5
v -0.5 13 0.5
v 0.5 1 0.5
v 0.5 2 0.5
v 0.5 3 0.5
v 0.5 4 0.5
v 0.5 5 0.5
v 0.5 6 0.5
v 0.5 9 0.5
v 0.5 10 0.5
v 0.5 11 0.5
v 0.5 12 0.5
v 0.5 13 0.5
v 0.5 14 0.5
v 1.5 0 0.5
v 1.5 1 0.5
v 1.5 2 0.5
v 1.5 3 0.5
v 1.5 4 0.5
v 1.5 5 0.5
v 1.5 6 0.5
v 1.5 7 0.5
v 1.5 8 0.5
v 1.5 9 0.5
v 1.5 10 0.5
v 1.5 11 0.5
v 1.5 12 0.5
v 1.5 13 0.5
v 1.5 14 0.5
v 1.5 15 0.5
v 2.5 1 0.5
v 2.5 2 0.5
v 2.5 5 0.5
v 2.5 6 0.5
v 2.5 9 0.5
v 2.5 10 0.5
v 2.5 13 0.5
v 2.5 14 0.5
v 3.5 5 0.5
v 3.5 6 0.5
v 3.5 9 0.5
v 3.5 10 0.5
v 4.5 4 0.5
v 4.5 5 0.5
v 4.5 6 0.5
v 4.5 7 0.5
v 4.5 8 0.5
v 4.5 9 0.5
v 4.5 10 0.5
v 4.5 11 0.5
v 5.5 3 0.5
v 5.5 4 0.5
v 5.5 5 0.5
v 5.5 6 0.5
v 5.5 9 0.5
v 5.5 10 0.5
v 5.5 11 0.5
v 5.5 12 0.5
v 6.5 6 0.5
v 6.5 9 0.5
v 7.5 3 0.5
v 7.5 4 0.5
v 7.5 5 0.5
v 7.5 6 0.5
v 7.5 7 0.5
v 7.5 8 0.5
v 7.5 9 0.5
v 7.5 10 0.5
v 7.5 11 0.5
v 7.5 12 0.5
v 8.5 4 0.5
v 8.5 5 0.5
v 8.5 6 0.5
v 8.5 7 0.5
v 8.5 8 0.5
v 8.5 9 0.5
v 8.5 10 0.5
v 8.5 11 0.5
v 9.5 5 0.5
v 9.5 6 0.5
v 9.5 9 0.5
v 9.5 10 0.5
v 10.5 1 0.5
v 10.5 2 0.5
v 10.5 7 0.5
v 10.5 8 0.5
v 10.5 13 0.5
v 10.5 14 0.5
v 11.5 0 0.5
v 11.5 1 0.5
v 11.5 2 0.5
v 11.5 3 0.5
v 11.5 6 0.5
v 11.5 7 0.5
v 11.5 8 0.5
v 11.5 9 0.5
v 11.5 12 0.5
v 11.5 13 0.5
v 11.5 14 0.5
v 11.5 15 0.5
v 12.5 1 0.5
v 12.5 2 0.5
v 12.5 3 0.5
v 12.5 4 0.5
v 12.5 5 0.5
v 12.5 6 0.5
v 12.5 7 0.5
v 12.5 8 0.5
v 12.5 9 0.5
v 12.5 10 0.5
v 12.5 11 0.5
v 12.5 12 0.5
v 12.5 13 0.5
v 12.5 14 0.5
v 13.5 2 0.5
v 13.5 3 0.5
v 13.5 4 0.5
v 13.5 5 0.5
v 13.5 6 0.5
v 13.5 7 0.5
v 13.5 8 0.5
v 13.5 9 0.5
v 13.5 10 0.5
v 13.5 11 0.5
v 13.5 12 0.5
v 13.5 13 0.5
v 14.5 3 0.5
v 14.5 6 0.5
v 14.5 9 0.5
v 14.5 12 0.5
v -13.5 0 -0.5
v -13.5 15 -0.5
v -12.5 1 -0.5
v -12.5 14 -0.5
v -9.5 1 -0.5
v -9.5 5 -0.5
v -9.5 8 -0.5
v -9.5 11 -0.5
v -8.5 0 -0.5
v -8.5 4 -0.5
v -6.5 8 -0.5
v -6.5 9 -0.5
v -6.5 10 -0.5
v -6.5 11 -0.5
v -5.5 5 -0.5
v -5.5 6 -0.5
v -5.5 9 -0.5
v -5.5 10 -0.5
v -5.5 13 -0.5
v -5.5 14 -0.5
v -4.5 4 -0.5
v -4.5 5 -0.5
v -4.5 6 -0.5
v -4.5 7 -0.5
v -4.5 12 -0.5
v -4.5 13 -0.5
v -4.5 14 -0.5
v -4.5 15 -0.5
v -3.5 5 -0.5
v -3.5 6 -0.5
v -3.5 7 -0.5
v -3.5 8 -0.5
v -3.5 11 -0.5
v -3.5 12 -0.5
v -3.5 13 -0.5
v -3.5 14 -0.5
v -2.5 6 -0.5
v -2.5 7 -0.5
v -2.5 8 -0.5
v -2.5 11 -0.5
v -2.5 12 -0.5
v -2.5 13 -0.5
v -1.5 7 -0.5
v -1.5 12 -0.5
v -0.5 2 -0.5
v -0.5 5 -0.5
v -0.5 10 -0.5
v -0.5 13 -0.5
v 0.5 1 -0.5
v 0.5 2 -0.5
v 0.5 3 -0.5
v 0.5 4 -0.5
v 0.5 5 -0.5
v 0.5 6 -0.5
v 0.5 9 -0.5
v 0.5 10 -0.5
v 0.5 11 -0.5
v 0.5 12 -0.5
v 0.5 13 -0.5
v 0.5 14 -0.5
v 1.5 0 -0.5
v 1.5 1 -0.5
v 1.5 2 -0.5
v 1.5 3 -0.5
v 1.5 4 -0.5
v 1.5 5 -0.5
v 1.5 6 -0.5
v 1.5 7 -0.5
v 1.5 8 -0.5
v 1.5 9 -0.5
v 1.5 10 -0.5
v 1.5 11 -0.5
v 1.5 12 -0.5
v 1.5 13 -0.5
v 1.5 14 -0.5
v 1.5 15 -0.5
v 2.5 1 -0.5
v 2.5 2 -0.5
v 2.5 5 -0.5
v 2.5 6 -0.5
v 2.5 9 -0.5
v 2.5 10 -0.5
v 2.5 13 -0.5
v 2.5 14 -0.5
v 3.5 5 -0.5
v 3.5 6 -0.5
v 3.5 9 -0.5
v 3.5 10 -0.5
v 4.5 4 -0.5
v 4.5 5 -0.5
v 4.5 6 -0.5
v 4.5 7 -0.5
v 4.5 8 -0.5
v 4.5 9 -0.5
v 4.5 10 -0.5
v 4.5 11 -0.5
v 5.5 3 -0.5
v 5.5 4 -0.5
v 5.5 5 -0.5
v 5.5 6 -0.5
v 5.5 9 -0.5
v 5.5 10 -0.5
v 5.5 11 -0.5
v 5.5 12 -0.5
v 6.5 6 -0.5
v 6.5 9 -0.5
v 7.5 3 -0.5
v 7.5 4 -0.5
v 7.5 5 -0.5
v 7.5 6 -0.5
v 7.5 7 -0.5
v 7.5 8 -0.5
v 7.5 9 -0.5
v 7.5 10 -0.5
v 7.5 11 -0.5
v 7.5 12 -0.5
v 8.5 4 -0.5
v 8.5 5 -0.5
v 8.5 6 -0.5
v 8.5 7 -0.5
v 8.5 8 -0.5
v 8.5 9 -0.5
v 8.5 10 -0.5
v 8.5 11 -0.5
v 9.5 5 -0.5
v 9.5 6 -0.5
v 9.5 9 -0.5
v 9.5 10 -0.5
v 10.5 1 -0.5
v 10.5 2 -0.5
v 10.5 7 -0.5
v 10.5 8 -0.5
v 10.5 13 -0.5
v 10.5 14 -0.5
v 11.5 0 -0.5
v 11.5 1 -0.5
v 11.5 2 -0.5
v 11.5 3 -0.5
v 11.5 6 -0.5
v 11.5 7 -0.5
v 11.5 8 -0.5
v 11.5 9 -0.5
v 11.5 12 -0.5
v 11.5 13 -0.5
v 11.5 14 -0.5
v 11.5 15 -0.5
v 12.5 1 -0.5
v 12.5 2 -0.5
v 12.5 3 -0.5
v 12.5 4 -0.5
v 12.5 5 -0.5
v 12.5 6 -0.5
v 12.5 7 -0.5
v 12.5 8 -0.5
v 12.5 9 -0.5
v 12.5 10 -0.5
v 12.5 11 -0.5
v 12.5 12 -0.5
v 12.5 13 -0.5
v 12.5 14 -0.5
v 13.5 2 -0.5
v 13.5 3 -0.5
v 13.5 4 -0.5
v 13.5 5 -0.5
v 13.5 6 -0.5
v 13.5 7 -0.5
v 13.5 8 -0.5
v 13.5 9 -0.5
v 13.5 10 -0.5
v 13.5 11 -0.5
v 13.5 12 -0.5
v 13.5 13 -0.5
v 14.5 3 -0.5
v 14.5 6 -0.5
v 14.5 9 -0.5
v 14.5 12 -0.5
v -13.5 0 0.5
v -8.5 0 0.5
v 1.5 0 0.5
v 11.5 0 0.5
v -13.5 0 -0.5
v -8.5 0 -0.5
v 1.5 0 -0.5
v 11.5 0 -0.5
v 0.5 1 0.5
v 1.5 1 0.5
v 11.5 1 0.5
v 12.5 1 0.5
v 0.5 1 -0.5
v 1.5 1 -0.5
v 11.5 1 -0.5
v 12.5 1 -0.5
v -0.5 2 0.5
v 0.5 2 0.5
v 12.5 2 0.5
v 13.5 2 0.5
v -0.5 2 -0.5
v 0.5 2 -0.5
v 12.5 2 -0.5
v 13.5 2 -0.5
v 13.5 3 0.5
v 14.5 3 0.5
v 13.5 3 -0.5
v 14.5 3 -0.5
v -8.5 4 0.5
v -4.5 4 0.5
v -8.5 4 -0.5
v -4.5 4 -0.5
v -4.5 5 0.5
v -3.5 5 0.5
v -4.5 5 -0.5
v -3.5 5 -0.5
v -3.5 6 0.5
v -2.5 6 0.5
v 6.5 6 0.5
v 7.5 6 0.5
v -3.5 6 -0.5
v -2.5 6 -0.5
v 6.5 6 -0.5
v 7.5 6 -0.5
v -2.5 7 0.5
v -1.5 7 0.5
v -2.5 7 -0.5
v -1.5 7 -0.5
v 1.5 8 0.5
v 4.5 8 0.5
v 12.5 8 0.5
v 13.5 8 0.5
v 1.5 8 -0.5
v 4.5 8 -0.5
v 12.5 8 -0.5
v 13.5 8 -0.5
v 0.5 9 0.5
v 1.5 9 0.5
v 4.5 9 0.5
v 5.5 9 0.5
v 13.5 9 0.5
v 14.5 9 0.5
v 0.5 9 -0.5
v 1.5 9 -0.5
v 4.5 9 -0.5
v 5.5 9 -0.5
v 13.5 9 -0.5
v 14.5 9 -0.5
v -0.5 10 0.5
v 0.5 10 0.5
v 5.5 10 0.5
v 7.5 10 0.5
v -0.5 10 -0.5
v 0.5 10 -0.5
v 5.5 10 -0.5
v 7.5 10 -0.5
v -0.5 5 0.5
v 0.5 5 0.5
v 5.5 5 0.5
v 7.5 5 0.5
v -0.5 5 -0.5
v 0.5 5 -0.5
v 5.5 5 -0.5
v 7.5 5 -0.5
v 0.5 6 0.5
v 1.5 6 0.5
v 4.5 6 0.5
v 5.5 6 0.5
v 13.5 6 0.5
v 14.5 6 0.5
v 0.5 6 -0.5
v 1.5 6 -0.5
v 4.5 6 -0.5
v 5.5 6 -0.5
v 13.5 6 -0.5
v 14.5 6 -0.5
v 1.5 7 0.5
v 4.5 7 0.5
v 12.5 7 0.5
v 13.5 7 0.5
v 1.5 7 -0.5
v 4.5 7 -0.5
v 12.5 7 -0.5
v 13.5 7 -0.5
v 6.5 9 0.5
v 7.5 9 0.5
v 6.5 9 -0.5
v 7.5 9 -0.5
v -2.5 12 0.5
v -1.5 12 0.5
v 13.5 12 0.5
v 14.5 12 0.5
v -2.5 12 -0.5
v -1.5 12 -0.5
v 13.5 12 -0.5
v 14.5 12 -0.5
v -3.5 13 0.5
v -2.5 13 0.5
v -0.5 13 0.5
v 0.5 13 0.5
v 12.5 13 0.5
v 13.5 13 0.5
v -3.5 13 -0.5
v -2.5 13 -0.5
v -0.5 13 -0.5
v 0.5 13 -0.5
v 12.5 13 -0.5
v 13.5 13 -0.5
v -4.5 14 0.5
v -3.5 14 0.5
v 0.5 14 0.5
v 1.5 14 0.5
v 11.5 14 0.5
v 12.5 14 0.5
v -4.5 14 -0.5
v -3.5 14 -0.5
v 0.5 14 -0.5
v 1.5 14 -0.5
v 11.5 14 -0.5
v 12.5 14 -0.5
v -13.5 15 0.5
v -4.5 15 0.5
v 1.5 15 0.5
v 11.5 15 0.5
v -13.5 15 -0.5
v -4.5 15 -0.5
v 1.5 15 -0.5
v 11.5 15 -0.5

# faces
f 3/2/1 2/2/1 1/2/1
f 4/2/1 2/2/1 3/2/1
f 7/2/1 6/2/1 5/2/1
f 8/2/1 6/2/1 7/2/1
f 11/2/1 10/2/1 9/2/1
f 12/2/1 10/2/1 11/2/1
f 15/2/1 14/2/1 13/2/1
f 16/2/1 14/2/1 15/2/1
f 19/2/1 18/2/1 17/2/1
f 20/2/1 18/2/1 19/2/1
f 23/2/1 22/2/1 21/2/1
f 24/2/1 22/2/1 23/2/1
f 27/2/1 26/2/1 25/2/1
f 28/2/1 26/2/1 27/2/1
f 31/2/1 30/2/1 29/2/1
f 32/2/1 30/2/1 31/2/1
f 35/2/1 34/2/1 33/2/1
f 36/2/1 34/2/1 35/2/1
f 39/2/1 38/2/1 37/2/1
f 40/2/1 38/2/1 39/2/1
f 43/2/1 42/2/1 41/2/1
f 44/2/1 42/2/1 43/2/1
f 47/2/1 46/2/1 45/2/1
f 48/2/1 46/2/1 47/2/1
f 51/2/1 50/2/1 49/2/1
f 52/2/1 50/2/1 51/2/1
f 55/2/1 54/2/1 53/2/1
f 56/2/1 54/2/1 55/2/1
f 57/2/2 58/2/2 59/2/2
f 59/2/2 58/2/2 60/2/2
f 61/2/2 62/2/2 63/2/2
f 63/2/2 62/2/2 64/2/2
f 65/2/2 66/2/2 67/2/2
f 67/2/2 66/2/2 68/2/2
f 69/2/2 70/2/2 71/2/2
f 71/2/2 70/2/2 72/2/2
f 73/2/2 74/2/2 75/2/2
f 75/2/2 74/2/2 76/2/2
f 77/2/2 78/2/2 79/2/2
f 79/2/2 78/2/2 80/2/2
f 81/2/2 82/2/2 83/2/2
f 83/2/2 82/2/2 84/2/2
f 85/2/2 86/2/2 87/2/2
f 87/2/2 86/2/2 88/2/2
f 89/2/2 90/2/2 91/2/2
f 91/2/2 90/2/2 92/2/2
f 93/2/2 94/2/2 95/2/2
f 95/2/2 94/2/2 96/2/2
f 97/2/2 98/2/2 99/2/2
f 99/2/2 98/2/2 100/2/2
f 101/2/2 102/2/2 103/2/2
f 103/2/2 102/2/2 104/2/2
f 105/2/2 106/2/2 107/2/2
f 107/2/2 106/2/2 108/2/2
f 109/2/2 110/2/2 111/2/2
f 111/2/2 110/2/2 112/2/2
f 113/2/2 114/2/2 115/2/2
f 115/2/2 114/2/2 116/2/2
f 117/2/2 118/2/2 119/2/2
f 119/2/2 118/2/2 120/2/2
f 121/2/2 122/2/2 123/2/2
f 123/2/2 122/2/2 124/2/2
f 125/2/2 126/2/2 127/2/2
f 127/2/2 126/2/2 128/2/2
f 129/2/2 130/2/2 131/2/2
f 131/2/2 130/2/2 132/2/2
f 133/2/2 134/2/2 135/2/2
f 135/2/2 134/2/2 136/2/2
f 137/2/2 138/2/2 139/2/2
f 139/2/2 138/2/2 140/2/2
f 141/2/2 142/2/2 143/2/2
f 143/2/2 142/2/2 144/2/2
f 145/2/2 146/2/2 147/2/2
f 147/2/2 146/2/2 148/2/2
f 151/2/3 150/2/3 149/2/3
f 152/2/3 150/2/3 151/2/3
f 153/2/3 151/2/3 149/2/3
f 153/1/3 152/1/3 151/1/3
f 154/1/3 152/1/3 153/1/3
f 155/1/3 152/1/3 154/1/3
f 156/1/3 152/1/3 155/1/3
f 157/2/3 153/2/3 149/2/3
f 157/2/3 154/2/3 153/2/3
f 158/2/3 154/2/3 157/2/3
f 159/2/3 156/2/3 155/2/3
f 159/1/3 155/1/3 154/1/3
f 160/2/3 156/2/3 159/2/3
f 161/2/3 156/2/3 160/2/3
f 162/1/3 152/1/3 156/1/3
f 162/2/3 156/2/3 161/2/3
f 163/2/3 154/2/3 158/2/3
f 163/1/3 159/1/3 154/1/3
f 163/1/3 160/1/3 159/1/3
f 164/1/3 160/1/3 163/1/3
f 165/2/3 161/2/3 160/2/3
f 165/1/3 160/1/3 164/1/3
f 166/1/3 162/1/3 161/1/3
f 166/2/3 161/2/3 165/2/3
f 167/1/3 152/1/3 162/1/3
f 167/1/3 162/1/3 166/1/3
f 168/2/3 150/2/3 152/2/3
f 168/1/3 152/1/3 167/1/3
f 169/2/3 164/2/3 163/2/3
f 169/2/3 163/2/3 158/2/3
f 170/2/3 164/2/3 169/2/3
f 171/1/3 167/1/3 166/1/3
f 171/2/3 164/2/3 170/2/3
f 171/1/3 166/1/3 165/1/3
f 171/1/3 165/1/3 164/1/3
f 172/1/3 167/1/3 171/1/3
f 173/1/3 167/1/3 172/1/3
f 174/2/3 168/2/3 167/2/3
f 174/1/3 167/1/3 173/1/3
f 175/2/3 150/2/3 168/2/3
f 175/2/3 168/2/3 174/2/3
f 176/2/3 150/2/3 175/2/3
f 177/2/3 171/2/3 170/2/3
f 177/2/3 172/2/3 171/2/3
f 178/2/3 172/2/3 177/2/3
f 179/1/3 173/1/3 172/1/3
f 179/2/3 172/2/3 178/2/3
f 180/1/3 173/1/3 179/1/3
f 181/1/3 173/1/3 180/1/3
f 182/2/3 174/2/3 173/2/3
f 182/1/3 173/1/3 181/1/3
f 182/2/3 175/2/3 174/2/3
f 183/2/3 175/2/3 182/2/3
f 184/2/3 175/2/3 183/2/3
f 185/2/3 180/2/3 179/2/3
f 185/2/3 179/2/3 178/2/3
f 186/2/3 180/2/3 185/2/3
f 187/1/3 181/1/3 180/1/3
f 187/2/3 180/2/3 186/2/3
f 188/2/3 183/2/3 182/2/3
f 188/1/3 181/1/3 187/1/3
f 188/2/3 182/2/3 181/2/3
f 189/2/3 183/2/3 188/2/3
f 190/2/3 183/2/3 189/2/3
f 191/2/3 187/2/3 186/2/3
f 191/2/3 189/2/3 188/2/3
f 191/2/3 188/2/3 187/2/3
f 192/2/3 189/2/3 191/2/3
f 198/2/3 194/2/3 193/2/3
f 199/2/3 194/2/3 198/2/3
f 200/2/3 194/2/3 199/2/3
f 201/2/3 194/2/3 200/2/3
f 204/2/3 196/2/3 195/2/3
f 205/2/3 196/2/3 204/2/3
f 206/2/3 196/2/3 205/2/3
f 207/2/3 196/2/3 206/2/3
f 210/2/3 198/2/3 197/2/3
f 210/2/3 199/2/3 198/2/3
f 211/2/3 199/2/3 210/2/3
f 212/1/3 200/1/3 199/1/3
f 212/2/3 199/2/3 211/2/3
f 213/2/3 202/2/3 201/2/3
f 213/1/3 200/1/3 212/1/3
f 213/2/3 201/2/3 200/2/3
f 214/2/3 202/2/3 213/2/3
f 215/2/3 202/2/3 214/2/3
f 218/2/3 204/2/3 203/2/3
f 218/2/3 205/2/3 204/2/3
f 219/2/3 205/2/3 218/2/3
f 220/1/3 206/1/3 205/1/3
f 220/2/3 205/2/3 219/2/3
f 221/2/3 207/2/3 206/2/3
f 221/1/3 206/1/3 220/1/3
f 221/2/3 208/2/3 207/2/3
f 222/2/3 208/2/3 221/2/3
f 223/2/3 208/2/3 222/2/3
f 225/2/3 211/2/3 210/2/3
f 225/2/3 210/2/3 209/2/3
f 226/1/3 212/1/3 211/1/3
f 226/2/3 211/2/3 225/2/3
f 226/1/3 213/1/3 212/1/3
f 226/1/3 214/1/3 213/1/3
f 227/2/3 216/2/3 215/2/3
f 227/1/3 214/1/3 226/1/3
f 227/2/3 215/2/3 214/2/3
f 228/2/3 216/2/3 227/2/3
f 229/2/3 218/2/3 217/2/3
f 229/2/3 219/2/3 218/2/3
f 230/1/3 220/1/3 219/1/3
f 230/2/3 219/2/3 229/2/3
f 230/1/3 222/1/3 221/1/3
f 230/1/3 221/1/3 220/1/3
f 231/2/3 223/2/3 222/2/3
f 231/1/3 222/1/3 230/1/3
f 231/2/3 224/2/3 223/2/3
f 232/2/3 224/2/3 231/2/3
f 233/1/3 228/1/3 227/1/3
f 233/1/3 227/1/3 226/1/3
f 233/1/3 226/1/3 225/1/3
f 234/2/3 216/2/3 228/2/3
f 234/1/3 228/1/3 233/1/3
f 235/2/3 229/2/3 217/2/3
f 235/1/3 230/1/3 229/1/3
f 235/1/3 232/1/3 231/1/3
f 235/1/3 231/1/3 230/1/3
f 236/1/3 232/1/3 235/1/3
f 237/1/3 233/1/3 225/1/3
f 238/2/3 234/2/3 233/2/3
f 238/1/3 233/1/3 237/1/3
f 239/2/3 216/2/3 234/2/3
f 239/2/3 234/2/3 238/2/3
f 240/2/3 216/2/3 239/2/3
f 241/2/3 235/2/3 217/2/3
f 241/2/3 236/2/3 235/2/3
f 242/2/3 236/2/3 241/2/3
f 243/1/3 232/1/3 236/1/3
f 243/2/3 236/2/3 242/2/3
f 244/1/3 232/1/3 243/1/3
f 245/1/3 237/1/3 225/1/3
f 246/2/3 238/2/3 237/2/3
f 246/1/3 237/1/3 245/1/3
f 246/2/3 239/2/3 238/2/3
f 247/2/3 239/2/3 246/2/3
f 248/2/3 239/2/3 247/2/3
f 249/2/3 244/2/3 243/2/3
f 249/2/3 243/2/3 242/2/3
f 250/2/3 244/2/3 249/2/3
f 251/1/3 232/1/3 244/1/3
f 251/2/3 244/2/3 250/2/3
f 252/1/3 232/1/3 251/1/3
f 255/1/3 245/1/3 225/1/3
f 255/2/3 247/2/3 246/2/3
f 255/2/3 246/2/3 245/2/3
f 256/2/3 247/2/3 255/2/3
f 257/2/3 247/2/3 256/2/3
f 258/2/3 254/2/3 253/2/3
f 259/2/3 254/2/3 258/2/3
f 260/2/3 254/2/3 259/2/3
f 261/2/3 254/2/3 260/2/3
f 262/2/3 252/2/3 251/2/3
f 262/2/3 251/2/3 250/2/3
f 263/2/3 252/2/3 262/2/3
f 264/1/3 232/1/3 252/1/3
f 264/2/3 252/2/3 263/2/3
f 265/2/3 257/2/3 256/2/3
f 265/1/3 256/1/3 255/1/3
f 265/2/3 258/2/3 257/2/3
f 265/2/3 259/2/3 258/2/3
f 266/2/3 259/2/3 265/2/3
f 267/2/3 259/2/3 266/2/3
f 268/1/3 260/1/3 259/1/3
f 268/2/3 259/2/3 267/2/3
f 269/2/3 263/2/3 262/2/3
f 269/1/3 260/1/3 268/1/3
f 269/2/3 261/2/3 260/2/3
f 269/2/3 262/2/3 261/2/3
f 270/2/3 263/2/3 269/2/3
f 271/2/3 263/2/3 270/2/3
f 272/1/3 264/1/3 263/1/3
f 272/2/3 263/2/3 271/2/3
f 273/1/3 266/1/3 265/1/3
f 273/2/3 267/2/3 266/2/3
f 274/1/3 268/1/3 267/1/3
f 274/2/3 267/2/3 273/2/3
f 274/1/3 269/1/3 268/1/3
f 274/1/3 270/1/3 269/1/3
f 275/2/3 271/2/3 270/2/3
f 275/1/3 270/1/3 274/1/3
f 276/1/3 272/1/3 271/1/3
f 276/2/3 271/2/3 275/2/3
f 277/1/3 273/1/3 265/1/3
f 277/2/3 225/2/3 209/2/3
f 277/1/3 276/1/3 275/1/3
f 277/1/3 275/1/3 274/1/3
f 277/1/3 265/1/3 255/1/3
f 277/1/3 255/1/3 225/1/3
f 277/1/3 274/1/3 273/1/3
f 278/1/3 276/1/3 277/1/3
f 279/1/3 276/1/3 278/1/3
f 280/1/3 276/1/3 279/1/3
f 281/1/3 232/1/3 264/1/3
f 281/1/3 276/1/3 280/1/3
f 281/1/3 272/1/3 276/1/3
f 281/1/3 264/1/3 272/1/3
f 282/2/3 224/2/3 232/2/3
f 282/1/3 232/1/3 281/1/3
f 283/2/3 278/2/3 277/2/3
f 283/2/3 277/2/3 209/2/3
f 284/2/3 278/2/3 283/2/3
f 285/1/3 279/1/3 278/1/3
f 285/2/3 278/2/3 284/2/3
f 286/1/3 279/1/3 285/1/3
f 287/1/3 279/1/3 286/1/3
f 288/2/3 280/2/3 279/2/3
f 288/1/3 279/1/3 287/1/3
f 289/1/3 281/1/3 280/1/3
f 289/2/3 280/2/3 288/2/3
f 290/1/3 281/1/3 289/1/3
f 291/1/3 281/1/3 290/1/3
f 292/2/3 282/2/3 281/2/3
f 292/1/3 281/1/3 291/1/3
f 293/2/3 224/2/3 282/2/3
f 293/2/3 282/2/3 292/2/3
f 294/2/3 224/2/3 293/2/3
f 295/2/3 285/2/3 284/2/3
f 295/2/3 286/2/3 285/2/3
f 296/2/3 286/2/3 295/2/3
f 297/1/3 287/1/3 286/1/3
f 297/2/3 286/2/3 296/2/3
f 298/1/3 287/1/3 297/1/3
f 299/1/3 287/1/3 298/1/3
f 300/2/3 288/2/3 287/2/3
f 300/1/3 287/1/3 299/1/3
f 300/2/3 290/2/3 289/2/3
f 300/2/3 289/2/3 288/2/3
f 301/2/3 290/2/3 300/2/3
f 302/2/3 290/2/3 301/2/3
f 303/1/3 291/1/3 290/1/3
f 303/2/3 290/2/3 302/2/3
f 304/1/3 291/1/3 303/1/3
f 305/1/3 291/1/3 304/1/3
f 306/2/3 292/2/3 291/2/3
f 306/1/3 291/1/3 305/1/3
f 306/2/3 293/2/3 292/2/3
f 307/2/3 293/2/3 306/2/3
f 308/2/3 293/2/3 307/2/3
f 309/2/3 298/2/3 297/2/3
f 309/2/3 297/2/3 296/2/3
f 310/2/3 298/2/3 309/2/3
f 311/1/3 299/1/3 298/1/3
f 311/2/3 298/2/3 310/2/3
f 312/2/3 300/2/3 299/2/3
f 312/1/3 299/1/3 311/1/3
f 312/2/3 301/2/3 300/2/3
f 313/2/3 301/2/3 312/2/3
f 314/2/3 301/2/3 313/2/3
f 315/2/3 304/2/3 303/2/3
f 315/2/3 303/2/3 302/2/3
f 316/2/3 304/2/3 315/2/3
f 317/1/3 305/1/3 304/1/3
f 317/2/3 304/2/3 316/2/3
f 318/2/3 307/2/3 306/2/3
f 318/1/3 305/1/3 317/1/3
f 318/2/3 306/2/3 305/2/3
f 319/2/3 307/2/3 318/2/3
f 320/2/3 307/2/3 319/2/3
f 321/2/3 313/2/3 312/2/3
f 321/2/3 312/2/3 311/2/3
f 321/2/3 311/2/3 310/2/3
f 322/2/3 313/2/3 321/2/3
f 323/2/3 319/2/3 318/2/3
f 323/2/3 317/2/3 316/2/3
f 323/2/3 318/2/3 317/2/3
f 324/2/3 319/2/3 323/2/3
f 325/2/4 326/2/4 327/2/4
f 327/2/4 326/2/4 328/2/4
f 325/2/4 327/2/4 329/2/4
f 327/1/4 328/1/4 329/1/4
f 329/1/4 328/1/4 330/1/4
f 330/1/4 328/1/4 331/1/4
f 331/1/4 328/1/4 332/1/4
f 325/2/4 329/2/4 333/2/4
f 329/2/4 330/2/4 333/2/4
f 333/2/4 330/2/4 334/2/4
f 331/2/4 332/2/4 335/2/4
f 330/1/4 331/1/4 335/1/4
f 335/2/4 332/2/4 336/2/4
f 336/2/4 332/2/4 337/2/4
f 332/1/4 328/1/4 338/1/4
f 337/2/4 332/2/4 338/2/4
f 334/2/4 330/2/4 339/2/4
f 330/1/4 335/1/4 339/1/4
f 335/1/4 336/1/4 339/1/4
f 339/1/4 336/1/4 340/1/4
f 336/2/4 337/2/4 341/2/4
f 340/1/4 336/1/4 341/1/4
f 337/1/4 338/1/4 342/1/4
f 341/2/4 337/2/4 342/2/4
f 338/1/4 328/1/4 343/1/4
f 342/1/4 338/1/4 343/1/4
f 328/2/4 326/2/4 344/2/4
f 343/1/4 328/1/4 344/1/4
f 339/2/4 340/2/4 345/2/4
f 334/2/4 339/2/4 345/2/4
f 345/2/4 340/2/4 346/2/4
f 342/1/4 343/1/4 347/1/4
f 346/2/4 340/2/4 347/2/4
f 341/1/4 342/1/4 347/1/4
f 340/1/4 341/1/4 347/1/4
f 347/1/4 343/1/4 348/1/4
f 348/1/4 343/1/4 349/1/4
f 343/2/4 344/2/4 350/2/4
f 349/1/4 343/1/4 350/1/4
f 344/2/4 326/2/4 351/2/4
f 350/2/4 344/2/4 351/2/4
f 351/2/4 326/2/4 352/2/4
f 346/2/4 347/2/4 353/2/4
f 347/2/4 348/2/4 353/2/4
f 353/2/4 348/2/4 354/2/4
f 348/1/4 349/1/4 355/1/4
f 354/2/4 348/2/4 355/2/4
f 355/1/4 349/1/4 356/1/4
f 356/1/4 349/1/4 357/1/4
f 349/2/4 350/2/4 358/2/4
f 357/1/4 349/1/4 358/1/4
f 350/2/4 351/2/4 358/2/4
f 358/2/4 351/2/4 359/2/4
f 359/2/4 351/2/4 360/2/4
f 355/2/4 356/2/4 361/2/4
f 354/2/4 355/2/4 361/2/4
f 361/2/4 356/2/4 362/2/4
f 356/1/4 357/1/4 363/1/4
f 362/2/4 356/2/4 363/2/4
f 358/2/4 359/2/4 364/2/4
f 363/1/4 357/1/4 364/1/4
f 357/2/4 358/2/4 364/2/4
f 364/2/4 359/2/4 365/2/4
f 365/2/4 359/2/4 366/2/4
f 362/2/4 363/2/4 367/2/4
f 364/2/4 365/2/4 367/2/4
f 363/2/4 364/2/4 367/2/4
f 367/2/4 365/2/4 368/2/4
f 369/2/4 370/2/4 374/2/4
f 374/2/4 370/2/4 375/2/4
f 375/2/4 370/2/4 376/2/4
f 376/2/4 370/2/4 377/2/4
f 371/2/4 372/2/4 380/2/4
f 380/2/4 372/2/4 381/2/4
f 381/2/4 372/2/4 382/2/4
f 382/2/4 372/2/4 383/2/4
f 373/2/4 374/2/4 386/2/4
f 374/2/4 375/2/4 386/2/4
f 386/2/4 375/2/4 387/2/4
f 375/1/4 376/1/4 388/1/4
f 387/2/4 375/2/4 388/2/4
f 377/2/4 378/2/4 389/2/4
f 388/1/4 376/1/4 389/1/4
f 376/2/4 377/2/4 389/2/4
f 389/2/4 378/2/4 390/2/4
f 390/2/4 378/2/4 391/2/4
f 379/2/4 380/2/4 394/2/4
f 380/2/4 381/2/4 394/2/4
f 394/2/4 381/2/4 395/2/4
f 381/1/4 382/1/4 396/1/4
f 395/2/4 381/2/4 396/2/4
f 382/2/4 383/2/4 397/2/4
f 396/1/4 382/1/4 397/1/4
f 383/2/4 384/2/4 397/2/4
f 397/2/4 384/2/4 398/2/4
f 398/2/4 384/2/4 399/2/4
f 386/2/4 387/2/4 401/2/4
f 385/2/4 386/2/4 401/2/4
f 387/1/4 388/1/4 402/1/4
f 401/2/4 387/2/4 402/2/4
f 388/1/4 389/1/4 402/1/4
f 389/1/4 390/1/4 402/1/4
f 391/2/4 392/2/4 403/2/4
f 402/1/4 390/1/4 403/1/4
f 390/2/4 391/2/4 403/2/4
f 403/2/4 392/2/4 404/2/4
f 393/2/4 394/2/4 405/2/4
f 394/2/4 395/2/4 405/2/4
f 395/1/4 396/1/4 406/1/4
f 405/2/4 395/2/4 406/2/4
f 397/1/4 398/1/4 406/1/4
f 396/1/4 397/1/4 406/1/4
f 398/2/4 399/2/4 407/2/4
f 406/1/4 398/1/4 407/1/4
f 399/2/4 400/2/4 407/2/4
f 407/2/4 400/2/4 408/2/4
f 403/1/4 404/1/4 409/1/4
f 402/1/4 403/1/4 409/1/4
f 401/1/4 402/1/4 409/1/4
f 404/2/4 392/2/4 410/2/4
f 409/1/4 404/1/4 410/1/4
f 393/2/4 405/2/4 411/2/4
f 405/1/4 406/1/4 411/1/4
f 407/1/4 408/1/4 411/1/4
f 406/1/4 407/1/4 411/1/4
f 411/1/4 408/1/4 412/1/4
f 401/1/4 409/1/4 413/1/4
f 409/2/4 410/2/4 414/2/4
f 413/1/4 409/1/4 414/1/4
f 410/2/4 392/2/4 415/2/4
f 414/2/4 410/2/4 415/2/4
f 415/2/4 392/2/4 416/2/4
f 393/2/4 411/2/4 417/2/4
f 411/2/4 412/2/4 417/2/4
f 417/2/4 412/2/4 418/2/4
f 412/1/4 408/1/4 419/1/4
f 418/2/4 412/2/4 419/2/4
f 419/1/4 408/1/4 420/1/4
f 401/1/4 413/1/4 421/1/4
f 413/2/4 414/2/4 422/2/4
f 421/1/4 413/1/4 422/1/4
f 414/2/4 415/2/4 422/2/4
f 422/2/4 415/2/4 423/2/4
f 423/2/4 415/2/4 424/2/4
f 419/2/4 420/2/4 425/2/4
f 418/2/4 419/2/4 425/2/4
f 425/2/4 420/2/4 426/2/4
f 420/1/4 408/1/4 427/1/4
f 426/2/4 420/2/4 427/2/4
f 427/1/4 408/1/4 428/1/4
f 401/1/4 421/1/4 431/1/4
f 422/2/4 423/2/4 431/2/4
f 421/2/4 422/2/4 431/2/4
f 431/2/4 423/2/4 432/2/4
f 432/2/4 423/2/4 433/2/4
f 429/2/4 430/2/4 434/2/4
f 434/2/4 430/2/4 435/2/4
f 435/2/4 430/2/4 436/2/4
f 436/2/4 430/2/4 437/2/4
f 427/2/4 428/2/4 438/2/4
f 426/2/4 427/2/4 438/2/4
f 438/2/4 428/2/4 439/2/4
f 428/1/4 408/1/4 440/1/4
f 439/2/4 428/2/4 440/2/4
f 432/2/4 433/2/4 441/2/4
f 431/1/4 432/1/4 441/1/4
f 433/2/4 434/2/4 441/2/4
f 434/2/4 435/2/4 441/2/4
f 441/2/4 435/2/4 442/2/4
f 442/2/4 435/2/4 443/2/4
f 435/1/4 436/1/4 444/1/4
f 443/2/4 435/2/4 444/2/4
f 438/2/4 439/2/4 445/2/4
f 444/1/4 436/1/4 445/1/4
f 436/2/4 437/2/4 445/2/4
f 437/2/4 438/2/4 445/2/4
f 445/2/4 439/2/4 446/2/4
f 446/2/4 439/2/4 447/2/4
f 439/1/4 440/1/4 448/1/4
f 447/2/4 439/2/4 448/2/4
f 441/1/4 442/1/4 449/1/4
f 442/2/4 443/2/4 449/2/4
f 443/1/4 444/1/4 450/1/4
f 449/2/4 443/2/4 450/2/4
f 444/1/4 445/1/4 450/1/4
f 445/1/4 446/1/4 450/1/4
f 446/2/4 447/2/4 451/2/4
f 450/1/4 446/1/4 451/1/4
f 447/1/4 448/1/4 452/1/4
f 451/2/4 447/2/4 452/2/4
f 441/1/4 449/1/4 453/1/4
f 385/2/4 401/2/4 453/2/4
f 451/1/4 452/1/4 453/1/4
f 450/1/4 451/1/4 453/1/4
f 431/1/4 441/1/4 453/1/4
f 401/1/4 431/1/4 453/1/4
f 449/1/4 450/1/4 453/1/4
f 453/1/4 452/1/4 454/1/4
f 454/1/4 452/1/4 455/1/4
f 455/1/4 452/1/4 456/1/4
f 440/1/4 408/1/4 457/1/4
f 456/1/4 452/1/4 457/1/4
f 452/1/4 448/1/4 457/1/4
f 448/1/4 440/1/4 457/1/4
f 408/2/4 400/2/4 458/2/4
f 457/1/4 408/1/4 458/1/4
f 453/2/4 454/2/4 459/2/4
f 385/2/4 453/2/4 459/2/4
f 459/2/4 454/2/4 460/2/4
f 454/1/4 455/1/4 461/1/4
f 460/2/4 454/2/4 461/2/4
f 461/1/4 455/1/4 462/1/4
f 462/1/4 455/1/4 463/1/4
f 455/2/4 456/2/4 464/2/4
f 463/1/4 455/1/4 464/1/4
f 456/1/4 457/1/4 465/1/4
f 464/2/4 456/2/4 465/2/4
f 465/1/4 457/1/4 466/1/4
f 466/1/4 457/1/4 467/1/4
f 457/2/4 458/2/4 468/2/4
f 467/1/4 457/1/4 468/1/4
f 458/2/4 400/2/4 469/2/4
f 468/2/4 458/2/4 469/2/4
f 469/2/4 400/2/4 470/2/4
f 460/2/4 461/2/4 471/2/4
f 461/2/4 462/2/4 471/2/4
f 471/2/4 462/2/4 472/2/4
f 462/1/4 463/1/4 473/1/4
f 472/2/4 462/2/4 473/2/4
f 473/1/4 463/1/4 474/1/4
f 474/1/4 463/1/4 475/1/4
f 463/2/4 464/2/4 476/2/4
f 475/1/4 463/1/4 476/1/4
f 465/2/4 466/2/4 476/2/4
f 464/2/4 465/2/4 476/2/4
f 476/2/4 466/2/4 477/2/4
f 477/2/4 466/2/4 478/2/4
f 466/1/4 467/1/4 479/1/4
f 478/2/4 466/2/4 479/2/4
f 479/1/4 467/1/4 480/1/4
f 480/1/4 467/1/4 481/1/4
f 467/2/4 468/2/4 482/2/4
f 481/1/4 467/1/4 482/1/4
f 468/2/4 469/2/4 482/2/4
f 482/2/4 469/2/4 483/2/4
f 483/2/4 469/2/4 484/2/4
f 473/2/4 474/2/4 485/2/4
f 472/2/4 473/2/4 485/2/4
f 485/2/4 474/2/4 486/2/4
f 474/1/4 475/1/4 487/1/4
f 486/2/4 474/2/4 487/2/4
f 475/2/4 476/2/4 488/2/4
f 487/1/4 475/1/4 488/1/4
f 476/2/4 477/2/4 488/2/4
f 488/2/4 477/2/4 489/2/4
f 489/2/4 477/2/4 490/2/4
f 479/2/4 480/2/4 491/2/4
f 478/2/4 479/2/4 491/2/4
f 491/2/4 480/2/4 492/2/4
f 480/1/4 481/1/4 493/1/4
f 492/2/4 480/2/4 493/2/4
f 482/2/4 483/2/4 494/2/4
f 493/1/4 481/1/4 494/1/4
f 481/2/4 482/2/4 494/2/4
f 494/2/4 483/2/4 495/2/4
f 495/2/4 483/2/4 496/2/4
f 488/2/4 489/2/4 497/2/4
f 487/2/4 488/2/4 497/2/4
f 486/2/4 487/2/4 497/2/4
f 497/2/4 489/2/4 498/2/4
f 494/2/4 495/2/4 499/2/4
f 492/2/4 493/2/4 499/2/4
f 493/2/4 494/2/4 499/2/4
f 499/2/4 495/2/4 500/2/4
f 505/2/5 502/2/5 501/2/5
f 506/2/5 502/2/5 505/2/5
f 507/2/5 504/2/5 503/2/5
f 508/2/5 504/2/5 507/2/5
f 513/2/5 510/2/5 509/2/5
f 514/2/5 510/2/5 513/2/5
f 515/2/5 512/2/5 511/2/5
f 516/2/5 512/2/5 515/2/5
f 521/2/5 518/2/5 517/2/5
f 522/2/5 518/2/5 521/2/5
f 523/2/5 520/2/5 519/2/5
f 524/2/5 520/2/5 523/2/5
f 527/2/5 526/2/5 525/2/5
f 528/2/5 526/2/5 527/2/5
f 531/2/5 530/2/5 529/2/5
f 532/2/5 530/2/5 531/2/5
f 535/2/5 534/2/5 533/2/5
f 536/2/5 534/2/5 535/2/5
f 541/2/5 538/2/5 537/2/5
f 542/2/5 538/2/5 541/2/5
f 543/2/5 540/2/5 539/2/5
f 544/2/5 540/2/5 543/2/5
f 547/2/5 546/2/5 545/2/5
f 548/2/5 546/2/5 547/2/5
f 553/2/5 550/2/5 549/2/5
f 554/2/5 550/2/5 553/2/5
f 555/2/5 552/2/5 551/2/5
f 556/2/5 552/2/5 555/2/5
f 563/2/5 558/2/5 557/2/5
f 564/2/5 558/2/5 563/2/5
f 565/2/5 560/2/5 559/2/5
f 566/2/5 560/2/5 565/2/5
f 567/2/5 562/2/5 561/2/5
f 568/2/5 562/2/5 567/2/5
f 573/2/5 570/2/5 569/2/5
f 574/2/5 570/2/5 573/2/5
f 575/2/5 572/2/5 571/2/5
f 576/2/5 572/2/5 575/2/5
f 577/2/6 578/2/6 581/2/6
f 581/2/6 578/2/6 582/2/6
f 579/2/6 580/2/6 583/2/6
f 583/2/6 580/2/6 584/2/6
f 585/2/6 586/2/6 591/2/6
f 591/2/6 586/2/6 592/2/6
f 587/2/6 588/2/6 593/2/6
f 593/2/6 588/2/6 594/2/6
f 589/2/6 590/2/6 595/2/6
f 595/2/6 590/2/6 596/2/6
f 597/2/6 598/2/6 601/2/6
f 601/2/6 598/2/6 602/2/6
f 599/2/6 600/2/6 603/2/6
f 603/2/6 600/2/6 604/2/6
f 605/2/6 606/2/6 607/2/6
f 607/2/6 606/2/6 608/2/6
f 609/2/6 610/2/6 613/2/6
f 613/2/6 610/2/6 614/2/6
f 611/2/6 612/2/6 615/2/6
f 615/2/6 612/2/6 616/2/6
f 617/2/6 618/2/6 623/2/6
f 623/2/6 618/2/6 624/2/6
f 619/2/6 620/2/6 625/2/6
f 625/2/6 620/2/6 626/2/6
f 621/2/6 622/2/6 627/2/6
f 627/2/6 622/2/6 628/2/6
f 629/2/6 630/2/6 635/2/6
f 635/2/6 630/2/6 636/2/6
f 631/2/6 632/2/6 637/2/6
f 637/2/6 632/2/6 638/2/6
f 633/2/6 634/2/6 639/2/6
f 639/2/6 634/2/6 640/2/6
f 641/2/6 642/2/6 645/2/6
f 645/2/6 642/2/6 646/2/6
f 643/2/6 644/2/6 647/2/6
f 647/2/6 644/2/6 648/2/6
