# MagicaVoxel @ Ephtracy

# group
g 5

# material
mtllib 5.mtl
usemtl palette

# normals
vn -1 0 0
vn 1 0 0
vn 0 0 1
vn 0 0 -1
vn 0 -1 0
vn 0 1 0

# texcoords
vt 0.958984 0.5
vt 0.990234 0.5

# verts
v -21 5 0.5
v -21 5 -0.5
v -21 10 0.5
v -21 10 -0.5
v -20 3 0.5
v -20 3 -0.5
v -20 5 0.5
v -20 5 -0.5
v -20 10 0.5
v -20 10 -0.5
v -20 12 0.5
v -20 12 -0.5
v -19 2 0.5
v -19 2 -0.5
v -19 3 0.5
v -19 3 -0.5
v -19 12 0.5
v -19 12 -0.5
v -19 13 0.5
v -19 13 -0.5
v -18 1 0.5
v -18 1 -0.5
v -18 2 0.5
v -18 2 -0.5
v -18 13 0.5
v -18 13 -0.5
v -18 14 0.5
v -18 14 -0.5
v -17 0 0.5
v -17 0 -0.5
v -17 1 0.5
v -17 1 -0.5
v -17 14 0.5
v -17 14 -0.5
v -17 15 0.5
v -17 15 -0.5
v -12 4 0.5
v -12 4 -0.5
v -12 5 0.5
v -12 5 -0.5
v -12 10 0.5
v -12 10 -0.5
v -12 11 0.5
v -12 11 -0.5
v -11 5 0.5
v -11 5 -0.5
v -11 6 0.5
v -11 6 -0.5
v -11 9 0.5
v -11 9 -0.5
v -11 10 0.5
v -11 10 -0.5
v -10 6 0.5
v -10 6 -0.5
v -10 7 0.5
v -10 7 -0.5
v -10 8 0.5
v -10 8 -0.5
v -10 9 0.5
v -10 9 -0.5
v -5 0 0.5
v -5 0 -0.5
v -5 15 0.5
v -5 15 -0.5
v 8 3 0.5
v 8 3 -0.5
v 8 15 0.5
v 8 15 -0.5
v 9 2 0.5
v 9 2 -0.5
v 9 3 0.5
v 9 3 -0.5
v 10 1 0.5
v 10 1 -0.5
v 10 2 0.5
v 10 2 -0.5
v 11 0 0.5
v 11 0 -0.5
v 11 1 0.5
v 11 1 -0.5
v 15 6 0.5
v 15 6 -0.5
v 15 7 0.5
v 15 7 -0.5
v 16 7 0.5
v 16 7 -0.5
v 16 15 0.5
v 16 15 -0.5
v -16 7 0.5
v -16 7 -0.5
v -16 8 0.5
v -16 8 -0.5
v -15 6 0.5
v -15 6 -0.5
v -15 7 0.5
v -15 7 -0.5
v -15 8 0.5
v -15 8 -0.5
v -15 9 0.5
v -15 9 -0.5
v -14 5 0.5
v -14 5 -0.5
v -14 6 0.5
v -14 6 -0.5
v -14 9 0.5
v -14 9 -0.5
v -14 10 0.5
v -14 10 -0.5
v -13 4 0.5
v -13 4 -0.5
v -13 5 0.5
v -13 5 -0.5
v -13 10 0.5
v -13 10 -0.5
v -13 11 0.5
v -13 11 -0.5
v -8 0 0.5
v -8 0 -0.5
v -8 1 0.5
v -8 1 -0.5
v -8 14 0.5
v -8 14 -0.5
v -8 15 0.5
v -8 15 -0.5
v -7 1 0.5
v -7 1 -0.5
v -7 2 0.5
v -7 2 -0.5
v -7 6 0.5
v -7 6 -0.5
v -7 7 0.5
v -7 7 -0.5
v -7 8 0.5
v -7 8 -0.5
v -7 9 0.5
v -7 9 -0.5
v -7 13 0.5
v -7 13 -0.5
v -7 14 0.5
v -7 14 -0.5
v -6 2 0.5
v -6 2 -0.5
v -6 6 0.5
v -6 6 -0.5
v -6 9 0.5
v -6 9 -0.5
v -6 13 0.5
v -6 13 -0.5
v 0 0 0.5
v 0 0 -0.5
v 0 4 0.5
v 0 4 -0.5
v 4 4 0.5
v 4 4 -0.5
v 4 5 0.5
v 4 5 -0.5
v 4 14 0.5
v 4 14 -0.5
v 4 15 0.5
v 4 15 -0.5
v 5 5 0.5
v 5 5 -0.5
v 5 6 0.5
v 5 6 -0.5
v 5 13 0.5
v 5 13 -0.5
v 5 14 0.5
v 5 14 -0.5
v 6 6 0.5
v 6 6 -0.5
v 6 7 0.5
v 6 7 -0.5
v 6 12 0.5
v 6 12 -0.5
v 6 13 0.5
v 6 13 -0.5
v 7 7 0.5
v 7 7 -0.5
v 7 12 0.5
v 7 12 -0.5
v 13 7 0.5
v 13 7 -0.5
v 13 15 0.5
v 13 15 -0.5
v 14 6 0.5
v 14 6 -0.5
v 14 7 0.5
v 14 7 -0.5
v 18 0 0.5
v 18 0 -0.5
v 18 1 0.5
v 18 1 -0.5
v 19 1 0.5
v 19 1 -0.5
v 19 2 0.5
v 19 2 -0.5
v 20 2 0.5
v 20 2 -0.5
v 20 3 0.5
v 20 3 -0.5
v 21 3 0.5
v 21 3 -0.5
v 21 15 0.5
v 21 15 -0.5
v -21 5 0.5
v -21 10 0.5
v -20 3 0.5
v -20 5 0.5
v -20 6 0.5
v -20 9 0.5
v -20 10 0.5
v -20 12 0.5
v -19 2 0.5
v -19 3 0.5
v -19 4 0.5
v -19 6 0.5
v -19 9 0.5
v -19 11 0.5
v -19 12 0.5
v -19 13 0.5
v -18 1 0.5
v -18 2 0.5
v -18 3 0.5
v -18 4 0.5
v -18 11 0.5
v -18 12 0.5
v -18 13 0.5
v -18 14 0.5
v -17 0 0.5
v -17 1 0.5
v -17 2 0.5
v -17 3 0.5
v -17 6 0.5
v -17 9 0.5
v -17 12 0.5
v -17 13 0.5
v -17 14 0.5
v -17 15 0.5
v -16 1 0.5
v -16 2 0.5
v -16 5 0.5
v -16 6 0.5
v -16 7 0.5
v -16 8 0.5
v -16 9 0.5
v -16 10 0.5
v -16 13 0.5
v -16 14 0.5
v -15 4 0.5
v -15 5 0.5
v -15 6 0.5
v -15 7 0.5
v -15 8 0.5
v -15 9 0.5
v -15 10 0.5
v -15 11 0.5
v -14 3 0.5
v -14 4 0.5
v -14 5 0.5
v -14 6 0.5
v -14 9 0.5
v -14 10 0.5
v -14 11 0.5
v -14 12 0.5
v -13 4 0.5
v -13 5 0.5
v -13 10 0.5
v -13 11 0.5
v -12 4 0.5
v -12 5 0.5
v -12 10 0.5
v -12 11 0.5
v -11 3 0.5
v -11 4 0.5
v -11 5 0.5
v -11 6 0.5
v -11 9 0.5
v -11 10 0.5
v -11 11 0.5
v -11 12 0.5
v -10 4 0.5
v -10 5 0.5
v -10 6 0.5
v -10 7 0.5
v -10 8 0.5
v -10 9 0.5
v -10 10 0.5
v -10 11 0.5
v -9 1 0.5
v -9 2 0.5
v -9 5 0.5
v -9 6 0.5
v -9 9 0.5
v -9 10 0.5
v -9 13 0.5
v -9 14 0.5
v -8 0 0.5
v -8 1 0.5
v -8 2 0.5
v -8 3 0.5
v -8 5 0.5
v -8 6 0.5
v -8 9 0.5
v -8 10 0.5
v -8 12 0.5
v -8 13 0.5
v -8 14 0.5
v -8 15 0.5
v -7 1 0.5
v -7 2 0.5
v -7 3 0.5
v -7 5 0.5
v -7 6 0.5
v -7 7 0.5
v -7 8 0.5
v -7 9 0.5
v -7 10 0.5
v -7 12 0.5
v -7 13 0.5
v -7 14 0.5
v -6 2 0.5
v -6 6 0.5
v -6 9 0.5
v -6 13 0.5
v -5 0 0.5
v -5 15 0.5
v -4 1 0.5
v -4 14 0.5
v -1 1 0.5
v -1 5 0.5
v -1 8 0.5
v -1 11 0.5
v 0 0 0.5
v 0 4 0.5
v 2 8 0.5
v 2 9 0.5
v 2 10 0.5
v 2 11 0.5
v 3 5 0.5
v 3 6 0.5
v 3 9 0.5
v 3 10 0.5
v 3 13 0.5
v 3 14 0.5
v 4 4 0.5
v 4 5 0.5
v 4 6 0.5
v 4 7 0.5
v 4 12 0.5
v 4 13 0.5
v 4 14 0.5
v 4 15 0.5
v 5 5 0.5
v 5 6 0.5
v 5 7 0.5
v 5 8 0.5
v 5 11 0.5
v 5 12 0.5
v 5 13 0.5
v 5 14 0.5
v 6 6 0.5
v 6 7 0.5
v 6 8 0.5
v 6 11 0.5
v 6 12 0.5
v 6 13 0.5
v 7 7 0.5
v 7 12 0.5
v 8 3 0.5
v 8 15 0.5
v 9 2 0.5
v 9 3 0.5
v 9 4 0.5
v 9 14 0.5
v 10 1 0.5
v 10 2 0.5
v 10 3 0.5
v 10 4 0.5
v 11 0 0.5
v 11 1 0.5
v 11 2 0.5
v 11 3 0.5
v 12 1 0.5
v 12 2 0.5
v 12 6 0.5
v 12 14 0.5
v 13 5 0.5
v 13 6 0.5
v 13 7 0.5
v 13 15 0.5
v 14 6 0.5
v 14 7 0.5
v 15 6 0.5
v 15 7 0.5
v 16 5 0.5
v 16 6 0.5
v 16 7 0.5
v 16 15 0.5
v 17 1 0.5
v 17 2 0.5
v 17 6 0.5
v 17 14 0.5
v 18 0 0.5
v 18 1 0.5
v 18 2 0.5
v 18 3 0.5
v 19 1 0.5
v 19 2 0.5
v 19 3 0.5
v 19 4 0.5
v 20 2 0.5
v 20 3 0.5
v 20 4 0.5
v 20 14 0.5
v 21 3 0.5
v 21 15 0.5
v -21 5 -0.5
v -21 10 -0.5
v -20 3 -0.5
v -20 5 -0.5
v -20 6 -0.5
v -20 9 -0.5
v -20 10 -0.5
v -20 12 -0.5
v -19 2 -0.5
v -19 3 -0.5
v -19 4 -0.5
v -19 6 -0.5
v -19 9 -0.5
v -19 11 -0.5
v -19 12 -0.5
v -19 13 -0.5
v -18 1 -0.5
v -18 2 -0.5
v -18 3 -0.5
v -18 4 -0.5
v -18 11 -0.5
v -18 12 -0.5
v -18 13 -0.5
v -18 14 -0.5
v -17 0 -0.5
v -17 1 -0.5
v -17 2 -0.5
v -17 3 -0.5
v -17 6 -0.5
v -17 9 -0.5
v -17 12 -0.5
v -17 13 -0.5
v -17 14 -0.5
v -17 15 -0.5
v -16 1 -0.5
v -16 2 -0.5
v -16 5 -0.5
v -16 6 -0.5
v -16 7 -0.5
v -16 8 -0.5
v -16 9 -0.5
v -16 10 -0.5
v -16 13 -0.5
v -16 14 -0.5
v -15 4 -0.5
v -15 5 -0.5
v -15 6 -0.5
v -15 7 -0.5
v -15 8 -0.5
v -15 9 -0.5
v -15 10 -0.5
v -15 11 -0.5
v -14 3 -0.5
v -14 4 -0.5
v -14 5 -0.5
v -14 6 -0.5
v -14 9 -0.5
v -14 10 -0.5
v -14 11 -0.5
v -14 12 -0.5
v -13 4 -0.5
v -13 5 -0.5
v -13 10 -0.5
v -13 11 -0.5
v -12 4 -0.5
v -12 5 -0.5
v -12 10 -0.5
v -12 11 -0.5
v -11 3 -0.5
v -11 4 -0.5
v -11 5 -0.5
v -11 6 -0.5
v -11 9 -0.5
v -11 10 -0.5
v -11 11 -0.5
v -11 12 -0.5
v -10 4 -0.5
v -10 5 -0.5
v -10 6 -0.5
v -10 7 -0.5
v -10 8 -0.5
v -10 9 -0.5
v -10 10 -0.5
v -10 11 -0.5
v -9 1 -0.5
v -9 2 -0.5
v -9 5 -0.5
v -9 6 -0.5
v -9 9 -0.5
v -9 10 -0.5
v -9 13 -0.5
v -9 14 -0.5
v -8 0 -0.5
v -8 1 -0.5
v -8 2 -0.5
v -8 3 -0.5
v -8 5 -0.5
v -8 6 -0.5
v -8 9 -0.5
v -8 10 -0.5
v -8 12 -0.5
v -8 13 -0.5
v -8 14 -0.5
v -8 15 -0.5
v -7 1 -0.5
v -7 2 -0.5
v -7 3 -0.5
v -7 5 -0.5
v -7 6 -0.5
v -7 7 -0.5
v -7 8 -0.5
v -7 9 -0.5
v -7 10 -0.5
v -7 12 -0.5
v -7 13 -0.5
v -7 14 -0.5
v -6 2 -0.5
v -6 6 -0.5
v -6 9 -0.5
v -6 13 -0.5
v -5 0 -0.5
v -5 15 -0.5
v -4 1 -0.5
v -4 14 -0.5
v -1 1 -0.5
v -1 5 -0.5
v -1 8 -0.5
v -1 11 -0.5
v 0 0 -0.5
v 0 4 -0.5
v 2 8 -0.5
v 2 9 -0.5
v 2 10 -0.5
v 2 11 -0.5
v 3 5 -0.5
v 3 6 -0.5
v 3 9 -0.5
v 3 10 -0.5
v 3 13 -0.5
v 3 14 -0.5
v 4 4 -0.5
v 4 5 -0.5
v 4 6 -0.5
v 4 7 -0.5
v 4 12 -0.5
v 4 13 -0.5
v 4 14 -0.5
v 4 15 -0.5
v 5 5 -0.5
v 5 6 -0.5
v 5 7 -0.5
v 5 8 -0.5
v 5 11 -0.5
v 5 12 -0.5
v 5 13 -0.5
v 5 14 -0.5
v 6 6 -0.5
v 6 7 -0.5
v 6 8 -0.5
v 6 11 -0.5
v 6 12 -0.5
v 6 13 -0.5
v 7 7 -0.5
v 7 12 -0.5
v 8 3 -0.5
v 8 15 -0.5
v 9 2 -0.5
v 9 3 -0.5
v 9 4 -0.5
v 9 14 -0.5
v 10 1 -0.5
v 10 2 -0.5
v 10 3 -0.5
v 10 4 -0.5
v 11 0 -0.5
v 11 1 -0.5
v 11 2 -0.5
v 11 3 -0.5
v 12 1 -0.5
v 12 2 -0.5
v 12 6 -0.5
v 12 14 -0.5
v 13 5 -0.5
v 13 6 -0.5
v 13 7 -0.5
v 13 15 -0.5
v 14 6 -0.5
v 14 7 -0.5
v 15 6 -0.5
v 15 7 -0.5
v 16 5 -0.5
v 16 6 -0.5
v 16 7 -0.5
v 16 15 -0.5
v 17 1 -0.5
v 17 2 -0.5
v 17 6 -0.5
v 17 14 -0.5
v 18 0 -0.5
v 18 1 -0.5
v 18 2 -0.5
v 18 3 -0.5
v 19 1 -0.5
v 19 2 -0.5
v 19 3 -0.5
v 19 4 -0.5
v 20 2 -0.5
v 20 3 -0.5
v 20 4 -0.5
v 20 14 -0.5
v 21 3 -0.5
v 21 15 -0.5
v -17 0 0.5
v -8 0 0.5
v -5 0 0.5
v 0 0 0.5
v 11 0 0.5
v 18 0 0.5
v -17 0 -0.5
v -8 0 -0.5
v -5 0 -0.5
v 0 0 -0.5
v 11 0 -0.5
v 18 0 -0.5
v -18 1 0.5
v -17 1 0.5
v -8 1 0.5
v -7 1 0.5
v 10 1 0.5
v 11 1 0.5
v 18 1 0.5
v 19 1 0.5
v -18 1 -0.5
v -17 1 -0.5
v -8 1 -0.5
v -7 1 -0.5
v 10 1 -0.5
v 11 1 -0.5
v 18 1 -0.5
v 19 1 -0.5
v -19 2 0.5
v -18 2 0.5
v -7 2 0.5
v -6 2 0.5
v 9 2 0.5
v 10 2 0.5
v 19 2 0.5
v 20 2 0.5
v -19 2 -0.5
v -18 2 -0.5
v -7 2 -0.5
v -6 2 -0.5
v 9 2 -0.5
v 10 2 -0.5
v 19 2 -0.5
v 20 2 -0.5
v -20 3 0.5
v -19 3 0.5
v 8 3 0.5
v 9 3 0.5
v 20 3 0.5
v 21 3 0.5
v -20 3 -0.5
v -19 3 -0.5
v 8 3 -0.5
v 9 3 -0.5
v 20 3 -0.5
v 21 3 -0.5
v 0 4 0.5
v 4 4 0.5
v 0 4 -0.5
v 4 4 -0.5
v -21 5 0.5
v -20 5 0.5
v 4 5 0.5
v 5 5 0.5
v -21 5 -0.5
v -20 5 -0.5
v 4 5 -0.5
v 5 5 -0.5
v 5 6 0.5
v 6 6 0.5
v 5 6 -0.5
v 6 6 -0.5
v 6 7 0.5
v 7 7 0.5
v 6 7 -0.5
v 7 7 -0.5
v -16 8 0.5
v -15 8 0.5
v -10 8 0.5
v -7 8 0.5
v -16 8 -0.5
v -15 8 -0.5
v -10 8 -0.5
v -7 8 -0.5
v -15 9 0.5
v -14 9 0.5
v -11 9 0.5
v -10 9 0.5
v -7 9 0.5
v -6 9 0.5
v -15 9 -0.5
v -14 9 -0.5
v -11 9 -0.5
v -10 9 -0.5
v -7 9 -0.5
v -6 9 -0.5
v -14 10 0.5
v -13 10 0.5
v -12 10 0.5
v -11 10 0.5
v -14 10 -0.5
v -13 10 -0.5
v -12 10 -0.5
v -11 10 -0.5
v -13 11 0.5
v -12 11 0.5
v -13 11 -0.5
v -12 11 -0.5
v -13 4 0.5
v -12 4 0.5
v -13 4 -0.5
v -12 4 -0.5
v -14 5 0.5
v -13 5 0.5
v -12 5 0.5
v -11 5 0.5
v -14 5 -0.5
v -13 5 -0.5
v -12 5 -0.5
v -11 5 -0.5
v -15 6 0.5
v -14 6 0.5
v -11 6 0.5
v -10 6 0.5
v -7 6 0.5
v -6 6 0.5
v 14 6 0.5
v 15 6 0.5
v -15 6 -0.5
v -14 6 -0.5
v -11 6 -0.5
v -10 6 -0.5
v -7 6 -0.5
v -6 6 -0.5
v 14 6 -0.5
v 15 6 -0.5
v -16 7 0.5
v -15 7 0.5
v -10 7 0.5
v -7 7 0.5
v 13 7 0.5
v 14 7 0.5
v 15 7 0.5
v 16 7 0.5
v -16 7 -0.5
v -15 7 -0.5
v -10 7 -0.5
v -7 7 -0.5
v 13 7 -0.5
v 14 7 -0.5
v 15 7 -0.5
v 16 7 -0.5
v -21 10 0.5
v -20 10 0.5
v -21 10 -0.5
v -20 10 -0.5
v -20 12 0.5
v -19 12 0.5
v 6 12 0.5
v 7 12 0.5
v -20 12 -0.5
v -19 12 -0.5
v 6 12 -0.5
v 7 12 -0.5
v -19 13 0.5
v -18 13 0.5
v -7 13 0.5
v -6 13 0.5
v 5 13 0.5
v 6 13 0.5
v -19 13 -0.5
v -18 13 -0.5
v -7 13 -0.5
v -6 13 -0.5
v 5 13 -0.5
v 6 13 -0.5
v -18 14 0.5
v -17 14 0.5
v -8 14 0.5
v -7 14 0.5
v 4 14 0.5
v 5 14 0.5
v -18 14 -0.5
v -17 14 -0.5
v -8 14 -0.5
v -7 14 -0.5
v 4 14 -0.5
v 5 14 -0.5
v -17 15 0.5
v -8 15 0.5
v -5 15 0.5
v 4 15 0.5
v 8 15 0.5
v 13 15 0.5
v 16 15 0.5
v 21 15 0.5
v -17 15 -0.5
v -8 15 -0.5
v -5 15 -0.5
v 4 15 -0.5
v 8 15 -0.5
v 13 15 -0.5
v 16 15 -0.5
v 21 15 -0.5

# faces
f 3/2/1 2/2/1 1/2/1
f 4/2/1 2/2/1 3/2/1
f 7/2/1 6/2/1 5/2/1
f 8/2/1 6/2/1 7/2/1
f 11/2/1 10/2/1 9/2/1
f 12/2/1 10/2/1 11/2/1
f 15/2/1 14/2/1 13/2/1
f 16/2/1 14/2/1 15/2/1
f 19/2/1 18/2/1 17/2/1
f 20/2/1 18/2/1 19/2/1
f 23/2/1 22/2/1 21/2/1
f 24/2/1 22/2/1 23/2/1
f 27/2/1 26/2/1 25/2/1
f 28/2/1 26/2/1 27/2/1
f 31/2/1 30/2/1 29/2/1
f 32/2/1 30/2/1 31/2/1
f 35/2/1 34/2/1 33/2/1
f 36/2/1 34/2/1 35/2/1
f 39/2/1 38/2/1 37/2/1
f 40/2/1 38/2/1 39/2/1
f 43/2/1 42/2/1 41/2/1
f 44/2/1 42/2/1 43/2/1
f 47/2/1 46/2/1 45/2/1
f 48/2/1 46/2/1 47/2/1
f 51/2/1 50/2/1 49/2/1
f 52/2/1 50/2/1 51/2/1
f 55/2/1 54/2/1 53/2/1
f 56/2/1 54/2/1 55/2/1
f 59/2/1 58/2/1 57/2/1
f 60/2/1 58/2/1 59/2/1
f 63/2/1 62/2/1 61/2/1
f 64/2/1 62/2/1 63/2/1
f 67/2/1 66/2/1 65/2/1
f 68/2/1 66/2/1 67/2/1
f 71/2/1 70/2/1 69/2/1
f 72/2/1 70/2/1 71/2/1
f 75/2/1 74/2/1 73/2/1
f 76/2/1 74/2/1 75/2/1
f 79/2/1 78/2/1 77/2/1
f 80/2/1 78/2/1 79/2/1
f 83/2/1 82/2/1 81/2/1
f 84/2/1 82/2/1 83/2/1
f 87/2/1 86/2/1 85/2/1
f 88/2/1 86/2/1 87/2/1
f 89/2/2 90/2/2 91/2/2
f 91/2/2 90/2/2 92/2/2
f 93/2/2 94/2/2 95/2/2
f 95/2/2 94/2/2 96/2/2
f 97/2/2 98/2/2 99/2/2
f 99/2/2 98/2/2 100/2/2
f 101/2/2 102/2/2 103/2/2
f 103/2/2 102/2/2 104/2/2
f 105/2/2 106/2/2 107/2/2
f 107/2/2 106/2/2 108/2/2
f 109/2/2 110/2/2 111/2/2
f 111/2/2 110/2/2 112/2/2
f 113/2/2 114/2/2 115/2/2
f 115/2/2 114/2/2 116/2/2
f 117/2/2 118/2/2 119/2/2
f 119/2/2 118/2/2 120/2/2
f 121/2/2 122/2/2 123/2/2
f 123/2/2 122/2/2 124/2/2
f 125/2/2 126/2/2 127/2/2
f 127/2/2 126/2/2 128/2/2
f 129/2/2 130/2/2 131/2/2
f 131/2/2 130/2/2 132/2/2
f 133/2/2 134/2/2 135/2/2
f 135/2/2 134/2/2 136/2/2
f 137/2/2 138/2/2 139/2/2
f 139/2/2 138/2/2 140/2/2
f 141/2/2 142/2/2 143/2/2
f 143/2/2 142/2/2 144/2/2
f 145/2/2 146/2/2 147/2/2
f 147/2/2 146/2/2 148/2/2
f 149/2/2 150/2/2 151/2/2
f 151/2/2 150/2/2 152/2/2
f 153/2/2 154/2/2 155/2/2
f 155/2/2 154/2/2 156/2/2
f 157/2/2 158/2/2 159/2/2
f 159/2/2 158/2/2 160/2/2
f 161/2/2 162/2/2 163/2/2
f 163/2/2 162/2/2 164/2/2
f 165/2/2 166/2/2 167/2/2
f 167/2/2 166/2/2 168/2/2
f 169/2/2 170/2/2 171/2/2
f 171/2/2 170/2/2 172/2/2
f 173/2/2 174/2/2 175/2/2
f 175/2/2 174/2/2 176/2/2
f 177/2/2 178/2/2 179/2/2
f 179/2/2 178/2/2 180/2/2
f 181/2/2 182/2/2 183/2/2
f 183/2/2 182/2/2 184/2/2
f 185/2/2 186/2/2 187/2/2
f 187/2/2 186/2/2 188/2/2
f 189/2/2 190/2/2 191/2/2
f 191/2/2 190/2/2 192/2/2
f 193/2/2 194/2/2 195/2/2
f 195/2/2 194/2/2 196/2/2
f 197/2/2 198/2/2 199/2/2
f 199/2/2 198/2/2 200/2/2
f 201/2/2 202/2/2 203/2/2
f 203/2/2 202/2/2 204/2/2
f 208/2/3 206/2/3 205/2/3
f 209/2/3 206/2/3 208/2/3
f 210/2/3 206/2/3 209/2/3
f 211/2/3 206/2/3 210/2/3
f 214/2/3 208/2/3 207/2/3
f 214/2/3 209/2/3 208/2/3
f 215/2/3 209/2/3 214/2/3
f 216/1/3 210/1/3 209/1/3
f 216/2/3 209/2/3 215/2/3
f 217/2/3 212/2/3 211/2/3
f 217/1/3 210/1/3 216/1/3
f 217/2/3 211/2/3 210/2/3
f 218/2/3 212/2/3 217/2/3
f 219/2/3 212/2/3 218/2/3
f 222/2/3 214/2/3 213/2/3
f 222/2/3 215/2/3 214/2/3
f 223/2/3 215/2/3 222/2/3
f 224/1/3 216/1/3 215/1/3
f 224/2/3 215/2/3 223/2/3
f 224/1/3 217/1/3 216/1/3
f 224/1/3 218/1/3 217/1/3
f 225/2/3 220/2/3 219/2/3
f 225/1/3 218/1/3 224/1/3
f 225/2/3 219/2/3 218/2/3
f 226/2/3 220/2/3 225/2/3
f 227/2/3 220/2/3 226/2/3
f 230/2/3 223/2/3 222/2/3
f 230/2/3 222/2/3 221/2/3
f 231/2/3 223/2/3 230/2/3
f 232/1/3 224/1/3 223/1/3
f 232/2/3 223/2/3 231/2/3
f 232/1/3 225/1/3 224/1/3
f 232/1/3 226/1/3 225/1/3
f 233/1/3 226/1/3 232/1/3
f 234/1/3 226/1/3 233/1/3
f 235/2/3 228/2/3 227/2/3
f 235/1/3 226/1/3 234/1/3
f 235/2/3 227/2/3 226/2/3
f 236/2/3 228/2/3 235/2/3
f 237/2/3 228/2/3 236/2/3
f 239/2/3 231/2/3 230/2/3
f 239/2/3 230/2/3 229/2/3
f 240/1/3 233/1/3 232/1/3
f 240/2/3 231/2/3 239/2/3
f 240/1/3 232/1/3 231/1/3
f 241/1/3 233/1/3 240/1/3
f 242/2/3 234/2/3 233/2/3
f 242/1/3 233/1/3 241/1/3
f 243/2/3 234/2/3 242/2/3
f 244/2/3 234/2/3 243/2/3
f 245/1/3 236/1/3 235/1/3
f 245/2/3 234/2/3 244/2/3
f 245/1/3 235/1/3 234/1/3
f 246/1/3 236/1/3 245/1/3
f 247/2/3 238/2/3 237/2/3
f 247/1/3 236/1/3 246/1/3
f 247/2/3 237/2/3 236/2/3
f 248/2/3 238/2/3 247/2/3
f 249/1/3 241/1/3 240/1/3
f 249/1/3 240/1/3 239/1/3
f 250/2/3 243/2/3 242/2/3
f 250/1/3 241/1/3 249/1/3
f 250/2/3 242/2/3 241/2/3
f 251/2/3 243/2/3 250/2/3
f 252/2/3 243/2/3 251/2/3
f 253/2/3 246/2/3 245/2/3
f 253/2/3 245/2/3 244/2/3
f 254/2/3 246/2/3 253/2/3
f 255/1/3 248/1/3 247/1/3
f 255/2/3 246/2/3 254/2/3
f 255/1/3 247/1/3 246/1/3
f 256/1/3 248/1/3 255/1/3
f 257/1/3 249/1/3 239/1/3
f 258/2/3 251/2/3 250/2/3
f 258/1/3 249/1/3 257/1/3
f 258/2/3 250/2/3 249/2/3
f 259/2/3 251/2/3 258/2/3
f 260/2/3 251/2/3 259/2/3
f 261/2/3 256/2/3 255/2/3
f 261/2/3 255/2/3 254/2/3
f 262/2/3 256/2/3 261/2/3
f 263/1/3 248/1/3 256/1/3
f 263/2/3 256/2/3 262/2/3
f 264/1/3 248/1/3 263/1/3
f 265/2/3 259/2/3 258/2/3
f 265/2/3 258/2/3 257/2/3
f 266/2/3 259/2/3 265/2/3
f 267/2/3 264/2/3 263/2/3
f 267/2/3 263/2/3 262/2/3
f 268/2/3 264/2/3 267/2/3
f 269/2/3 265/2/3 257/2/3
f 272/2/3 264/2/3 268/2/3
f 273/1/3 257/1/3 239/1/3
f 273/2/3 270/2/3 269/2/3
f 273/2/3 269/2/3 257/2/3
f 274/2/3 270/2/3 273/2/3
f 275/2/3 270/2/3 274/2/3
f 278/2/3 272/2/3 271/2/3
f 279/2/3 264/2/3 272/2/3
f 279/2/3 272/2/3 278/2/3
f 280/1/3 248/1/3 264/1/3
f 280/2/3 264/2/3 279/2/3
f 281/2/3 276/2/3 275/2/3
f 281/1/3 274/1/3 273/1/3
f 281/2/3 275/2/3 274/2/3
f 282/2/3 276/2/3 281/2/3
f 283/2/3 276/2/3 282/2/3
f 286/2/3 279/2/3 278/2/3
f 286/2/3 278/2/3 277/2/3
f 287/2/3 279/2/3 286/2/3
f 288/1/3 280/1/3 279/1/3
f 288/2/3 279/2/3 287/2/3
f 289/2/3 239/2/3 229/2/3
f 289/1/3 273/1/3 239/1/3
f 289/1/3 281/1/3 273/1/3
f 289/1/3 282/1/3 281/1/3
f 290/1/3 282/1/3 289/1/3
f 291/2/3 284/2/3 283/2/3
f 291/1/3 282/1/3 290/1/3
f 291/2/3 283/2/3 282/2/3
f 292/2/3 284/2/3 291/2/3
f 293/2/3 287/2/3 286/2/3
f 293/2/3 286/2/3 285/2/3
f 294/1/3 288/1/3 287/1/3
f 294/2/3 287/2/3 293/2/3
f 295/1/3 280/1/3 288/1/3
f 295/1/3 288/1/3 294/1/3
f 295/1/3 248/1/3 280/1/3
f 296/2/3 238/2/3 248/2/3
f 296/1/3 248/1/3 295/1/3
f 297/2/3 290/2/3 289/2/3
f 297/2/3 289/2/3 229/2/3
f 298/2/3 290/2/3 297/2/3
f 299/1/3 291/1/3 290/1/3
f 299/2/3 290/2/3 298/2/3
f 299/1/3 292/1/3 291/1/3
f 300/1/3 292/1/3 299/1/3
f 301/1/3 292/1/3 300/1/3
f 302/2/3 284/2/3 292/2/3
f 302/1/3 292/1/3 301/1/3
f 303/1/3 295/1/3 294/1/3
f 303/1/3 294/1/3 293/1/3
f 303/2/3 293/2/3 285/2/3
f 304/1/3 295/1/3 303/1/3
f 305/1/3 295/1/3 304/1/3
f 306/2/3 296/2/3 295/2/3
f 306/1/3 295/1/3 305/1/3
f 307/2/3 238/2/3 296/2/3
f 307/2/3 296/2/3 306/2/3
f 308/2/3 238/2/3 307/2/3
f 309/2/3 300/2/3 299/2/3
f 309/2/3 299/2/3 298/2/3
f 310/2/3 300/2/3 309/2/3
f 311/1/3 301/1/3 300/1/3
f 311/2/3 300/2/3 310/2/3
f 312/2/3 302/2/3 301/2/3
f 312/1/3 301/1/3 311/1/3
f 313/2/3 284/2/3 302/2/3
f 313/2/3 302/2/3 312/2/3
f 314/2/3 284/2/3 313/2/3
f 315/2/3 304/2/3 303/2/3
f 315/2/3 303/2/3 285/2/3
f 316/2/3 304/2/3 315/2/3
f 317/1/3 305/1/3 304/1/3
f 317/2/3 304/2/3 316/2/3
f 318/2/3 306/2/3 305/2/3
f 318/1/3 305/1/3 317/1/3
f 318/2/3 307/2/3 306/2/3
f 319/2/3 307/2/3 318/2/3
f 320/2/3 307/2/3 319/2/3
f 321/2/3 312/2/3 311/2/3
f 321/2/3 311/2/3 310/2/3
f 321/2/3 313/2/3 312/2/3
f 322/2/3 313/2/3 321/2/3
f 323/2/3 317/2/3 316/2/3
f 323/2/3 319/2/3 318/2/3
f 323/2/3 318/2/3 317/2/3
f 324/2/3 319/2/3 323/2/3
f 327/2/3 326/2/3 325/2/3
f 328/2/3 326/2/3 327/2/3
f 329/2/3 327/2/3 325/2/3
f 329/1/3 328/1/3 327/1/3
f 330/1/3 328/1/3 329/1/3
f 331/1/3 328/1/3 330/1/3
f 332/1/3 328/1/3 331/1/3
f 333/2/3 329/2/3 325/2/3
f 333/2/3 330/2/3 329/2/3
f 334/2/3 330/2/3 333/2/3
f 335/2/3 332/2/3 331/2/3
f 335/1/3 331/1/3 330/1/3
f 336/2/3 332/2/3 335/2/3
f 337/2/3 332/2/3 336/2/3
f 338/1/3 328/1/3 332/1/3
f 338/2/3 332/2/3 337/2/3
f 339/2/3 330/2/3 334/2/3
f 339/1/3 335/1/3 330/1/3
f 339/1/3 336/1/3 335/1/3
f 340/1/3 336/1/3 339/1/3
f 341/2/3 337/2/3 336/2/3
f 341/1/3 336/1/3 340/1/3
f 342/1/3 338/1/3 337/1/3
f 342/2/3 337/2/3 341/2/3
f 343/1/3 328/1/3 338/1/3
f 343/1/3 338/1/3 342/1/3
f 344/2/3 326/2/3 328/2/3
f 344/1/3 328/1/3 343/1/3
f 345/2/3 340/2/3 339/2/3
f 345/2/3 339/2/3 334/2/3
f 346/2/3 340/2/3 345/2/3
f 347/1/3 343/1/3 342/1/3
f 347/2/3 340/2/3 346/2/3
f 347/1/3 342/1/3 341/1/3
f 347/1/3 341/1/3 340/1/3
f 348/1/3 343/1/3 347/1/3
f 349/1/3 343/1/3 348/1/3
f 350/2/3 344/2/3 343/2/3
f 350/1/3 343/1/3 349/1/3
f 351/2/3 326/2/3 344/2/3
f 351/2/3 344/2/3 350/2/3
f 352/2/3 326/2/3 351/2/3
f 353/2/3 347/2/3 346/2/3
f 353/2/3 348/2/3 347/2/3
f 354/2/3 348/2/3 353/2/3
f 355/1/3 349/1/3 348/1/3
f 355/2/3 348/2/3 354/2/3
f 356/1/3 349/1/3 355/1/3
f 357/1/3 349/1/3 356/1/3
f 358/2/3 350/2/3 349/2/3
f 358/1/3 349/1/3 357/1/3
f 358/2/3 351/2/3 350/2/3
f 359/2/3 351/2/3 358/2/3
f 360/2/3 351/2/3 359/2/3
f 361/2/3 356/2/3 355/2/3
f 361/2/3 355/2/3 354/2/3
f 362/2/3 356/2/3 361/2/3
f 363/1/3 357/1/3 356/1/3
f 363/2/3 356/2/3 362/2/3
f 364/2/3 359/2/3 358/2/3
f 364/1/3 357/1/3 363/1/3
f 364/2/3 358/2/3 357/2/3
f 365/2/3 359/2/3 364/2/3
f 366/2/3 359/2/3 365/2/3
f 367/2/3 363/2/3 362/2/3
f 367/2/3 365/2/3 364/2/3
f 367/2/3 364/2/3 363/2/3
f 368/2/3 365/2/3 367/2/3
f 372/2/3 370/2/3 369/2/3
f 373/2/3 370/2/3 372/2/3
f 374/2/3 370/2/3 373/2/3
f 376/2/3 372/2/3 371/2/3
f 376/2/3 373/2/3 372/2/3
f 377/2/3 373/2/3 376/2/3
f 378/1/3 374/1/3 373/1/3
f 378/2/3 373/2/3 377/2/3
f 380/2/3 377/2/3 376/2/3
f 380/2/3 376/2/3 375/2/3
f 381/2/3 377/2/3 380/2/3
f 382/1/3 378/1/3 377/1/3
f 382/2/3 377/2/3 381/2/3
f 383/2/3 381/2/3 380/2/3
f 383/2/3 380/2/3 379/2/3
f 384/1/3 382/1/3 381/1/3
f 384/2/3 381/2/3 383/2/3
f 385/1/3 374/1/3 378/1/3
f 385/1/3 382/1/3 384/1/3
f 385/1/3 378/1/3 382/1/3
f 386/2/3 370/2/3 374/2/3
f 386/1/3 374/1/3 385/1/3
f 387/1/3 385/1/3 384/1/3
f 387/1/3 384/1/3 383/1/3
f 388/2/3 386/2/3 385/2/3
f 388/1/3 385/1/3 387/1/3
f 389/2/3 386/2/3 388/2/3
f 390/2/3 370/2/3 386/2/3
f 390/2/3 386/2/3 389/2/3
f 391/2/3 389/2/3 388/2/3
f 391/2/3 388/2/3 387/2/3
f 392/2/3 389/2/3 391/2/3
f 393/2/3 391/2/3 387/2/3
f 395/1/3 387/1/3 383/1/3
f 395/2/3 394/2/3 393/2/3
f 395/2/3 393/2/3 387/2/3
f 396/2/3 394/2/3 395/2/3
f 397/2/3 394/2/3 396/2/3
f 399/2/3 383/2/3 379/2/3
f 399/1/3 395/1/3 383/1/3
f 399/1/3 396/1/3 395/1/3
f 400/1/3 396/1/3 399/1/3
f 401/2/3 397/2/3 396/2/3
f 401/1/3 396/1/3 400/1/3
f 401/2/3 398/2/3 397/2/3
f 402/2/3 398/2/3 401/2/3
f 403/2/3 400/2/3 399/2/3
f 403/2/3 399/2/3 379/2/3
f 404/2/3 400/2/3 403/2/3
f 405/1/3 402/1/3 401/1/3
f 405/2/3 400/2/3 404/2/3
f 405/1/3 401/1/3 400/1/3
f 406/1/3 402/1/3 405/1/3
f 407/2/3 405/2/3 404/2/3
f 407/2/3 406/2/3 405/2/3
f 408/2/3 406/2/3 407/2/3
f 409/1/3 402/1/3 406/1/3
f 409/2/3 406/2/3 408/2/3
f 410/1/3 402/1/3 409/1/3
f 411/2/3 409/2/3 408/2/3
f 411/2/3 410/2/3 409/2/3
f 412/2/3 410/2/3 411/2/3
f 413/1/3 402/1/3 410/1/3
f 413/2/3 410/2/3 412/2/3
f 414/2/3 398/2/3 402/2/3
f 414/1/3 402/1/3 413/1/3
f 415/2/3 413/2/3 412/2/3
f 415/2/3 414/2/3 413/2/3
f 416/2/3 398/2/3 414/2/3
f 416/2/3 414/2/3 415/2/3
f 417/2/4 418/2/4 420/2/4
f 420/2/4 418/2/4 421/2/4
f 421/2/4 418/2/4 422/2/4
f 422/2/4 418/2/4 423/2/4
f 419/2/4 420/2/4 426/2/4
f 420/2/4 421/2/4 426/2/4
f 426/2/4 421/2/4 427/2/4
f 421/1/4 422/1/4 428/1/4
f 427/2/4 421/2/4 428/2/4
f 423/2/4 424/2/4 429/2/4
f 428/1/4 422/1/4 429/1/4
f 422/2/4 423/2/4 429/2/4
f 429/2/4 424/2/4 430/2/4
f 430/2/4 424/2/4 431/2/4
f 425/2/4 426/2/4 434/2/4
f 426/2/4 427/2/4 434/2/4
f 434/2/4 427/2/4 435/2/4
f 427/1/4 428/1/4 436/1/4
f 435/2/4 427/2/4 436/2/4
f 428/1/4 429/1/4 436/1/4
f 429/1/4 430/1/4 436/1/4
f 431/2/4 432/2/4 437/2/4
f 436/1/4 430/1/4 437/1/4
f 430/2/4 431/2/4 437/2/4
f 437/2/4 432/2/4 438/2/4
f 438/2/4 432/2/4 439/2/4
f 434/2/4 435/2/4 442/2/4
f 433/2/4 434/2/4 442/2/4
f 442/2/4 435/2/4 443/2/4
f 435/1/4 436/1/4 444/1/4
f 443/2/4 435/2/4 444/2/4
f 436/1/4 437/1/4 444/1/4
f 437/1/4 438/1/4 444/1/4
f 444/1/4 438/1/4 445/1/4
f 445/1/4 438/1/4 446/1/4
f 439/2/4 440/2/4 447/2/4
f 446/1/4 438/1/4 447/1/4
f 438/2/4 439/2/4 447/2/4
f 447/2/4 440/2/4 448/2/4
f 448/2/4 440/2/4 449/2/4
f 442/2/4 443/2/4 451/2/4
f 441/2/4 442/2/4 451/2/4
f 444/1/4 445/1/4 452/1/4
f 451/2/4 443/2/4 452/2/4
f 443/1/4 444/1/4 452/1/4
f 452/1/4 445/1/4 453/1/4
f 445/2/4 446/2/4 454/2/4
f 453/1/4 445/1/4 454/1/4
f 454/2/4 446/2/4 455/2/4
f 455/2/4 446/2/4 456/2/4
f 447/1/4 448/1/4 457/1/4
f 456/2/4 446/2/4 457/2/4
f 446/1/4 447/1/4 457/1/4
f 457/1/4 448/1/4 458/1/4
f 449/2/4 450/2/4 459/2/4
f 458/1/4 448/1/4 459/1/4
f 448/2/4 449/2/4 459/2/4
f 459/2/4 450/2/4 460/2/4
f 452/1/4 453/1/4 461/1/4
f 451/1/4 452/1/4 461/1/4
f 454/2/4 455/2/4 462/2/4
f 461/1/4 453/1/4 462/1/4
f 453/2/4 454/2/4 462/2/4
f 462/2/4 455/2/4 463/2/4
f 463/2/4 455/2/4 464/2/4
f 457/2/4 458/2/4 465/2/4
f 456/2/4 457/2/4 465/2/4
f 465/2/4 458/2/4 466/2/4
f 459/1/4 460/1/4 467/1/4
f 466/2/4 458/2/4 467/2/4
f 458/1/4 459/1/4 467/1/4
f 467/1/4 460/1/4 468/1/4
f 451/1/4 461/1/4 469/1/4
f 462/2/4 463/2/4 470/2/4
f 469/1/4 461/1/4 470/1/4
f 461/2/4 462/2/4 470/2/4
f 470/2/4 463/2/4 471/2/4
f 471/2/4 463/2/4 472/2/4
f 467/2/4 468/2/4 473/2/4
f 466/2/4 467/2/4 473/2/4
f 473/2/4 468/2/4 474/2/4
f 468/1/4 460/1/4 475/1/4
f 474/2/4 468/2/4 475/2/4
f 475/1/4 460/1/4 476/1/4
f 470/2/4 471/2/4 477/2/4
f 469/2/4 470/2/4 477/2/4
f 477/2/4 471/2/4 478/2/4
f 475/2/4 476/2/4 479/2/4
f 474/2/4 475/2/4 479/2/4
f 479/2/4 476/2/4 480/2/4
f 469/2/4 477/2/4 481/2/4
f 480/2/4 476/2/4 484/2/4
f 451/1/4 469/1/4 485/1/4
f 481/2/4 482/2/4 485/2/4
f 469/2/4 481/2/4 485/2/4
f 485/2/4 482/2/4 486/2/4
f 486/2/4 482/2/4 487/2/4
f 483/2/4 484/2/4 490/2/4
f 484/2/4 476/2/4 491/2/4
f 490/2/4 484/2/4 491/2/4
f 476/1/4 460/1/4 492/1/4
f 491/2/4 476/2/4 492/2/4
f 487/2/4 488/2/4 493/2/4
f 485/1/4 486/1/4 493/1/4
f 486/2/4 487/2/4 493/2/4
f 493/2/4 488/2/4 494/2/4
f 494/2/4 488/2/4 495/2/4
f 490/2/4 491/2/4 498/2/4
f 489/2/4 490/2/4 498/2/4
f 498/2/4 491/2/4 499/2/4
f 491/1/4 492/1/4 500/1/4
f 499/2/4 491/2/4 500/2/4
f 441/2/4 451/2/4 501/2/4
f 451/1/4 485/1/4 501/1/4
f 485/1/4 493/1/4 501/1/4
f 493/1/4 494/1/4 501/1/4
f 501/1/4 494/1/4 502/1/4
f 495/2/4 496/2/4 503/2/4
f 502/1/4 494/1/4 503/1/4
f 494/2/4 495/2/4 503/2/4
f 503/2/4 496/2/4 504/2/4
f 498/2/4 499/2/4 505/2/4
f 497/2/4 498/2/4 505/2/4
f 499/1/4 500/1/4 506/1/4
f 505/2/4 499/2/4 506/2/4
f 500/1/4 492/1/4 507/1/4
f 506/1/4 500/1/4 507/1/4
f 492/1/4 460/1/4 507/1/4
f 460/2/4 450/2/4 508/2/4
f 507/1/4 460/1/4 508/1/4
f 501/2/4 502/2/4 509/2/4
f 441/2/4 501/2/4 509/2/4
f 509/2/4 502/2/4 510/2/4
f 502/1/4 503/1/4 511/1/4
f 510/2/4 502/2/4 511/2/4
f 503/1/4 504/1/4 511/1/4
f 511/1/4 504/1/4 512/1/4
f 512/1/4 504/1/4 513/1/4
f 504/2/4 496/2/4 514/2/4
f 513/1/4 504/1/4 514/1/4
f 506/1/4 507/1/4 515/1/4
f 505/1/4 506/1/4 515/1/4
f 497/2/4 505/2/4 515/2/4
f 515/1/4 507/1/4 516/1/4
f 516/1/4 507/1/4 517/1/4
f 507/2/4 508/2/4 518/2/4
f 517/1/4 507/1/4 518/1/4
f 508/2/4 450/2/4 519/2/4
f 518/2/4 508/2/4 519/2/4
f 519/2/4 450/2/4 520/2/4
f 511/2/4 512/2/4 521/2/4
f 510/2/4 511/2/4 521/2/4
f 521/2/4 512/2/4 522/2/4
f 512/1/4 513/1/4 523/1/4
f 522/2/4 512/2/4 523/2/4
f 513/2/4 514/2/4 524/2/4
f 523/1/4 513/1/4 524/1/4
f 514/2/4 496/2/4 525/2/4
f 524/2/4 514/2/4 525/2/4
f 525/2/4 496/2/4 526/2/4
f 515/2/4 516/2/4 527/2/4
f 497/2/4 515/2/4 527/2/4
f 527/2/4 516/2/4 528/2/4
f 516/1/4 517/1/4 529/1/4
f 528/2/4 516/2/4 529/2/4
f 517/2/4 518/2/4 530/2/4
f 529/1/4 517/1/4 530/1/4
f 518/2/4 519/2/4 530/2/4
f 530/2/4 519/2/4 531/2/4
f 531/2/4 519/2/4 532/2/4
f 523/2/4 524/2/4 533/2/4
f 522/2/4 523/2/4 533/2/4
f 524/2/4 525/2/4 533/2/4
f 533/2/4 525/2/4 534/2/4
f 528/2/4 529/2/4 535/2/4
f 530/2/4 531/2/4 535/2/4
f 529/2/4 530/2/4 535/2/4
f 535/2/4 531/2/4 536/2/4
f 537/2/4 538/2/4 539/2/4
f 539/2/4 538/2/4 540/2/4
f 537/2/4 539/2/4 541/2/4
f 539/1/4 540/1/4 541/1/4
f 541/1/4 540/1/4 542/1/4
f 542/1/4 540/1/4 543/1/4
f 543/1/4 540/1/4 544/1/4
f 537/2/4 541/2/4 545/2/4
f 541/2/4 542/2/4 545/2/4
f 545/2/4 542/2/4 546/2/4
f 543/2/4 544/2/4 547/2/4
f 542/1/4 543/1/4 547/1/4
f 547/2/4 544/2/4 548/2/4
f 548/2/4 544/2/4 549/2/4
f 544/1/4 540/1/4 550/1/4
f 549/2/4 544/2/4 550/2/4
f 546/2/4 542/2/4 551/2/4
f 542/1/4 547/1/4 551/1/4
f 547/1/4 548/1/4 551/1/4
f 551/1/4 548/1/4 552/1/4
f 548/2/4 549/2/4 553/2/4
f 552/1/4 548/1/4 553/1/4
f 549/1/4 550/1/4 554/1/4
f 553/2/4 549/2/4 554/2/4
f 550/1/4 540/1/4 555/1/4
f 554/1/4 550/1/4 555/1/4
f 540/2/4 538/2/4 556/2/4
f 555/1/4 540/1/4 556/1/4
f 551/2/4 552/2/4 557/2/4
f 546/2/4 551/2/4 557/2/4
f 557/2/4 552/2/4 558/2/4
f 554/1/4 555/1/4 559/1/4
f 558/2/4 552/2/4 559/2/4
f 553/1/4 554/1/4 559/1/4
f 552/1/4 553/1/4 559/1/4
f 559/1/4 555/1/4 560/1/4
f 560/1/4 555/1/4 561/1/4
f 555/2/4 556/2/4 562/2/4
f 561/1/4 555/1/4 562/1/4
f 556/2/4 538/2/4 563/2/4
f 562/2/4 556/2/4 563/2/4
f 563/2/4 538/2/4 564/2/4
f 558/2/4 559/2/4 565/2/4
f 559/2/4 560/2/4 565/2/4
f 565/2/4 560/2/4 566/2/4
f 560/1/4 561/1/4 567/1/4
f 566/2/4 560/2/4 567/2/4
f 567/1/4 561/1/4 568/1/4
f 568/1/4 561/1/4 569/1/4
f 561/2/4 562/2/4 570/2/4
f 569/1/4 561/1/4 570/1/4
f 562/2/4 563/2/4 570/2/4
f 570/2/4 563/2/4 571/2/4
f 571/2/4 563/2/4 572/2/4
f 567/2/4 568/2/4 573/2/4
f 566/2/4 567/2/4 573/2/4
f 573/2/4 568/2/4 574/2/4
f 568/1/4 569/1/4 575/1/4
f 574/2/4 568/2/4 575/2/4
f 570/2/4 571/2/4 576/2/4
f 575/1/4 569/1/4 576/1/4
f 569/2/4 570/2/4 576/2/4
f 576/2/4 571/2/4 577/2/4
f 577/2/4 571/2/4 578/2/4
f 574/2/4 575/2/4 579/2/4
f 576/2/4 577/2/4 579/2/4
f 575/2/4 576/2/4 579/2/4
f 579/2/4 577/2/4 580/2/4
f 581/2/4 582/2/4 584/2/4
f 584/2/4 582/2/4 585/2/4
f 585/2/4 582/2/4 586/2/4
f 583/2/4 584/2/4 588/2/4
f 584/2/4 585/2/4 588/2/4
f 588/2/4 585/2/4 589/2/4
f 585/1/4 586/1/4 590/1/4
f 589/2/4 585/2/4 590/2/4
f 588/2/4 589/2/4 592/2/4
f 587/2/4 588/2/4 592/2/4
f 592/2/4 589/2/4 593/2/4
f 589/1/4 590/1/4 594/1/4
f 593/2/4 589/2/4 594/2/4
f 592/2/4 593/2/4 595/2/4
f 591/2/4 592/2/4 595/2/4
f 593/1/4 594/1/4 596/1/4
f 595/2/4 593/2/4 596/2/4
f 590/1/4 586/1/4 597/1/4
f 596/1/4 594/1/4 597/1/4
f 594/1/4 590/1/4 597/1/4
f 586/2/4 582/2/4 598/2/4
f 597/1/4 586/1/4 598/1/4
f 596/1/4 597/1/4 599/1/4
f 595/1/4 596/1/4 599/1/4
f 597/2/4 598/2/4 600/2/4
f 599/1/4 597/1/4 600/1/4
f 600/2/4 598/2/4 601/2/4
f 598/2/4 582/2/4 602/2/4
f 601/2/4 598/2/4 602/2/4
f 600/2/4 601/2/4 603/2/4
f 599/2/4 600/2/4 603/2/4
f 603/2/4 601/2/4 604/2/4
f 599/2/4 603/2/4 605/2/4
f 595/1/4 599/1/4 607/1/4
f 605/2/4 606/2/4 607/2/4
f 599/2/4 605/2/4 607/2/4
f 607/2/4 606/2/4 608/2/4
f 608/2/4 606/2/4 609/2/4
f 591/2/4 595/2/4 611/2/4
f 595/1/4 607/1/4 611/1/4
f 607/1/4 608/1/4 611/1/4
f 611/1/4 608/1/4 612/1/4
f 608/2/4 609/2/4 613/2/4
f 612/1/4 608/1/4 613/1/4
f 609/2/4 610/2/4 613/2/4
f 613/2/4 610/2/4 614/2/4
f 611/2/4 612/2/4 615/2/4
f 591/2/4 611/2/4 615/2/4
f 615/2/4 612/2/4 616/2/4
f 613/1/4 614/1/4 617/1/4
f 616/2/4 612/2/4 617/2/4
f 612/1/4 613/1/4 617/1/4
f 617/1/4 614/1/4 618/1/4
f 616/2/4 617/2/4 619/2/4
f 617/2/4 618/2/4 619/2/4
f 619/2/4 618/2/4 620/2/4
f 618/1/4 614/1/4 621/1/4
f 620/2/4 618/2/4 621/2/4
f 621/1/4 614/1/4 622/1/4
f 620/2/4 621/2/4 623/2/4
f 621/2/4 622/2/4 623/2/4
f 623/2/4 622/2/4 624/2/4
f 622/1/4 614/1/4 625/1/4
f 624/2/4 622/2/4 625/2/4
f 614/2/4 610/2/4 626/2/4
f 625/1/4 614/1/4 626/1/4
f 624/2/4 625/2/4 627/2/4
f 625/2/4 626/2/4 627/2/4
f 626/2/4 610/2/4 628/2/4
f 627/2/4 626/2/4 628/2/4
f 635/2/5 630/2/5 629/2/5
f 636/2/5 630/2/5 635/2/5
f 637/2/5 632/2/5 631/2/5
f 638/2/5 632/2/5 637/2/5
f 639/2/5 634/2/5 633/2/5
f 640/2/5 634/2/5 639/2/5
f 649/2/5 642/2/5 641/2/5
f 650/2/5 642/2/5 649/2/5
f 651/2/5 644/2/5 643/2/5
f 652/2/5 644/2/5 651/2/5
f 653/2/5 646/2/5 645/2/5
f 654/2/5 646/2/5 653/2/5
f 655/2/5 648/2/5 647/2/5
f 656/2/5 648/2/5 655/2/5
f 665/2/5 658/2/5 657/2/5
f 666/2/5 658/2/5 665/2/5
f 667/2/5 660/2/5 659/2/5
f 668/2/5 660/2/5 667/2/5
f 669/2/5 662/2/5 661/2/5
f 670/2/5 662/2/5 669/2/5
f 671/2/5 664/2/5 663/2/5
f 672/2/5 664/2/5 671/2/5
f 679/2/5 674/2/5 673/2/5
f 680/2/5 674/2/5 679/2/5
f 681/2/5 676/2/5 675/2/5
f 682/2/5 676/2/5 681/2/5
f 683/2/5 678/2/5 677/2/5
f 684/2/5 678/2/5 683/2/5
f 687/2/5 686/2/5 685/2/5
f 688/2/5 686/2/5 687/2/5
f 693/2/5 690/2/5 689/2/5
f 694/2/5 690/2/5 693/2/5
f 695/2/5 692/2/5 691/2/5
f 696/2/5 692/2/5 695/2/5
f 699/2/5 698/2/5 697/2/5
f 700/2/5 698/2/5 699/2/5
f 703/2/5 702/2/5 701/2/5
f 704/2/5 702/2/5 703/2/5
f 709/2/5 706/2/5 705/2/5
f 710/2/5 706/2/5 709/2/5
f 711/2/5 708/2/5 707/2/5
f 712/2/5 708/2/5 711/2/5
f 719/2/5 714/2/5 713/2/5
f 720/2/5 714/2/5 719/2/5
f 721/2/5 716/2/5 715/2/5
f 722/2/5 716/2/5 721/2/5
f 723/2/5 718/2/5 717/2/5
f 724/2/5 718/2/5 723/2/5
f 729/2/5 726/2/5 725/2/5
f 730/2/5 726/2/5 729/2/5
f 731/2/5 728/2/5 727/2/5
f 732/2/5 728/2/5 731/2/5
f 735/2/5 734/2/5 733/2/5
f 736/2/5 734/2/5 735/2/5
f 737/2/6 738/2/6 739/2/6
f 739/2/6 738/2/6 740/2/6
f 741/2/6 742/2/6 745/2/6
f 745/2/6 742/2/6 746/2/6
f 743/2/6 744/2/6 747/2/6
f 747/2/6 744/2/6 748/2/6
f 749/2/6 750/2/6 757/2/6
f 757/2/6 750/2/6 758/2/6
f 751/2/6 752/2/6 759/2/6
f 759/2/6 752/2/6 760/2/6
f 753/2/6 754/2/6 761/2/6
f 761/2/6 754/2/6 762/2/6
f 755/2/6 756/2/6 763/2/6
f 763/2/6 756/2/6 764/2/6
f 765/2/6 766/2/6 773/2/6
f 773/2/6 766/2/6 774/2/6
f 767/2/6 768/2/6 775/2/6
f 775/2/6 768/2/6 776/2/6
f 769/2/6 770/2/6 777/2/6
f 777/2/6 770/2/6 778/2/6
f 771/2/6 772/2/6 779/2/6
f 779/2/6 772/2/6 780/2/6
f 781/2/6 782/2/6 783/2/6
f 783/2/6 782/2/6 784/2/6
f 785/2/6 786/2/6 789/2/6
f 789/2/6 786/2/6 790/2/6
f 787/2/6 788/2/6 791/2/6
f 791/2/6 788/2/6 792/2/6
f 793/2/6 794/2/6 799/2/6
f 799/2/6 794/2/6 800/2/6
f 795/2/6 796/2/6 801/2/6
f 801/2/6 796/2/6 802/2/6
f 797/2/6 798/2/6 803/2/6
f 803/2/6 798/2/6 804/2/6
f 805/2/6 806/2/6 811/2/6
f 811/2/6 806/2/6 812/2/6
f 807/2/6 808/2/6 813/2/6
f 813/2/6 808/2/6 814/2/6
f 809/2/6 810/2/6 815/2/6
f 815/2/6 810/2/6 816/2/6
f 817/2/6 818/2/6 825/2/6
f 825/2/6 818/2/6 826/2/6
f 819/2/6 820/2/6 827/2/6
f 827/2/6 820/2/6 828/2/6
f 821/2/6 822/2/6 829/2/6
f 829/2/6 822/2/6 830/2/6
f 823/2/6 824/2/6 831/2/6
f 831/2/6 824/2/6 832/2/6
