# MagicaVoxel @ Ephtracy

# group
g BrickTile1

# material
mtllib BrickTile1.mtl
usemtl palette

# normals
vn -1 0 0
vn 1 0 0
vn 0 0 1
vn 0 0 -1
vn 0 -1 0
vn 0 1 0

# texcoords
vt 0.162109 0.5
vt 0.197266 0.5
vt 0.978516 0.5

# verts
v -10 0 10
v -10 0 -10
v -10 9 6
v -10 9 5
v -10 9 1
v -10 9 -0
v -10 9 -4
v -10 9 -5
v -10 9 -9
v -10 9 -10
v -10 10 10
v -10 10 6
v -10 10 5
v -10 10 1
v -10 10 -0
v -10 10 -4
v -10 10 -5
v -10 10 -9
v -10 10 -10
v 10 0 10
v 10 0 -10
v 10 9 6
v 10 9 -0
v 10 9 -4
v 10 9 -10
v 10 10 10
v 10 10 6
v 10 10 -0
v 10 10 -4
v 10 10 -10
v -10 0 10
v -10 10 10
v -6 9 10
v -6 10 10
v -5 9 10
v -5 10 10
v 4 9 10
v 4 10 10
v 5 9 10
v 5 10 10
v 10 0 10
v 10 10 10
v -10 0 -10
v -10 9 -10
v -10 10 -10
v 10 0 -10
v 10 9 -10
v 10 10 -10
v -10 0 10
v 10 0 10
v -10 0 -10
v 10 0 -10
v -10 10 10
v -6 10 10
v -5 10 10
v 4 10 10
v 5 10 10
v 10 10 10
v -10 10 6
v -6 10 6
v -5 10 6
v 4 10 6
v 5 10 6
v 10 10 6
v -10 10 5
v -1 10 5
v 0 10 5
v 9 10 5
v -10 10 1
v -1 10 1
v 0 10 1
v 9 10 1
v -10 10 -0
v -6 10 -0
v -5 10 -0
v 4 10 -0
v 5 10 -0
v 10 10 -0
v -10 10 -4
v -6 10 -4
v -5 10 -4
v 4 10 -4
v 5 10 -4
v 10 10 -4
v -10 10 -5
v -1 10 -5
v 0 10 -5
v 9 10 -5
v -10 10 -9
v -1 10 -9
v 0 10 -9
v 9 10 -9
v -10 10 -10
v 10 10 -10

# faces
f 3/1/1 2/1/1 1/1/1
f 4/1/1 2/1/1 3/1/1
f 5/1/1 2/1/1 4/1/1
f 6/1/1 2/1/1 5/1/1
f 7/1/1 2/1/1 6/1/1
f 8/1/1 2/1/1 7/1/1
f 9/1/1 2/1/1 8/1/1
f 10/1/1 2/1/1 9/1/1
f 11/1/1 3/1/1 1/1/1
f 12/2/1 4/2/1 3/2/1
f 12/1/1 3/1/1 11/1/1
f 13/1/1 5/1/1 4/1/1
f 13/2/1 4/2/1 12/2/1
f 14/2/1 6/2/1 5/2/1
f 14/1/1 5/1/1 13/1/1
f 15/1/1 7/1/1 6/1/1
f 15/2/1 6/2/1 14/2/1
f 16/2/1 8/2/1 7/2/1
f 16/1/1 7/1/1 15/1/1
f 17/1/1 9/1/1 8/1/1
f 17/2/1 8/2/1 16/2/1
f 18/2/1 10/2/1 9/2/1
f 18/1/1 9/1/1 17/1/1
f 19/2/1 10/2/1 18/2/1
f 20/1/2 21/1/2 22/1/2
f 22/1/2 21/1/2 23/1/2
f 23/1/2 21/1/2 24/1/2
f 24/1/2 21/1/2 25/1/2
f 20/1/2 22/1/2 26/1/2
f 22/2/2 23/2/2 27/2/2
f 26/1/2 22/1/2 27/1/2
f 23/1/2 24/1/2 28/1/2
f 27/2/2 23/2/2 28/2/2
f 24/2/2 25/2/2 29/2/2
f 28/1/2 24/1/2 29/1/2
f 29/2/2 25/2/2 30/2/2
f 33/1/3 32/1/3 31/1/3
f 34/1/3 32/1/3 33/1/3
f 35/1/3 33/1/3 31/1/3
f 35/2/3 34/2/3 33/2/3
f 36/2/3 34/2/3 35/2/3
f 37/1/3 35/1/3 31/1/3
f 37/1/3 36/1/3 35/1/3
f 38/1/3 36/1/3 37/1/3
f 39/1/3 37/1/3 31/1/3
f 39/2/3 38/2/3 37/2/3
f 40/2/3 38/2/3 39/2/3
f 41/1/3 39/1/3 31/1/3
f 41/1/3 40/1/3 39/1/3
f 42/1/3 40/1/3 41/1/3
f 43/1/4 44/1/4 46/1/4
f 44/2/4 45/2/4 47/2/4
f 46/1/4 44/1/4 47/1/4
f 47/2/4 45/2/4 48/2/4
f 51/1/5 50/1/5 49/1/5
f 52/1/5 50/1/5 51/1/5
f 53/1/6 54/1/6 59/1/6
f 54/2/6 55/2/6 60/2/6
f 59/1/6 54/1/6 60/1/6
f 55/1/6 56/1/6 61/1/6
f 60/2/6 55/2/6 61/2/6
f 56/2/6 57/2/6 62/2/6
f 61/1/6 56/1/6 62/1/6
f 57/1/6 58/1/6 63/1/6
f 62/2/6 57/2/6 63/2/6
f 63/1/6 58/1/6 64/1/6
f 61/2/6 62/2/6 65/2/6
f 59/2/6 60/2/6 65/2/6
f 63/2/6 64/2/6 65/2/6
f 62/2/6 63/2/6 65/2/6
f 60/2/6 61/2/6 65/2/6
f 65/2/6 64/2/6 66/2/6
f 66/2/6 64/2/6 67/2/6
f 67/2/6 64/2/6 68/2/6
f 65/1/6 66/1/6 69/1/6
f 66/2/6 67/2/6 70/2/6
f 69/1/6 66/1/6 70/1/6
f 67/1/6 68/1/6 71/1/6
f 70/2/6 67/2/6 71/2/6
f 68/2/6 64/2/6 72/2/6
f 71/1/6 68/1/6 72/1/6
f 70/2/6 71/2/6 73/2/6
f 69/2/6 70/2/6 73/2/6
f 71/2/6 72/2/6 73/2/6
f 73/2/6 72/2/6 74/2/6
f 74/2/6 72/2/6 75/2/6
f 75/2/6 72/2/6 76/2/6
f 76/2/6 72/2/6 77/2/6
f 72/2/6 64/2/6 78/2/6
f 77/2/6 72/2/6 78/2/6
f 73/1/6 74/1/6 79/1/6
f 74/2/6 75/2/6 80/2/6
f 79/1/6 74/1/6 80/1/6
f 75/1/6 76/1/6 81/1/6
f 80/2/6 75/2/6 81/2/6
f 76/2/6 77/2/6 82/2/6
f 81/1/6 76/1/6 82/1/6
f 77/1/6 78/1/6 83/1/6
f 82/2/6 77/2/6 83/2/6
f 83/1/6 78/1/6 84/1/6
f 80/2/6 81/2/6 85/2/6
f 79/2/6 80/2/6 85/2/6
f 83/2/6 84/2/6 85/2/6
f 82/2/6 83/2/6 85/2/6
f 81/2/6 82/2/6 85/2/6
f 85/2/6 84/2/6 86/2/6
f 86/2/6 84/2/6 87/2/6
f 87/2/6 84/2/6 88/2/6
f 85/1/6 86/1/6 89/1/6
f 86/2/6 87/2/6 90/2/6
f 89/1/6 86/1/6 90/1/6
f 87/1/6 88/1/6 91/1/6
f 90/2/6 87/2/6 91/2/6
f 88/2/6 84/2/6 92/2/6
f 91/1/6 88/1/6 92/1/6
f 90/2/6 91/2/6 93/2/6
f 89/2/6 90/2/6 93/2/6
f 91/2/6 92/2/6 93/2/6
f 92/2/6 84/2/6 94/2/6
f 93/2/6 92/2/6 94/2/6
