# Blender v2.76 (sub 0) OBJ File: ''
# www.blender.org
mtllib GrassTile5.mtl
o GrassTile5
v -10.000000 0.000002 -10.000000
v -10.000000 6.999999 8.000001
v -10.000000 7.000001 -9.999999
v -10.000000 9.999998 10.000002
v -10.000000 10.000002 -9.999998
v -7.000000 5.999999 9.000001
v -7.000000 6.999999 8.000001
v -6.000000 3.999999 8.000001
v -6.000000 3.999999 9.000001
v -6.000000 5.999999 10.000001
v -6.000000 6.999999 9.000001
v -6.000000 11.000001 -2.999998
v -6.000000 10.000001 -2.999998
v -6.000000 11.000001 -3.999998
v -5.000000 10.999999 4.000002
v -3.000000 9.999998 10.000002
v -3.000000 9.999998 9.000002
v -3.000000 11.000001 -7.999998
v -2.000000 6.999999 8.000001
v -2.000000 6.999999 9.000001
v -2.000000 7.999999 8.000001
v -1.000000 5.999999 9.000001
v -1.000000 6.999999 8.000001
v -1.000000 8.999998 10.000002
v -1.000000 7.999999 10.000001
v 0.000000 10.000000 -0.999998
v 0.000000 11.000000 -0.999998
v 2.000000 6.999999 9.000001
v 2.000000 5.999999 9.000001
v 2.000000 6.999999 10.000001
v 3.000000 5.999999 9.000001
v 3.000000 5.999999 8.000001
v 3.000000 5.999999 10.000001
v 3.000000 9.999999 4.000001
v 3.000000 10.999999 3.000002
v 4.000000 10.000001 -6.999999
v 4.000000 11.000001 -6.999998
v 6.000000 5.999999 8.000001
v -9.000000 6.999999 8.000001
v -9.000000 6.999999 10.000001
v -9.000000 9.999998 9.000002
v -5.000000 5.999999 8.000001
v -5.000000 6.999999 9.000001
v -5.000000 10.000001 -3.999998
v -5.000000 11.000001 -3.999998
v -4.000000 5.999999 9.000001
v -4.000000 9.999998 9.000002
v -4.000000 9.999999 3.000002
v -2.000000 10.000002 -8.999998
v -2.000000 11.000001 -7.999998
v -2.000000 11.000002 -8.999998
v 1.000000 7.999999 9.000001
v 1.000000 7.999999 8.000001
v 1.000000 11.000000 0.000002
v 3.000000 9.999998 9.000002
v 4.000000 5.999999 10.000001
v 4.000000 10.999999 4.000002
v 4.000000 10.999999 3.000002
v 5.000000 -0.000001 8.000000
v 5.000000 -0.000001 7.000000
v 5.000000 11.000001 -6.999998
v 7.000000 3.999999 7.000000
v 7.000000 6.999999 6.000001
v 7.000000 6.999999 5.000001
v 7.000000 7.999999 7.000001
v 7.000000 9.999999 8.000002
v 7.000000 9.999999 7.000001
v 8.000000 5.000001 -8.999999
v 8.000000 3.999999 7.000000
v 8.000000 3.999999 6.000000
v 8.000000 5.999999 7.000001
v 8.000000 5.999999 5.000001
v 8.000000 6.000000 1.000001
v 8.000000 6.000000 -1.999999
v 8.000000 6.000001 -8.999999
v 8.000000 7.000000 2.000001
v 8.000000 7.000001 -7.999999
v 8.000000 7.999999 8.000001
v 8.000000 8.000000 2.000001
v 8.000000 8.000000 -1.999999
v 8.000000 8.000001 -6.999999
v 9.000000 6.000001 -9.999999
v 9.000000 6.000000 -0.999999
v 9.000000 7.000000 1.000001
v 9.000000 5.999999 5.000001
v 9.000000 7.000000 2.000001
v 9.000000 8.000000 1.000001
v 9.000000 8.000000 -0.999999
v 9.000000 8.000001 -4.999999
v 9.000000 8.000001 -6.999999
v 9.000000 9.000001 -6.999999
v 9.000000 9.000001 -7.999999
v 9.000000 9.999999 5.000001
v 9.000000 9.999999 3.000002
v 9.000000 10.000001 -5.999999
v 10.000000 7.000000 -2.999999
v 10.000000 8.000001 -3.999999
v 10.000000 8.000002 -8.999999
v 10.000000 8.000000 1.000001
v 10.000000 9.000000 1.000001
v 10.000000 8.000001 -4.999999
v 10.000000 8.999999 3.000001
v 10.000000 10.000001 -6.999999
v -9.000000 9.999998 10.000002
v -8.000000 8.999998 10.000002
v -7.000000 6.999999 10.000001
v -5.000000 5.999999 10.000001
v -4.000000 6.999999 10.000001
v -4.000000 9.999998 10.000002
v 2.000000 7.999999 10.000001
v 3.000000 6.999999 10.000001
v -9.000000 4.999999 9.000001
v -10.000000 6.999999 9.000001
v -10.000000 4.999999 9.000001
v -9.000000 6.999999 9.000001
v -8.000000 9.999998 9.000002
v -7.000000 8.999998 9.000002
v -6.000000 5.999999 9.000001
v -3.000000 8.999998 9.000002
v -2.000000 7.999999 9.000001
v -1.000000 6.999999 9.000001
v 3.000000 6.999999 9.000001
v 3.000000 3.999999 9.000001
v 4.000000 5.999999 9.000001
v 4.000000 8.999998 9.000002
v 5.000000 6.999999 9.000001
v 5.000000 9.999998 9.000002
v -9.000000 4.999999 8.000001
v -10.000000 4.999999 8.000001
v -10.000000 -0.000001 8.000000
v -7.000000 5.999999 8.000001
v -5.000000 3.999999 8.000001
v -4.000000 7.999999 8.000001
v 2.000000 5.999999 8.000001
v 5.000000 9.999999 8.000002
v 6.000000 6.999999 7.000001
v 7.000000 5.999999 7.000001
v 8.000000 9.999999 7.000001
v 8.000000 -0.000001 5.000000
v 8.000000 6.999999 5.000001
v 8.000000 9.999999 5.000001
v -5.000000 9.999999 4.000001
v -4.000000 10.999999 4.000002
v 3.000000 10.999999 4.000002
v 9.000000 8.999999 3.000001
v 10.000000 9.999999 3.000002
v 9.000000 8.000000 2.000001
v 8.000000 7.000000 1.000001
v 0.000000 11.000000 0.000002
v 0.000000 10.000000 0.000002
v 9.000000 7.000000 -1.999999
v 9.000000 8.000000 -1.999999
v 10.000000 7.000000 -1.999999
v -5.000000 10.000001 -2.999998
v 8.000000 4.000000 -2.999999
v 9.000000 6.000000 -2.999999
v 9.000000 7.000000 -2.999999
v 5.000000 10.000001 -5.999999
v 4.000000 11.000001 -5.999998
v 9.000000 10.000001 -6.999999
v -2.000000 10.000001 -7.999999
v 9.000000 8.000001 -7.999999
v 10.000000 9.000001 -7.999999
v 9.000000 5.000001 -8.999999
v 10.000000 6.000001 -8.999999
v 8.000000 6.000000 4.000001
v 9.000000 8.000000 4.000001
v -5.000000 9.999999 3.000002
v -4.000000 10.999999 3.000002
v 4.000000 9.999999 3.000002
v 1.000000 10.000000 -0.999998
v 8.000000 8.000000 -0.999999
v 10.000000 8.000000 -0.999999
v 10.000000 10.000000 -0.999998
v -6.000000 10.000001 -3.999998
v 8.000000 4.000000 -3.999999
v 8.000000 7.000000 -3.999999
v 9.000000 4.000000 -3.999999
v 9.000000 8.000001 -3.999999
v 8.000000 7.000001 -4.999999
v 8.000000 8.000001 -4.999999
v 9.000000 9.000001 -4.999999
v 10.000000 9.000001 -5.999999
v -3.000000 11.000002 -8.999998
v 8.000000 0.000002 -10.000000
v 8.000000 7.000001 -9.999999
v 9.000000 5.000001 -9.999999
v 10.000000 6.000001 -9.999999
v 7.000000 -0.000001 5.000000
v 7.000000 -0.000001 7.000000
v -5.000000 3.999999 9.000001
v 3.000000 3.999999 8.000001
v 4.000000 3.999999 9.000001
v 4.000000 3.999999 8.000001
v 7.000000 3.999999 6.000000
v 9.000000 4.000000 -2.999999
v 8.000000 5.000001 -9.999999
v -5.000000 5.999999 9.000001
v -6.000000 5.999999 8.000001
v -4.000000 5.999999 8.000001
v -1.000000 5.999999 8.000001
v 1.000000 5.999999 9.000001
v 1.000000 5.999999 8.000001
v 6.000000 5.999999 7.000001
v 8.000000 5.999999 8.000001
v 9.000000 6.000000 4.000001
v 8.000000 6.000000 -0.999999
v 9.000000 6.000000 1.000001
v 8.000000 6.000000 -2.999999
v 9.000000 6.000000 -1.999999
v 9.000000 6.000000 -3.999999
v 10.000000 6.000000 -2.999999
v 10.000000 6.000000 -3.999999
v 9.000000 6.000001 -7.999999
v 8.000000 6.000001 -7.999999
v 9.000000 6.000001 -8.999999
v -10.000000 6.999999 10.000001
v -7.000000 6.999999 9.000001
v -6.000000 6.999999 10.000001
v -5.000000 6.999999 10.000001
v -4.000000 6.999999 9.000001
v 4.000000 6.999999 8.000001
v 4.000000 6.999999 9.000001
v 5.000000 6.999999 8.000001
v 5.000000 6.999999 7.000001
v 6.000000 6.999999 8.000001
v 8.000000 6.999999 6.000001
v 9.000000 7.000000 -3.999999
v 9.000000 7.000001 -4.999999
v 9.000000 7.000001 -6.999999
v 8.000000 7.000001 -6.999999
v 9.000000 7.000001 -7.999999
v -1.000000 7.999999 9.000001
v -4.000000 7.999999 9.000001
v 2.000000 7.999999 8.000001
v 8.000000 8.000000 4.000001
v 9.000000 8.000002 -8.999999
v 10.000000 8.000001 -7.999999
v -8.000000 8.999998 9.000002
v -7.000000 8.999998 10.000002
v -3.000000 8.999998 10.000002
v -1.000000 8.999998 9.000002
v 9.000000 9.000000 1.000001
v 9.000000 9.000001 -5.999999
v 10.000000 9.000001 -4.999999
v 10.000000 9.000001 -6.999999
v 7.000000 7.999999 8.000001
v 8.000000 7.999999 7.000001
v 3.000000 8.999998 10.000002
v 4.000000 8.999998 10.000002
v 3.000000 8.999998 9.000002
v -8.000000 9.999998 10.000002
v 3.000000 9.999998 10.000002
v -4.000000 9.999999 4.000001
v 4.000000 9.999999 4.000001
v 3.000000 9.999999 3.000002
v 1.000000 10.000000 0.000002
v 9.000000 10.000000 -0.999998
v 9.000000 10.000000 -1.999998
v 10.000000 10.000000 -1.999998
v 4.000000 10.000001 -5.999999
v 10.000000 10.000001 -5.999999
v 5.000000 10.000001 -6.999999
v -3.000000 10.000001 -7.999999
v -3.000000 10.000002 -8.999998
v 10.000000 10.000002 -9.999998
v -5.000000 10.999999 3.000002
v 1.000000 11.000000 -0.999998
v -5.000000 11.000001 -2.999998
v 5.000000 11.000001 -5.999998
vt 0.162109 0.500000
vt 0.583984 0.500000
vt 0.591797 0.500000
vt 0.587891 0.500000
vn -1.000000 -0.000000 0.000000
vn 1.000000 0.000000 0.000000
vn 0.000000 0.000000 1.000000
vn 0.000000 0.000000 -1.000000
vn 0.000000 -1.000000 -0.000000
vn 0.000000 1.000000 0.000000
usemtl palette.011
s off
f 3/1/1 1/1/1 2/1/1
f 4/2/1 3/2/1 2/2/1
f 5/2/1 3/2/1 4/2/1
f 50/3/2 49/3/2 51/3/2
f 66/2/2 65/2/2 67/2/2
f 69/2/2 70/2/2 71/2/2
f 84/2/2 83/2/2 87/2/2
f 87/2/2 83/2/2 88/2/2
f 112/2/3 113/2/3 114/2/3
f 115/2/3 113/2/3 112/2/3
f 127/2/3 125/2/3 126/2/3
f 128/1/3 129/1/3 130/1/3
f 153/2/3 152/2/3 151/2/3
f 176/2/4 177/2/4 178/2/4
f 194/2/5 193/2/5 192/2/5
f 203/2/5 202/2/5 201/2/5
f 213/2/5 212/2/5 211/2/5
f 225/2/5 226/2/5 224/2/5
f 249/2/6 250/2/6 251/2/6
f 129/1/1 1/1/1 130/1/1
f 113/2/1 129/2/1 114/2/1
f 2/1/1 1/1/1 129/1/1
f 2/2/1 129/2/1 113/2/1
f 4/2/1 113/2/1 217/2/1
f 4/2/1 2/2/1 113/2/1
f 252/2/1 239/2/1 105/2/1
f 116/2/1 239/2/1 252/2/1
f 218/2/1 131/2/1 6/2/1
f 7/2/1 131/2/1 218/2/1
f 240/2/1 218/2/1 106/2/1
f 117/2/1 218/2/1 240/2/1
f 118/2/1 8/2/1 9/2/1
f 199/2/1 8/2/1 118/2/1
f 219/2/1 118/2/1 10/2/1
f 11/2/1 118/2/1 219/2/1
f 12/4/1 175/4/1 13/4/1
f 14/4/1 175/4/1 12/4/1
f 15/3/1 168/3/1 142/3/1
f 267/3/1 168/3/1 15/3/1
f 16/2/1 119/2/1 241/2/1
f 17/2/1 119/2/1 16/2/1
f 18/3/1 265/3/1 264/3/1
f 184/3/1 265/3/1 18/3/1
f 120/2/1 19/2/1 20/2/1
f 21/2/1 19/2/1 120/2/1
f 121/2/1 201/2/1 22/2/1
f 23/2/1 201/2/1 121/2/1
f 24/2/1 233/2/1 25/2/1
f 242/2/1 233/2/1 24/2/1
f 149/3/1 26/3/1 150/3/1
f 27/3/1 26/3/1 149/3/1
f 28/2/1 134/2/1 29/2/1
f 110/2/1 28/2/1 30/2/1
f 235/2/1 134/2/1 28/2/1
f 235/2/1 28/2/1 110/2/1
f 31/2/1 192/2/1 123/2/1
f 32/2/1 192/2/1 31/2/1
f 111/2/1 31/2/1 33/2/1
f 122/2/1 31/2/1 111/2/1
f 144/4/1 256/4/1 34/4/1
f 35/4/1 256/4/1 144/4/1
f 159/4/1 36/4/1 261/4/1
f 37/4/1 36/4/1 159/4/1
f 226/2/1 204/2/1 38/2/1
f 136/2/1 204/2/1 226/2/1
f 112/2/2 128/2/2 115/2/2
f 115/2/2 128/2/2 39/2/2
f 40/2/2 115/2/2 104/2/2
f 104/2/2 115/2/2 41/2/2
f 191/2/2 132/2/2 198/2/2
f 198/2/2 132/2/2 42/2/2
f 107/2/2 198/2/2 220/2/2
f 220/2/2 198/2/2 43/2/2
f 154/4/2 44/4/2 269/4/2
f 269/4/2 44/4/2 45/4/2
f 46/2/2 200/2/2 221/2/2
f 221/2/2 200/2/2 234/2/2
f 108/2/2 221/2/2 234/2/2
f 234/2/2 200/2/2 133/2/2
f 108/2/2 234/2/2 109/2/2
f 109/2/2 234/2/2 47/2/2
f 254/3/2 48/3/2 143/3/2
f 143/3/2 48/3/2 169/3/2
f 161/3/2 49/3/2 50/3/2
f 202/2/2 203/2/2 52/2/2
f 52/2/2 203/2/2 53/2/2
f 257/3/2 171/3/2 54/3/2
f 54/3/2 171/3/2 268/3/2
f 249/2/2 251/2/2 253/2/2
f 253/2/2 251/2/2 55/2/2
f 193/2/2 194/2/2 124/2/2
f 124/2/2 194/2/2 223/2/2
f 56/2/2 124/2/2 223/2/2
f 223/2/2 194/2/2 222/2/2
f 56/2/2 223/2/2 250/2/2
f 250/2/2 223/2/2 125/2/2
f 255/4/2 170/4/2 57/4/2
f 57/4/2 170/4/2 58/4/2
f 59/1/2 60/1/2 224/1/2
f 224/1/2 60/1/2 225/1/2
f 126/2/2 224/2/2 127/2/2
f 127/2/2 224/2/2 135/2/2
f 158/4/2 263/4/2 270/4/2
f 270/4/2 263/4/2 61/4/2
f 190/1/2 189/1/2 62/1/2
f 62/1/2 189/1/2 195/1/2
f 195/1/2 189/1/2 63/1/2
f 63/1/2 189/1/2 64/1/2
f 247/2/2 65/2/2 66/2/2
f 139/1/2 185/1/2 155/1/2
f 155/1/2 185/1/2 176/1/2
f 176/1/2 185/1/2 68/1/2
f 68/1/2 185/1/2 197/1/2
f 139/1/2 155/1/2 72/1/2
f 72/1/2 155/1/2 166/1/2
f 166/1/2 155/1/2 73/1/2
f 73/1/2 155/1/2 207/1/2
f 207/1/2 155/1/2 74/1/2
f 74/1/2 155/1/2 209/1/2
f 176/1/2 68/1/2 215/1/2
f 215/1/2 68/1/2 75/1/2
f 205/2/2 71/2/2 227/2/2
f 71/2/2 70/2/2 227/2/2
f 166/1/2 73/1/2 76/1/2
f 76/1/2 73/1/2 148/1/2
f 176/1/2 215/1/2 177/1/2
f 177/1/2 215/1/2 180/1/2
f 180/1/2 215/1/2 231/1/2
f 231/1/2 215/1/2 77/1/2
f 227/2/2 140/2/2 78/2/2
f 205/2/2 227/2/2 78/2/2
f 78/2/2 140/2/2 248/2/2
f 166/1/2 76/1/2 236/1/2
f 236/1/2 76/1/2 79/1/2
f 207/1/2 74/1/2 172/1/2
f 172/1/2 74/1/2 80/1/2
f 180/1/2 231/1/2 181/1/2
f 181/1/2 231/1/2 81/1/2
f 248/2/2 140/2/2 138/2/2
f 138/2/2 140/2/2 141/2/2
f 196/2/2 178/2/2 156/2/2
f 156/2/2 178/2/2 211/2/2
f 164/2/2 187/2/2 216/2/2
f 216/2/2 187/2/2 82/2/2
f 208/2/2 83/2/2 84/2/2
f 210/2/2 156/2/2 151/2/2
f 151/2/2 156/2/2 157/2/2
f 214/2/2 216/2/2 232/2/2
f 85/2/2 206/2/2 167/2/2
f 86/2/2 84/2/2 147/2/2
f 147/2/2 84/2/2 87/2/2
f 228/2/2 229/2/2 179/2/2
f 179/2/2 229/2/2 89/2/2
f 230/2/2 232/2/2 90/2/2
f 232/2/2 216/2/2 162/2/2
f 90/2/2 232/2/2 162/2/2
f 162/2/2 216/2/2 237/2/2
f 167/2/2 147/2/2 145/2/2
f 147/2/2 87/2/2 145/2/2
f 145/2/2 87/2/2 243/2/2
f 90/2/2 162/2/2 182/2/2
f 89/2/2 90/2/2 182/2/2
f 182/2/2 162/2/2 244/2/2
f 244/2/2 162/2/2 91/2/2
f 91/2/2 162/2/2 92/2/2
f 85/2/2 167/2/2 93/2/2
f 167/2/2 145/2/2 93/2/2
f 93/2/2 145/2/2 94/2/2
f 88/2/2 152/2/2 258/2/2
f 258/2/2 152/2/2 259/2/2
f 244/2/2 91/2/2 95/2/2
f 95/2/2 91/2/2 160/2/2
f 212/2/2 213/2/2 96/2/2
f 96/2/2 213/2/2 97/2/2
f 153/2/2 96/2/2 97/2/2
f 165/2/2 188/2/2 98/2/2
f 99/2/2 173/2/2 100/2/2
f 97/2/2 101/2/2 245/2/2
f 238/2/2 98/2/2 163/2/2
f 102/2/2 100/2/2 146/2/2
f 100/2/2 173/2/2 174/2/2
f 146/2/2 100/2/2 174/2/2
f 245/2/2 183/2/2 260/2/2
f 153/2/2 97/2/2 260/2/2
f 97/2/2 245/2/2 260/2/2
f 260/2/2 183/2/2 262/2/2
f 246/2/2 163/2/2 103/2/2
f 163/2/2 98/2/2 266/2/2
f 103/2/2 163/2/2 266/2/2
f 98/2/2 188/2/2 266/2/2
f 40/2/3 4/2/3 217/2/3
f 104/2/3 4/2/3 40/2/3
f 240/2/3 252/2/3 105/2/3
f 219/2/3 240/2/3 106/2/3
f 107/2/3 219/2/3 10/2/3
f 220/2/3 240/2/3 219/2/3
f 220/2/3 219/2/3 107/2/3
f 108/2/3 240/2/3 220/2/3
f 109/2/3 252/2/3 240/2/3
f 109/2/3 240/2/3 108/2/3
f 24/2/3 16/2/3 241/2/3
f 110/2/3 24/2/3 25/2/3
f 111/2/3 110/2/3 30/2/3
f 249/2/3 16/2/3 24/2/3
f 249/2/3 24/2/3 110/2/3
f 249/2/3 110/2/3 111/2/3
f 253/2/3 16/2/3 249/2/3
f 56/2/3 111/2/3 33/2/3
f 56/2/3 249/2/3 111/2/3
f 250/2/3 249/2/3 56/2/3
f 239/2/3 41/2/3 115/2/3
f 116/2/3 41/2/3 239/2/3
f 218/2/3 239/2/3 115/2/3
f 117/2/3 239/2/3 218/2/3
f 118/2/3 218/2/3 6/2/3
f 11/2/3 218/2/3 118/2/3
f 191/2/3 118/2/3 9/2/3
f 198/2/3 118/2/3 191/2/3
f 46/2/3 43/2/3 198/2/3
f 221/2/3 43/2/3 46/2/3
f 119/2/3 47/2/3 234/2/3
f 17/2/3 47/2/3 119/2/3
f 120/2/3 119/2/3 234/2/3
f 121/2/3 120/2/3 20/2/3
f 233/2/3 119/2/3 120/2/3
f 233/2/3 120/2/3 121/2/3
f 242/2/3 119/2/3 233/2/3
f 202/2/3 121/2/3 22/2/3
f 202/2/3 233/2/3 121/2/3
f 52/2/3 233/2/3 202/2/3
f 31/2/3 28/2/3 29/2/3
f 122/2/3 28/2/3 31/2/3
f 193/2/3 31/2/3 123/2/3
f 124/2/3 31/2/3 193/2/3
f 125/2/3 55/2/3 251/2/3
f 126/2/3 125/2/3 223/2/3
f 127/2/3 55/2/3 125/2/3
f 131/1/3 39/1/3 128/1/3
f 7/1/3 39/1/3 131/1/3
f 8/1/3 128/1/3 130/1/3
f 8/1/3 131/1/3 128/1/3
f 199/1/3 131/1/3 8/1/3
f 132/1/3 8/1/3 130/1/3
f 200/1/3 42/1/3 132/1/3
f 19/1/3 133/1/3 200/1/3
f 21/1/3 133/1/3 19/1/3
f 201/1/3 200/1/3 132/1/3
f 201/1/3 19/1/3 200/1/3
f 23/1/3 19/1/3 201/1/3
f 203/1/3 201/1/3 132/1/3
f 134/1/3 203/1/3 132/1/3
f 134/1/3 53/1/3 203/1/3
f 235/1/3 53/1/3 134/1/3
f 192/1/3 132/1/3 130/1/3
f 192/1/3 134/1/3 132/1/3
f 32/1/3 134/1/3 192/1/3
f 194/1/3 192/1/3 130/1/3
f 59/1/3 194/1/3 130/1/3
f 59/1/3 222/1/3 194/1/3
f 224/1/3 222/1/3 59/1/3
f 226/2/3 135/2/3 224/2/3
f 247/2/3 135/2/3 226/2/3
f 247/2/3 226/2/3 38/2/3
f 66/2/3 135/2/3 247/2/3
f 205/2/3 247/2/3 38/2/3
f 78/2/3 247/2/3 205/2/3
f 204/1/3 225/1/3 60/1/3
f 136/1/3 225/1/3 204/1/3
f 190/1/3 204/1/3 60/1/3
f 62/1/3 204/1/3 190/1/3
f 137/1/3 204/1/3 62/1/3
f 69/2/3 137/2/3 62/2/3
f 71/2/3 137/2/3 69/2/3
f 248/2/3 67/2/3 65/2/3
f 138/2/3 67/2/3 248/2/3
f 139/1/3 64/1/3 189/1/3
f 72/1/3 64/1/3 139/1/3
f 140/1/3 64/1/3 72/1/3
f 85/2/3 141/2/3 140/2/3
f 85/2/3 140/2/3 72/2/3
f 93/2/3 141/2/3 85/2/3
f 254/3/3 15/3/3 142/3/3
f 143/3/3 15/3/3 254/3/3
f 255/4/3 144/4/3 34/4/3
f 57/4/3 144/4/3 255/4/3
f 102/2/3 94/2/3 145/2/3
f 146/2/3 94/2/3 102/2/3
f 86/2/3 79/2/3 76/2/3
f 147/2/3 79/2/3 86/2/3
f 208/2/3 148/2/3 73/2/3
f 84/2/3 148/2/3 208/2/3
f 99/2/3 243/2/3 87/2/3
f 100/2/3 243/2/3 99/2/3
f 257/3/3 149/3/3 150/3/3
f 54/3/3 149/3/3 257/3/3
f 210/2/3 80/2/3 74/2/3
f 151/2/3 80/2/3 210/2/3
f 152/2/3 80/2/3 151/2/3
f 153/2/3 259/2/3 152/2/3
f 260/2/3 259/2/3 153/2/3
f 154/4/3 12/4/3 13/4/3
f 269/4/3 12/4/3 154/4/3
f 196/2/3 209/2/3 155/2/3
f 156/2/3 209/2/3 196/2/3
f 212/2/3 157/2/3 156/2/3
f 96/2/3 157/2/3 212/2/3
f 158/4/3 159/4/3 261/4/3
f 270/4/3 159/4/3 158/4/3
f 230/2/3 81/2/3 231/2/3
f 90/2/3 81/2/3 230/2/3
f 246/2/3 160/2/3 91/2/3
f 103/2/3 160/2/3 246/2/3
f 161/3/3 18/3/3 264/3/3
f 50/3/3 18/3/3 161/3/3
f 214/2/3 77/2/3 215/2/3
f 232/2/3 77/2/3 214/2/3
f 238/2/3 92/2/3 162/2/3
f 163/2/3 92/2/3 238/2/3
f 164/2/3 75/2/3 68/2/3
f 216/2/3 75/2/3 164/2/3
f 165/2/3 237/2/3 216/2/3
f 98/2/3 237/2/3 165/2/3
f 195/2/4 63/2/4 70/2/4
f 70/2/4 63/2/4 227/2/4
f 166/2/4 236/2/4 206/2/4
f 206/2/4 236/2/4 167/2/4
f 168/3/4 267/3/4 48/3/4
f 48/3/4 267/3/4 169/3/4
f 256/4/4 35/4/4 170/4/4
f 170/4/4 35/4/4 58/4/4
f 26/3/4 27/3/4 171/3/4
f 171/3/4 27/3/4 268/3/4
f 207/2/4 172/2/4 83/2/4
f 83/2/4 172/2/4 88/2/4
f 88/2/4 258/2/4 173/2/4
f 173/2/4 258/2/4 174/2/4
f 175/4/4 14/4/4 44/4/4
f 44/4/4 14/4/4 45/4/4
f 178/2/4 177/2/4 211/2/4
f 211/2/4 177/2/4 228/2/4
f 228/2/4 179/2/4 213/2/4
f 211/2/4 228/2/4 213/2/4
f 213/2/4 179/2/4 97/2/4
f 180/2/4 181/2/4 229/2/4
f 229/2/4 181/2/4 89/2/4
f 89/2/4 182/2/4 101/2/4
f 101/2/4 182/2/4 245/2/4
f 244/2/4 95/2/4 183/2/4
f 183/2/4 95/2/4 262/2/4
f 36/4/4 37/4/4 263/4/4
f 263/4/4 37/4/4 61/4/4
f 265/3/4 184/3/4 49/3/4
f 49/3/4 184/3/4 51/3/4
f 1/1/4 3/1/4 185/1/4
f 185/1/4 3/1/4 197/1/4
f 3/2/4 5/2/4 186/2/4
f 197/1/4 3/1/4 186/1/4
f 197/2/4 186/2/4 187/2/4
f 187/2/4 186/2/4 82/2/4
f 82/2/4 186/2/4 188/2/4
f 186/2/4 5/2/4 266/2/4
f 188/2/4 186/2/4 266/2/4
f 60/1/5 59/1/5 130/1/5
f 189/1/5 190/1/5 60/1/5
f 1/1/5 60/1/5 130/1/5
f 1/1/5 139/1/5 189/1/5
f 1/1/5 189/1/5 60/1/5
f 185/1/5 139/1/5 1/1/5
f 8/2/5 191/2/5 9/2/5
f 132/2/5 191/2/5 8/2/5
f 192/2/5 193/2/5 123/2/5
f 195/2/5 69/2/5 62/2/5
f 70/2/5 69/2/5 195/2/5
f 176/2/5 196/2/5 155/2/5
f 178/2/5 196/2/5 176/2/5
f 129/2/5 112/2/5 114/2/5
f 128/2/5 112/2/5 129/2/5
f 197/2/5 164/2/5 68/2/5
f 187/2/5 164/2/5 197/2/5
f 118/2/5 107/2/5 10/2/5
f 198/2/5 107/2/5 118/2/5
f 31/2/5 56/2/5 33/2/5
f 124/2/5 56/2/5 31/2/5
f 131/2/5 118/2/5 6/2/5
f 199/2/5 118/2/5 131/2/5
f 42/2/5 46/2/5 198/2/5
f 200/2/5 46/2/5 42/2/5
f 201/2/5 202/2/5 22/2/5
f 134/2/5 31/2/5 29/2/5
f 32/2/5 31/2/5 134/2/5
f 204/2/5 205/2/5 38/2/5
f 137/2/5 205/2/5 204/2/5
f 71/2/5 205/2/5 137/2/5
f 166/2/5 85/2/5 72/2/5
f 206/2/5 85/2/5 166/2/5
f 207/2/5 208/2/5 73/2/5
f 83/2/5 208/2/5 207/2/5
f 209/2/5 210/2/5 74/2/5
f 156/2/5 210/2/5 209/2/5
f 211/2/5 212/2/5 156/2/5
f 75/2/5 214/2/5 215/2/5
f 216/2/5 214/2/5 75/2/5
f 82/2/5 165/2/5 216/2/5
f 188/2/5 165/2/5 82/2/5
f 113/2/5 40/2/5 217/2/5
f 115/2/5 40/2/5 113/2/5
f 218/2/5 219/2/5 106/2/5
f 11/2/5 219/2/5 218/2/5
f 43/2/5 108/2/5 220/2/5
f 221/2/5 108/2/5 43/2/5
f 28/2/5 111/2/5 30/2/5
f 122/2/5 111/2/5 28/2/5
f 39/2/5 218/2/5 115/2/5
f 7/2/5 218/2/5 39/2/5
f 19/2/5 121/2/5 20/2/5
f 23/2/5 121/2/5 19/2/5
f 222/2/5 126/2/5 223/2/5
f 224/2/5 126/2/5 222/2/5
f 136/2/5 226/2/5 225/2/5
f 64/2/5 227/2/5 63/2/5
f 140/2/5 227/2/5 64/2/5
f 148/2/5 86/2/5 76/2/5
f 84/2/5 86/2/5 148/2/5
f 157/2/5 153/2/5 151/2/5
f 96/2/5 153/2/5 157/2/5
f 180/2/5 228/2/5 177/2/5
f 229/2/5 228/2/5 180/2/5
f 77/2/5 230/2/5 231/2/5
f 232/2/5 230/2/5 77/2/5
f 233/2/5 110/2/5 25/2/5
f 52/2/5 110/2/5 233/2/5
f 133/2/5 120/2/5 234/2/5
f 21/2/5 120/2/5 133/2/5
f 53/2/5 110/2/5 52/2/5
f 235/2/5 110/2/5 53/2/5
f 79/2/5 167/2/5 236/2/5
f 147/2/5 167/2/5 79/2/5
f 88/2/5 99/2/5 87/2/5
f 173/2/5 99/2/5 88/2/5
f 80/2/5 88/2/5 172/2/5
f 152/2/5 88/2/5 80/2/5
f 89/2/5 97/2/5 179/2/5
f 101/2/5 97/2/5 89/2/5
f 81/2/5 89/2/5 181/2/5
f 90/2/5 89/2/5 81/2/5
f 237/2/5 238/2/5 162/2/5
f 98/2/5 238/2/5 237/2/5
f 239/2/5 240/2/5 105/2/5
f 117/2/5 240/2/5 239/2/5
f 119/2/5 24/2/5 241/2/5
f 242/2/5 24/2/5 119/2/5
f 243/2/5 102/2/5 145/2/5
f 100/2/5 102/2/5 243/2/5
f 244/2/5 245/2/5 182/2/5
f 183/2/5 245/2/5 244/2/5
f 92/2/5 246/2/5 91/2/5
f 163/2/5 246/2/5 92/2/5
f 247/2/6 78/2/6 65/2/6
f 65/2/6 78/2/6 248/2/6
f 251/2/6 250/2/6 125/2/6
f 4/2/6 104/2/6 41/2/6
f 252/2/6 109/2/6 116/2/6
f 116/2/6 109/2/6 47/2/6
f 16/2/6 253/2/6 17/2/6
f 17/2/6 253/2/6 55/2/6
f 116/2/6 47/2/6 135/2/6
f 55/2/6 127/2/6 135/2/6
f 17/2/6 55/2/6 135/2/6
f 47/2/6 17/2/6 135/2/6
f 41/2/6 116/2/6 135/2/6
f 135/2/6 66/2/6 67/2/6
f 67/2/6 138/2/6 141/2/6
f 41/2/6 135/2/6 142/2/6
f 141/2/6 93/2/6 142/2/6
f 67/2/6 141/2/6 142/2/6
f 135/2/6 67/2/6 142/2/6
f 142/2/6 93/2/6 254/2/6
f 254/2/6 93/2/6 34/2/6
f 34/2/6 93/2/6 255/2/6
f 41/2/6 142/2/6 168/2/6
f 254/2/6 34/2/6 48/2/6
f 48/2/6 34/2/6 256/2/6
f 255/2/6 93/2/6 170/2/6
f 170/2/6 93/2/6 94/2/6
f 48/2/6 256/2/6 150/2/6
f 94/2/6 146/2/6 150/2/6
f 170/2/6 94/2/6 150/2/6
f 256/2/6 170/2/6 150/2/6
f 168/2/6 48/2/6 150/2/6
f 150/2/6 146/2/6 257/2/6
f 168/2/6 150/2/6 26/2/6
f 257/2/6 146/2/6 171/2/6
f 171/2/6 146/2/6 258/2/6
f 258/2/6 146/2/6 174/2/6
f 26/2/6 171/2/6 259/2/6
f 171/2/6 258/2/6 259/2/6
f 41/2/6 168/2/6 13/2/6
f 259/2/6 260/2/6 13/2/6
f 26/2/6 259/2/6 13/2/6
f 168/2/6 26/2/6 13/2/6
f 13/2/6 260/2/6 154/2/6
f 41/2/6 13/2/6 175/2/6
f 154/2/6 260/2/6 44/2/6
f 44/2/6 260/2/6 261/2/6
f 175/2/6 44/2/6 261/2/6
f 261/2/6 260/2/6 158/2/6
f 158/2/6 260/2/6 95/2/6
f 95/2/6 260/2/6 262/2/6
f 175/2/6 261/2/6 36/2/6
f 158/2/6 95/2/6 263/2/6
f 263/2/6 95/2/6 160/2/6
f 175/2/6 36/2/6 264/2/6
f 160/2/6 103/2/6 264/2/6
f 263/2/6 160/2/6 264/2/6
f 36/2/6 263/2/6 264/2/6
f 264/2/6 103/2/6 161/2/6
f 175/2/6 264/2/6 265/2/6
f 161/2/6 103/2/6 49/2/6
f 4/2/6 41/2/6 5/2/6
f 265/2/6 49/2/6 5/2/6
f 41/2/6 175/2/6 5/2/6
f 175/2/6 265/2/6 5/2/6
f 49/2/6 103/2/6 266/2/6
f 5/2/6 49/2/6 266/2/6
f 15/3/6 143/3/6 267/3/6
f 267/3/6 143/3/6 169/3/6
f 144/4/6 57/4/6 35/4/6
f 35/4/6 57/4/6 58/4/6
f 149/3/6 54/3/6 27/3/6
f 27/3/6 54/3/6 268/3/6
f 12/4/6 269/4/6 14/4/6
f 14/4/6 269/4/6 45/4/6
f 159/4/6 270/4/6 37/4/6
f 37/4/6 270/4/6 61/4/6
f 18/3/6 50/3/6 184/3/6
f 184/3/6 50/3/6 51/3/6
