[gd_scene load_steps=3 format=2]

[ext_resource path="res://Scenes/UIElements/CoinsProfile.tscn" type="PackedScene" id=1]
[ext_resource path="res://Scenes/ViewportShots/CoinShot.tscn" type="PackedScene" id=2]

[node name="CoinsProfileGameshow" type="Control"]
anchor_right = 1.0
anchor_bottom = 1.0

[node name="CoinsProfile1" parent="." instance=ExtResource( 1 )]
margin_left = 20.0
margin_top = 20.0
margin_right = 260.0
margin_bottom = 140.0

[node name="CoinsProfile2" parent="." instance=ExtResource( 1 )]
margin_left = 1568.42
margin_top = 20.0
margin_right = 1808.42
margin_bottom = 140.0
numID = 1

[node name="CoinsProfile3" parent="." instance=ExtResource( 1 )]
margin_left = 20.0
margin_top = 960.0
margin_right = 259.999
margin_bottom = 1080.0
numID = 2

[node name="CoinsProfile4" parent="." instance=ExtResource( 1 )]
margin_left = 1568.0
margin_top = 960.0
margin_right = 1808.0
margin_bottom = 1080.0
numID = 3

[node name="Viewport2" type="Viewport" parent="."]
pause_mode = 1
size = Vector2( 60, 60 )
own_world = true
transparent_bg = true

[node name="CoinShot" parent="Viewport2" instance=ExtResource( 2 )]

