[gd_scene load_steps=4 format=2]

[ext_resource path="res://Sprites/Buttons/Block.png" type="Texture" id=1]
[ext_resource path="res://Fonts/Ode to Idle Gaming.otf" type="DynamicFontData" id=2]

[sub_resource type="DynamicFont" id=1]
size = 28
font_data = ExtResource( 2 )

[node name="FPS" type="YSort"]
z_index = 3

[node name="Sprite" type="Sprite" parent="."]
modulate = Color( 0, 0, 0, 1 )
position = Vector2( 28.7707, 297.464 )
scale = Vector2( 57.5414, 40.4821 )
z_index = 2
z_as_relative = false
texture = ExtResource( 1 )

[node name="Label" type="Label" parent="."]
margin_top = 272.0
margin_right = 60.0
margin_bottom = 322.0
custom_fonts/font = SubResource( 1 )
text = "60"
align = 1
valign = 1

