[gd_scene load_steps=8 format=2]

[ext_resource path="res://Sprites/Buttons/profile.png" type="Texture" id=1]
[ext_resource path="res://Sprites/Buttons/A.png" type="Texture" id=2]
[ext_resource path="res://Sprites/Buttons/Space.png" type="Texture" id=3]
[ext_resource path="res://Sprites/Buttons/B.png" type="Texture" id=4]
[ext_resource path="res://Sprites/Buttons/ESC.png" type="Texture" id=5]
[ext_resource path="res://Fonts/Ode to Idle Gaming.otf" type="DynamicFontData" id=6]

[sub_resource type="DynamicFont" id=1]
size = 46
font_data = ExtResource( 6 )

[node name="Instructions" type="Control"]
modulate = Color( 1, 1, 1, 0.882353 )
anchor_right = 1.0
anchor_bottom = 1.0
rect_scale = Vector2( 0.45, 0.45 )

[node name="Background" type="TextureRect" parent="."]
modulate = Color( 0, 0, 0, 1 )
margin_left = 1260.0
margin_top = -160.0
margin_right = 1950.0
margin_bottom = 220.0
texture = ExtResource( 1 )
expand = true

[node name="A" type="TextureRect" parent="."]
margin_left = 1287.25
margin_top = 20.0
margin_right = 1367.25
margin_bottom = 100.0
texture = ExtResource( 2 )
expand = true

[node name="Space" type="TextureRect" parent="."]
margin_left = 1413.33
margin_top = 20.0
margin_right = 1613.33
margin_bottom = 100.0
texture = ExtResource( 3 )
expand = true

[node name="B" type="TextureRect" parent="."]
margin_left = 1355.62
margin_top = 120.0
margin_right = 1435.62
margin_bottom = 200.0
texture = ExtResource( 4 )
expand = true

[node name="ESC" type="TextureRect" parent="."]
margin_left = 1480.0
margin_top = 120.0
margin_right = 1613.0
margin_bottom = 200.0
texture = ExtResource( 5 )
expand = true

[node name="Label" type="Label" parent="."]
margin_left = 1381.32
margin_top = 20.0
margin_right = 1917.32
margin_bottom = 102.0
custom_fonts/font = SubResource( 1 )
text = "/             : Accept"

[node name="Label2" type="Label" parent="."]
margin_left = 1448.88
margin_top = 120.0
margin_right = 1899.88
margin_bottom = 202.0
custom_fonts/font = SubResource( 1 )
text = "/         : Return"

