[gd_scene load_steps=2 format=2]

[ext_resource path="res://Music/MainTheme.ogg" type="AudioStream" id=1]

[node name="Music" type="AudioStreamPlayer"]
pause_mode = 2
stream = ExtResource( 1 )
volume_db = -20.0

