# MagicaVoxel @ Ephtracy

# group
g 2XPanel

# material
mtllib 2XPanel.mtl
usemtl palette

# normals
vn -1 0 0
vn 1 0 0
vn 0 0 1
vn 0 0 -1
vn 0 -1 0
vn 0 1 0

# texcoords
vt 0.0371094 0.5
vt 0.0917969 0.5
vt 0.232422 0.5
vt 0.267578 0.5
vt 0.380859 0.5
vt 0.955078 0.5
vt 0.994141 0.5

# verts
v -15 0 13
v -15 0 9
v -15 0 -9
v -15 0 -13
v -15 5 13
v -15 5 9
v -15 5 -9
v -15 5 -13
v -14 0 14
v -14 0 13
v -14 0 9
v -14 0 -9
v -14 0 -13
v -14 0 -14
v -14 4 9
v -14 4 -9
v -14 5 14
v -14 5 13
v -14 5 -13
v -14 5 -14
v -13 0 15
v -13 0 14
v -13 0 -14
v -13 0 -15
v -13 5 15
v -13 5 14
v -13 5 -14
v -13 5 -15
v -11 3 7
v -11 3 5
v -11 4 7
v -11 4 5
v -10 3 8
v -10 3 7
v -10 3 5
v -10 3 3
v -10 4 8
v -10 4 7
v -10 4 5
v -10 4 3
v -9 3 3
v -9 3 2
v -9 3 -0
v -9 3 -2
v -9 4 3
v -9 4 2
v -9 4 -0
v -9 4 -2
v -8 3 1
v -8 3 -0
v -8 3 -2
v -8 3 -4
v -8 4 1
v -8 4 -0
v -8 4 -2
v -8 4 -4
v -7 3 2
v -7 3 1
v -7 3 -4
v -7 3 -5
v -7 4 2
v -7 4 1
v -7 4 -4
v -7 4 -5
v -6 3 -5
v -6 3 -6
v -6 4 -5
v -6 4 -6
v -4 3 -6
v -4 3 -7
v -4 4 -6
v -4 4 -7
v 3 3 3
v 3 3 2
v 3 4 3
v 3 4 2
v 4 3 4
v 4 3 3
v 4 3 2
v 4 3 1
v 4 3 -1
v 4 3 -3
v 4 4 4
v 4 4 3
v 4 4 2
v 4 4 1
v 4 4 -1
v 4 4 -3
v 5 3 1
v 5 3 -1
v 5 3 -3
v 5 3 -4
v 5 4 1
v 5 4 -1
v 5 4 -3
v 5 4 -4
v 8 3 3
v 8 3 2
v 8 3 -2
v 8 3 -3
v 8 4 3
v 8 4 2
v 8 4 -2
v 8 4 -3
v 9 0 15
v 9 0 14
v 9 0 -14
v 9 0 -15
v 9 3 4
v 9 3 3
v 9 3 -3
v 9 3 -4
v 9 4 14
v 9 4 13
v 9 4 12
v 9 4 4
v 9 4 3
v 9 4 -3
v 9 4 -4
v 9 4 -12
v 9 4 -13
v 9 4 -14
v 9 5 15
v 9 5 14
v 9 5 12
v 9 5 -12
v 9 5 -14
v 9 5 -15
v 11 3 12
v 11 3 11
v 11 3 -11
v 11 3 -12
v 11 4 12
v 11 4 11
v 11 4 -11
v 11 4 -12
v 11 5 12
v 11 5 11
v 11 5 -11
v 11 5 -12
v 12 3 11
v 12 3 9
v 12 3 -2
v 12 3 -3
v 12 3 -9
v 12 3 -11
v 12 4 11
v 12 4 9
v 12 4 -2
v 12 4 -3
v 12 4 -9
v 12 4 -11
v 12 5 11
v 12 5 9
v 12 5 -9
v 12 5 -11
v -12 3 11
v -12 3 9
v -12 3 -9
v -12 3 -11
v -12 4 11
v -12 4 9
v -12 4 -9
v -12 4 -11
v -12 5 11
v -12 5 9
v -12 5 -9
v -12 5 -11
v -11 3 12
v -11 3 11
v -11 3 -11
v -11 3 -12
v -11 4 12
v -11 4 11
v -11 4 -11
v -11 4 -12
v -11 5 12
v -11 5 11
v -11 5 -11
v -11 5 -12
v -9 0 15
v -9 0 14
v -9 0 -14
v -9 0 -15
v -9 4 14
v -9 4 13
v -9 4 12
v -9 4 -12
v -9 4 -13
v -9 4 -14
v -9 5 15
v -9 5 14
v -9 5 12
v -9 5 -12
v -9 5 -14
v -9 5 -15
v -1 3 3
v -1 3 2
v -1 4 3
v -1 4 2
v 0 3 2
v 0 3 1
v 0 4 2
v 0 4 1
v 1 3 8
v 1 3 6
v 1 3 4
v 1 3 3
v 1 3 1
v 1 3 -0
v 1 3 -6
v 1 3 -7
v 1 4 8
v 1 4 6
v 1 4 4
v 1 4 3
v 1 4 1
v 1 4 -0
v 1 4 -6
v 1 4 -7
v 2 3 6
v 2 3 4
v 2 3 -0
v 2 3 -1
v 2 3 -4
v 2 3 -6
v 2 4 6
v 2 4 4
v 2 4 -0
v 2 4 -1
v 2 4 -4
v 2 4 -6
v 3 3 -1
v 3 3 -4
v 3 4 -1
v 3 4 -4
v 6 3 4
v 6 3 3
v 6 3 -3
v 6 3 -4
v 6 4 4
v 6 4 3
v 6 4 -3
v 6 4 -4
v 7 3 3
v 7 3 2
v 7 3 -2
v 7 3 -3
v 7 4 3
v 7 4 2
v 7 4 -2
v 7 4 -3
v 10 3 4
v 10 3 3
v 10 3 1
v 10 3 -1
v 10 4 4
v 10 4 3
v 10 4 1
v 10 4 -1
v 11 3 3
v 11 3 1
v 11 3 -1
v 11 3 -2
v 11 3 -3
v 11 3 -4
v 11 4 3
v 11 4 1
v 11 4 -1
v 11 4 -2
v 11 4 -3
v 11 4 -4
v 13 0 15
v 13 0 14
v 13 0 -14
v 13 0 -15
v 13 5 15
v 13 5 14
v 13 5 -14
v 13 5 -15
v 14 0 14
v 14 0 13
v 14 0 9
v 14 0 -9
v 14 0 -13
v 14 0 -14
v 14 4 9
v 14 4 -9
v 14 5 14
v 14 5 13
v 14 5 -13
v 14 5 -14
v 15 0 13
v 15 0 9
v 15 0 -9
v 15 0 -13
v 15 5 13
v 15 5 9
v 15 5 -9
v 15 5 -13
v -13 0 15
v -13 5 15
v -9 0 15
v -9 5 15
v 9 0 15
v 9 5 15
v 13 0 15
v 13 5 15
v -14 0 14
v -14 5 14
v -13 0 14
v -13 5 14
v -9 0 14
v -9 4 14
v 9 0 14
v 9 4 14
v 13 0 14
v 13 5 14
v 14 0 14
v 14 5 14
v -15 0 13
v -15 5 13
v -14 0 13
v -14 5 13
v 14 0 13
v 14 5 13
v 15 0 13
v 15 5 13
v -10 3 8
v -10 4 8
v 1 3 8
v 1 4 8
v -11 3 7
v -11 4 7
v -10 3 7
v -10 4 7
v 1 3 6
v 1 4 6
v 2 3 6
v 2 4 6
v 4 3 4
v 4 4 4
v 6 3 4
v 6 4 4
v 9 3 4
v 9 4 4
v 10 3 4
v 10 4 4
v 3 3 3
v 3 4 3
v 4 3 3
v 4 4 3
v 6 3 3
v 6 4 3
v 7 3 3
v 7 4 3
v 8 3 3
v 8 4 3
v 9 3 3
v 9 4 3
v 10 3 3
v 10 4 3
v 11 3 3
v 11 4 3
v -1 3 2
v -1 4 2
v 0 3 2
v 0 4 2
v 7 3 2
v 7 4 2
v 8 3 2
v 8 4 2
v -8 3 1
v -8 4 1
v -7 3 1
v -7 4 1
v 0 3 1
v 0 4 1
v 1 3 1
v 1 4 1
v -9 3 -0
v -9 4 -0
v -8 3 -0
v -8 4 -0
v 1 3 -0
v 1 4 -0
v 2 3 -0
v 2 4 -0
v 2 3 -1
v 2 4 -1
v 3 3 -1
v 3 4 -1
v 4 3 -1
v 4 4 -1
v 5 3 -1
v 5 4 -1
v 10 3 -1
v 10 4 -1
v 11 3 -1
v 11 4 -1
v 11 3 -2
v 11 4 -2
v 12 3 -2
v 12 4 -2
v -15 0 -9
v -15 5 -9
v -14 0 -9
v -14 4 -9
v -14 5 -9
v -13 4 -9
v -12 4 -9
v -12 5 -9
v 12 4 -9
v 12 5 -9
v 13 4 -9
v 14 0 -9
v 14 4 -9
v 14 5 -9
v 15 0 -9
v 15 5 -9
v -12 3 -11
v -12 4 -11
v -12 5 -11
v -11 3 -11
v -11 4 -11
v -11 5 -11
v 11 3 -11
v 11 4 -11
v 11 5 -11
v 12 3 -11
v 12 4 -11
v 12 5 -11
v -11 3 -12
v -11 4 -12
v -11 5 -12
v -9 3 -12
v -9 4 -12
v -9 5 -12
v 9 3 -12
v 9 4 -12
v 9 5 -12
v 11 3 -12
v 11 4 -12
v 11 5 -12
v -11 3 12
v -11 4 12
v -11 5 12
v -9 3 12
v -9 4 12
v -9 5 12
v 9 3 12
v 9 4 12
v 9 5 12
v 11 3 12
v 11 4 12
v 11 5 12
v -12 3 11
v -12 4 11
v -12 5 11
v -11 3 11
v -11 4 11
v -11 5 11
v 11 3 11
v 11 4 11
v 11 5 11
v 12 3 11
v 12 4 11
v 12 5 11
v -15 0 9
v -15 5 9
v -14 0 9
v -14 4 9
v -14 5 9
v -13 4 9
v -12 4 9
v -12 5 9
v 12 4 9
v 12 5 9
v 13 4 9
v 14 0 9
v 14 4 9
v 14 5 9
v 15 0 9
v 15 5 9
v -11 3 5
v -11 4 5
v -10 3 5
v -10 4 5
v 1 3 4
v 1 4 4
v 2 3 4
v 2 4 4
v -10 3 3
v -10 4 3
v -9 3 3
v -9 4 3
v -1 3 3
v -1 4 3
v 1 3 3
v 1 4 3
v -9 3 2
v -9 4 2
v -7 3 2
v -7 4 2
v 3 3 2
v 3 4 2
v 4 3 2
v 4 4 2
v 4 3 1
v 4 4 1
v 5 3 1
v 5 4 1
v 10 3 1
v 10 4 1
v 11 3 1
v 11 4 1
v -9 3 -2
v -9 4 -2
v -8 3 -2
v -8 4 -2
v 7 3 -2
v 7 4 -2
v 8 3 -2
v 8 4 -2
v 4 3 -3
v 4 4 -3
v 5 3 -3
v 5 4 -3
v 6 3 -3
v 6 4 -3
v 7 3 -3
v 7 4 -3
v 8 3 -3
v 8 4 -3
v 9 3 -3
v 9 4 -3
v 11 3 -3
v 11 4 -3
v 12 3 -3
v 12 4 -3
v -8 3 -4
v -8 4 -4
v -7 3 -4
v -7 4 -4
v 2 3 -4
v 2 4 -4
v 3 3 -4
v 3 4 -4
v 5 3 -4
v 5 4 -4
v 6 3 -4
v 6 4 -4
v 9 3 -4
v 9 4 -4
v 11 3 -4
v 11 4 -4
v -7 3 -5
v -7 4 -5
v -6 3 -5
v -6 4 -5
v -6 3 -6
v -6 4 -6
v -4 3 -6
v -4 4 -6
v 1 3 -6
v 1 4 -6
v 2 3 -6
v 2 4 -6
v -4 3 -7
v -4 4 -7
v 1 3 -7
v 1 4 -7
v -15 0 -13
v -15 5 -13
v -14 0 -13
v -14 5 -13
v 14 0 -13
v 14 5 -13
v 15 0 -13
v 15 5 -13
v -14 0 -14
v -14 5 -14
v -13 0 -14
v -13 5 -14
v -9 0 -14
v -9 4 -14
v 9 0 -14
v 9 4 -14
v 13 0 -14
v 13 5 -14
v 14 0 -14
v 14 5 -14
v -13 0 -15
v -13 5 -15
v -9 0 -15
v -9 5 -15
v 9 0 -15
v 9 5 -15
v 13 0 -15
v 13 5 -15
v -13 0 15
v -9 0 15
v 9 0 15
v 13 0 15
v -14 0 14
v -13 0 14
v -9 0 14
v 9 0 14
v 13 0 14
v 14 0 14
v -15 0 13
v -14 0 13
v 14 0 13
v 15 0 13
v -15 0 9
v -14 0 9
v 14 0 9
v 15 0 9
v -15 0 -9
v -14 0 -9
v 14 0 -9
v 15 0 -9
v -15 0 -13
v -14 0 -13
v 14 0 -13
v 15 0 -13
v -14 0 -14
v -13 0 -14
v -9 0 -14
v 9 0 -14
v 13 0 -14
v 14 0 -14
v -13 0 -15
v -9 0 -15
v 9 0 -15
v 13 0 -15
v -11 3 12
v -9 3 12
v 9 3 12
v 11 3 12
v -12 3 11
v -11 3 11
v 11 3 11
v 12 3 11
v -12 3 9
v 12 3 9
v -10 3 8
v 1 3 8
v -11 3 7
v -10 3 7
v 1 3 6
v 2 3 6
v -11 3 5
v -10 3 5
v 1 3 4
v 2 3 4
v 4 3 4
v 6 3 4
v 9 3 4
v 10 3 4
v -10 3 3
v -9 3 3
v -1 3 3
v 1 3 3
v 3 3 3
v 4 3 3
v 6 3 3
v 7 3 3
v 8 3 3
v 9 3 3
v 10 3 3
v 11 3 3
v -9 3 2
v -7 3 2
v -1 3 2
v 0 3 2
v 3 3 2
v 4 3 2
v 7 3 2
v 8 3 2
v -8 3 1
v -7 3 1
v 0 3 1
v 1 3 1
v 4 3 1
v 5 3 1
v 10 3 1
v 11 3 1
v -9 3 -0
v -8 3 -0
v 1 3 -0
v 2 3 -0
v 2 3 -1
v 3 3 -1
v 4 3 -1
v 5 3 -1
v 10 3 -1
v 11 3 -1
v -9 3 -2
v -8 3 -2
v 7 3 -2
v 8 3 -2
v 11 3 -2
v 12 3 -2
v 4 3 -3
v 5 3 -3
v 6 3 -3
v 7 3 -3
v 8 3 -3
v 9 3 -3
v 11 3 -3
v 12 3 -3
v -8 3 -4
v -7 3 -4
v 2 3 -4
v 3 3 -4
v 5 3 -4
v 6 3 -4
v 9 3 -4
v 11 3 -4
v -7 3 -5
v -6 3 -5
v -6 3 -6
v -4 3 -6
v 1 3 -6
v 2 3 -6
v -4 3 -7
v 1 3 -7
v -12 3 -9
v 12 3 -9
v -12 3 -11
v -11 3 -11
v 11 3 -11
v 12 3 -11
v -11 3 -12
v -9 3 -12
v 9 3 -12
v 11 3 -12
v -9 4 14
v 9 4 14
v -9 4 13
v 9 4 13
v -9 4 12
v 9 4 12
v -14 4 9
v -13 4 9
v -12 4 9
v 12 4 9
v 13 4 9
v 14 4 9
v -10 4 8
v 1 4 8
v -11 4 7
v -10 4 7
v 0 4 7
v 0 4 6
v 1 4 6
v 2 4 6
v -11 4 5
v -10 4 5
v -9 4 5
v -5 4 5
v -2 4 5
v -5 4 4
v -3 4 4
v -2 4 4
v 1 4 4
v 2 4 4
v 4 4 4
v 6 4 4
v 9 4 4
v 10 4 4
v -10 4 3
v -9 4 3
v -7 4 3
v -3 4 3
v -2 4 3
v -1 4 3
v 1 4 3
v 3 4 3
v 4 4 3
v 6 4 3
v 7 4 3
v 8 4 3
v 9 4 3
v 10 4 3
v 11 4 3
v -9 4 2
v -7 4 2
v -5 4 2
v -2 4 2
v -1 4 2
v 0 4 2
v 3 4 2
v 4 4 2
v 5 4 2
v 6 4 2
v 7 4 2
v 8 4 2
v 9 4 2
v -8 4 1
v -7 4 1
v -5 4 1
v -3 4 1
v -1 4 1
v 0 4 1
v 1 4 1
v 4 4 1
v 5 4 1
v 6 4 1
v 7 4 1
v 8 4 1
v 9 4 1
v 10 4 1
v 11 4 1
v -9 4 -0
v -8 4 -0
v -6 4 -0
v -3 4 -0
v -2 4 -0
v 0 4 -0
v 1 4 -0
v 2 4 -0
v -6 4 -1
v -5 4 -1
v -2 4 -1
v -1 4 -1
v 1 4 -1
v 2 4 -1
v 3 4 -1
v 4 4 -1
v 5 4 -1
v 6 4 -1
v 7 4 -1
v 8 4 -1
v 9 4 -1
v 10 4 -1
v 11 4 -1
v -9 4 -2
v -8 4 -2
v -7 4 -2
v -5 4 -2
v -4 4 -2
v 6 4 -2
v 7 4 -2
v 8 4 -2
v 9 4 -2
v 10 4 -2
v 11 4 -2
v 12 4 -2
v -4 4 -3
v -1 4 -3
v 4 4 -3
v 5 4 -3
v 6 4 -3
v 7 4 -3
v 8 4 -3
v 9 4 -3
v 11 4 -3
v 12 4 -3
v -8 4 -4
v -7 4 -4
v -6 4 -4
v 1 4 -4
v 2 4 -4
v 3 4 -4
v 5 4 -4
v 6 4 -4
v 9 4 -4
v 11 4 -4
v -7 4 -5
v -6 4 -5
v -4 4 -5
v -6 4 -6
v -4 4 -6
v 1 4 -6
v 2 4 -6
v -4 4 -7
v 1 4 -7
v -14 4 -9
v -13 4 -9
v -12 4 -9
v 12 4 -9
v 13 4 -9
v 14 4 -9
v -9 4 -12
v 9 4 -12
v -9 4 -13
v 9 4 -13
v -9 4 -14
v 9 4 -14
v -13 5 15
v -9 5 15
v 9 5 15
v 13 5 15
v -14 5 14
v -13 5 14
v -9 5 14
v 9 5 14
v 13 5 14
v 14 5 14
v -15 5 13
v -14 5 13
v -13 5 13
v 13 5 13
v 14 5 13
v 15 5 13
v -11 5 12
v -9 5 12
v 9 5 12
v 11 5 12
v -12 5 11
v -11 5 11
v 11 5 11
v 12 5 11
v -15 5 9
v -14 5 9
v -12 5 9
v 12 5 9
v 14 5 9
v 15 5 9
v -15 5 -9
v -14 5 -9
v -12 5 -9
v 12 5 -9
v 14 5 -9
v 15 5 -9
v -12 5 -11
v -11 5 -11
v 11 5 -11
v 12 5 -11
v -11 5 -12
v -9 5 -12
v 9 5 -12
v 11 5 -12
v -15 5 -13
v -14 5 -13
v -13 5 -13
v 13 5 -13
v 14 5 -13
v 15 5 -13
v -14 5 -14
v -13 5 -14
v -9 5 -14
v 9 5 -14
v 13 5 -14
v 14 5 -14
v -13 5 -15
v -9 5 -15
v 9 5 -15
v 13 5 -15

# faces
f 5/7/1 2/7/1 1/7/1
f 6/7/1 2/7/1 5/7/1
f 7/7/1 4/7/1 3/7/1
f 8/7/1 4/7/1 7/7/1
f 15/7/1 12/7/1 11/7/1
f 16/7/1 12/7/1 15/7/1
f 17/7/1 10/7/1 9/7/1
f 18/7/1 10/7/1 17/7/1
f 19/7/1 14/7/1 13/7/1
f 20/7/1 14/7/1 19/7/1
f 25/7/1 22/7/1 21/7/1
f 26/7/1 22/7/1 25/7/1
f 27/7/1 24/7/1 23/7/1
f 28/7/1 24/7/1 27/7/1
f 31/7/1 30/7/1 29/7/1
f 32/7/1 30/7/1 31/7/1
f 37/7/1 34/7/1 33/7/1
f 38/7/1 34/7/1 37/7/1
f 39/7/1 36/7/1 35/7/1
f 40/7/1 36/7/1 39/7/1
f 45/7/1 42/7/1 41/7/1
f 46/7/1 42/7/1 45/7/1
f 47/7/1 44/7/1 43/7/1
f 48/7/1 44/7/1 47/7/1
f 53/7/1 50/7/1 49/7/1
f 54/7/1 50/7/1 53/7/1
f 55/7/1 52/7/1 51/7/1
f 56/7/1 52/7/1 55/7/1
f 61/7/1 58/7/1 57/7/1
f 62/7/1 58/7/1 61/7/1
f 63/7/1 60/7/1 59/7/1
f 64/7/1 60/7/1 63/7/1
f 67/7/1 66/7/1 65/7/1
f 68/7/1 66/7/1 67/7/1
f 71/7/1 70/7/1 69/7/1
f 72/7/1 70/7/1 71/7/1
f 75/7/1 74/7/1 73/7/1
f 76/7/1 74/7/1 75/7/1
f 83/7/1 78/7/1 77/7/1
f 84/7/1 78/7/1 83/7/1
f 85/7/1 80/7/1 79/7/1
f 86/7/1 80/7/1 85/7/1
f 87/7/1 82/7/1 81/7/1
f 88/7/1 82/7/1 87/7/1
f 93/7/1 90/7/1 89/7/1
f 94/7/1 90/7/1 93/7/1
f 95/7/1 92/7/1 91/7/1
f 96/7/1 92/7/1 95/7/1
f 101/7/1 98/7/1 97/7/1
f 102/7/1 98/7/1 101/7/1
f 103/7/1 100/7/1 99/7/1
f 104/7/1 100/7/1 103/7/1
f 113/7/1 106/7/1 105/7/1
f 116/7/1 110/7/1 109/7/1
f 117/7/1 110/7/1 116/7/1
f 118/7/1 112/7/1 111/7/1
f 119/7/1 112/7/1 118/7/1
f 122/7/1 108/7/1 107/7/1
f 123/7/1 113/7/1 105/7/1
f 124/5/1 115/5/1 114/5/1
f 124/7/1 113/7/1 123/7/1
f 124/5/1 114/5/1 113/5/1
f 125/5/1 115/5/1 124/5/1
f 126/5/1 122/5/1 121/5/1
f 126/5/1 121/5/1 120/5/1
f 127/7/1 108/7/1 122/7/1
f 127/5/1 122/5/1 126/5/1
f 128/7/1 108/7/1 127/7/1
f 133/6/1 130/6/1 129/6/1
f 134/6/1 130/6/1 133/6/1
f 135/6/1 132/6/1 131/6/1
f 136/6/1 132/6/1 135/6/1
f 137/5/1 134/5/1 133/5/1
f 138/5/1 134/5/1 137/5/1
f 139/5/1 136/5/1 135/5/1
f 140/5/1 136/5/1 139/5/1
f 147/6/1 142/6/1 141/6/1
f 148/4/1 143/4/1 142/4/1
f 148/6/1 142/6/1 147/6/1
f 149/4/1 143/4/1 148/4/1
f 150/4/1 145/4/1 144/4/1
f 151/6/1 146/6/1 145/6/1
f 151/4/1 145/4/1 150/4/1
f 152/6/1 146/6/1 151/6/1
f 153/5/1 148/5/1 147/5/1
f 154/5/1 148/5/1 153/5/1
f 155/5/1 152/5/1 151/5/1
f 156/5/1 152/5/1 155/5/1
f 157/6/2 158/6/2 161/6/2
f 158/4/2 159/4/2 162/4/2
f 161/6/2 158/6/2 162/6/2
f 159/6/2 160/6/2 163/6/2
f 162/4/2 159/4/2 163/4/2
f 163/6/2 160/6/2 164/6/2
f 161/5/2 162/5/2 165/5/2
f 165/5/2 162/5/2 166/5/2
f 163/5/2 164/5/2 167/5/2
f 167/5/2 164/5/2 168/5/2
f 169/6/2 170/6/2 173/6/2
f 173/6/2 170/6/2 174/6/2
f 171/6/2 172/6/2 175/6/2
f 175/6/2 172/6/2 176/6/2
f 173/5/2 174/5/2 177/5/2
f 177/5/2 174/5/2 178/5/2
f 175/5/2 176/5/2 179/5/2
f 179/5/2 176/5/2 180/5/2
f 181/7/2 182/7/2 185/7/2
f 183/7/2 184/7/2 190/7/2
f 181/7/2 185/7/2 191/7/2
f 185/5/2 186/5/2 192/5/2
f 191/7/2 185/7/2 192/7/2
f 186/5/2 187/5/2 192/5/2
f 192/5/2 187/5/2 193/5/2
f 188/5/2 189/5/2 194/5/2
f 189/5/2 190/5/2 194/5/2
f 190/7/2 184/7/2 195/7/2
f 194/5/2 190/5/2 195/5/2
f 195/7/2 184/7/2 196/7/2
f 197/7/2 198/7/2 199/7/2
f 199/7/2 198/7/2 200/7/2
f 201/7/2 202/7/2 203/7/2
f 203/7/2 202/7/2 204/7/2
f 205/7/2 206/7/2 213/7/2
f 213/7/2 206/7/2 214/7/2
f 207/7/2 208/7/2 215/7/2
f 215/7/2 208/7/2 216/7/2
f 209/7/2 210/7/2 217/7/2
f 217/7/2 210/7/2 218/7/2
f 211/7/2 212/7/2 219/7/2
f 219/7/2 212/7/2 220/7/2
f 221/7/2 222/7/2 227/7/2
f 227/7/2 222/7/2 228/7/2
f 223/7/2 224/7/2 229/7/2
f 229/7/2 224/7/2 230/7/2
f 225/7/2 226/7/2 231/7/2
f 231/7/2 226/7/2 232/7/2
f 233/7/2 234/7/2 235/7/2
f 235/7/2 234/7/2 236/7/2
f 237/7/2 238/7/2 241/7/2
f 241/7/2 238/7/2 242/7/2
f 239/7/2 240/7/2 243/7/2
f 243/7/2 240/7/2 244/7/2
f 245/7/2 246/7/2 249/7/2
f 249/7/2 246/7/2 250/7/2
f 247/7/2 248/7/2 251/7/2
f 251/7/2 248/7/2 252/7/2
f 253/7/2 254/7/2 257/7/2
f 257/7/2 254/7/2 258/7/2
f 255/7/2 256/7/2 259/7/2
f 259/7/2 256/7/2 260/7/2
f 261/7/2 262/7/2 267/7/2
f 267/7/2 262/7/2 268/7/2
f 263/7/2 264/7/2 269/7/2
f 269/7/2 264/7/2 270/7/2
f 265/7/2 266/7/2 271/7/2
f 271/7/2 266/7/2 272/7/2
f 273/7/2 274/7/2 277/7/2
f 277/7/2 274/7/2 278/7/2
f 275/7/2 276/7/2 279/7/2
f 279/7/2 276/7/2 280/7/2
f 283/7/2 284/7/2 287/7/2
f 287/7/2 284/7/2 288/7/2
f 281/7/2 282/7/2 289/7/2
f 289/7/2 282/7/2 290/7/2
f 285/7/2 286/7/2 291/7/2
f 291/7/2 286/7/2 292/7/2
f 293/7/2 294/7/2 297/7/2
f 297/7/2 294/7/2 298/7/2
f 295/7/2 296/7/2 299/7/2
f 299/7/2 296/7/2 300/7/2
f 303/7/3 302/7/3 301/7/3
f 304/7/3 302/7/3 303/7/3
f 307/7/3 306/7/3 305/7/3
f 308/7/3 306/7/3 307/7/3
f 311/7/3 310/7/3 309/7/3
f 312/7/3 310/7/3 311/7/3
f 315/7/3 314/7/3 313/7/3
f 316/7/3 314/7/3 315/7/3
f 319/7/3 318/7/3 317/7/3
f 320/7/3 318/7/3 319/7/3
f 323/7/3 322/7/3 321/7/3
f 324/7/3 322/7/3 323/7/3
f 327/7/3 326/7/3 325/7/3
f 328/7/3 326/7/3 327/7/3
f 331/7/3 330/7/3 329/7/3
f 332/7/3 330/7/3 331/7/3
f 335/7/3 334/7/3 333/7/3
f 336/7/3 334/7/3 335/7/3
f 339/7/3 338/7/3 337/7/3
f 340/7/3 338/7/3 339/7/3
f 343/7/3 342/7/3 341/7/3
f 344/7/3 342/7/3 343/7/3
f 347/7/3 346/7/3 345/7/3
f 348/7/3 346/7/3 347/7/3
f 351/7/3 350/7/3 349/7/3
f 352/7/3 350/7/3 351/7/3
f 355/7/3 354/7/3 353/7/3
f 356/7/3 354/7/3 355/7/3
f 359/7/3 358/7/3 357/7/3
f 360/7/3 358/7/3 359/7/3
f 363/7/3 362/7/3 361/7/3
f 364/7/3 362/7/3 363/7/3
f 367/7/3 366/7/3 365/7/3
f 368/7/3 366/7/3 367/7/3
f 371/7/3 370/7/3 369/7/3
f 372/7/3 370/7/3 371/7/3
f 375/7/3 374/7/3 373/7/3
f 376/7/3 374/7/3 375/7/3
f 379/7/3 378/7/3 377/7/3
f 380/7/3 378/7/3 379/7/3
f 383/7/3 382/7/3 381/7/3
f 384/7/3 382/7/3 383/7/3
f 387/7/3 386/7/3 385/7/3
f 388/7/3 386/7/3 387/7/3
f 391/7/3 390/7/3 389/7/3
f 392/7/3 390/7/3 391/7/3
f 395/7/3 394/7/3 393/7/3
f 396/7/3 394/7/3 395/7/3
f 399/7/3 398/7/3 397/7/3
f 400/7/3 398/7/3 399/7/3
f 403/7/3 402/7/3 401/7/3
f 404/7/3 402/7/3 403/7/3
f 407/7/3 406/7/3 405/7/3
f 408/7/3 406/7/3 407/7/3
f 409/7/3 406/7/3 408/7/3
f 410/5/3 409/5/3 408/5/3
f 411/5/3 409/5/3 410/5/3
f 412/5/3 409/5/3 411/5/3
f 415/5/3 414/5/3 413/5/3
f 417/5/3 414/5/3 415/5/3
f 418/5/3 414/5/3 417/5/3
f 419/7/3 417/7/3 416/7/3
f 419/7/3 418/7/3 417/7/3
f 420/7/3 418/7/3 419/7/3
f 424/6/3 422/6/3 421/6/3
f 425/5/3 423/5/3 422/5/3
f 425/6/3 422/6/3 424/6/3
f 426/5/3 423/5/3 425/5/3
f 430/6/3 428/6/3 427/6/3
f 431/5/3 429/5/3 428/5/3
f 431/6/3 428/6/3 430/6/3
f 432/5/3 429/5/3 431/5/3
f 436/6/3 434/6/3 433/6/3
f 437/5/3 435/5/3 434/5/3
f 437/6/3 434/6/3 436/6/3
f 438/5/3 435/5/3 437/5/3
f 439/4/3 437/4/3 436/4/3
f 440/4/3 437/4/3 439/4/3
f 442/6/3 440/6/3 439/6/3
f 443/5/3 441/5/3 440/5/3
f 443/6/3 440/6/3 442/6/3
f 444/5/3 441/5/3 443/5/3
f 445/6/4 446/6/4 448/6/4
f 446/5/4 447/5/4 449/5/4
f 448/6/4 446/6/4 449/6/4
f 449/5/4 447/5/4 450/5/4
f 448/4/4 449/4/4 451/4/4
f 451/4/4 449/4/4 452/4/4
f 451/6/4 452/6/4 454/6/4
f 452/5/4 453/5/4 455/5/4
f 454/6/4 452/6/4 455/6/4
f 455/5/4 453/5/4 456/5/4
f 457/6/4 458/6/4 460/6/4
f 458/5/4 459/5/4 461/5/4
f 460/6/4 458/6/4 461/6/4
f 461/5/4 459/5/4 462/5/4
f 463/6/4 464/6/4 466/6/4
f 464/5/4 465/5/4 467/5/4
f 466/6/4 464/6/4 467/6/4
f 467/5/4 465/5/4 468/5/4
f 469/7/4 470/7/4 471/7/4
f 471/7/4 470/7/4 472/7/4
f 472/7/4 470/7/4 473/7/4
f 472/5/4 473/5/4 474/5/4
f 474/5/4 473/5/4 475/5/4
f 475/5/4 473/5/4 476/5/4
f 477/5/4 478/5/4 479/5/4
f 479/5/4 478/5/4 481/5/4
f 481/5/4 478/5/4 482/5/4
f 480/7/4 481/7/4 483/7/4
f 481/7/4 482/7/4 483/7/4
f 483/7/4 482/7/4 484/7/4
f 485/7/4 486/7/4 487/7/4
f 487/7/4 486/7/4 488/7/4
f 489/7/4 490/7/4 491/7/4
f 491/7/4 490/7/4 492/7/4
f 493/7/4 494/7/4 495/7/4
f 495/7/4 494/7/4 496/7/4
f 497/7/4 498/7/4 499/7/4
f 499/7/4 498/7/4 500/7/4
f 501/7/4 502/7/4 503/7/4
f 503/7/4 502/7/4 504/7/4
f 505/7/4 506/7/4 507/7/4
f 507/7/4 506/7/4 508/7/4
f 509/7/4 510/7/4 511/7/4
f 511/7/4 510/7/4 512/7/4
f 513/7/4 514/7/4 515/7/4
f 515/7/4 514/7/4 516/7/4
f 517/7/4 518/7/4 519/7/4
f 519/7/4 518/7/4 520/7/4
f 521/7/4 522/7/4 523/7/4
f 523/7/4 522/7/4 524/7/4
f 525/7/4 526/7/4 527/7/4
f 527/7/4 526/7/4 528/7/4
f 529/7/4 530/7/4 531/7/4
f 531/7/4 530/7/4 532/7/4
f 533/7/4 534/7/4 535/7/4
f 535/7/4 534/7/4 536/7/4
f 537/7/4 538/7/4 539/7/4
f 539/7/4 538/7/4 540/7/4
f 541/7/4 542/7/4 543/7/4
f 543/7/4 542/7/4 544/7/4
f 545/7/4 546/7/4 547/7/4
f 547/7/4 546/7/4 548/7/4
f 549/7/4 550/7/4 551/7/4
f 551/7/4 550/7/4 552/7/4
f 553/7/4 554/7/4 555/7/4
f 555/7/4 554/7/4 556/7/4
f 557/7/4 558/7/4 559/7/4
f 559/7/4 558/7/4 560/7/4
f 561/7/4 562/7/4 563/7/4
f 563/7/4 562/7/4 564/7/4
f 565/7/4 566/7/4 567/7/4
f 567/7/4 566/7/4 568/7/4
f 569/7/4 570/7/4 571/7/4
f 571/7/4 570/7/4 572/7/4
f 573/7/4 574/7/4 575/7/4
f 575/7/4 574/7/4 576/7/4
f 577/7/4 578/7/4 579/7/4
f 579/7/4 578/7/4 580/7/4
f 581/7/4 582/7/4 583/7/4
f 583/7/4 582/7/4 584/7/4
f 585/7/4 586/7/4 587/7/4
f 587/7/4 586/7/4 588/7/4
f 589/7/4 590/7/4 591/7/4
f 591/7/4 590/7/4 592/7/4
f 593/7/4 594/7/4 595/7/4
f 595/7/4 594/7/4 596/7/4
f 597/7/4 598/7/4 599/7/4
f 599/7/4 598/7/4 600/7/4
f 606/7/5 602/7/5 601/7/5
f 607/7/5 602/7/5 606/7/5
f 608/7/5 604/7/5 603/7/5
f 609/7/5 604/7/5 608/7/5
f 612/7/5 607/7/5 606/7/5
f 612/7/5 610/7/5 609/7/5
f 612/7/5 609/7/5 608/7/5
f 612/7/5 608/7/5 607/7/5
f 612/7/5 606/7/5 605/7/5
f 613/7/5 610/7/5 612/7/5
f 615/7/5 612/7/5 611/7/5
f 615/7/5 614/7/5 613/7/5
f 615/7/5 613/7/5 612/7/5
f 616/7/5 614/7/5 615/7/5
f 617/7/5 614/7/5 616/7/5
f 618/7/5 614/7/5 617/7/5
f 620/7/5 617/7/5 616/7/5
f 621/7/5 617/7/5 620/7/5
f 623/7/5 620/7/5 619/7/5
f 623/7/5 622/7/5 621/7/5
f 623/7/5 621/7/5 620/7/5
f 624/7/5 622/7/5 623/7/5
f 625/7/5 622/7/5 624/7/5
f 626/7/5 622/7/5 625/7/5
f 627/7/5 625/7/5 624/7/5
f 628/7/5 625/7/5 627/7/5
f 629/7/5 625/7/5 628/7/5
f 630/7/5 625/7/5 629/7/5
f 631/7/5 625/7/5 630/7/5
f 632/7/5 625/7/5 631/7/5
f 633/7/5 629/7/5 628/7/5
f 634/7/5 629/7/5 633/7/5
f 635/7/5 631/7/5 630/7/5
f 636/7/5 631/7/5 635/7/5
f 637/1/6 638/1/6 642/1/6
f 639/1/6 640/1/6 642/1/6
f 638/1/6 639/1/6 642/1/6
f 642/1/6 640/1/6 643/1/6
f 641/1/6 642/1/6 645/1/6
f 643/1/6 644/1/6 645/1/6
f 642/1/6 643/1/6 645/1/6
f 645/1/6 644/1/6 646/1/6
f 645/1/6 646/1/6 647/1/6
f 647/1/6 646/1/6 648/1/6
f 645/1/6 647/1/6 649/1/6
f 649/1/6 647/1/6 650/1/6
f 648/1/6 646/1/6 651/1/6
f 651/1/6 646/1/6 652/1/6
f 645/1/6 649/1/6 653/1/6
f 652/1/6 646/1/6 656/1/6
f 656/1/6 646/1/6 657/1/6
f 657/1/6 646/1/6 658/1/6
f 658/1/6 646/1/6 659/1/6
f 659/1/6 646/1/6 660/1/6
f 653/1/6 654/1/6 661/1/6
f 655/1/6 656/1/6 664/1/6
f 656/1/6 657/1/6 664/1/6
f 664/1/6 657/1/6 665/1/6
f 665/1/6 657/1/6 666/1/6
f 658/1/6 659/1/6 667/1/6
f 667/1/6 659/1/6 668/1/6
f 668/1/6 659/1/6 669/1/6
f 669/1/6 659/1/6 670/1/6
f 660/1/6 646/1/6 671/1/6
f 671/1/6 646/1/6 672/1/6
f 661/1/6 662/1/6 673/1/6
f 663/1/6 664/1/6 675/1/6
f 664/1/6 665/1/6 675/1/6
f 675/1/6 665/1/6 676/1/6
f 676/1/6 665/1/6 677/1/6
f 668/1/6 669/1/6 679/1/6
f 679/1/6 669/1/6 680/1/6
f 673/1/6 674/1/6 681/1/6
f 681/1/6 674/1/6 682/1/6
f 677/1/6 678/1/6 683/1/6
f 676/1/6 677/1/6 683/1/6
f 683/1/6 678/1/6 684/1/6
f 684/1/6 678/1/6 685/1/6
f 672/1/6 646/1/6 688/1/6
f 661/1/6 673/1/6 689/1/6
f 673/1/6 681/1/6 689/1/6
f 689/1/6 681/1/6 690/1/6
f 684/1/6 685/1/6 691/1/6
f 685/1/6 686/1/6 691/1/6
f 691/1/6 686/1/6 692/1/6
f 692/1/6 686/1/6 693/1/6
f 693/1/6 686/1/6 694/1/6
f 694/1/6 686/1/6 695/1/6
f 695/1/6 686/1/6 696/1/6
f 687/1/6 688/1/6 697/1/6
f 688/1/6 646/1/6 698/1/6
f 697/1/6 688/1/6 698/1/6
f 661/1/6 689/1/6 699/1/6
f 698/1/6 646/1/6 703/1/6
f 703/1/6 646/1/6 704/1/6
f 694/1/6 695/1/6 705/1/6
f 701/1/6 702/1/6 708/1/6
f 708/1/6 702/1/6 709/1/6
f 699/1/6 700/1/6 713/1/6
f 705/1/6 706/1/6 716/1/6
f 694/1/6 705/1/6 716/1/6
f 716/1/6 706/1/6 717/1/6
f 707/1/6 708/1/6 718/1/6
f 708/1/6 709/1/6 718/1/6
f 709/1/6 710/1/6 718/1/6
f 718/1/6 710/1/6 719/1/6
f 711/1/6 712/1/6 720/1/6
f 713/1/6 714/1/6 721/1/6
f 721/1/6 722/1/6 723/1/6
f 719/1/6 720/1/6 726/1/6
f 718/1/6 719/1/6 726/1/6
f 716/1/6 717/1/6 726/1/6
f 715/1/6 716/1/6 726/1/6
f 717/1/6 718/1/6 726/1/6
f 723/1/6 724/1/6 727/1/6
f 725/1/6 726/1/6 728/1/6
f 645/1/6 653/1/6 729/1/6
f 727/1/6 728/1/6 729/1/6
f 653/1/6 661/1/6 729/1/6
f 723/1/6 727/1/6 729/1/6
f 661/1/6 699/1/6 729/1/6
f 721/1/6 723/1/6 729/1/6
f 699/1/6 713/1/6 729/1/6
f 713/1/6 721/1/6 729/1/6
f 728/1/6 726/1/6 730/1/6
f 729/1/6 728/1/6 730/1/6
f 726/1/6 720/1/6 730/1/6
f 720/1/6 712/1/6 730/1/6
f 729/1/6 730/1/6 731/1/6
f 731/1/6 730/1/6 732/1/6
f 732/1/6 730/1/6 733/1/6
f 733/1/6 730/1/6 734/1/6
f 732/1/6 733/1/6 735/1/6
f 735/1/6 733/1/6 736/1/6
f 736/1/6 733/1/6 737/1/6
f 737/1/6 733/1/6 738/1/6
f 739/7/6 740/7/6 741/7/6
f 741/7/6 740/7/6 742/7/6
f 741/4/6 742/4/6 743/4/6
f 743/4/6 742/4/6 744/4/6
f 751/7/6 752/7/6 754/7/6
f 754/7/6 752/7/6 755/7/6
f 754/2/6 755/2/6 756/2/6
f 755/7/6 752/7/6 756/7/6
f 756/7/6 752/7/6 757/7/6
f 753/7/6 754/7/6 759/7/6
f 754/2/6 756/2/6 760/2/6
f 759/7/6 754/7/6 760/7/6
f 756/2/6 757/2/6 760/2/6
f 760/2/6 757/2/6 761/2/6
f 761/2/6 757/2/6 762/2/6
f 762/2/6 757/2/6 763/2/6
f 761/2/6 762/2/6 764/2/6
f 762/7/6 763/7/6 764/7/6
f 764/7/6 763/7/6 765/7/6
f 763/2/6 757/2/6 766/2/6
f 765/7/6 763/7/6 766/7/6
f 757/7/6 758/7/6 767/7/6
f 766/2/6 757/2/6 767/2/6
f 767/7/6 758/7/6 768/7/6
f 760/7/6 761/7/6 773/7/6
f 764/2/6 765/2/6 774/2/6
f 773/7/6 761/7/6 774/7/6
f 761/2/6 764/2/6 774/2/6
f 774/2/6 765/2/6 775/2/6
f 765/7/6 766/7/6 776/7/6
f 775/2/6 765/2/6 776/2/6
f 766/7/6 767/7/6 776/7/6
f 776/7/6 767/7/6 777/7/6
f 777/7/6 767/7/6 778/7/6
f 778/7/6 767/7/6 779/7/6
f 769/7/6 770/7/6 781/7/6
f 781/7/6 770/7/6 782/7/6
f 771/7/6 772/7/6 785/7/6
f 785/7/6 772/7/6 786/7/6
f 774/7/6 775/7/6 788/7/6
f 775/2/6 776/2/6 789/2/6
f 788/7/6 775/7/6 789/7/6
f 776/2/6 777/2/6 789/2/6
f 789/2/6 777/2/6 790/2/6
f 777/7/6 778/7/6 791/7/6
f 790/2/6 777/2/6 791/2/6
f 791/7/6 778/7/6 792/7/6
f 780/7/6 781/7/6 794/7/6
f 781/2/6 782/2/6 795/2/6
f 794/7/6 781/7/6 795/7/6
f 795/2/6 782/2/6 796/2/6
f 782/7/6 783/7/6 797/7/6
f 796/2/6 782/2/6 797/2/6
f 797/7/6 783/7/6 798/7/6
f 784/7/6 785/7/6 799/7/6
f 785/2/6 786/2/6 800/2/6
f 799/7/6 785/7/6 800/7/6
f 789/7/6 790/7/6 802/7/6
f 790/2/6 791/2/6 803/2/6
f 791/2/6 792/2/6 803/2/6
f 802/7/6 790/7/6 803/7/6
f 803/2/6 792/2/6 804/2/6
f 792/7/6 793/7/6 805/7/6
f 804/2/6 792/2/6 805/2/6
f 805/7/6 793/7/6 806/7/6
f 795/7/6 796/7/6 808/7/6
f 797/2/6 798/2/6 809/2/6
f 808/7/6 796/7/6 809/7/6
f 796/2/6 797/2/6 809/2/6
f 809/2/6 798/2/6 810/2/6
f 798/7/6 799/7/6 811/7/6
f 810/2/6 798/2/6 811/2/6
f 799/2/6 800/2/6 812/2/6
f 811/7/6 799/7/6 812/7/6
f 800/2/6 786/2/6 813/2/6
f 812/2/6 800/2/6 813/2/6
f 786/7/6 787/7/6 814/7/6
f 813/2/6 786/2/6 814/2/6
f 814/7/6 787/7/6 815/7/6
f 803/7/6 804/7/6 817/7/6
f 801/7/6 802/7/6 817/7/6
f 802/7/6 803/7/6 817/7/6
f 817/7/6 804/7/6 818/7/6
f 805/2/6 806/2/6 819/2/6
f 818/7/6 804/7/6 819/7/6
f 804/2/6 805/2/6 819/2/6
f 819/2/6 806/2/6 820/2/6
f 806/7/6 807/7/6 821/7/6
f 820/2/6 806/2/6 821/2/6
f 821/7/6 807/7/6 822/7/6
f 819/7/6 820/7/6 824/7/6
f 817/2/6 818/2/6 824/2/6
f 818/7/6 819/7/6 824/7/6
f 824/7/6 820/7/6 825/7/6
f 821/2/6 822/2/6 826/2/6
f 825/7/6 820/7/6 826/7/6
f 820/2/6 821/2/6 826/2/6
f 826/2/6 822/2/6 827/2/6
f 822/7/6 823/7/6 828/7/6
f 827/2/6 822/2/6 828/2/6
f 828/7/6 823/7/6 829/7/6
f 809/7/6 810/7/6 832/7/6
f 812/2/6 813/2/6 833/2/6
f 811/2/6 812/2/6 833/2/6
f 832/7/6 810/7/6 833/7/6
f 810/2/6 811/2/6 833/2/6
f 833/2/6 813/2/6 834/2/6
f 834/2/6 813/2/6 835/2/6
f 813/7/6 814/7/6 836/7/6
f 835/2/6 813/2/6 836/2/6
f 836/7/6 814/7/6 837/7/6
f 816/7/6 817/7/6 839/7/6
f 824/2/6 825/2/6 840/2/6
f 839/7/6 817/7/6 840/7/6
f 817/2/6 824/2/6 840/2/6
f 840/2/6 825/2/6 841/2/6
f 826/7/6 827/7/6 842/7/6
f 841/2/6 825/2/6 842/2/6
f 825/7/6 826/7/6 842/7/6
f 842/7/6 827/7/6 843/7/6
f 832/2/6 833/2/6 844/2/6
f 833/2/6 834/2/6 844/2/6
f 834/7/6 835/7/6 845/7/6
f 844/2/6 834/2/6 845/2/6
f 836/2/6 837/2/6 846/2/6
f 845/7/6 835/7/6 846/7/6
f 835/2/6 836/2/6 846/2/6
f 846/2/6 837/2/6 847/2/6
f 837/7/6 838/7/6 848/7/6
f 847/2/6 837/2/6 848/2/6
f 848/7/6 838/7/6 849/7/6
f 748/4/6 749/4/6 850/4/6
f 843/7/6 827/7/6 851/7/6
f 842/2/6 843/2/6 851/2/6
f 841/2/6 842/2/6 851/2/6
f 828/2/6 829/2/6 852/2/6
f 851/7/6 827/7/6 852/7/6
f 827/2/6 828/2/6 852/2/6
f 831/7/6 832/7/6 853/7/6
f 832/2/6 844/2/6 854/2/6
f 853/7/6 832/7/6 854/7/6
f 844/7/6 845/7/6 855/7/6
f 854/2/6 844/2/6 855/2/6
f 855/7/6 845/7/6 856/7/6
f 846/7/6 847/7/6 857/7/6
f 848/2/6 849/2/6 858/2/6
f 857/7/6 847/7/6 858/7/6
f 847/2/6 848/2/6 858/2/6
f 849/7/6 850/7/6 859/7/6
f 858/2/6 849/2/6 859/2/6
f 850/4/6 749/4/6 860/4/6
f 859/7/6 850/7/6 860/7/6
f 840/7/6 841/7/6 861/7/6
f 841/2/6 851/2/6 862/2/6
f 861/7/6 841/7/6 862/7/6
f 851/2/6 852/2/6 862/2/6
f 862/2/6 852/2/6 863/2/6
f 852/2/6 829/2/6 864/2/6
f 863/2/6 852/2/6 864/2/6
f 829/7/6 830/7/6 865/7/6
f 864/2/6 829/2/6 865/2/6
f 865/7/6 830/7/6 866/7/6
f 854/7/6 855/7/6 867/7/6
f 867/7/6 855/7/6 868/7/6
f 858/7/6 859/7/6 869/7/6
f 869/7/6 859/7/6 870/7/6
f 862/7/6 863/7/6 871/7/6
f 863/2/6 864/2/6 872/2/6
f 871/7/6 863/7/6 872/7/6
f 872/2/6 864/2/6 873/2/6
f 872/7/6 873/7/6 874/7/6
f 873/2/6 864/2/6 875/2/6
f 874/7/6 873/7/6 875/7/6
f 864/7/6 865/7/6 876/7/6
f 875/2/6 864/2/6 876/2/6
f 876/7/6 865/7/6 877/7/6
f 875/7/6 876/7/6 878/7/6
f 878/7/6 876/7/6 879/7/6
f 745/7/6 746/7/6 880/7/6
f 746/4/6 747/4/6 881/4/6
f 880/7/6 746/7/6 881/7/6
f 881/4/6 747/4/6 882/4/6
f 860/4/6 749/4/6 883/4/6
f 749/7/6 750/7/6 884/7/6
f 883/4/6 749/4/6 884/4/6
f 884/7/6 750/7/6 885/7/6
f 886/4/6 887/4/6 888/4/6
f 888/4/6 887/4/6 889/4/6
f 888/7/6 889/7/6 890/7/6
f 890/7/6 889/7/6 891/7/6
f 892/7/6 893/7/6 897/7/6
f 897/7/6 893/7/6 898/7/6
f 894/7/6 895/7/6 899/7/6
f 899/7/6 895/7/6 900/7/6
f 896/7/6 897/7/6 903/7/6
f 897/5/6 898/5/6 904/5/6
f 903/7/6 897/7/6 904/7/6
f 900/7/6 901/7/6 905/7/6
f 899/5/6 900/5/6 905/5/6
f 905/7/6 901/7/6 906/7/6
f 904/5/6 898/5/6 908/5/6
f 903/5/6 904/5/6 908/5/6
f 908/5/6 898/5/6 909/5/6
f 905/5/6 906/5/6 910/5/6
f 899/5/6 905/5/6 910/5/6
f 910/5/6 906/5/6 911/5/6
f 903/5/6 908/5/6 912/5/6
f 912/5/6 908/5/6 913/5/6
f 911/5/6 906/5/6 914/5/6
f 914/5/6 906/5/6 915/5/6
f 902/7/6 903/7/6 916/7/6
f 903/5/6 912/5/6 917/5/6
f 916/7/6 903/7/6 917/7/6
f 917/5/6 912/5/6 918/5/6
f 915/5/6 906/5/6 919/5/6
f 906/7/6 907/7/6 920/7/6
f 919/5/6 906/5/6 920/5/6
f 920/7/6 907/7/6 921/7/6
f 923/5/6 924/5/6 928/5/6
f 925/5/6 926/5/6 931/5/6
f 928/5/6 929/5/6 932/5/6
f 930/5/6 931/5/6 935/5/6
f 922/7/6 923/7/6 936/7/6
f 932/5/6 933/5/6 937/5/6
f 936/7/6 923/7/6 937/7/6
f 923/5/6 928/5/6 937/5/6
f 928/5/6 932/5/6 937/5/6
f 937/5/6 933/5/6 938/5/6
f 934/5/6 935/5/6 939/5/6
f 935/5/6 931/5/6 939/5/6
f 931/5/6 926/5/6 939/5/6
f 926/7/6 927/7/6 940/7/6
f 939/5/6 926/5/6 940/5/6
f 940/7/6 927/7/6 941/7/6
f 937/7/6 938/7/6 942/7/6
f 938/5/6 933/5/6 943/5/6
f 942/7/6 938/7/6 943/7/6
f 943/5/6 933/5/6 944/5/6
f 934/5/6 939/5/6 945/5/6
f 939/7/6 940/7/6 946/7/6
f 945/5/6 939/5/6 946/5/6
f 946/7/6 940/7/6 947/7/6
f 943/7/6 944/7/6 948/7/6
f 948/7/6 944/7/6 949/7/6
f 945/7/6 946/7/6 950/7/6
f 950/7/6 946/7/6 951/7/6
