# MagicaVoxel @ Ephtracy

# group
g BadCoinMinigamePanel

# material
mtllib BadCoinMinigamePanel.mtl
usemtl palette

# normals
vn -1 0 0
vn 1 0 0
vn 0 0 1
vn 0 0 -1
vn 0 -1 0
vn 0 1 0

# texcoords
vt 0.306641 0.5
vt 0.642578 0.5
vt 0.845703 0.5
vt 0.865234 0.5
vt 0.873047 0.5
vt 0.955078 0.5
vt 0.994141 0.5

# verts
v -15 0 13
v -15 0 9
v -15 0 -9
v -15 0 -13
v -15 5 13
v -15 5 9
v -15 5 -9
v -15 5 -13
v -14 0 14
v -14 0 13
v -14 0 9
v -14 0 -9
v -14 0 -13
v -14 0 -14
v -14 4 9
v -14 4 -9
v -14 5 14
v -14 5 13
v -14 5 -13
v -14 5 -14
v -13 0 15
v -13 0 14
v -13 0 -14
v -13 0 -15
v -13 5 15
v -13 5 14
v -13 5 -14
v -13 5 -15
v -10 3 3
v -10 3 -3
v -10 4 3
v -10 4 -3
v -9 3 5
v -9 3 3
v -9 3 -3
v -9 3 -5
v -9 4 5
v -9 4 3
v -9 4 -3
v -9 4 -5
v -9 5 3
v -9 5 -3
v -8 3 7
v -8 3 5
v -8 3 -5
v -8 3 -7
v -8 4 7
v -8 4 5
v -8 4 3
v -8 4 -3
v -8 4 -5
v -8 4 -7
v -8 5 5
v -8 5 3
v -8 5 -3
v -8 5 -5
v -7 3 8
v -7 3 7
v -7 3 -7
v -7 3 -8
v -7 4 8
v -7 4 7
v -7 4 5
v -7 4 -5
v -7 4 -7
v -7 4 -8
v -7 5 7
v -7 5 5
v -7 5 -5
v -7 5 -7
v -5 3 9
v -5 3 8
v -5 3 -8
v -5 3 -9
v -5 4 9
v -5 4 8
v -5 4 7
v -5 4 -7
v -5 4 -8
v -5 4 -9
v -5 5 8
v -5 5 7
v -5 5 -7
v -5 5 -8
v -3 3 10
v -3 3 9
v -3 3 -9
v -3 3 -10
v -3 4 10
v -3 4 9
v -3 4 8
v -3 4 3
v -3 4 -3
v -3 4 -8
v -3 4 -9
v -3 4 -10
v -3 5 9
v -3 5 8
v -3 5 3
v -3 5 -3
v -3 5 -8
v -3 5 -9
v 1 4 1
v 1 4 -1
v 1 5 1
v 1 5 -1
v 2 4 7
v 2 4 6
v 2 4 -6
v 2 4 -7
v 2 5 7
v 2 5 6
v 2 5 -6
v 2 5 -7
v 5 4 6
v 5 4 5
v 5 4 -5
v 5 4 -6
v 5 5 6
v 5 5 5
v 5 5 -5
v 5 5 -6
v 6 4 5
v 6 4 2
v 6 4 -2
v 6 4 -5
v 6 5 5
v 6 5 2
v 6 5 -2
v 6 5 -5
v 7 4 2
v 7 4 -2
v 7 5 2
v 7 5 -2
v 9 0 15
v 9 0 14
v 9 0 -14
v 9 0 -15
v 9 4 14
v 9 4 13
v 9 4 12
v 9 4 -12
v 9 4 -13
v 9 4 -14
v 9 5 15
v 9 5 14
v 9 5 12
v 9 5 -12
v 9 5 -14
v 9 5 -15
v 11 3 12
v 11 3 11
v 11 3 -11
v 11 3 -12
v 11 5 12
v 11 5 11
v 11 5 -11
v 11 5 -12
v 12 3 11
v 12 3 9
v 12 3 -9
v 12 3 -11
v 12 4 9
v 12 4 -9
v 12 5 11
v 12 5 9
v 12 5 -9
v 12 5 -11
v -12 3 11
v -12 3 9
v -12 3 -9
v -12 3 -11
v -12 4 9
v -12 4 -9
v -12 5 11
v -12 5 9
v -12 5 -9
v -12 5 -11
v -11 3 12
v -11 3 11
v -11 3 -11
v -11 3 -12
v -11 5 12
v -11 5 11
v -11 5 -11
v -11 5 -12
v -9 0 15
v -9 0 14
v -9 0 -14
v -9 0 -15
v -9 4 14
v -9 4 13
v -9 4 12
v -9 4 -12
v -9 4 -13
v -9 4 -14
v -9 5 15
v -9 5 14
v -9 5 12
v -9 5 -12
v -9 5 -14
v -9 5 -15
v -7 4 2
v -7 4 -2
v -7 5 2
v -7 5 -2
v -6 4 5
v -6 4 2
v -6 4 -2
v -6 4 -5
v -6 5 5
v -6 5 2
v -6 5 -2
v -6 5 -5
v -5 4 6
v -5 4 5
v -5 4 -5
v -5 4 -6
v -5 5 6
v -5 5 5
v -5 5 -5
v -5 5 -6
v -2 4 7
v -2 4 6
v -2 4 -6
v -2 4 -7
v -2 5 7
v -2 5 6
v -2 5 -6
v -2 5 -7
v -1 4 1
v -1 4 -1
v -1 5 1
v -1 5 -1
v 3 3 10
v 3 3 9
v 3 3 -9
v 3 3 -10
v 3 4 10
v 3 4 9
v 3 4 8
v 3 4 3
v 3 4 -3
v 3 4 -8
v 3 4 -9
v 3 4 -10
v 3 5 9
v 3 5 8
v 3 5 3
v 3 5 -3
v 3 5 -8
v 3 5 -9
v 5 3 9
v 5 3 8
v 5 3 -8
v 5 3 -9
v 5 4 9
v 5 4 8
v 5 4 7
v 5 4 -7
v 5 4 -8
v 5 4 -9
v 5 5 8
v 5 5 7
v 5 5 -7
v 5 5 -8
v 7 3 8
v 7 3 7
v 7 3 -7
v 7 3 -8
v 7 4 8
v 7 4 7
v 7 4 5
v 7 4 -5
v 7 4 -7
v 7 4 -8
v 7 5 7
v 7 5 5
v 7 5 -5
v 7 5 -7
v 8 3 7
v 8 3 5
v 8 3 -5
v 8 3 -7
v 8 4 7
v 8 4 5
v 8 4 3
v 8 4 -3
v 8 4 -5
v 8 4 -7
v 8 5 5
v 8 5 3
v 8 5 -3
v 8 5 -5
v 9 3 5
v 9 3 3
v 9 3 -3
v 9 3 -5
v 9 4 5
v 9 4 3
v 9 4 -3
v 9 4 -5
v 9 5 3
v 9 5 -3
v 10 3 3
v 10 3 -3
v 10 4 3
v 10 4 -3
v 13 0 15
v 13 0 14
v 13 0 -14
v 13 0 -15
v 13 5 15
v 13 5 14
v 13 5 -14
v 13 5 -15
v 14 0 14
v 14 0 13
v 14 0 9
v 14 0 -9
v 14 0 -13
v 14 0 -14
v 14 4 9
v 14 4 -9
v 14 5 14
v 14 5 13
v 14 5 -13
v 14 5 -14
v 15 0 13
v 15 0 9
v 15 0 -9
v 15 0 -13
v 15 5 13
v 15 5 9
v 15 5 -9
v 15 5 -13
v -13 0 15
v -13 5 15
v -9 0 15
v -9 5 15
v 9 0 15
v 9 5 15
v 13 0 15
v 13 5 15
v -14 0 14
v -14 5 14
v -13 0 14
v -13 5 14
v -9 0 14
v -9 4 14
v 9 0 14
v 9 4 14
v 13 0 14
v 13 5 14
v 14 0 14
v 14 5 14
v -15 0 13
v -15 5 13
v -14 0 13
v -14 5 13
v 14 0 13
v 14 5 13
v 15 0 13
v 15 5 13
v -3 3 10
v -3 4 10
v 3 3 10
v 3 4 10
v -5 3 9
v -5 4 9
v -3 3 9
v -3 4 9
v -3 5 9
v 3 3 9
v 3 4 9
v 3 5 9
v 5 3 9
v 5 4 9
v -7 3 8
v -7 4 8
v -5 3 8
v -5 4 8
v -5 5 8
v -3 4 8
v -3 5 8
v 3 4 8
v 3 5 8
v 5 3 8
v 5 4 8
v 5 5 8
v 7 3 8
v 7 4 8
v -8 3 7
v -8 4 7
v -7 3 7
v -7 4 7
v -7 5 7
v -5 4 7
v -5 5 7
v 5 4 7
v 5 5 7
v 7 3 7
v 7 4 7
v 7 5 7
v 8 3 7
v 8 4 7
v -9 3 5
v -9 4 5
v -8 3 5
v -8 4 5
v -8 5 5
v -7 4 5
v -7 5 5
v 7 4 5
v 7 5 5
v 8 3 5
v 8 4 5
v 8 5 5
v 9 3 5
v 9 4 5
v -10 3 3
v -10 4 3
v -9 3 3
v -9 4 3
v -9 5 3
v -8 4 3
v -8 5 3
v -3 4 3
v -3 5 3
v 3 4 3
v 3 5 3
v 8 4 3
v 8 5 3
v 9 3 3
v 9 4 3
v 9 5 3
v 10 3 3
v 10 4 3
v -1 4 -1
v -1 5 -1
v 1 4 -1
v 1 5 -1
v -7 4 -2
v -7 5 -2
v -6 4 -2
v -6 5 -2
v 6 4 -2
v 6 5 -2
v 7 4 -2
v 7 5 -2
v -6 4 -5
v -6 5 -5
v -5 4 -5
v -5 5 -5
v 5 4 -5
v 5 5 -5
v 6 4 -5
v 6 5 -5
v -5 4 -6
v -5 5 -6
v -2 4 -6
v -2 5 -6
v 2 4 -6
v 2 5 -6
v 5 4 -6
v 5 5 -6
v -2 4 -7
v -2 5 -7
v 2 4 -7
v 2 5 -7
v -15 0 -9
v -15 5 -9
v -14 0 -9
v -14 4 -9
v -14 5 -9
v -13 4 -9
v -12 4 -9
v -12 5 -9
v 12 4 -9
v 12 5 -9
v 13 4 -9
v 14 0 -9
v 14 4 -9
v 14 5 -9
v 15 0 -9
v 15 5 -9
v -12 3 -11
v -12 5 -11
v -11 3 -11
v -11 5 -11
v 11 3 -11
v 11 5 -11
v 12 3 -11
v 12 5 -11
v -11 3 -12
v -11 5 -12
v -9 3 -12
v -9 4 -12
v -9 5 -12
v 9 3 -12
v 9 4 -12
v 9 5 -12
v 11 3 -12
v 11 5 -12
v -11 3 12
v -11 5 12
v -9 3 12
v -9 4 12
v -9 5 12
v 9 3 12
v 9 4 12
v 9 5 12
v 11 3 12
v 11 5 12
v -12 3 11
v -12 5 11
v -11 3 11
v -11 5 11
v 11 3 11
v 11 5 11
v 12 3 11
v 12 5 11
v -15 0 9
v -15 5 9
v -14 0 9
v -14 4 9
v -14 5 9
v -13 4 9
v -12 4 9
v -12 5 9
v 12 4 9
v 12 5 9
v 13 4 9
v 14 0 9
v 14 4 9
v 14 5 9
v 15 0 9
v 15 5 9
v -2 4 7
v -2 5 7
v 2 4 7
v 2 5 7
v -5 4 6
v -5 5 6
v -2 4 6
v -2 5 6
v 2 4 6
v 2 5 6
v 5 4 6
v 5 5 6
v -6 4 5
v -6 5 5
v -5 4 5
v -5 5 5
v 5 4 5
v 5 5 5
v 6 4 5
v 6 5 5
v -7 4 2
v -7 5 2
v -6 4 2
v -6 5 2
v 6 4 2
v 6 5 2
v 7 4 2
v 7 5 2
v -1 4 1
v -1 5 1
v 1 4 1
v 1 5 1
v -10 3 -3
v -10 4 -3
v -9 3 -3
v -9 4 -3
v -9 5 -3
v -8 4 -3
v -8 5 -3
v -3 4 -3
v -3 5 -3
v 3 4 -3
v 3 5 -3
v 8 4 -3
v 8 5 -3
v 9 3 -3
v 9 4 -3
v 9 5 -3
v 10 3 -3
v 10 4 -3
v -9 3 -5
v -9 4 -5
v -8 3 -5
v -8 4 -5
v -8 5 -5
v -7 4 -5
v -7 5 -5
v 7 4 -5
v 7 5 -5
v 8 3 -5
v 8 4 -5
v 8 5 -5
v 9 3 -5
v 9 4 -5
v -8 3 -7
v -8 4 -7
v -7 3 -7
v -7 4 -7
v -7 5 -7
v -5 4 -7
v -5 5 -7
v 5 4 -7
v 5 5 -7
v 7 3 -7
v 7 4 -7
v 7 5 -7
v 8 3 -7
v 8 4 -7
v -7 3 -8
v -7 4 -8
v -5 3 -8
v -5 4 -8
v -5 5 -8
v -3 4 -8
v -3 5 -8
v 3 4 -8
v 3 5 -8
v 5 3 -8
v 5 4 -8
v 5 5 -8
v 7 3 -8
v 7 4 -8
v -5 3 -9
v -5 4 -9
v -3 3 -9
v -3 4 -9
v -3 5 -9
v 3 3 -9
v 3 4 -9
v 3 5 -9
v 5 3 -9
v 5 4 -9
v -3 3 -10
v -3 4 -10
v 3 3 -10
v 3 4 -10
v -15 0 -13
v -15 5 -13
v -14 0 -13
v -14 5 -13
v 14 0 -13
v 14 5 -13
v 15 0 -13
v 15 5 -13
v -14 0 -14
v -14 5 -14
v -13 0 -14
v -13 5 -14
v -9 0 -14
v -9 4 -14
v 9 0 -14
v 9 4 -14
v 13 0 -14
v 13 5 -14
v 14 0 -14
v 14 5 -14
v -13 0 -15
v -13 5 -15
v -9 0 -15
v -9 5 -15
v 9 0 -15
v 9 5 -15
v 13 0 -15
v 13 5 -15
v -13 0 15
v -9 0 15
v 9 0 15
v 13 0 15
v -14 0 14
v -13 0 14
v -9 0 14
v 9 0 14
v 13 0 14
v 14 0 14
v -15 0 13
v -14 0 13
v 14 0 13
v 15 0 13
v -15 0 9
v -14 0 9
v 14 0 9
v 15 0 9
v -15 0 -9
v -14 0 -9
v 14 0 -9
v 15 0 -9
v -15 0 -13
v -14 0 -13
v 14 0 -13
v 15 0 -13
v -14 0 -14
v -13 0 -14
v -9 0 -14
v 9 0 -14
v 13 0 -14
v 14 0 -14
v -13 0 -15
v -9 0 -15
v 9 0 -15
v 13 0 -15
v -11 3 12
v -9 3 12
v 9 3 12
v 11 3 12
v -12 3 11
v -11 3 11
v 11 3 11
v 12 3 11
v -3 3 10
v 3 3 10
v -12 3 9
v -5 3 9
v -3 3 9
v 3 3 9
v 5 3 9
v 12 3 9
v -7 3 8
v -5 3 8
v 5 3 8
v 7 3 8
v -8 3 7
v -7 3 7
v 7 3 7
v 8 3 7
v -9 3 5
v -8 3 5
v 8 3 5
v 9 3 5
v -10 3 3
v -9 3 3
v 9 3 3
v 10 3 3
v -10 3 -3
v -9 3 -3
v 9 3 -3
v 10 3 -3
v -9 3 -5
v -8 3 -5
v 8 3 -5
v 9 3 -5
v -8 3 -7
v -7 3 -7
v 7 3 -7
v 8 3 -7
v -7 3 -8
v -5 3 -8
v 5 3 -8
v 7 3 -8
v -12 3 -9
v -5 3 -9
v -3 3 -9
v 3 3 -9
v 5 3 -9
v 12 3 -9
v -3 3 -10
v 3 3 -10
v -12 3 -11
v -11 3 -11
v 11 3 -11
v 12 3 -11
v -11 3 -12
v -9 3 -12
v 9 3 -12
v 11 3 -12
v -9 4 14
v 9 4 14
v -9 4 13
v 9 4 13
v -9 4 12
v 9 4 12
v -3 4 10
v 3 4 10
v -14 4 9
v -13 4 9
v -12 4 9
v -5 4 9
v -3 4 9
v 3 4 9
v 5 4 9
v 12 4 9
v 13 4 9
v 14 4 9
v -7 4 8
v -5 4 8
v -3 4 8
v 3 4 8
v 5 4 8
v 7 4 8
v -8 4 7
v -7 4 7
v -5 4 7
v -2 4 7
v 2 4 7
v 5 4 7
v 7 4 7
v 8 4 7
v -5 4 6
v -2 4 6
v 2 4 6
v 5 4 6
v -9 4 5
v -8 4 5
v -7 4 5
v -6 4 5
v -5 4 5
v 5 4 5
v 6 4 5
v 7 4 5
v 8 4 5
v 9 4 5
v -10 4 3
v -9 4 3
v -8 4 3
v -3 4 3
v 3 4 3
v 8 4 3
v 9 4 3
v 10 4 3
v -7 4 2
v -6 4 2
v 6 4 2
v 7 4 2
v -1 4 1
v 1 4 1
v -1 4 -1
v 1 4 -1
v -7 4 -2
v -6 4 -2
v 6 4 -2
v 7 4 -2
v -10 4 -3
v -9 4 -3
v -8 4 -3
v -3 4 -3
v 3 4 -3
v 8 4 -3
v 9 4 -3
v 10 4 -3
v -9 4 -5
v -8 4 -5
v -7 4 -5
v -6 4 -5
v -5 4 -5
v 5 4 -5
v 6 4 -5
v 7 4 -5
v 8 4 -5
v 9 4 -5
v -5 4 -6
v -2 4 -6
v 2 4 -6
v 5 4 -6
v -8 4 -7
v -7 4 -7
v -5 4 -7
v -2 4 -7
v 2 4 -7
v 5 4 -7
v 7 4 -7
v 8 4 -7
v -7 4 -8
v -5 4 -8
v -3 4 -8
v 3 4 -8
v 5 4 -8
v 7 4 -8
v -14 4 -9
v -13 4 -9
v -12 4 -9
v -5 4 -9
v -3 4 -9
v 3 4 -9
v 5 4 -9
v 12 4 -9
v 13 4 -9
v 14 4 -9
v -3 4 -10
v 3 4 -10
v -9 4 -12
v 9 4 -12
v -9 4 -13
v 9 4 -13
v -9 4 -14
v 9 4 -14
v -13 5 15
v -9 5 15
v 9 5 15
v 13 5 15
v -14 5 14
v -13 5 14
v -9 5 14
v 9 5 14
v 13 5 14
v 14 5 14
v -15 5 13
v -14 5 13
v -13 5 13
v 13 5 13
v 14 5 13
v 15 5 13
v -11 5 12
v -9 5 12
v 9 5 12
v 11 5 12
v -12 5 11
v -11 5 11
v 11 5 11
v 12 5 11
v -15 5 9
v -14 5 9
v -12 5 9
v -3 5 9
v 3 5 9
v 12 5 9
v 14 5 9
v 15 5 9
v -5 5 8
v -3 5 8
v 3 5 8
v 5 5 8
v -7 5 7
v -5 5 7
v -2 5 7
v 2 5 7
v 5 5 7
v 7 5 7
v -5 5 6
v -2 5 6
v 2 5 6
v 5 5 6
v -8 5 5
v -7 5 5
v -6 5 5
v -5 5 5
v 5 5 5
v 6 5 5
v 7 5 5
v 8 5 5
v -9 5 3
v -8 5 3
v -3 5 3
v 3 5 3
v 8 5 3
v 9 5 3
v -7 5 2
v -6 5 2
v 6 5 2
v 7 5 2
v -1 5 1
v 1 5 1
v -1 5 -1
v 1 5 -1
v -7 5 -2
v -6 5 -2
v 6 5 -2
v 7 5 -2
v -9 5 -3
v -8 5 -3
v -3 5 -3
v 3 5 -3
v 8 5 -3
v 9 5 -3
v -8 5 -5
v -7 5 -5
v -6 5 -5
v -5 5 -5
v 5 5 -5
v 6 5 -5
v 7 5 -5
v 8 5 -5
v -5 5 -6
v -2 5 -6
v 2 5 -6
v 5 5 -6
v -7 5 -7
v -5 5 -7
v -2 5 -7
v 2 5 -7
v 5 5 -7
v 7 5 -7
v -5 5 -8
v -3 5 -8
v 3 5 -8
v 5 5 -8
v -15 5 -9
v -14 5 -9
v -12 5 -9
v -3 5 -9
v 3 5 -9
v 12 5 -9
v 14 5 -9
v 15 5 -9
v -12 5 -11
v -11 5 -11
v 11 5 -11
v 12 5 -11
v -11 5 -12
v -9 5 -12
v 9 5 -12
v 11 5 -12
v -15 5 -13
v -14 5 -13
v -13 5 -13
v 13 5 -13
v 14 5 -13
v 15 5 -13
v -14 5 -14
v -13 5 -14
v -9 5 -14
v 9 5 -14
v 13 5 -14
v 14 5 -14
v -13 5 -15
v -9 5 -15
v 9 5 -15
v 13 5 -15

# faces
f 5/7/1 2/7/1 1/7/1
f 6/7/1 2/7/1 5/7/1
f 7/7/1 4/7/1 3/7/1
f 8/7/1 4/7/1 7/7/1
f 15/7/1 12/7/1 11/7/1
f 16/7/1 12/7/1 15/7/1
f 17/7/1 10/7/1 9/7/1
f 18/7/1 10/7/1 17/7/1
f 19/7/1 14/7/1 13/7/1
f 20/7/1 14/7/1 19/7/1
f 25/7/1 22/7/1 21/7/1
f 26/7/1 22/7/1 25/7/1
f 27/7/1 24/7/1 23/7/1
f 28/7/1 24/7/1 27/7/1
f 31/4/1 30/4/1 29/4/1
f 32/4/1 30/4/1 31/4/1
f 37/4/1 34/4/1 33/4/1
f 38/4/1 34/4/1 37/4/1
f 39/4/1 36/4/1 35/4/1
f 40/4/1 36/4/1 39/4/1
f 41/4/1 39/4/1 38/4/1
f 42/4/1 39/4/1 41/4/1
f 47/4/1 44/4/1 43/4/1
f 48/4/1 44/4/1 47/4/1
f 51/4/1 46/4/1 45/4/1
f 52/4/1 46/4/1 51/4/1
f 53/4/1 49/4/1 48/4/1
f 54/4/1 49/4/1 53/4/1
f 55/4/1 51/4/1 50/4/1
f 56/4/1 51/4/1 55/4/1
f 61/4/1 58/4/1 57/4/1
f 62/4/1 58/4/1 61/4/1
f 65/4/1 60/4/1 59/4/1
f 66/4/1 60/4/1 65/4/1
f 67/4/1 63/4/1 62/4/1
f 68/4/1 63/4/1 67/4/1
f 69/4/1 65/4/1 64/4/1
f 70/4/1 65/4/1 69/4/1
f 75/4/1 72/4/1 71/4/1
f 76/4/1 72/4/1 75/4/1
f 79/4/1 74/4/1 73/4/1
f 80/4/1 74/4/1 79/4/1
f 81/4/1 77/4/1 76/4/1
f 82/4/1 77/4/1 81/4/1
f 83/4/1 79/4/1 78/4/1
f 84/4/1 79/4/1 83/4/1
f 89/4/1 86/4/1 85/4/1
f 90/4/1 86/4/1 89/4/1
f 95/4/1 88/4/1 87/4/1
f 96/4/1 88/4/1 95/4/1
f 97/4/1 91/4/1 90/4/1
f 98/4/1 91/4/1 97/4/1
f 99/5/1 93/5/1 92/5/1
f 100/5/1 93/5/1 99/5/1
f 101/4/1 95/4/1 94/4/1
f 102/4/1 95/4/1 101/4/1
f 105/5/1 104/5/1 103/5/1
f 106/5/1 104/5/1 105/5/1
f 111/4/1 108/4/1 107/4/1
f 112/4/1 108/4/1 111/4/1
f 113/4/1 110/4/1 109/4/1
f 114/4/1 110/4/1 113/4/1
f 119/4/1 116/4/1 115/4/1
f 120/4/1 116/4/1 119/4/1
f 121/4/1 118/4/1 117/4/1
f 122/4/1 118/4/1 121/4/1
f 127/4/1 124/4/1 123/4/1
f 128/4/1 124/4/1 127/4/1
f 129/4/1 126/4/1 125/4/1
f 130/4/1 126/4/1 129/4/1
f 133/4/1 132/4/1 131/4/1
f 134/4/1 132/4/1 133/4/1
f 139/7/1 136/7/1 135/7/1
f 144/7/1 138/7/1 137/7/1
f 145/7/1 139/7/1 135/7/1
f 146/6/1 140/6/1 139/6/1
f 146/7/1 139/7/1 145/7/1
f 146/6/1 141/6/1 140/6/1
f 147/6/1 141/6/1 146/6/1
f 148/6/1 143/6/1 142/6/1
f 148/6/1 144/6/1 143/6/1
f 149/7/1 138/7/1 144/7/1
f 149/6/1 144/6/1 148/6/1
f 150/7/1 138/7/1 149/7/1
f 155/6/1 152/6/1 151/6/1
f 156/6/1 152/6/1 155/6/1
f 157/6/1 154/6/1 153/6/1
f 158/6/1 154/6/1 157/6/1
f 163/6/1 160/6/1 159/6/1
f 163/2/1 161/2/1 160/2/1
f 164/6/1 162/6/1 161/6/1
f 164/2/1 161/2/1 163/2/1
f 165/6/1 163/6/1 159/6/1
f 166/6/1 163/6/1 165/6/1
f 167/6/1 162/6/1 164/6/1
f 168/6/1 162/6/1 167/6/1
f 169/6/2 170/6/2 173/6/2
f 170/2/2 171/2/2 173/2/2
f 171/6/2 172/6/2 174/6/2
f 173/2/2 171/2/2 174/2/2
f 169/6/2 173/6/2 175/6/2
f 175/6/2 173/6/2 176/6/2
f 174/6/2 172/6/2 177/6/2
f 177/6/2 172/6/2 178/6/2
f 179/6/2 180/6/2 183/6/2
f 183/6/2 180/6/2 184/6/2
f 181/6/2 182/6/2 185/6/2
f 185/6/2 182/6/2 186/6/2
f 187/7/2 188/7/2 191/7/2
f 189/7/2 190/7/2 196/7/2
f 187/7/2 191/7/2 197/7/2
f 191/6/2 192/6/2 198/6/2
f 197/7/2 191/7/2 198/7/2
f 192/6/2 193/6/2 198/6/2
f 198/6/2 193/6/2 199/6/2
f 194/6/2 195/6/2 200/6/2
f 195/6/2 196/6/2 200/6/2
f 196/7/2 190/7/2 201/7/2
f 200/6/2 196/6/2 201/6/2
f 201/7/2 190/7/2 202/7/2
f 203/4/2 204/4/2 205/4/2
f 205/4/2 204/4/2 206/4/2
f 207/4/2 208/4/2 211/4/2
f 211/4/2 208/4/2 212/4/2
f 209/4/2 210/4/2 213/4/2
f 213/4/2 210/4/2 214/4/2
f 215/4/2 216/4/2 219/4/2
f 219/4/2 216/4/2 220/4/2
f 217/4/2 218/4/2 221/4/2
f 221/4/2 218/4/2 222/4/2
f 223/4/2 224/4/2 227/4/2
f 227/4/2 224/4/2 228/4/2
f 225/4/2 226/4/2 229/4/2
f 229/4/2 226/4/2 230/4/2
f 231/5/2 232/5/2 233/5/2
f 233/5/2 232/5/2 234/5/2
f 235/4/2 236/4/2 239/4/2
f 239/4/2 236/4/2 240/4/2
f 237/4/2 238/4/2 245/4/2
f 245/4/2 238/4/2 246/4/2
f 240/4/2 241/4/2 247/4/2
f 247/4/2 241/4/2 248/4/2
f 242/5/2 243/5/2 249/5/2
f 249/5/2 243/5/2 250/5/2
f 244/4/2 245/4/2 251/4/2
f 251/4/2 245/4/2 252/4/2
f 253/4/2 254/4/2 257/4/2
f 257/4/2 254/4/2 258/4/2
f 255/4/2 256/4/2 261/4/2
f 261/4/2 256/4/2 262/4/2
f 258/4/2 259/4/2 263/4/2
f 263/4/2 259/4/2 264/4/2
f 260/4/2 261/4/2 265/4/2
f 265/4/2 261/4/2 266/4/2
f 267/4/2 268/4/2 271/4/2
f 271/4/2 268/4/2 272/4/2
f 269/4/2 270/4/2 275/4/2
f 275/4/2 270/4/2 276/4/2
f 272/4/2 273/4/2 277/4/2
f 277/4/2 273/4/2 278/4/2
f 274/4/2 275/4/2 279/4/2
f 279/4/2 275/4/2 280/4/2
f 281/4/2 282/4/2 285/4/2
f 285/4/2 282/4/2 286/4/2
f 283/4/2 284/4/2 289/4/2
f 289/4/2 284/4/2 290/4/2
f 286/4/2 287/4/2 291/4/2
f 291/4/2 287/4/2 292/4/2
f 288/4/2 289/4/2 293/4/2
f 293/4/2 289/4/2 294/4/2
f 295/4/2 296/4/2 299/4/2
f 299/4/2 296/4/2 300/4/2
f 297/4/2 298/4/2 301/4/2
f 301/4/2 298/4/2 302/4/2
f 300/4/2 301/4/2 303/4/2
f 303/4/2 301/4/2 304/4/2
f 305/4/2 306/4/2 307/4/2
f 307/4/2 306/4/2 308/4/2
f 309/7/2 310/7/2 313/7/2
f 313/7/2 310/7/2 314/7/2
f 311/7/2 312/7/2 315/7/2
f 315/7/2 312/7/2 316/7/2
f 319/7/2 320/7/2 323/7/2
f 323/7/2 320/7/2 324/7/2
f 317/7/2 318/7/2 325/7/2
f 325/7/2 318/7/2 326/7/2
f 321/7/2 322/7/2 327/7/2
f 327/7/2 322/7/2 328/7/2
f 329/7/2 330/7/2 333/7/2
f 333/7/2 330/7/2 334/7/2
f 331/7/2 332/7/2 335/7/2
f 335/7/2 332/7/2 336/7/2
f 339/7/3 338/7/3 337/7/3
f 340/7/3 338/7/3 339/7/3
f 343/7/3 342/7/3 341/7/3
f 344/7/3 342/7/3 343/7/3
f 347/7/3 346/7/3 345/7/3
f 348/7/3 346/7/3 347/7/3
f 351/7/3 350/7/3 349/7/3
f 352/7/3 350/7/3 351/7/3
f 355/7/3 354/7/3 353/7/3
f 356/7/3 354/7/3 355/7/3
f 359/7/3 358/7/3 357/7/3
f 360/7/3 358/7/3 359/7/3
f 363/7/3 362/7/3 361/7/3
f 364/7/3 362/7/3 363/7/3
f 367/4/3 366/4/3 365/4/3
f 368/4/3 366/4/3 367/4/3
f 371/4/3 370/4/3 369/4/3
f 372/4/3 370/4/3 371/4/3
f 375/4/3 373/4/3 372/4/3
f 376/4/3 373/4/3 375/4/3
f 377/4/3 375/4/3 374/4/3
f 378/4/3 375/4/3 377/4/3
f 381/4/3 380/4/3 379/4/3
f 382/4/3 380/4/3 381/4/3
f 384/4/3 383/4/3 382/4/3
f 385/4/3 383/4/3 384/4/3
f 389/4/3 387/4/3 386/4/3
f 390/4/3 387/4/3 389/4/3
f 391/4/3 389/4/3 388/4/3
f 392/4/3 389/4/3 391/4/3
f 395/4/3 394/4/3 393/4/3
f 396/4/3 394/4/3 395/4/3
f 398/4/3 397/4/3 396/4/3
f 399/4/3 397/4/3 398/4/3
f 403/4/3 401/4/3 400/4/3
f 404/4/3 401/4/3 403/4/3
f 405/4/3 403/4/3 402/4/3
f 406/4/3 403/4/3 405/4/3
f 409/4/3 408/4/3 407/4/3
f 410/4/3 408/4/3 409/4/3
f 412/4/3 411/4/3 410/4/3
f 413/4/3 411/4/3 412/4/3
f 417/4/3 415/4/3 414/4/3
f 418/4/3 415/4/3 417/4/3
f 419/4/3 417/4/3 416/4/3
f 420/4/3 417/4/3 419/4/3
f 423/4/3 422/4/3 421/4/3
f 424/4/3 422/4/3 423/4/3
f 426/4/3 425/4/3 424/4/3
f 427/4/3 425/4/3 426/4/3
f 430/5/3 429/5/3 428/5/3
f 431/5/3 429/5/3 430/5/3
f 435/4/3 433/4/3 432/4/3
f 436/4/3 433/4/3 435/4/3
f 437/4/3 435/4/3 434/4/3
f 438/4/3 435/4/3 437/4/3
f 441/5/3 440/5/3 439/5/3
f 442/5/3 440/5/3 441/5/3
f 445/4/3 444/4/3 443/4/3
f 446/4/3 444/4/3 445/4/3
f 449/4/3 448/4/3 447/4/3
f 450/4/3 448/4/3 449/4/3
f 453/4/3 452/4/3 451/4/3
f 454/4/3 452/4/3 453/4/3
f 457/4/3 456/4/3 455/4/3
f 458/4/3 456/4/3 457/4/3
f 461/4/3 460/4/3 459/4/3
f 462/4/3 460/4/3 461/4/3
f 465/4/3 464/4/3 463/4/3
f 466/4/3 464/4/3 465/4/3
f 469/4/3 468/4/3 467/4/3
f 470/4/3 468/4/3 469/4/3
f 473/7/3 472/7/3 471/7/3
f 474/7/3 472/7/3 473/7/3
f 475/7/3 472/7/3 474/7/3
f 476/6/3 475/6/3 474/6/3
f 477/6/3 475/6/3 476/6/3
f 478/6/3 475/6/3 477/6/3
f 481/6/3 480/6/3 479/6/3
f 483/6/3 480/6/3 481/6/3
f 484/6/3 480/6/3 483/6/3
f 485/7/3 483/7/3 482/7/3
f 485/7/3 484/7/3 483/7/3
f 486/7/3 484/7/3 485/7/3
f 489/6/3 488/6/3 487/6/3
f 490/6/3 488/6/3 489/6/3
f 493/6/3 492/6/3 491/6/3
f 494/6/3 492/6/3 493/6/3
f 497/6/3 496/6/3 495/6/3
f 498/6/3 496/6/3 497/6/3
f 499/6/3 496/6/3 498/6/3
f 500/2/3 498/2/3 497/2/3
f 501/2/3 498/2/3 500/2/3
f 503/6/3 501/6/3 500/6/3
f 503/6/3 502/6/3 501/6/3
f 504/6/3 502/6/3 503/6/3
f 505/6/4 506/6/4 507/6/4
f 507/6/4 506/6/4 508/6/4
f 508/6/4 506/6/4 509/6/4
f 507/2/4 508/2/4 510/2/4
f 510/2/4 508/2/4 511/2/4
f 510/6/4 511/6/4 513/6/4
f 511/6/4 512/6/4 513/6/4
f 513/6/4 512/6/4 514/6/4
f 515/6/4 516/6/4 517/6/4
f 517/6/4 516/6/4 518/6/4
f 519/6/4 520/6/4 521/6/4
f 521/6/4 520/6/4 522/6/4
f 523/7/4 524/7/4 525/7/4
f 525/7/4 524/7/4 526/7/4
f 526/7/4 524/7/4 527/7/4
f 526/6/4 527/6/4 528/6/4
f 528/6/4 527/6/4 529/6/4
f 529/6/4 527/6/4 530/6/4
f 531/6/4 532/6/4 533/6/4
f 533/6/4 532/6/4 535/6/4
f 535/6/4 532/6/4 536/6/4
f 534/7/4 535/7/4 537/7/4
f 535/7/4 536/7/4 537/7/4
f 537/7/4 536/7/4 538/7/4
f 539/4/4 540/4/4 541/4/4
f 541/4/4 540/4/4 542/4/4
f 543/4/4 544/4/4 545/4/4
f 545/4/4 544/4/4 546/4/4
f 547/4/4 548/4/4 549/4/4
f 549/4/4 548/4/4 550/4/4
f 551/4/4 552/4/4 553/4/4
f 553/4/4 552/4/4 554/4/4
f 555/4/4 556/4/4 557/4/4
f 557/4/4 556/4/4 558/4/4
f 559/4/4 560/4/4 561/4/4
f 561/4/4 560/4/4 562/4/4
f 563/4/4 564/4/4 565/4/4
f 565/4/4 564/4/4 566/4/4
f 567/5/4 568/5/4 569/5/4
f 569/5/4 568/5/4 570/5/4
f 571/4/4 572/4/4 573/4/4
f 573/4/4 572/4/4 574/4/4
f 574/4/4 575/4/4 576/4/4
f 576/4/4 575/4/4 577/4/4
f 578/5/4 579/5/4 580/5/4
f 580/5/4 579/5/4 581/5/4
f 582/4/4 583/4/4 585/4/4
f 585/4/4 583/4/4 586/4/4
f 584/4/4 585/4/4 587/4/4
f 587/4/4 585/4/4 588/4/4
f 589/4/4 590/4/4 591/4/4
f 591/4/4 590/4/4 592/4/4
f 592/4/4 593/4/4 594/4/4
f 594/4/4 593/4/4 595/4/4
f 596/4/4 597/4/4 599/4/4
f 599/4/4 597/4/4 600/4/4
f 598/4/4 599/4/4 601/4/4
f 601/4/4 599/4/4 602/4/4
f 603/4/4 604/4/4 605/4/4
f 605/4/4 604/4/4 606/4/4
f 606/4/4 607/4/4 608/4/4
f 608/4/4 607/4/4 609/4/4
f 610/4/4 611/4/4 613/4/4
f 613/4/4 611/4/4 614/4/4
f 612/4/4 613/4/4 615/4/4
f 615/4/4 613/4/4 616/4/4
f 617/4/4 618/4/4 619/4/4
f 619/4/4 618/4/4 620/4/4
f 620/4/4 621/4/4 622/4/4
f 622/4/4 621/4/4 623/4/4
f 624/4/4 625/4/4 627/4/4
f 627/4/4 625/4/4 628/4/4
f 626/4/4 627/4/4 629/4/4
f 629/4/4 627/4/4 630/4/4
f 631/4/4 632/4/4 633/4/4
f 633/4/4 632/4/4 634/4/4
f 634/4/4 635/4/4 637/4/4
f 637/4/4 635/4/4 638/4/4
f 636/4/4 637/4/4 639/4/4
f 639/4/4 637/4/4 640/4/4
f 641/4/4 642/4/4 643/4/4
f 643/4/4 642/4/4 644/4/4
f 645/7/4 646/7/4 647/7/4
f 647/7/4 646/7/4 648/7/4
f 649/7/4 650/7/4 651/7/4
f 651/7/4 650/7/4 652/7/4
f 653/7/4 654/7/4 655/7/4
f 655/7/4 654/7/4 656/7/4
f 657/7/4 658/7/4 659/7/4
f 659/7/4 658/7/4 660/7/4
f 661/7/4 662/7/4 663/7/4
f 663/7/4 662/7/4 664/7/4
f 665/7/4 666/7/4 667/7/4
f 667/7/4 666/7/4 668/7/4
f 669/7/4 670/7/4 671/7/4
f 671/7/4 670/7/4 672/7/4
f 678/7/5 674/7/5 673/7/5
f 679/7/5 674/7/5 678/7/5
f 680/7/5 676/7/5 675/7/5
f 681/7/5 676/7/5 680/7/5
f 684/7/5 679/7/5 678/7/5
f 684/7/5 682/7/5 681/7/5
f 684/7/5 681/7/5 680/7/5
f 684/7/5 680/7/5 679/7/5
f 684/7/5 678/7/5 677/7/5
f 685/7/5 682/7/5 684/7/5
f 687/7/5 684/7/5 683/7/5
f 687/7/5 686/7/5 685/7/5
f 687/7/5 685/7/5 684/7/5
f 688/7/5 686/7/5 687/7/5
f 689/7/5 686/7/5 688/7/5
f 690/7/5 686/7/5 689/7/5
f 692/7/5 689/7/5 688/7/5
f 693/7/5 689/7/5 692/7/5
f 695/7/5 692/7/5 691/7/5
f 695/7/5 694/7/5 693/7/5
f 695/7/5 693/7/5 692/7/5
f 696/7/5 694/7/5 695/7/5
f 697/7/5 694/7/5 696/7/5
f 698/7/5 694/7/5 697/7/5
f 699/7/5 697/7/5 696/7/5
f 700/7/5 697/7/5 699/7/5
f 701/7/5 697/7/5 700/7/5
f 702/7/5 697/7/5 701/7/5
f 703/7/5 697/7/5 702/7/5
f 704/7/5 697/7/5 703/7/5
f 705/7/5 701/7/5 700/7/5
f 706/7/5 701/7/5 705/7/5
f 707/7/5 703/7/5 702/7/5
f 708/7/5 703/7/5 707/7/5
f 709/1/6 710/1/6 714/1/6
f 711/1/6 712/1/6 714/1/6
f 710/1/6 711/1/6 714/1/6
f 714/1/6 712/1/6 715/1/6
f 713/1/6 714/1/6 717/1/6
f 715/1/6 716/1/6 717/1/6
f 714/1/6 715/1/6 717/1/6
f 717/1/6 716/1/6 718/1/6
f 713/1/6 717/1/6 719/1/6
f 719/1/6 717/1/6 720/1/6
f 720/1/6 717/1/6 721/1/6
f 718/1/6 716/1/6 722/1/6
f 722/1/6 716/1/6 723/1/6
f 723/1/6 716/1/6 724/1/6
f 719/1/6 720/1/6 725/1/6
f 725/1/6 720/1/6 726/1/6
f 723/1/6 724/1/6 727/1/6
f 727/1/6 724/1/6 728/1/6
f 719/1/6 725/1/6 729/1/6
f 729/1/6 725/1/6 730/1/6
f 728/1/6 724/1/6 731/1/6
f 731/1/6 724/1/6 732/1/6
f 719/1/6 729/1/6 733/1/6
f 733/1/6 729/1/6 734/1/6
f 732/1/6 724/1/6 735/1/6
f 735/1/6 724/1/6 736/1/6
f 719/1/6 733/1/6 737/1/6
f 737/1/6 733/1/6 738/1/6
f 736/1/6 724/1/6 739/1/6
f 739/1/6 724/1/6 740/1/6
f 719/1/6 737/1/6 741/1/6
f 740/1/6 724/1/6 744/1/6
f 741/1/6 742/1/6 745/1/6
f 743/1/6 744/1/6 748/1/6
f 745/1/6 746/1/6 749/1/6
f 747/1/6 748/1/6 752/1/6
f 749/1/6 750/1/6 753/1/6
f 751/1/6 752/1/6 756/1/6
f 753/1/6 754/1/6 757/1/6
f 719/1/6 741/1/6 757/1/6
f 741/1/6 745/1/6 757/1/6
f 745/1/6 749/1/6 757/1/6
f 749/1/6 753/1/6 757/1/6
f 757/1/6 754/1/6 758/1/6
f 755/1/6 756/1/6 761/1/6
f 756/1/6 752/1/6 762/1/6
f 744/1/6 724/1/6 762/1/6
f 761/1/6 756/1/6 762/1/6
f 748/1/6 744/1/6 762/1/6
f 752/1/6 748/1/6 762/1/6
f 758/1/6 759/1/6 763/1/6
f 757/1/6 758/1/6 763/1/6
f 760/1/6 761/1/6 764/1/6
f 761/1/6 762/1/6 764/1/6
f 757/1/6 763/1/6 765/1/6
f 763/1/6 764/1/6 765/1/6
f 765/1/6 764/1/6 766/1/6
f 764/1/6 762/1/6 767/1/6
f 766/1/6 764/1/6 767/1/6
f 767/1/6 762/1/6 768/1/6
f 766/1/6 767/1/6 769/1/6
f 769/1/6 767/1/6 770/1/6
f 770/1/6 767/1/6 771/1/6
f 771/1/6 767/1/6 772/1/6
f 773/7/6 774/7/6 775/7/6
f 775/7/6 774/7/6 776/7/6
f 775/2/6 776/2/6 777/2/6
f 777/2/6 776/2/6 778/2/6
f 779/4/6 780/4/6 785/4/6
f 785/4/6 780/4/6 786/4/6
f 784/4/6 785/4/6 792/4/6
f 792/4/6 785/4/6 793/4/6
f 786/4/6 787/4/6 794/4/6
f 794/4/6 787/4/6 795/4/6
f 791/4/6 792/4/6 798/4/6
f 798/4/6 792/4/6 799/4/6
f 795/4/6 796/4/6 802/4/6
f 802/4/6 796/4/6 803/4/6
f 800/3/6 801/3/6 806/3/6
f 806/3/6 801/3/6 807/3/6
f 797/4/6 798/4/6 810/4/6
f 810/4/6 798/4/6 811/4/6
f 807/3/6 808/3/6 813/3/6
f 805/3/6 806/3/6 813/3/6
f 806/3/6 807/3/6 813/3/6
f 813/3/6 808/3/6 814/3/6
f 803/4/6 804/4/6 816/4/6
f 816/4/6 804/4/6 817/4/6
f 809/4/6 810/4/6 820/4/6
f 820/4/6 810/4/6 821/4/6
f 814/3/6 815/3/6 822/3/6
f 812/3/6 813/3/6 822/3/6
f 813/3/6 814/3/6 822/3/6
f 822/3/6 815/3/6 823/3/6
f 817/4/6 818/4/6 824/4/6
f 824/4/6 818/4/6 825/4/6
f 812/3/6 822/3/6 828/3/6
f 823/3/6 815/3/6 829/3/6
f 831/3/6 832/3/6 833/3/6
f 833/3/6 832/3/6 834/3/6
f 827/3/6 828/3/6 835/3/6
f 828/3/6 822/3/6 836/3/6
f 835/3/6 828/3/6 836/3/6
f 823/3/6 829/3/6 837/3/6
f 829/3/6 830/3/6 837/3/6
f 837/3/6 830/3/6 838/3/6
f 819/4/6 820/4/6 839/4/6
f 839/4/6 820/4/6 840/4/6
f 836/3/6 822/3/6 842/3/6
f 823/3/6 837/3/6 843/3/6
f 825/4/6 826/4/6 845/4/6
f 845/4/6 826/4/6 846/4/6
f 840/4/6 841/4/6 847/4/6
f 847/4/6 841/4/6 848/4/6
f 842/3/6 843/3/6 850/3/6
f 836/3/6 842/3/6 850/3/6
f 850/3/6 843/3/6 851/3/6
f 843/3/6 837/3/6 852/3/6
f 851/3/6 843/3/6 852/3/6
f 852/3/6 837/3/6 853/3/6
f 844/4/6 845/4/6 855/4/6
f 855/4/6 845/4/6 856/4/6
f 851/3/6 852/3/6 857/3/6
f 857/3/6 852/3/6 858/3/6
f 858/3/6 852/3/6 859/3/6
f 859/3/6 852/3/6 860/3/6
f 848/4/6 849/4/6 861/4/6
f 861/4/6 849/4/6 862/4/6
f 858/3/6 859/3/6 864/3/6
f 864/3/6 859/3/6 865/3/6
f 854/4/6 855/4/6 867/4/6
f 867/4/6 855/4/6 868/4/6
f 862/4/6 863/4/6 869/4/6
f 869/4/6 863/4/6 870/4/6
f 866/4/6 867/4/6 873/4/6
f 873/4/6 867/4/6 874/4/6
f 781/7/6 782/7/6 875/7/6
f 782/2/6 783/2/6 876/2/6
f 875/7/6 782/7/6 876/7/6
f 876/2/6 783/2/6 877/2/6
f 870/4/6 871/4/6 878/4/6
f 878/4/6 871/4/6 879/4/6
f 872/4/6 873/4/6 880/4/6
f 880/4/6 873/4/6 881/4/6
f 788/2/6 789/2/6 882/2/6
f 789/7/6 790/7/6 883/7/6
f 882/2/6 789/2/6 883/2/6
f 883/7/6 790/7/6 884/7/6
f 879/4/6 880/4/6 885/4/6
f 885/4/6 880/4/6 886/4/6
f 887/2/6 888/2/6 889/2/6
f 889/2/6 888/2/6 890/2/6
f 889/7/6 890/7/6 891/7/6
f 891/7/6 890/7/6 892/7/6
f 893/7/6 894/7/6 898/7/6
f 898/7/6 894/7/6 899/7/6
f 895/7/6 896/7/6 900/7/6
f 900/7/6 896/7/6 901/7/6
f 897/7/6 898/7/6 904/7/6
f 898/6/6 899/6/6 905/6/6
f 904/7/6 898/7/6 905/7/6
f 901/7/6 902/7/6 906/7/6
f 900/6/6 901/6/6 906/6/6
f 906/7/6 902/7/6 907/7/6
f 905/6/6 899/6/6 909/6/6
f 904/6/6 905/6/6 909/6/6
f 909/6/6 899/6/6 910/6/6
f 906/6/6 907/6/6 911/6/6
f 900/6/6 906/6/6 911/6/6
f 911/6/6 907/6/6 912/6/6
f 904/6/6 909/6/6 913/6/6
f 913/6/6 909/6/6 914/6/6
f 912/6/6 907/6/6 915/6/6
f 915/6/6 907/6/6 916/6/6
f 903/7/6 904/7/6 917/7/6
f 904/6/6 913/6/6 918/6/6
f 917/7/6 904/7/6 918/7/6
f 918/6/6 913/6/6 919/6/6
f 916/6/6 907/6/6 922/6/6
f 907/7/6 908/7/6 923/7/6
f 922/6/6 907/6/6 923/6/6
f 923/7/6 908/7/6 924/7/6
f 920/4/6 921/4/6 926/4/6
f 926/4/6 921/4/6 927/4/6
f 925/4/6 926/4/6 930/4/6
f 927/4/6 928/4/6 930/4/6
f 926/4/6 927/4/6 930/4/6
f 930/4/6 928/4/6 931/4/6
f 931/4/6 928/4/6 932/4/6
f 932/4/6 928/4/6 933/4/6
f 929/4/6 930/4/6 935/4/6
f 930/4/6 931/4/6 935/4/6
f 935/4/6 931/4/6 936/4/6
f 933/4/6 934/4/6 937/4/6
f 932/4/6 933/4/6 937/4/6
f 937/4/6 934/4/6 938/4/6
f 929/4/6 935/4/6 940/4/6
f 940/4/6 935/4/6 941/4/6
f 941/4/6 935/4/6 942/4/6
f 938/4/6 934/4/6 943/4/6
f 943/4/6 934/4/6 944/4/6
f 944/4/6 934/4/6 945/4/6
f 939/4/6 940/4/6 948/4/6
f 940/4/6 941/4/6 948/4/6
f 945/4/6 946/4/6 951/4/6
f 944/4/6 945/4/6 951/4/6
f 947/4/6 948/4/6 953/4/6
f 948/4/6 941/4/6 953/4/6
f 953/4/6 941/4/6 954/4/6
f 951/4/6 952/4/6 955/4/6
f 944/4/6 951/4/6 955/4/6
f 955/4/6 952/4/6 956/4/6
f 949/5/6 950/5/6 957/5/6
f 957/5/6 950/5/6 958/5/6
f 949/5/6 957/5/6 959/5/6
f 958/5/6 950/5/6 960/5/6
f 947/4/6 953/4/6 961/4/6
f 956/4/6 952/4/6 964/4/6
f 961/4/6 962/4/6 965/4/6
f 947/4/6 961/4/6 965/4/6
f 965/4/6 962/4/6 966/4/6
f 959/5/6 960/5/6 967/5/6
f 949/5/6 959/5/6 967/5/6
f 960/5/6 950/5/6 968/5/6
f 967/5/6 960/5/6 968/5/6
f 963/4/6 964/4/6 969/4/6
f 964/4/6 952/4/6 969/4/6
f 969/4/6 952/4/6 970/4/6
f 966/4/6 962/4/6 971/4/6
f 971/4/6 962/4/6 972/4/6
f 972/4/6 962/4/6 973/4/6
f 963/4/6 969/4/6 976/4/6
f 976/4/6 969/4/6 977/4/6
f 977/4/6 969/4/6 978/4/6
f 973/4/6 974/4/6 979/4/6
f 972/4/6 973/4/6 979/4/6
f 976/4/6 977/4/6 982/4/6
f 975/4/6 976/4/6 982/4/6
f 979/4/6 980/4/6 983/4/6
f 972/4/6 979/4/6 983/4/6
f 983/4/6 980/4/6 984/4/6
f 984/4/6 980/4/6 985/4/6
f 981/4/6 982/4/6 986/4/6
f 982/4/6 977/4/6 987/4/6
f 986/4/6 982/4/6 987/4/6
f 987/4/6 977/4/6 988/4/6
f 984/4/6 985/4/6 989/4/6
f 985/4/6 986/4/6 989/4/6
f 986/4/6 987/4/6 989/4/6
f 989/4/6 987/4/6 990/4/6
f 990/4/6 987/4/6 991/4/6
f 991/4/6 987/4/6 992/4/6
f 990/4/6 991/4/6 996/4/6
f 996/4/6 991/4/6 997/4/6
f 994/6/6 995/6/6 1001/6/6
f 998/6/6 999/6/6 1004/6/6
f 1001/6/6 1002/6/6 1005/6/6
f 1003/6/6 1004/6/6 1008/6/6
f 993/7/6 994/7/6 1009/7/6
f 1005/6/6 1006/6/6 1010/6/6
f 1009/7/6 994/7/6 1010/7/6
f 994/6/6 1001/6/6 1010/6/6
f 1001/6/6 1005/6/6 1010/6/6
f 1010/6/6 1006/6/6 1011/6/6
f 1007/6/6 1008/6/6 1012/6/6
f 1008/6/6 1004/6/6 1012/6/6
f 1004/6/6 999/6/6 1012/6/6
f 999/7/6 1000/7/6 1013/7/6
f 1012/6/6 999/6/6 1013/6/6
f 1013/7/6 1000/7/6 1014/7/6
f 1010/7/6 1011/7/6 1015/7/6
f 1011/6/6 1006/6/6 1016/6/6
f 1015/7/6 1011/7/6 1016/7/6
f 1016/6/6 1006/6/6 1017/6/6
f 1007/6/6 1012/6/6 1018/6/6
f 1012/7/6 1013/7/6 1019/7/6
f 1018/6/6 1012/6/6 1019/6/6
f 1019/7/6 1013/7/6 1020/7/6
f 1016/7/6 1017/7/6 1021/7/6
f 1021/7/6 1017/7/6 1022/7/6
f 1018/7/6 1019/7/6 1023/7/6
f 1023/7/6 1019/7/6 1024/7/6
