# MagicaVoxel @ Ephtracy

# group
g BossPanel

# material
mtllib BossPanel.mtl
usemtl palette

# normals
vn -1 0 0
vn 1 0 0
vn 0 0 1
vn 0 0 -1
vn 0 -1 0
vn 0 1 0

# texcoords
vt 0.0410156 0.5
vt 0.232422 0.5
vt 0.306641 0.5
vt 0.642578 0.5
vt 0.857422 0.5
vt 0.931641 0.5
vt 0.955078 0.5
vt 0.994141 0.5

# verts
v -15 0 13
v -15 0 9
v -15 0 -9
v -15 0 -13
v -15 5 13
v -15 5 9
v -15 5 -9
v -15 5 -13
v -14 0 14
v -14 0 13
v -14 0 9
v -14 0 -9
v -14 0 -13
v -14 0 -14
v -14 4 9
v -14 4 -9
v -14 5 14
v -14 5 13
v -14 5 -13
v -14 5 -14
v -13 0 15
v -13 0 14
v -13 0 -14
v -13 0 -15
v -13 5 15
v -13 5 14
v -13 5 -14
v -13 5 -15
v -11 3 -5
v -11 3 -9
v -11 4 -5
v -11 4 -9
v -10 3 -9
v -10 3 -10
v -10 4 -9
v -10 4 -10
v -9 3 3
v -9 3 -1
v -9 3 -10
v -9 3 -11
v -9 4 3
v -9 4 -1
v -9 4 -10
v -9 4 -11
v -8 3 -1
v -8 3 -4
v -8 4 -1
v -8 4 -4
v -7 3 -4
v -7 3 -5
v -7 4 -4
v -7 4 -5
v -2 3 8
v -2 3 5
v -2 3 2
v -2 3 -1
v -2 4 8
v -2 4 5
v -2 4 2
v -2 4 -1
v -1 3 9
v -1 3 8
v -1 3 5
v -1 3 4
v -1 3 3
v -1 3 2
v -1 3 -1
v -1 3 -2
v -1 4 9
v -1 4 8
v -1 4 5
v -1 4 4
v -1 4 3
v -1 4 2
v -1 4 -1
v -1 4 -2
v 0 3 10
v 0 3 9
v 0 3 -2
v 0 3 -3
v 0 4 10
v 0 4 9
v 0 4 -2
v 0 4 -3
v 1 3 11
v 1 3 10
v 1 3 -3
v 1 3 -4
v 1 4 11
v 1 4 10
v 1 4 -3
v 1 4 -4
v 4 3 5
v 4 3 2
v 4 4 5
v 4 4 2
v 5 3 6
v 5 3 5
v 5 3 2
v 5 3 1
v 5 4 6
v 5 4 5
v 5 4 2
v 5 4 1
v 9 0 15
v 9 0 14
v 9 0 -14
v 9 0 -15
v 9 4 14
v 9 4 13
v 9 4 12
v 9 4 -12
v 9 4 -13
v 9 4 -14
v 9 5 15
v 9 5 14
v 9 5 12
v 9 5 -12
v 9 5 -14
v 9 5 -15
v 11 3 12
v 11 3 11
v 11 3 -11
v 11 3 -12
v 11 5 12
v 11 5 11
v 11 5 -11
v 11 5 -12
v 12 3 11
v 12 3 9
v 12 3 -9
v 12 3 -11
v 12 4 9
v 12 4 -9
v 12 5 11
v 12 5 9
v 12 5 -9
v 12 5 -11
v -12 3 11
v -12 3 9
v -12 3 -9
v -12 3 -11
v -12 4 9
v -12 4 -9
v -12 5 11
v -12 5 9
v -12 5 -9
v -12 5 -11
v -11 3 12
v -11 3 11
v -11 3 -11
v -11 3 -12
v -11 5 12
v -11 5 11
v -11 5 -11
v -11 5 -12
v -9 0 15
v -9 0 14
v -9 0 -14
v -9 0 -15
v -9 4 14
v -9 4 13
v -9 4 12
v -9 4 -12
v -9 4 -13
v -9 4 -14
v -9 5 15
v -9 5 14
v -9 5 12
v -9 5 -12
v -9 5 -14
v -9 5 -15
v -4 3 3
v -4 3 -0
v -4 3 -10
v -4 3 -11
v -4 4 3
v -4 4 -0
v -4 4 -10
v -4 4 -11
v -3 3 -0
v -3 3 -4
v -3 3 -8
v -3 3 -10
v -3 4 -0
v -3 4 -4
v -3 4 -8
v -3 4 -10
v -2 3 -4
v -2 3 -8
v -2 4 -4
v -2 4 -8
v 2 3 5
v 2 3 4
v 2 3 3
v 2 3 2
v 2 4 5
v 2 4 4
v 2 4 3
v 2 4 2
v 3 3 6
v 3 3 5
v 3 3 2
v 3 3 1
v 3 4 6
v 3 4 5
v 3 4 2
v 3 4 1
v 7 3 11
v 7 3 10
v 7 3 -3
v 7 3 -4
v 7 4 11
v 7 4 10
v 7 4 -3
v 7 4 -4
v 8 3 10
v 8 3 9
v 8 3 -2
v 8 3 -3
v 8 4 10
v 8 4 9
v 8 4 -2
v 8 4 -3
v 9 3 9
v 9 3 8
v 9 3 -1
v 9 3 -2
v 9 4 9
v 9 4 8
v 9 4 -1
v 9 4 -2
v 10 3 8
v 10 3 7
v 10 3 4
v 10 3 3
v 10 3 -0
v 10 3 -1
v 10 4 8
v 10 4 7
v 10 4 4
v 10 4 3
v 10 4 -0
v 10 4 -1
v 11 3 7
v 11 3 4
v 11 3 3
v 11 3 -0
v 11 4 7
v 11 4 4
v 11 4 3
v 11 4 -0
v 13 0 15
v 13 0 14
v 13 0 -14
v 13 0 -15
v 13 5 15
v 13 5 14
v 13 5 -14
v 13 5 -15
v 14 0 14
v 14 0 13
v 14 0 9
v 14 0 -9
v 14 0 -13
v 14 0 -14
v 14 4 9
v 14 4 -9
v 14 5 14
v 14 5 13
v 14 5 -13
v 14 5 -14
v 15 0 13
v 15 0 9
v 15 0 -9
v 15 0 -13
v 15 5 13
v 15 5 9
v 15 5 -9
v 15 5 -13
v -13 0 15
v -13 5 15
v -9 0 15
v -9 5 15
v 9 0 15
v 9 5 15
v 13 0 15
v 13 5 15
v -14 0 14
v -14 5 14
v -13 0 14
v -13 5 14
v -9 0 14
v -9 4 14
v 9 0 14
v 9 4 14
v 13 0 14
v 13 5 14
v 14 0 14
v 14 5 14
v -15 0 13
v -15 5 13
v -14 0 13
v -14 5 13
v 14 0 13
v 14 5 13
v 15 0 13
v 15 5 13
v 1 3 11
v 1 4 11
v 7 3 11
v 7 4 11
v 0 3 10
v 0 4 10
v 1 3 10
v 1 4 10
v 7 3 10
v 7 4 10
v 8 3 10
v 8 4 10
v -1 3 9
v -1 4 9
v 0 3 9
v 0 4 9
v 8 3 9
v 8 4 9
v 9 3 9
v 9 4 9
v -2 3 8
v -2 4 8
v -1 3 8
v -1 4 8
v 9 3 8
v 9 4 8
v 10 3 8
v 10 4 8
v 10 3 7
v 10 4 7
v 11 3 7
v 11 4 7
v 4 3 5
v 4 4 5
v 5 3 5
v 5 4 5
v -9 3 3
v -9 4 3
v -4 3 3
v -4 4 3
v -1 3 3
v -1 4 3
v 2 3 3
v 2 4 3
v 10 3 3
v 10 4 3
v 11 3 3
v 11 4 3
v -2 3 2
v -2 4 2
v -1 3 2
v -1 4 2
v 2 3 2
v 2 4 2
v 3 3 2
v 3 4 2
v 3 3 1
v 3 4 1
v 5 3 1
v 5 4 1
v -4 3 -0
v -4 4 -0
v -3 3 -0
v -3 4 -0
v -3 3 -4
v -3 4 -4
v -2 3 -4
v -2 4 -4
v -11 3 -5
v -11 4 -5
v -7 3 -5
v -7 4 -5
v -15 0 -9
v -15 5 -9
v -14 0 -9
v -14 4 -9
v -14 5 -9
v -13 4 -9
v -12 4 -9
v -12 5 -9
v 12 4 -9
v 12 5 -9
v 13 4 -9
v 14 0 -9
v 14 4 -9
v 14 5 -9
v 15 0 -9
v 15 5 -9
v -12 3 -11
v -12 5 -11
v -11 3 -11
v -11 5 -11
v 11 3 -11
v 11 5 -11
v 12 3 -11
v 12 5 -11
v -11 3 -12
v -11 5 -12
v -9 3 -12
v -9 4 -12
v -9 5 -12
v 9 3 -12
v 9 4 -12
v 9 5 -12
v 11 3 -12
v 11 5 -12
v -11 3 12
v -11 5 12
v -9 3 12
v -9 4 12
v -9 5 12
v 9 3 12
v 9 4 12
v 9 5 12
v 11 3 12
v 11 5 12
v -12 3 11
v -12 5 11
v -11 3 11
v -11 5 11
v 11 3 11
v 11 5 11
v 12 3 11
v 12 5 11
v -15 0 9
v -15 5 9
v -14 0 9
v -14 4 9
v -14 5 9
v -13 4 9
v -12 4 9
v -12 5 9
v 12 4 9
v 12 5 9
v 13 4 9
v 14 0 9
v 14 4 9
v 14 5 9
v 15 0 9
v 15 5 9
v 3 3 6
v 3 4 6
v 5 3 6
v 5 4 6
v -2 3 5
v -2 4 5
v -1 3 5
v -1 4 5
v 2 3 5
v 2 4 5
v 3 3 5
v 3 4 5
v -1 3 4
v -1 4 4
v 2 3 4
v 2 4 4
v 10 3 4
v 10 4 4
v 11 3 4
v 11 4 4
v 4 3 2
v 4 4 2
v 5 3 2
v 5 4 2
v 10 3 -0
v 10 4 -0
v 11 3 -0
v 11 4 -0
v -9 3 -1
v -9 4 -1
v -8 3 -1
v -8 4 -1
v -2 3 -1
v -2 4 -1
v -1 3 -1
v -1 4 -1
v 9 3 -1
v 9 4 -1
v 10 3 -1
v 10 4 -1
v -1 3 -2
v -1 4 -2
v 0 3 -2
v 0 4 -2
v 8 3 -2
v 8 4 -2
v 9 3 -2
v 9 4 -2
v 0 3 -3
v 0 4 -3
v 1 3 -3
v 1 4 -3
v 7 3 -3
v 7 4 -3
v 8 3 -3
v 8 4 -3
v -8 3 -4
v -8 4 -4
v -7 3 -4
v -7 4 -4
v 1 3 -4
v 1 4 -4
v 4 3 -4
v 7 3 -4
v 7 4 -4
v -3 3 -8
v -3 4 -8
v -2 3 -8
v -2 4 -8
v -11 3 -9
v -11 4 -9
v -10 3 -9
v -10 4 -9
v -10 3 -10
v -10 4 -10
v -9 3 -10
v -9 4 -10
v -4 3 -10
v -4 4 -10
v -3 3 -10
v -3 4 -10
v -9 3 -11
v -9 4 -11
v -4 3 -11
v -4 4 -11
v -15 0 -13
v -15 5 -13
v -14 0 -13
v -14 5 -13
v 14 0 -13
v 14 5 -13
v 15 0 -13
v 15 5 -13
v -14 0 -14
v -14 5 -14
v -13 0 -14
v -13 5 -14
v -9 0 -14
v -9 4 -14
v 9 0 -14
v 9 4 -14
v 13 0 -14
v 13 5 -14
v 14 0 -14
v 14 5 -14
v -13 0 -15
v -13 5 -15
v -9 0 -15
v -9 5 -15
v 9 0 -15
v 9 5 -15
v 13 0 -15
v 13 5 -15
v -13 0 15
v -9 0 15
v 9 0 15
v 13 0 15
v -14 0 14
v -13 0 14
v -9 0 14
v 9 0 14
v 13 0 14
v 14 0 14
v -15 0 13
v -14 0 13
v 14 0 13
v 15 0 13
v -15 0 9
v -14 0 9
v 14 0 9
v 15 0 9
v -15 0 -9
v -14 0 -9
v 14 0 -9
v 15 0 -9
v -15 0 -13
v -14 0 -13
v 14 0 -13
v 15 0 -13
v -14 0 -14
v -13 0 -14
v -9 0 -14
v 9 0 -14
v 13 0 -14
v 14 0 -14
v -13 0 -15
v -9 0 -15
v 9 0 -15
v 13 0 -15
v -11 3 12
v -9 3 12
v 9 3 12
v 11 3 12
v -12 3 11
v -11 3 11
v 1 3 11
v 7 3 11
v 11 3 11
v 12 3 11
v -11 3 10
v -10 3 10
v 0 3 10
v 1 3 10
v 7 3 10
v 8 3 10
v -12 3 9
v -10 3 9
v -9 3 9
v -1 3 9
v 0 3 9
v 8 3 9
v 9 3 9
v 12 3 9
v -9 3 8
v -8 3 8
v -2 3 8
v -1 3 8
v 9 3 8
v 10 3 8
v -8 3 7
v -7 3 7
v 10 3 7
v 11 3 7
v -7 3 6
v -6 3 6
v 3 3 6
v 5 3 6
v -6 3 5
v -5 3 5
v -2 3 5
v -1 3 5
v 2 3 5
v 3 3 5
v 4 3 5
v 5 3 5
v -5 3 4
v -4 3 4
v -1 3 4
v 2 3 4
v 10 3 4
v 11 3 4
v -9 3 3
v -4 3 3
v -3 3 3
v -1 3 3
v 2 3 3
v 10 3 3
v 11 3 3
v -3 3 2
v -2 3 2
v -1 3 2
v 2 3 2
v 3 3 2
v 4 3 2
v 5 3 2
v 3 3 1
v 5 3 1
v -4 3 -0
v -3 3 -0
v 10 3 -0
v 11 3 -0
v -9 3 -1
v -8 3 -1
v -2 3 -1
v -1 3 -1
v 9 3 -1
v 10 3 -1
v -1 3 -2
v 0 3 -2
v 8 3 -2
v 9 3 -2
v 0 3 -3
v 1 3 -3
v 7 3 -3
v 8 3 -3
v -8 3 -4
v -7 3 -4
v -3 3 -4
v -2 3 -4
v 1 3 -4
v 4 3 -4
v 7 3 -4
v -11 3 -5
v -7 3 -5
v 4 3 -5
v 5 3 -5
v 5 3 -6
v 6 3 -6
v 6 3 -7
v 7 3 -7
v -3 3 -8
v -2 3 -8
v 7 3 -8
v 8 3 -8
v -12 3 -9
v -11 3 -9
v -10 3 -9
v 8 3 -9
v 9 3 -9
v 12 3 -9
v -10 3 -10
v -9 3 -10
v -4 3 -10
v -3 3 -10
v 9 3 -10
v 10 3 -10
v -12 3 -11
v -11 3 -11
v -9 3 -11
v -4 3 -11
v 10 3 -11
v 11 3 -11
v 12 3 -11
v -11 3 -12
v -9 3 -12
v 9 3 -12
v 11 3 -12
v -9 4 14
v 9 4 14
v -9 4 13
v 9 4 13
v -9 4 12
v 9 4 12
v 1 4 11
v 7 4 11
v 0 4 10
v 1 4 10
v 2 4 10
v 6 4 10
v 7 4 10
v 8 4 10
v -14 4 9
v -13 4 9
v -12 4 9
v -1 4 9
v 0 4 9
v 1 4 9
v 2 4 9
v 6 4 9
v 7 4 9
v 8 4 9
v 9 4 9
v 12 4 9
v 13 4 9
v 14 4 9
v -2 4 8
v -1 4 8
v 0 4 8
v 1 4 8
v 3 4 8
v 5 4 8
v 7 4 8
v 8 4 8
v 9 4 8
v 10 4 8
v -1 4 7
v 0 4 7
v 2 4 7
v 3 4 7
v 5 4 7
v 6 4 7
v 8 4 7
v 9 4 7
v 10 4 7
v 11 4 7
v -1 4 6
v 0 4 6
v 1 4 6
v 2 4 6
v 3 4 6
v 5 4 6
v 6 4 6
v 7 4 6
v 9 4 6
v 10 4 6
v -2 4 5
v -1 4 5
v 0 4 5
v 1 4 5
v 2 4 5
v 3 4 5
v 4 4 5
v 5 4 5
v 6 4 5
v 7 4 5
v 9 4 5
v 10 4 5
v -1 4 4
v 2 4 4
v 5 4 4
v 6 4 4
v 8 4 4
v 9 4 4
v 10 4 4
v 11 4 4
v -9 4 3
v -4 4 3
v -1 4 3
v 2 4 3
v 5 4 3
v 6 4 3
v 8 4 3
v 9 4 3
v 10 4 3
v 11 4 3
v -8 4 2
v -5 4 2
v -2 4 2
v -1 4 2
v 0 4 2
v 1 4 2
v 2 4 2
v 3 4 2
v 4 4 2
v 5 4 2
v 6 4 2
v 7 4 2
v 9 4 2
v 10 4 2
v -1 4 1
v 0 4 1
v 1 4 1
v 2 4 1
v 3 4 1
v 5 4 1
v 6 4 1
v 7 4 1
v 9 4 1
v 10 4 1
v -8 4 -0
v -7 4 -0
v -4 4 -0
v -3 4 -0
v -1 4 -0
v 0 4 -0
v 2 4 -0
v 3 4 -0
v 5 4 -0
v 6 4 -0
v 8 4 -0
v 9 4 -0
v 10 4 -0
v 11 4 -0
v -9 4 -1
v -8 4 -1
v -5 4 -1
v -4 4 -1
v -2 4 -1
v -1 4 -1
v 0 4 -1
v 1 4 -1
v 3 4 -1
v 5 4 -1
v 7 4 -1
v 8 4 -1
v 9 4 -1
v 10 4 -1
v -1 4 -2
v 0 4 -2
v 1 4 -2
v 2 4 -2
v 6 4 -2
v 7 4 -2
v 8 4 -2
v 9 4 -2
v -7 4 -3
v -6 4 -3
v 0 4 -3
v 1 4 -3
v 2 4 -3
v 6 4 -3
v 7 4 -3
v 8 4 -3
v -8 4 -4
v -7 4 -4
v -3 4 -4
v -2 4 -4
v 1 4 -4
v 7 4 -4
v -11 4 -5
v -7 4 -5
v -4 4 -5
v -3 4 -5
v -10 4 -6
v -8 4 -6
v -8 4 -7
v -7 4 -7
v -4 4 -7
v -3 4 -7
v -10 4 -8
v -9 4 -8
v -7 4 -8
v -6 4 -8
v -3 4 -8
v -2 4 -8
v -14 4 -9
v -13 4 -9
v -12 4 -9
v -11 4 -9
v -10 4 -9
v -9 4 -9
v -8 4 -9
v -5 4 -9
v -4 4 -9
v 12 4 -9
v 13 4 -9
v 14 4 -9
v -10 4 -10
v -9 4 -10
v -8 4 -10
v -5 4 -10
v -4 4 -10
v -3 4 -10
v -9 4 -11
v -4 4 -11
v -9 4 -12
v 9 4 -12
v -9 4 -13
v 9 4 -13
v -9 4 -14
v 9 4 -14
v -13 5 15
v -9 5 15
v 9 5 15
v 13 5 15
v -14 5 14
v -13 5 14
v -9 5 14
v 9 5 14
v 13 5 14
v 14 5 14
v -15 5 13
v -14 5 13
v -13 5 13
v 13 5 13
v 14 5 13
v 15 5 13
v -11 5 12
v -9 5 12
v 9 5 12
v 11 5 12
v -12 5 11
v -11 5 11
v 11 5 11
v 12 5 11
v -15 5 9
v -14 5 9
v -12 5 9
v 12 5 9
v 14 5 9
v 15 5 9
v -15 5 -9
v -14 5 -9
v -12 5 -9
v 12 5 -9
v 14 5 -9
v 15 5 -9
v -12 5 -11
v -11 5 -11
v 11 5 -11
v 12 5 -11
v -11 5 -12
v -9 5 -12
v 9 5 -12
v 11 5 -12
v -15 5 -13
v -14 5 -13
v -13 5 -13
v 13 5 -13
v 14 5 -13
v 15 5 -13
v -14 5 -14
v -13 5 -14
v -9 5 -14
v 9 5 -14
v 13 5 -14
v 14 5 -14
v -13 5 -15
v -9 5 -15
v 9 5 -15
v 13 5 -15

# faces
f 5/8/1 2/8/1 1/8/1
f 6/8/1 2/8/1 5/8/1
f 7/8/1 4/8/1 3/8/1
f 8/8/1 4/8/1 7/8/1
f 15/8/1 12/8/1 11/8/1
f 16/8/1 12/8/1 15/8/1
f 17/8/1 10/8/1 9/8/1
f 18/8/1 10/8/1 17/8/1
f 19/8/1 14/8/1 13/8/1
f 20/8/1 14/8/1 19/8/1
f 25/8/1 22/8/1 21/8/1
f 26/8/1 22/8/1 25/8/1
f 27/8/1 24/8/1 23/8/1
f 28/8/1 24/8/1 27/8/1
f 31/8/1 30/8/1 29/8/1
f 32/8/1 30/8/1 31/8/1
f 35/8/1 34/8/1 33/8/1
f 36/8/1 34/8/1 35/8/1
f 41/8/1 38/8/1 37/8/1
f 42/8/1 38/8/1 41/8/1
f 43/8/1 40/8/1 39/8/1
f 44/8/1 40/8/1 43/8/1
f 47/8/1 46/8/1 45/8/1
f 48/8/1 46/8/1 47/8/1
f 51/8/1 50/8/1 49/8/1
f 52/8/1 50/8/1 51/8/1
f 57/8/1 54/8/1 53/8/1
f 58/8/1 54/8/1 57/8/1
f 59/8/1 56/8/1 55/8/1
f 60/8/1 56/8/1 59/8/1
f 69/8/1 62/8/1 61/8/1
f 70/8/1 62/8/1 69/8/1
f 71/8/1 64/8/1 63/8/1
f 72/8/1 64/8/1 71/8/1
f 73/8/1 66/8/1 65/8/1
f 74/8/1 66/8/1 73/8/1
f 75/8/1 68/8/1 67/8/1
f 76/8/1 68/8/1 75/8/1
f 81/8/1 78/8/1 77/8/1
f 82/8/1 78/8/1 81/8/1
f 83/8/1 80/8/1 79/8/1
f 84/8/1 80/8/1 83/8/1
f 89/8/1 86/8/1 85/8/1
f 90/8/1 86/8/1 89/8/1
f 91/8/1 88/8/1 87/8/1
f 92/8/1 88/8/1 91/8/1
f 95/8/1 94/8/1 93/8/1
f 96/8/1 94/8/1 95/8/1
f 101/8/1 98/8/1 97/8/1
f 102/8/1 98/8/1 101/8/1
f 103/8/1 100/8/1 99/8/1
f 104/8/1 100/8/1 103/8/1
f 109/8/1 106/8/1 105/8/1
f 114/8/1 108/8/1 107/8/1
f 115/8/1 109/8/1 105/8/1
f 116/7/1 110/7/1 109/7/1
f 116/8/1 109/8/1 115/8/1
f 116/7/1 111/7/1 110/7/1
f 117/7/1 111/7/1 116/7/1
f 118/7/1 113/7/1 112/7/1
f 118/7/1 114/7/1 113/7/1
f 119/8/1 108/8/1 114/8/1
f 119/7/1 114/7/1 118/7/1
f 120/8/1 108/8/1 119/8/1
f 125/7/1 122/7/1 121/7/1
f 126/7/1 122/7/1 125/7/1
f 127/7/1 124/7/1 123/7/1
f 128/7/1 124/7/1 127/7/1
f 133/7/1 130/7/1 129/7/1
f 133/4/1 131/4/1 130/4/1
f 134/7/1 132/7/1 131/7/1
f 134/4/1 131/4/1 133/4/1
f 135/7/1 133/7/1 129/7/1
f 136/7/1 133/7/1 135/7/1
f 137/7/1 132/7/1 134/7/1
f 138/7/1 132/7/1 137/7/1
f 139/7/2 140/7/2 143/7/2
f 140/4/2 141/4/2 143/4/2
f 141/7/2 142/7/2 144/7/2
f 143/4/2 141/4/2 144/4/2
f 139/7/2 143/7/2 145/7/2
f 145/7/2 143/7/2 146/7/2
f 144/7/2 142/7/2 147/7/2
f 147/7/2 142/7/2 148/7/2
f 149/7/2 150/7/2 153/7/2
f 153/7/2 150/7/2 154/7/2
f 151/7/2 152/7/2 155/7/2
f 155/7/2 152/7/2 156/7/2
f 157/8/2 158/8/2 161/8/2
f 159/8/2 160/8/2 166/8/2
f 157/8/2 161/8/2 167/8/2
f 161/7/2 162/7/2 168/7/2
f 167/8/2 161/8/2 168/8/2
f 162/7/2 163/7/2 168/7/2
f 168/7/2 163/7/2 169/7/2
f 164/7/2 165/7/2 170/7/2
f 165/7/2 166/7/2 170/7/2
f 166/8/2 160/8/2 171/8/2
f 170/7/2 166/7/2 171/7/2
f 171/8/2 160/8/2 172/8/2
f 173/8/2 174/8/2 177/8/2
f 177/8/2 174/8/2 178/8/2
f 175/8/2 176/8/2 179/8/2
f 179/8/2 176/8/2 180/8/2
f 181/8/2 182/8/2 185/8/2
f 185/8/2 182/8/2 186/8/2
f 183/8/2 184/8/2 187/8/2
f 187/8/2 184/8/2 188/8/2
f 189/8/2 190/8/2 191/8/2
f 191/8/2 190/8/2 192/8/2
f 193/8/2 194/8/2 197/8/2
f 197/8/2 194/8/2 198/8/2
f 195/8/2 196/8/2 199/8/2
f 199/8/2 196/8/2 200/8/2
f 201/8/2 202/8/2 205/8/2
f 205/8/2 202/8/2 206/8/2
f 203/8/2 204/8/2 207/8/2
f 207/8/2 204/8/2 208/8/2
f 209/8/2 210/8/2 213/8/2
f 213/8/2 210/8/2 214/8/2
f 211/8/2 212/8/2 215/8/2
f 215/8/2 212/8/2 216/8/2
f 217/8/2 218/8/2 221/8/2
f 221/8/2 218/8/2 222/8/2
f 219/8/2 220/8/2 223/8/2
f 223/8/2 220/8/2 224/8/2
f 225/8/2 226/8/2 229/8/2
f 229/8/2 226/8/2 230/8/2
f 227/8/2 228/8/2 231/8/2
f 231/8/2 228/8/2 232/8/2
f 233/8/2 234/8/2 239/8/2
f 239/8/2 234/8/2 240/8/2
f 235/8/2 236/8/2 241/8/2
f 241/8/2 236/8/2 242/8/2
f 237/8/2 238/8/2 243/8/2
f 243/8/2 238/8/2 244/8/2
f 245/8/2 246/8/2 249/8/2
f 249/8/2 246/8/2 250/8/2
f 247/8/2 248/8/2 251/8/2
f 251/8/2 248/8/2 252/8/2
f 253/8/2 254/8/2 257/8/2
f 257/8/2 254/8/2 258/8/2
f 255/8/2 256/8/2 259/8/2
f 259/8/2 256/8/2 260/8/2
f 263/8/2 264/8/2 267/8/2
f 267/8/2 264/8/2 268/8/2
f 261/8/2 262/8/2 269/8/2
f 269/8/2 262/8/2 270/8/2
f 265/8/2 266/8/2 271/8/2
f 271/8/2 266/8/2 272/8/2
f 273/8/2 274/8/2 277/8/2
f 277/8/2 274/8/2 278/8/2
f 275/8/2 276/8/2 279/8/2
f 279/8/2 276/8/2 280/8/2
f 283/8/3 282/8/3 281/8/3
f 284/8/3 282/8/3 283/8/3
f 287/8/3 286/8/3 285/8/3
f 288/8/3 286/8/3 287/8/3
f 291/8/3 290/8/3 289/8/3
f 292/8/3 290/8/3 291/8/3
f 295/8/3 294/8/3 293/8/3
f 296/8/3 294/8/3 295/8/3
f 299/8/3 298/8/3 297/8/3
f 300/8/3 298/8/3 299/8/3
f 303/8/3 302/8/3 301/8/3
f 304/8/3 302/8/3 303/8/3
f 307/8/3 306/8/3 305/8/3
f 308/8/3 306/8/3 307/8/3
f 311/8/3 310/8/3 309/8/3
f 312/8/3 310/8/3 311/8/3
f 315/8/3 314/8/3 313/8/3
f 316/8/3 314/8/3 315/8/3
f 319/8/3 318/8/3 317/8/3
f 320/8/3 318/8/3 319/8/3
f 323/8/3 322/8/3 321/8/3
f 324/8/3 322/8/3 323/8/3
f 327/8/3 326/8/3 325/8/3
f 328/8/3 326/8/3 327/8/3
f 331/8/3 330/8/3 329/8/3
f 332/8/3 330/8/3 331/8/3
f 335/8/3 334/8/3 333/8/3
f 336/8/3 334/8/3 335/8/3
f 339/8/3 338/8/3 337/8/3
f 340/8/3 338/8/3 339/8/3
f 343/8/3 342/8/3 341/8/3
f 344/8/3 342/8/3 343/8/3
f 347/8/3 346/8/3 345/8/3
f 348/8/3 346/8/3 347/8/3
f 351/8/3 350/8/3 349/8/3
f 352/8/3 350/8/3 351/8/3
f 355/8/3 354/8/3 353/8/3
f 356/8/3 354/8/3 355/8/3
f 359/8/3 358/8/3 357/8/3
f 360/8/3 358/8/3 359/8/3
f 363/8/3 362/8/3 361/8/3
f 364/8/3 362/8/3 363/8/3
f 367/8/3 366/8/3 365/8/3
f 368/8/3 366/8/3 367/8/3
f 371/8/3 370/8/3 369/8/3
f 372/8/3 370/8/3 371/8/3
f 375/8/3 374/8/3 373/8/3
f 376/8/3 374/8/3 375/8/3
f 379/8/3 378/8/3 377/8/3
f 380/8/3 378/8/3 379/8/3
f 383/8/3 382/8/3 381/8/3
f 384/8/3 382/8/3 383/8/3
f 385/8/3 382/8/3 384/8/3
f 386/7/3 385/7/3 384/7/3
f 387/7/3 385/7/3 386/7/3
f 388/7/3 385/7/3 387/7/3
f 391/7/3 390/7/3 389/7/3
f 393/7/3 390/7/3 391/7/3
f 394/7/3 390/7/3 393/7/3
f 395/8/3 393/8/3 392/8/3
f 395/8/3 394/8/3 393/8/3
f 396/8/3 394/8/3 395/8/3
f 399/7/3 398/7/3 397/7/3
f 400/7/3 398/7/3 399/7/3
f 403/7/3 402/7/3 401/7/3
f 404/7/3 402/7/3 403/7/3
f 407/7/3 406/7/3 405/7/3
f 408/7/3 406/7/3 407/7/3
f 409/7/3 406/7/3 408/7/3
f 410/4/3 408/4/3 407/4/3
f 411/4/3 408/4/3 410/4/3
f 413/7/3 411/7/3 410/7/3
f 413/7/3 412/7/3 411/7/3
f 414/7/3 412/7/3 413/7/3
f 415/7/4 416/7/4 417/7/4
f 417/7/4 416/7/4 418/7/4
f 418/7/4 416/7/4 419/7/4
f 417/4/4 418/4/4 420/4/4
f 420/4/4 418/4/4 421/4/4
f 420/7/4 421/7/4 423/7/4
f 421/7/4 422/7/4 423/7/4
f 423/7/4 422/7/4 424/7/4
f 425/7/4 426/7/4 427/7/4
f 427/7/4 426/7/4 428/7/4
f 429/7/4 430/7/4 431/7/4
f 431/7/4 430/7/4 432/7/4
f 433/8/4 434/8/4 435/8/4
f 435/8/4 434/8/4 436/8/4
f 436/8/4 434/8/4 437/8/4
f 436/7/4 437/7/4 438/7/4
f 438/7/4 437/7/4 439/7/4
f 439/7/4 437/7/4 440/7/4
f 441/7/4 442/7/4 443/7/4
f 443/7/4 442/7/4 445/7/4
f 445/7/4 442/7/4 446/7/4
f 444/8/4 445/8/4 447/8/4
f 445/8/4 446/8/4 447/8/4
f 447/8/4 446/8/4 448/8/4
f 449/8/4 450/8/4 451/8/4
f 451/8/4 450/8/4 452/8/4
f 453/8/4 454/8/4 455/8/4
f 455/8/4 454/8/4 456/8/4
f 457/8/4 458/8/4 459/8/4
f 459/8/4 458/8/4 460/8/4
f 461/8/4 462/8/4 463/8/4
f 463/8/4 462/8/4 464/8/4
f 465/8/4 466/8/4 467/8/4
f 467/8/4 466/8/4 468/8/4
f 469/8/4 470/8/4 471/8/4
f 471/8/4 470/8/4 472/8/4
f 473/8/4 474/8/4 475/8/4
f 475/8/4 474/8/4 476/8/4
f 477/8/4 478/8/4 479/8/4
f 479/8/4 478/8/4 480/8/4
f 481/8/4 482/8/4 483/8/4
f 483/8/4 482/8/4 484/8/4
f 485/8/4 486/8/4 487/8/4
f 487/8/4 486/8/4 488/8/4
f 489/8/4 490/8/4 491/8/4
f 491/8/4 490/8/4 492/8/4
f 493/8/4 494/8/4 495/8/4
f 495/8/4 494/8/4 496/8/4
f 497/8/4 498/8/4 499/8/4
f 499/8/4 498/8/4 500/8/4
f 501/8/4 502/8/4 503/8/4
f 503/8/4 502/8/4 504/8/4
f 505/8/4 506/8/4 507/8/4
f 507/8/4 506/8/4 508/8/4
f 509/8/4 510/8/4 511/8/4
f 511/8/4 510/8/4 512/8/4
f 512/8/4 510/8/4 513/8/4
f 514/8/4 515/8/4 516/8/4
f 516/8/4 515/8/4 517/8/4
f 518/8/4 519/8/4 520/8/4
f 520/8/4 519/8/4 521/8/4
f 522/8/4 523/8/4 524/8/4
f 524/8/4 523/8/4 525/8/4
f 526/8/4 527/8/4 528/8/4
f 528/8/4 527/8/4 529/8/4
f 530/8/4 531/8/4 532/8/4
f 532/8/4 531/8/4 533/8/4
f 534/8/4 535/8/4 536/8/4
f 536/8/4 535/8/4 537/8/4
f 538/8/4 539/8/4 540/8/4
f 540/8/4 539/8/4 541/8/4
f 542/8/4 543/8/4 544/8/4
f 544/8/4 543/8/4 545/8/4
f 546/8/4 547/8/4 548/8/4
f 548/8/4 547/8/4 549/8/4
f 550/8/4 551/8/4 552/8/4
f 552/8/4 551/8/4 553/8/4
f 554/8/4 555/8/4 556/8/4
f 556/8/4 555/8/4 557/8/4
f 558/8/4 559/8/4 560/8/4
f 560/8/4 559/8/4 561/8/4
f 567/8/5 563/8/5 562/8/5
f 568/8/5 563/8/5 567/8/5
f 569/8/5 565/8/5 564/8/5
f 570/8/5 565/8/5 569/8/5
f 573/8/5 568/8/5 567/8/5
f 573/8/5 571/8/5 570/8/5
f 573/8/5 570/8/5 569/8/5
f 573/8/5 569/8/5 568/8/5
f 573/8/5 567/8/5 566/8/5
f 574/8/5 571/8/5 573/8/5
f 576/8/5 573/8/5 572/8/5
f 576/8/5 575/8/5 574/8/5
f 576/8/5 574/8/5 573/8/5
f 577/8/5 575/8/5 576/8/5
f 578/8/5 575/8/5 577/8/5
f 579/8/5 575/8/5 578/8/5
f 581/8/5 578/8/5 577/8/5
f 582/8/5 578/8/5 581/8/5
f 584/8/5 581/8/5 580/8/5
f 584/8/5 583/8/5 582/8/5
f 584/8/5 582/8/5 581/8/5
f 585/8/5 583/8/5 584/8/5
f 586/8/5 583/8/5 585/8/5
f 587/8/5 583/8/5 586/8/5
f 588/8/5 586/8/5 585/8/5
f 589/8/5 586/8/5 588/8/5
f 590/8/5 586/8/5 589/8/5
f 591/8/5 586/8/5 590/8/5
f 592/8/5 586/8/5 591/8/5
f 593/8/5 586/8/5 592/8/5
f 594/8/5 590/8/5 589/8/5
f 595/8/5 590/8/5 594/8/5
f 596/8/5 592/8/5 591/8/5
f 597/8/5 592/8/5 596/8/5
f 598/5/6 599/5/6 603/5/6
f 600/5/6 601/5/6 603/5/6
f 599/5/6 600/5/6 603/5/6
f 603/5/6 601/5/6 604/5/6
f 604/5/6 601/5/6 605/5/6
f 605/5/6 601/5/6 606/5/6
f 602/6/6 603/6/6 608/6/6
f 603/5/6 604/5/6 608/5/6
f 608/5/6 604/5/6 609/5/6
f 609/5/6 604/5/6 610/5/6
f 610/5/6 604/5/6 611/5/6
f 606/5/6 607/5/6 612/5/6
f 605/5/6 606/5/6 612/5/6
f 612/5/6 607/5/6 613/5/6
f 602/6/6 608/6/6 614/6/6
f 608/6/6 609/6/6 614/6/6
f 609/5/6 610/5/6 615/5/6
f 614/6/6 609/6/6 615/6/6
f 615/5/6 610/5/6 616/5/6
f 616/5/6 610/5/6 617/5/6
f 617/5/6 610/5/6 618/5/6
f 613/5/6 607/5/6 619/5/6
f 619/5/6 607/5/6 620/5/6
f 620/5/6 607/5/6 621/5/6
f 614/6/6 615/6/6 622/6/6
f 615/6/6 616/6/6 622/6/6
f 616/5/6 617/5/6 622/5/6
f 622/5/6 617/5/6 623/5/6
f 623/5/6 617/5/6 624/5/6
f 624/5/6 617/5/6 625/5/6
f 620/5/6 621/5/6 626/5/6
f 626/5/6 621/5/6 627/5/6
f 622/6/6 623/6/6 628/6/6
f 623/5/6 624/5/6 628/5/6
f 628/5/6 624/5/6 629/5/6
f 627/5/6 621/5/6 630/5/6
f 630/5/6 621/5/6 631/5/6
f 629/5/6 624/5/6 632/5/6
f 628/6/6 629/6/6 632/6/6
f 632/5/6 624/5/6 633/5/6
f 632/6/6 633/6/6 636/6/6
f 633/5/6 624/5/6 636/5/6
f 636/5/6 624/5/6 637/5/6
f 637/5/6 624/5/6 638/5/6
f 634/5/6 635/5/6 641/5/6
f 641/5/6 635/5/6 642/5/6
f 642/5/6 635/5/6 643/5/6
f 638/5/6 639/5/6 644/5/6
f 636/6/6 637/6/6 644/6/6
f 637/5/6 638/5/6 644/5/6
f 644/5/6 639/5/6 645/5/6
f 645/5/6 639/5/6 646/5/6
f 641/5/6 642/5/6 647/5/6
f 640/5/6 641/5/6 647/5/6
f 631/5/6 621/5/6 649/5/6
f 614/6/6 622/6/6 650/6/6
f 622/6/6 628/6/6 650/6/6
f 628/6/6 632/6/6 650/6/6
f 632/6/6 636/6/6 650/6/6
f 644/6/6 645/6/6 650/6/6
f 636/6/6 644/6/6 650/6/6
f 646/5/6 647/5/6 651/5/6
f 650/6/6 645/6/6 651/6/6
f 645/5/6 646/5/6 651/5/6
f 651/5/6 647/5/6 652/5/6
f 652/5/6 647/5/6 653/5/6
f 647/5/6 642/5/6 654/5/6
f 653/5/6 647/5/6 654/5/6
f 648/5/6 649/5/6 655/5/6
f 649/5/6 621/5/6 656/5/6
f 655/5/6 649/5/6 656/5/6
f 652/5/6 653/5/6 657/5/6
f 651/6/6 652/6/6 657/6/6
f 657/5/6 653/5/6 658/5/6
f 658/5/6 653/5/6 659/5/6
f 654/5/6 642/5/6 660/5/6
f 660/5/6 642/5/6 661/5/6
f 661/5/6 642/5/6 662/5/6
f 662/5/6 663/5/6 664/5/6
f 661/5/6 662/5/6 664/5/6
f 664/5/6 663/5/6 665/5/6
f 651/6/6 657/6/6 666/6/6
f 657/6/6 658/6/6 666/6/6
f 666/6/6 658/6/6 667/6/6
f 656/5/6 621/5/6 669/5/6
f 614/6/6 650/6/6 670/6/6
f 667/6/6 658/6/6 672/6/6
f 668/5/6 669/5/6 675/5/6
f 672/6/6 673/6/6 676/6/6
f 674/5/6 675/5/6 679/5/6
f 676/6/6 677/6/6 680/6/6
f 678/5/6 679/5/6 683/5/6
f 670/6/6 671/6/6 684/6/6
f 680/6/6 681/6/6 686/6/6
f 667/6/6 672/6/6 686/6/6
f 672/6/6 676/6/6 686/6/6
f 676/6/6 680/6/6 686/6/6
f 686/6/6 681/6/6 687/6/6
f 687/6/6 681/6/6 688/6/6
f 682/5/6 683/5/6 690/5/6
f 684/6/6 685/6/6 691/6/6
f 614/6/6 670/6/6 691/6/6
f 670/6/6 684/6/6 691/6/6
f 691/6/6 685/6/6 692/6/6
f 689/5/6 690/5/6 693/5/6
f 688/6/6 689/6/6 693/6/6
f 687/6/6 688/6/6 693/6/6
f 693/5/6 690/5/6 694/5/6
f 694/5/6 690/5/6 695/5/6
f 693/6/6 694/6/6 695/6/6
f 695/5/6 690/5/6 696/5/6
f 695/6/6 696/6/6 697/6/6
f 696/5/6 690/5/6 697/5/6
f 690/5/6 683/5/6 698/5/6
f 697/5/6 690/5/6 698/5/6
f 687/6/6 693/6/6 700/6/6
f 695/6/6 697/6/6 700/6/6
f 697/6/6 698/6/6 700/6/6
f 693/6/6 695/6/6 700/6/6
f 698/5/6 683/5/6 701/5/6
f 700/6/6 698/6/6 701/6/6
f 683/5/6 679/5/6 702/5/6
f 701/5/6 683/5/6 702/5/6
f 614/6/6 691/6/6 703/6/6
f 703/6/6 691/6/6 704/6/6
f 699/6/6 700/6/6 706/6/6
f 702/5/6 679/5/6 706/5/6
f 700/6/6 701/6/6 706/6/6
f 701/6/6 702/6/6 706/6/6
f 679/5/6 675/5/6 707/5/6
f 706/5/6 679/5/6 707/5/6
f 669/5/6 621/5/6 708/5/6
f 707/5/6 675/5/6 708/5/6
f 675/5/6 669/5/6 708/5/6
f 704/6/6 705/6/6 709/6/6
f 703/6/6 704/6/6 709/6/6
f 706/6/6 707/6/6 712/6/6
f 699/6/6 706/6/6 712/6/6
f 707/5/6 708/5/6 713/5/6
f 712/6/6 707/6/6 713/6/6
f 713/5/6 708/5/6 714/5/6
f 709/6/6 710/6/6 715/6/6
f 703/6/6 709/6/6 715/6/6
f 715/6/6 710/6/6 716/6/6
f 716/6/6 710/6/6 717/6/6
f 711/6/6 712/6/6 718/6/6
f 713/6/6 714/6/6 718/6/6
f 712/6/6 713/6/6 718/6/6
f 714/5/6 708/5/6 719/5/6
f 718/6/6 714/6/6 719/6/6
f 719/5/6 708/5/6 720/5/6
f 720/5/6 708/5/6 721/5/6
f 717/6/6 718/6/6 722/6/6
f 716/6/6 717/6/6 722/6/6
f 719/6/6 720/6/6 722/6/6
f 718/6/6 719/6/6 722/6/6
f 722/6/6 720/6/6 723/6/6
f 723/6/6 720/6/6 724/6/6
f 724/6/6 720/6/6 725/6/6
f 726/8/6 727/8/6 728/8/6
f 728/8/6 727/8/6 729/8/6
f 728/4/6 729/4/6 730/4/6
f 730/4/6 729/4/6 731/4/6
f 732/8/6 733/8/6 735/8/6
f 735/8/6 733/8/6 736/8/6
f 736/8/6 733/8/6 737/8/6
f 737/8/6 733/8/6 738/8/6
f 734/8/6 735/8/6 744/8/6
f 735/8/6 736/8/6 744/8/6
f 744/8/6 736/8/6 745/8/6
f 736/1/6 737/1/6 746/1/6
f 745/8/6 736/8/6 746/8/6
f 737/8/6 738/8/6 747/8/6
f 746/1/6 737/1/6 747/1/6
f 738/8/6 739/8/6 747/8/6
f 747/8/6 739/8/6 748/8/6
f 748/8/6 739/8/6 749/8/6
f 744/8/6 745/8/6 755/8/6
f 743/8/6 744/8/6 755/8/6
f 755/8/6 745/8/6 756/8/6
f 745/1/6 746/1/6 757/1/6
f 756/8/6 745/8/6 757/8/6
f 746/1/6 747/1/6 757/1/6
f 747/1/6 748/1/6 757/1/6
f 757/1/6 748/1/6 758/1/6
f 758/1/6 748/1/6 759/1/6
f 749/8/6 750/8/6 760/8/6
f 759/1/6 748/1/6 760/1/6
f 748/8/6 749/8/6 760/8/6
f 760/8/6 750/8/6 761/8/6
f 761/8/6 750/8/6 762/8/6
f 755/8/6 756/8/6 764/8/6
f 754/8/6 755/8/6 764/8/6
f 757/1/6 758/1/6 765/1/6
f 764/8/6 756/8/6 765/8/6
f 756/1/6 757/1/6 765/1/6
f 765/1/6 758/1/6 766/1/6
f 758/8/6 759/8/6 767/8/6
f 766/1/6 758/1/6 767/1/6
f 760/1/6 761/1/6 768/1/6
f 767/8/6 759/8/6 768/8/6
f 759/1/6 760/1/6 768/1/6
f 768/1/6 761/1/6 769/1/6
f 762/8/6 763/8/6 770/8/6
f 769/1/6 761/1/6 770/1/6
f 761/8/6 762/8/6 770/8/6
f 770/8/6 763/8/6 771/8/6
f 771/8/6 763/8/6 772/8/6
f 765/1/6 766/1/6 774/1/6
f 754/8/6 764/8/6 774/8/6
f 764/1/6 765/1/6 774/1/6
f 774/1/6 766/1/6 775/1/6
f 775/1/6 766/1/6 776/1/6
f 768/8/6 769/8/6 777/8/6
f 776/1/6 766/1/6 777/1/6
f 767/8/6 768/8/6 777/8/6
f 766/8/6 767/8/6 777/8/6
f 777/8/6 769/8/6 778/8/6
f 778/8/6 769/8/6 779/8/6
f 770/1/6 771/1/6 780/1/6
f 779/8/6 769/8/6 780/8/6
f 769/1/6 770/1/6 780/1/6
f 780/1/6 771/1/6 781/1/6
f 772/8/6 773/8/6 782/8/6
f 781/1/6 771/1/6 782/1/6
f 771/8/6 772/8/6 782/8/6
f 782/8/6 773/8/6 783/8/6
f 774/8/6 775/8/6 784/8/6
f 754/8/6 774/8/6 784/8/6
f 784/8/6 775/8/6 785/8/6
f 775/1/6 776/1/6 786/1/6
f 785/8/6 775/8/6 786/8/6
f 777/8/6 778/8/6 787/8/6
f 786/1/6 776/1/6 787/1/6
f 776/8/6 777/8/6 787/8/6
f 787/8/6 778/8/6 788/8/6
f 788/8/6 778/8/6 789/8/6
f 780/8/6 781/8/6 791/8/6
f 779/8/6 780/8/6 791/8/6
f 791/8/6 781/8/6 792/8/6
f 782/1/6 783/1/6 793/1/6
f 792/8/6 781/8/6 793/8/6
f 781/1/6 782/1/6 793/1/6
f 793/1/6 783/1/6 794/1/6
f 783/8/6 773/8/6 795/8/6
f 794/1/6 783/1/6 795/1/6
f 787/8/6 788/8/6 796/8/6
f 785/8/6 786/8/6 796/8/6
f 786/8/6 787/8/6 796/8/6
f 796/8/6 788/8/6 797/8/6
f 791/8/6 792/8/6 798/8/6
f 790/8/6 791/8/6 798/8/6
f 792/1/6 793/1/6 799/1/6
f 798/8/6 792/8/6 799/8/6
f 793/1/6 794/1/6 799/1/6
f 799/1/6 794/1/6 800/1/6
f 794/8/6 795/8/6 801/8/6
f 800/1/6 794/1/6 801/1/6
f 795/8/6 773/8/6 802/8/6
f 801/8/6 795/8/6 802/8/6
f 802/8/6 773/8/6 803/8/6
f 799/1/6 800/1/6 808/1/6
f 790/8/6 798/8/6 808/8/6
f 798/1/6 799/1/6 808/1/6
f 808/1/6 800/1/6 809/1/6
f 800/8/6 801/8/6 810/8/6
f 809/1/6 800/1/6 810/1/6
f 801/8/6 802/8/6 810/8/6
f 810/8/6 802/8/6 811/8/6
f 811/8/6 802/8/6 812/8/6
f 804/8/6 805/8/6 814/8/6
f 814/8/6 805/8/6 815/8/6
f 806/8/6 807/8/6 817/8/6
f 817/8/6 807/8/6 818/8/6
f 818/8/6 807/8/6 819/8/6
f 819/8/6 807/8/6 820/8/6
f 808/8/6 809/8/6 822/8/6
f 790/8/6 808/8/6 822/8/6
f 822/8/6 809/8/6 823/8/6
f 809/1/6 810/1/6 824/1/6
f 823/8/6 809/8/6 824/8/6
f 810/1/6 811/1/6 824/1/6
f 824/1/6 811/1/6 825/1/6
f 812/8/6 813/8/6 826/8/6
f 825/1/6 811/1/6 826/1/6
f 811/8/6 812/8/6 826/8/6
f 826/8/6 813/8/6 827/8/6
f 816/8/6 817/8/6 828/8/6
f 817/8/6 818/8/6 828/8/6
f 818/1/6 819/1/6 829/1/6
f 828/8/6 818/8/6 829/8/6
f 820/8/6 821/8/6 830/8/6
f 829/1/6 819/1/6 830/1/6
f 819/8/6 820/8/6 830/8/6
f 830/8/6 821/8/6 831/8/6
f 831/8/6 821/8/6 832/8/6
f 824/8/6 825/8/6 833/8/6
f 823/8/6 824/8/6 833/8/6
f 833/8/6 825/8/6 834/8/6
f 826/1/6 827/1/6 835/1/6
f 834/8/6 825/8/6 835/8/6
f 825/1/6 826/1/6 835/1/6
f 835/1/6 827/1/6 836/1/6
f 827/8/6 813/8/6 837/8/6
f 836/1/6 827/1/6 837/1/6
f 804/8/6 814/8/6 838/8/6
f 814/1/6 815/1/6 838/1/6
f 838/1/6 815/1/6 839/1/6
f 815/8/6 805/8/6 840/8/6
f 828/1/6 829/1/6 842/1/6
f 816/8/6 828/8/6 842/8/6
f 830/1/6 831/1/6 842/1/6
f 829/1/6 830/1/6 842/1/6
f 842/1/6 831/1/6 843/1/6
f 831/8/6 832/8/6 844/8/6
f 843/1/6 831/1/6 844/1/6
f 833/8/6 834/8/6 844/8/6
f 832/8/6 833/8/6 844/8/6
f 844/8/6 834/8/6 845/8/6
f 845/8/6 834/8/6 846/8/6
f 835/1/6 836/1/6 847/1/6
f 846/8/6 834/8/6 847/8/6
f 834/1/6 835/1/6 847/1/6
f 847/1/6 836/1/6 848/1/6
f 836/8/6 837/8/6 849/8/6
f 848/1/6 836/1/6 849/1/6
f 837/8/6 813/8/6 850/8/6
f 849/8/6 837/8/6 850/8/6
f 850/8/6 813/8/6 851/8/6
f 838/8/6 839/8/6 852/8/6
f 804/8/6 838/8/6 852/8/6
f 852/8/6 839/8/6 853/8/6
f 840/8/6 841/8/6 854/8/6
f 839/1/6 815/1/6 854/1/6
f 815/8/6 840/8/6 854/8/6
f 854/8/6 841/8/6 855/8/6
f 842/8/6 843/8/6 856/8/6
f 816/8/6 842/8/6 856/8/6
f 856/8/6 843/8/6 857/8/6
f 844/1/6 845/1/6 858/1/6
f 857/8/6 843/8/6 858/8/6
f 843/1/6 844/1/6 858/1/6
f 858/1/6 845/1/6 859/1/6
f 845/8/6 846/8/6 860/8/6
f 859/1/6 845/1/6 860/1/6
f 847/1/6 848/1/6 861/1/6
f 860/8/6 846/8/6 861/8/6
f 846/1/6 847/1/6 861/1/6
f 861/1/6 848/1/6 862/1/6
f 848/8/6 849/8/6 863/8/6
f 862/1/6 848/1/6 863/1/6
f 849/8/6 850/8/6 863/8/6
f 863/8/6 850/8/6 864/8/6
f 864/8/6 850/8/6 865/8/6
f 858/8/6 859/8/6 866/8/6
f 857/8/6 858/8/6 866/8/6
f 866/8/6 859/8/6 867/8/6
f 861/1/6 862/1/6 868/1/6
f 867/8/6 859/8/6 868/8/6
f 859/1/6 860/1/6 868/1/6
f 860/1/6 861/1/6 868/1/6
f 868/1/6 862/1/6 869/1/6
f 869/1/6 862/1/6 870/1/6
f 863/8/6 864/8/6 871/8/6
f 870/1/6 862/1/6 871/1/6
f 862/8/6 863/8/6 871/8/6
f 871/8/6 864/8/6 872/8/6
f 872/8/6 864/8/6 873/8/6
f 853/8/6 839/8/6 874/8/6
f 854/1/6 855/1/6 874/1/6
f 839/1/6 854/1/6 874/1/6
f 874/1/6 855/1/6 875/1/6
f 868/8/6 869/8/6 876/8/6
f 867/8/6 868/8/6 876/8/6
f 876/8/6 869/8/6 877/8/6
f 869/1/6 870/1/6 878/1/6
f 877/8/6 869/8/6 878/8/6
f 871/8/6 872/8/6 879/8/6
f 878/1/6 870/1/6 879/1/6
f 870/8/6 871/8/6 879/8/6
f 879/8/6 872/8/6 880/8/6
f 880/8/6 872/8/6 881/8/6
f 874/8/6 875/8/6 882/8/6
f 853/8/6 874/8/6 882/8/6
f 882/8/6 875/8/6 883/8/6
f 855/8/6 841/8/6 884/8/6
f 877/8/6 878/8/6 886/8/6
f 879/8/6 880/8/6 886/8/6
f 878/8/6 879/8/6 886/8/6
f 886/8/6 880/8/6 887/8/6
f 883/8/6 875/8/6 889/8/6
f 884/8/6 885/8/6 890/8/6
f 875/1/6 855/1/6 890/1/6
f 855/8/6 884/8/6 890/8/6
f 890/8/6 885/8/6 891/8/6
f 888/8/6 889/8/6 892/8/6
f 892/8/6 889/8/6 893/8/6
f 892/1/6 893/1/6 894/1/6
f 893/8/6 889/8/6 894/8/6
f 889/8/6 875/8/6 895/8/6
f 894/8/6 889/8/6 895/8/6
f 875/1/6 890/1/6 896/1/6
f 890/1/6 891/1/6 896/1/6
f 891/8/6 885/8/6 897/8/6
f 896/1/6 891/1/6 897/1/6
f 892/1/6 894/1/6 898/1/6
f 894/1/6 895/1/6 898/1/6
f 888/8/6 892/8/6 898/8/6
f 898/1/6 895/1/6 899/1/6
f 895/8/6 875/8/6 900/8/6
f 899/1/6 895/1/6 900/1/6
f 875/1/6 896/1/6 901/1/6
f 900/8/6 875/8/6 901/8/6
f 897/8/6 885/8/6 902/8/6
f 896/8/6 897/8/6 902/8/6
f 902/8/6 885/8/6 903/8/6
f 740/8/6 741/8/6 904/8/6
f 741/4/6 742/4/6 905/4/6
f 904/8/6 741/8/6 905/8/6
f 905/4/6 742/4/6 906/4/6
f 898/8/6 899/8/6 907/8/6
f 888/8/6 898/8/6 907/8/6
f 907/8/6 899/8/6 908/8/6
f 899/1/6 900/1/6 909/1/6
f 908/8/6 899/8/6 909/8/6
f 900/1/6 901/1/6 909/1/6
f 909/1/6 901/1/6 910/1/6
f 901/1/6 896/1/6 911/1/6
f 910/1/6 901/1/6 911/1/6
f 896/8/6 902/8/6 912/8/6
f 911/1/6 896/1/6 912/1/6
f 751/4/6 752/4/6 913/4/6
f 752/8/6 753/8/6 914/8/6
f 913/4/6 752/4/6 914/4/6
f 914/8/6 753/8/6 915/8/6
f 908/8/6 909/8/6 916/8/6
f 909/8/6 910/8/6 916/8/6
f 916/8/6 910/8/6 917/8/6
f 910/1/6 911/1/6 918/1/6
f 917/8/6 910/8/6 918/8/6
f 911/8/6 912/8/6 919/8/6
f 918/1/6 911/1/6 919/1/6
f 912/8/6 902/8/6 920/8/6
f 919/8/6 912/8/6 920/8/6
f 920/8/6 902/8/6 921/8/6
f 918/8/6 919/8/6 922/8/6
f 917/8/6 918/8/6 922/8/6
f 919/8/6 920/8/6 922/8/6
f 922/8/6 920/8/6 923/8/6
f 924/4/6 925/4/6 926/4/6
f 926/4/6 925/4/6 927/4/6
f 926/8/6 927/8/6 928/8/6
f 928/8/6 927/8/6 929/8/6
f 930/8/6 931/8/6 935/8/6
f 935/8/6 931/8/6 936/8/6
f 932/8/6 933/8/6 937/8/6
f 937/8/6 933/8/6 938/8/6
f 934/8/6 935/8/6 941/8/6
f 935/7/6 936/7/6 942/7/6
f 941/8/6 935/8/6 942/8/6
f 938/8/6 939/8/6 943/8/6
f 937/7/6 938/7/6 943/7/6
f 943/8/6 939/8/6 944/8/6
f 942/7/6 936/7/6 946/7/6
f 941/7/6 942/7/6 946/7/6
f 946/7/6 936/7/6 947/7/6
f 943/7/6 944/7/6 948/7/6
f 937/7/6 943/7/6 948/7/6
f 948/7/6 944/7/6 949/7/6
f 941/7/6 946/7/6 950/7/6
f 950/7/6 946/7/6 951/7/6
f 949/7/6 944/7/6 952/7/6
f 952/7/6 944/7/6 953/7/6
f 940/8/6 941/8/6 954/8/6
f 941/7/6 950/7/6 955/7/6
f 954/8/6 941/8/6 955/8/6
f 955/7/6 950/7/6 956/7/6
f 953/7/6 944/7/6 957/7/6
f 944/8/6 945/8/6 958/8/6
f 957/7/6 944/7/6 958/7/6
f 958/8/6 945/8/6 959/8/6
f 961/7/6 962/7/6 966/7/6
f 963/7/6 964/7/6 969/7/6
f 966/7/6 967/7/6 970/7/6
f 968/7/6 969/7/6 973/7/6
f 960/8/6 961/8/6 974/8/6
f 970/7/6 971/7/6 975/7/6
f 974/8/6 961/8/6 975/8/6
f 961/7/6 966/7/6 975/7/6
f 966/7/6 970/7/6 975/7/6
f 975/7/6 971/7/6 976/7/6
f 972/7/6 973/7/6 977/7/6
f 973/7/6 969/7/6 977/7/6
f 969/7/6 964/7/6 977/7/6
f 964/8/6 965/8/6 978/8/6
f 977/7/6 964/7/6 978/7/6
f 978/8/6 965/8/6 979/8/6
f 975/8/6 976/8/6 980/8/6
f 976/7/6 971/7/6 981/7/6
f 980/8/6 976/8/6 981/8/6
f 981/7/6 971/7/6 982/7/6
f 972/7/6 977/7/6 983/7/6
f 977/8/6 978/8/6 984/8/6
f 983/7/6 977/7/6 984/7/6
f 984/8/6 978/8/6 985/8/6
f 981/8/6 982/8/6 986/8/6
f 986/8/6 982/8/6 987/8/6
f 983/8/6 984/8/6 988/8/6
f 988/8/6 984/8/6 989/8/6
