# MagicaVoxel @ Ephtracy

# group
g CoinPanel2

# material
mtllib CoinPanel2.mtl
usemtl palette

# normals
vn -1 0 0
vn 1 0 0
vn 0 0 1
vn 0 0 -1
vn 0 -1 0
vn 0 1 0

# texcoords
vt 0.205078 0.5
vt 0.208984 0.5
vt 0.232422 0.5
vt 0.306641 0.5
vt 0.396484 0.5
vt 0.533203 0.5
vt 0.537109 0.5
vt 0.642578 0.5
vt 0.955078 0.5
vt 0.970703 0.5
vt 0.994141 0.5

# verts
v -15 0 13
v -15 0 9
v -15 0 -9
v -15 0 -13
v -15 5 13
v -15 5 9
v -15 5 -9
v -15 5 -13
v -14 0 14
v -14 0 13
v -14 0 9
v -14 0 -9
v -14 0 -13
v -14 0 -14
v -14 4 9
v -14 4 -9
v -14 5 14
v -14 5 13
v -14 5 -13
v -14 5 -14
v -13 0 15
v -13 0 14
v -13 0 -14
v -13 0 -15
v -13 5 15
v -13 5 14
v -13 5 -14
v -13 5 -15
v -9 3 7
v -9 3 1
v -9 5 7
v -9 5 1
v -8 3 9
v -8 3 7
v -8 3 1
v -8 3 -1
v -8 5 9
v -8 5 7
v -8 5 1
v -8 5 -1
v -7 3 -1
v -7 3 -2
v -7 5 -1
v -7 5 -2
v -6 3 10
v -6 3 9
v -6 3 -2
v -6 3 -3
v -6 3 -9
v -6 3 -11
v -6 5 10
v -6 5 9
v -6 5 -2
v -6 5 -3
v -6 5 -9
v -6 5 -11
v -5 3 -3
v -5 3 -4
v -5 3 -8
v -5 3 -9
v -5 5 -3
v -5 5 -4
v -5 5 -8
v -5 5 -9
v -4 1 5
v -4 1 4
v -4 2 5
v -4 2 4
v -4 3 -4
v -4 3 -5
v -4 3 -6
v -4 3 -8
v -4 4 5
v -4 4 4
v -4 4 2
v -4 4 1
v -4 5 5
v -4 5 1
v -4 5 -4
v -4 5 -5
v -4 5 -6
v -4 5 -8
v -3 3 11
v -3 3 10
v -3 3 -5
v -3 3 -6
v -3 4 6
v -3 4 5
v -3 4 1
v -3 4 -0
v -3 4 -5
v -3 4 -6
v -3 5 11
v -3 5 10
v -3 5 6
v -3 5 5
v -3 5 1
v -3 5 -0
v -3 5 -5
v -3 5 -6
v -2 4 7
v -2 4 6
v -2 4 -0
v -2 4 -1
v -2 5 7
v -2 5 6
v -2 5 -0
v -2 5 -1
v -1 4 4
v -1 4 2
v -1 5 4
v -1 5 2
v 2 4 10
v 2 4 9
v 2 4 6
v 2 4 5
v 2 4 1
v 2 4 -0
v 2 5 10
v 2 5 9
v 2 5 6
v 2 5 5
v 2 5 1
v 2 5 -0
v 3 4 5
v 3 4 1
v 3 4 -3
v 3 4 -4
v 3 4 -7
v 3 4 -9
v 3 5 5
v 3 5 1
v 3 5 -3
v 3 5 -4
v 3 5 -7
v 3 5 -9
v 4 4 -2
v 4 4 -3
v 4 4 -9
v 4 4 -10
v 4 5 -2
v 4 5 -3
v 4 5 -9
v 4 5 -10
v 5 1 5
v 5 1 4
v 5 2 5
v 5 2 4
v 5 4 9
v 5 4 8
v 5 4 -1
v 5 4 -2
v 5 5 9
v 5 5 8
v 5 5 -1
v 5 5 -2
v 6 4 -0
v 6 4 -1
v 6 5 -0
v 6 5 -1
v 7 4 8
v 7 4 6
v 7 4 2
v 7 4 -0
v 7 5 8
v 7 5 6
v 7 5 2
v 7 5 -0
v 8 4 6
v 8 4 2
v 8 5 6
v 8 5 2
v 9 0 15
v 9 0 14
v 9 0 -14
v 9 0 -15
v 9 4 14
v 9 4 13
v 9 4 12
v 9 4 -12
v 9 4 -13
v 9 4 -14
v 9 5 15
v 9 5 14
v 9 5 12
v 9 5 -12
v 9 5 -14
v 9 5 -15
v 11 3 12
v 11 3 11
v 11 3 -11
v 11 3 -12
v 11 5 12
v 11 5 11
v 11 5 -11
v 11 5 -12
v 12 3 11
v 12 3 9
v 12 3 -9
v 12 3 -11
v 12 4 9
v 12 4 -9
v 12 5 11
v 12 5 9
v 12 5 -9
v 12 5 -11
v -12 3 11
v -12 3 9
v -12 3 -9
v -12 3 -11
v -12 4 9
v -12 4 -9
v -12 5 11
v -12 5 9
v -12 5 -9
v -12 5 -11
v -11 3 12
v -11 3 11
v -11 3 -11
v -11 3 -12
v -11 5 12
v -11 5 11
v -11 5 -11
v -11 5 -12
v -9 0 15
v -9 0 14
v -9 0 -14
v -9 0 -15
v -9 4 14
v -9 4 13
v -9 4 12
v -9 4 -12
v -9 4 -13
v -9 4 -14
v -9 5 15
v -9 5 14
v -9 5 12
v -9 5 -12
v -9 5 -14
v -9 5 -15
v -8 4 6
v -8 4 2
v -8 5 6
v -8 5 2
v -7 4 8
v -7 4 6
v -7 4 2
v -7 4 -0
v -7 5 8
v -7 5 6
v -7 5 2
v -7 5 -0
v -6 4 -0
v -6 4 -1
v -6 5 -0
v -6 5 -1
v -5 1 5
v -5 1 4
v -5 2 5
v -5 2 4
v -5 4 9
v -5 4 8
v -5 4 -1
v -5 4 -2
v -5 5 9
v -5 5 8
v -5 5 -1
v -5 5 -2
v -4 4 -2
v -4 4 -3
v -4 4 -9
v -4 4 -10
v -4 5 -2
v -4 5 -3
v -4 5 -9
v -4 5 -10
v -3 4 5
v -3 4 1
v -3 4 -3
v -3 4 -4
v -3 4 -7
v -3 4 -9
v -3 5 5
v -3 5 1
v -3 5 -3
v -3 5 -4
v -3 5 -7
v -3 5 -9
v -2 4 10
v -2 4 9
v -2 4 6
v -2 4 5
v -2 4 1
v -2 4 -0
v -2 5 10
v -2 5 9
v -2 5 6
v -2 5 5
v -2 5 1
v -2 5 -0
v 1 4 4
v 1 4 2
v 1 5 4
v 1 5 2
v 2 4 7
v 2 4 6
v 2 4 -0
v 2 4 -1
v 2 5 7
v 2 5 6
v 2 5 -0
v 2 5 -1
v 3 3 11
v 3 3 10
v 3 3 -5
v 3 3 -6
v 3 4 6
v 3 4 5
v 3 4 1
v 3 4 -0
v 3 4 -5
v 3 4 -6
v 3 5 11
v 3 5 10
v 3 5 6
v 3 5 5
v 3 5 1
v 3 5 -0
v 3 5 -5
v 3 5 -6
v 4 1 5
v 4 1 4
v 4 2 5
v 4 2 4
v 4 3 -4
v 4 3 -5
v 4 3 -6
v 4 3 -8
v 4 4 5
v 4 4 4
v 4 4 2
v 4 4 1
v 4 5 5
v 4 5 1
v 4 5 -4
v 4 5 -5
v 4 5 -6
v 4 5 -8
v 5 3 -3
v 5 3 -4
v 5 3 -8
v 5 3 -9
v 5 5 -3
v 5 5 -4
v 5 5 -8
v 5 5 -9
v 6 3 10
v 6 3 9
v 6 3 -2
v 6 3 -3
v 6 3 -9
v 6 3 -11
v 6 5 10
v 6 5 9
v 6 5 -2
v 6 5 -3
v 6 5 -9
v 6 5 -11
v 7 3 -1
v 7 3 -2
v 7 5 -1
v 7 5 -2
v 8 3 9
v 8 3 7
v 8 3 1
v 8 3 -1
v 8 5 9
v 8 5 7
v 8 5 1
v 8 5 -1
v 9 3 7
v 9 3 1
v 9 5 7
v 9 5 1
v 13 0 15
v 13 0 14
v 13 0 -14
v 13 0 -15
v 13 5 15
v 13 5 14
v 13 5 -14
v 13 5 -15
v 14 0 14
v 14 0 13
v 14 0 9
v 14 0 -9
v 14 0 -13
v 14 0 -14
v 14 4 9
v 14 4 -9
v 14 5 14
v 14 5 13
v 14 5 -13
v 14 5 -14
v 15 0 13
v 15 0 9
v 15 0 -9
v 15 0 -13
v 15 5 13
v 15 5 9
v 15 5 -9
v 15 5 -13
v -13 0 15
v -13 5 15
v -9 0 15
v -9 5 15
v 9 0 15
v 9 5 15
v 13 0 15
v 13 5 15
v -14 0 14
v -14 5 14
v -13 0 14
v -13 5 14
v -9 0 14
v -9 4 14
v 9 0 14
v 9 4 14
v 13 0 14
v 13 5 14
v 14 0 14
v 14 5 14
v -15 0 13
v -15 5 13
v -14 0 13
v -14 5 13
v 14 0 13
v 14 5 13
v 15 0 13
v 15 5 13
v -3 3 11
v -3 5 11
v 3 3 11
v 3 5 11
v -6 3 10
v -6 5 10
v -3 3 10
v -3 5 10
v 3 3 10
v 3 5 10
v 6 3 10
v 6 5 10
v -8 3 9
v -8 5 9
v -6 3 9
v -6 5 9
v 6 3 9
v 6 5 9
v 8 3 9
v 8 5 9
v -9 3 7
v -9 5 7
v -8 3 7
v -8 5 7
v -2 4 7
v -2 5 7
v -1 4 7
v 1 4 7
v 2 4 7
v 2 5 7
v 8 3 7
v 8 5 7
v 9 3 7
v 9 5 7
v -3 4 6
v -3 5 6
v -2 4 6
v -2 5 6
v 2 4 6
v 2 5 6
v 3 4 6
v 3 5 6
v -4 4 5
v -4 5 5
v -3 4 5
v -3 5 5
v 3 4 5
v 3 5 5
v 4 4 5
v 4 5 5
v -5 1 4
v -5 2 4
v -4 1 4
v -4 2 4
v -1 4 4
v -1 5 4
v 1 4 4
v 1 5 4
v 4 1 4
v 4 2 4
v 5 1 4
v 5 2 4
v -8 4 2
v -8 5 2
v -7 4 2
v -7 5 2
v 7 4 2
v 7 5 2
v 8 4 2
v 8 5 2
v -3 4 1
v -3 5 1
v -2 4 1
v -2 5 1
v 2 4 1
v 2 5 1
v 3 4 1
v 3 5 1
v -7 4 -0
v -7 5 -0
v -6 4 -0
v -6 5 -0
v -2 4 -0
v -2 5 -0
v 2 4 -0
v 2 5 -0
v 6 4 -0
v 6 5 -0
v 7 4 -0
v 7 5 -0
v -6 4 -1
v -6 5 -1
v -5 4 -1
v -5 5 -1
v 5 4 -1
v 5 5 -1
v 6 4 -1
v 6 5 -1
v -5 4 -2
v -5 5 -2
v -4 4 -2
v -4 5 -2
v 4 4 -2
v 4 5 -2
v 5 4 -2
v 5 5 -2
v -4 4 -3
v -4 5 -3
v -3 4 -3
v -3 5 -3
v 3 4 -3
v 3 5 -3
v 4 4 -3
v 4 5 -3
v -3 4 -4
v -3 5 -4
v 3 4 -4
v 3 5 -4
v -4 3 -6
v -4 5 -6
v -3 3 -6
v -3 4 -6
v -3 5 -6
v 3 3 -6
v 3 4 -6
v 3 5 -6
v 4 3 -6
v 4 5 -6
v -5 3 -8
v -5 5 -8
v -4 3 -8
v -4 5 -8
v 4 3 -8
v 4 5 -8
v 5 3 -8
v 5 5 -8
v -15 0 -9
v -15 5 -9
v -14 0 -9
v -14 4 -9
v -14 5 -9
v -13 4 -9
v -12 4 -9
v -12 5 -9
v -6 3 -9
v -6 5 -9
v -5 3 -9
v -5 5 -9
v 5 3 -9
v 5 5 -9
v 6 3 -9
v 6 5 -9
v 12 4 -9
v 12 5 -9
v 13 4 -9
v 14 0 -9
v 14 4 -9
v 14 5 -9
v 15 0 -9
v 15 5 -9
v -4 4 -10
v -4 5 -10
v 4 4 -10
v 4 5 -10
v -12 3 -11
v -12 5 -11
v -11 3 -11
v -11 5 -11
v 11 3 -11
v 11 5 -11
v 12 3 -11
v 12 5 -11
v -11 3 -12
v -11 5 -12
v -9 3 -12
v -9 4 -12
v -9 5 -12
v 9 3 -12
v 9 4 -12
v 9 5 -12
v 11 3 -12
v 11 5 -12
v -11 3 12
v -11 5 12
v -9 3 12
v -9 4 12
v -9 5 12
v 9 3 12
v 9 4 12
v 9 5 12
v 11 3 12
v 11 5 12
v -12 3 11
v -12 5 11
v -11 3 11
v -11 5 11
v 11 3 11
v 11 5 11
v 12 3 11
v 12 5 11
v -2 4 10
v -2 5 10
v 2 4 10
v 2 5 10
v -15 0 9
v -15 5 9
v -14 0 9
v -14 4 9
v -14 5 9
v -13 4 9
v -12 4 9
v -12 5 9
v -5 4 9
v -5 5 9
v -2 4 9
v -2 5 9
v 2 4 9
v 2 5 9
v 5 4 9
v 5 5 9
v 12 4 9
v 12 5 9
v 13 4 9
v 14 0 9
v 14 4 9
v 14 5 9
v 15 0 9
v 15 5 9
v -7 4 8
v -7 5 8
v -5 4 8
v -5 5 8
v 5 4 8
v 5 5 8
v 7 4 8
v 7 5 8
v -8 4 6
v -8 5 6
v -7 4 6
v -7 5 6
v -2 4 6
v -2 5 6
v 2 4 6
v 2 5 6
v 7 4 6
v 7 5 6
v 8 4 6
v 8 5 6
v -5 1 5
v -5 2 5
v -4 1 5
v -4 2 5
v -3 4 5
v -3 5 5
v -2 4 5
v -2 5 5
v 2 4 5
v 2 5 5
v 3 4 5
v 3 5 5
v 4 1 5
v 4 2 5
v 5 1 5
v 5 2 5
v -1 4 2
v -1 5 2
v 1 4 2
v 1 5 2
v -9 3 1
v -9 5 1
v -8 3 1
v -8 5 1
v -4 4 1
v -4 5 1
v -3 4 1
v -3 5 1
v 3 4 1
v 3 5 1
v 4 4 1
v 4 5 1
v 8 3 1
v 8 5 1
v 9 3 1
v 9 5 1
v -3 4 -0
v -3 5 -0
v -2 4 -0
v -2 5 -0
v 2 4 -0
v 2 5 -0
v 3 4 -0
v 3 5 -0
v -8 3 -1
v -8 5 -1
v -7 3 -1
v -7 5 -1
v -2 4 -1
v -2 5 -1
v -1 4 -1
v 1 4 -1
v 2 4 -1
v 2 5 -1
v 7 3 -1
v 7 5 -1
v 8 3 -1
v 8 5 -1
v -7 3 -2
v -7 5 -2
v -6 3 -2
v -6 5 -2
v 6 3 -2
v 6 5 -2
v 7 3 -2
v 7 5 -2
v -6 3 -3
v -6 5 -3
v -5 3 -3
v -5 5 -3
v 5 3 -3
v 5 5 -3
v 6 3 -3
v 6 5 -3
v -5 3 -4
v -5 5 -4
v -4 3 -4
v -4 5 -4
v 4 3 -4
v 4 5 -4
v 5 3 -4
v 5 5 -4
v -4 3 -5
v -4 5 -5
v -3 3 -5
v -3 4 -5
v -3 5 -5
v 3 3 -5
v 3 4 -5
v 3 5 -5
v 4 3 -5
v 4 5 -5
v -3 4 -7
v -3 5 -7
v 3 4 -7
v 3 5 -7
v -4 4 -9
v -4 5 -9
v -3 4 -9
v -3 5 -9
v 3 4 -9
v 3 5 -9
v 4 4 -9
v 4 5 -9
v -6 3 -11
v -6 5 -11
v 6 3 -11
v 6 5 -11
v -15 0 -13
v -15 5 -13
v -14 0 -13
v -14 5 -13
v 14 0 -13
v 14 5 -13
v 15 0 -13
v 15 5 -13
v -14 0 -14
v -14 5 -14
v -13 0 -14
v -13 5 -14
v -9 0 -14
v -9 4 -14
v 9 0 -14
v 9 4 -14
v 13 0 -14
v 13 5 -14
v 14 0 -14
v 14 5 -14
v -13 0 -15
v -13 5 -15
v -9 0 -15
v -9 5 -15
v 9 0 -15
v 9 5 -15
v 13 0 -15
v 13 5 -15
v -13 0 15
v -9 0 15
v 9 0 15
v 13 0 15
v -14 0 14
v -13 0 14
v -9 0 14
v 9 0 14
v 13 0 14
v 14 0 14
v -15 0 13
v -14 0 13
v 14 0 13
v 15 0 13
v -15 0 9
v -14 0 9
v 14 0 9
v 15 0 9
v -15 0 -9
v -14 0 -9
v 14 0 -9
v 15 0 -9
v -15 0 -13
v -14 0 -13
v 14 0 -13
v 15 0 -13
v -14 0 -14
v -13 0 -14
v -9 0 -14
v 9 0 -14
v 13 0 -14
v 14 0 -14
v -13 0 -15
v -9 0 -15
v 9 0 -15
v 13 0 -15
v -5 2 5
v -4 2 5
v 4 2 5
v 5 2 5
v -5 2 4
v -4 2 4
v 4 2 4
v 5 2 4
v -5 1 5
v -4 1 5
v 4 1 5
v 5 1 5
v -5 1 4
v -4 1 4
v 4 1 4
v 5 1 4
v -11 3 12
v -9 3 12
v 9 3 12
v 11 3 12
v -12 3 11
v -11 3 11
v -3 3 11
v 3 3 11
v 11 3 11
v 12 3 11
v -6 3 10
v -3 3 10
v 3 3 10
v 6 3 10
v -12 3 9
v -8 3 9
v -6 3 9
v 6 3 9
v 8 3 9
v 12 3 9
v -9 3 7
v -8 3 7
v 8 3 7
v 9 3 7
v -9 3 1
v -8 3 1
v 8 3 1
v 9 3 1
v -8 3 -1
v -7 3 -1
v 7 3 -1
v 8 3 -1
v -7 3 -2
v -6 3 -2
v 6 3 -2
v 7 3 -2
v -9 3 -3
v -7 3 -3
v -6 3 -3
v -5 3 -3
v 5 3 -3
v 6 3 -3
v 7 3 -3
v 9 3 -3
v -9 3 -4
v -7 3 -4
v -5 3 -4
v -4 3 -4
v 4 3 -4
v 5 3 -4
v 7 3 -4
v 9 3 -4
v -7 3 -5
v -5 3 -5
v -4 3 -5
v -3 3 -5
v 3 3 -5
v 4 3 -5
v 5 3 -5
v 7 3 -5
v -5 3 -6
v -4 3 -6
v -3 3 -6
v 3 3 -6
v 4 3 -6
v 5 3 -6
v -5 3 -8
v -4 3 -8
v 4 3 -8
v 5 3 -8
v -12 3 -9
v -6 3 -9
v -5 3 -9
v 5 3 -9
v 6 3 -9
v 12 3 -9
v -12 3 -11
v -11 3 -11
v -6 3 -11
v 6 3 -11
v 11 3 -11
v 12 3 -11
v -11 3 -12
v -9 3 -12
v 9 3 -12
v 11 3 -12
v -9 4 14
v 9 4 14
v -9 4 13
v 9 4 13
v -9 4 12
v 9 4 12
v -2 4 10
v 2 4 10
v -14 4 9
v -13 4 9
v -12 4 9
v -5 4 9
v -2 4 9
v 2 4 9
v 5 4 9
v 12 4 9
v 13 4 9
v 14 4 9
v -7 4 8
v -5 4 8
v -2 4 8
v -1 4 8
v 1 4 8
v 2 4 8
v 5 4 8
v 7 4 8
v -6 4 7
v -5 4 7
v -3 4 7
v -2 4 7
v -1 4 7
v 1 4 7
v 2 4 7
v 3 4 7
v 5 4 7
v 6 4 7
v -8 4 6
v -7 4 6
v -6 4 6
v -4 4 6
v -3 4 6
v -2 4 6
v 2 4 6
v 3 4 6
v 4 4 6
v 6 4 6
v 7 4 6
v 8 4 6
v -4 4 5
v -3 4 5
v -2 4 5
v 2 4 5
v 3 4 5
v 4 4 5
v -5 4 4
v -4 4 4
v -1 4 4
v 1 4 4
v 4 4 4
v 5 4 4
v -8 4 2
v -7 4 2
v -6 4 2
v -5 4 2
v -4 4 2
v -1 4 2
v 1 4 2
v 4 4 2
v 5 4 2
v 6 4 2
v 7 4 2
v 8 4 2
v -4 4 1
v -3 4 1
v -2 4 1
v 2 4 1
v 3 4 1
v 4 4 1
v -7 4 -0
v -6 4 -0
v -5 4 -0
v -4 4 -0
v -3 4 -0
v -2 4 -0
v 2 4 -0
v 3 4 -0
v 4 4 -0
v 5 4 -0
v 6 4 -0
v 7 4 -0
v -6 4 -1
v -5 4 -1
v -4 4 -1
v -3 4 -1
v -2 4 -1
v -1 4 -1
v 1 4 -1
v 2 4 -1
v 3 4 -1
v 4 4 -1
v 5 4 -1
v 6 4 -1
v -5 4 -2
v -4 4 -2
v -3 4 -2
v -1 4 -2
v 1 4 -2
v 3 4 -2
v 4 4 -2
v 5 4 -2
v -4 4 -3
v -3 4 -3
v 3 4 -3
v 4 4 -3
v -3 4 -4
v 3 4 -4
v -3 4 -7
v 3 4 -7
v -2 4 -8
v 2 4 -8
v -14 4 -9
v -13 4 -9
v -12 4 -9
v -4 4 -9
v -3 4 -9
v -2 4 -9
v 2 4 -9
v 3 4 -9
v 4 4 -9
v 12 4 -9
v 13 4 -9
v 14 4 -9
v -4 4 -10
v 4 4 -10
v -9 4 -12
v 9 4 -12
v -9 4 -13
v 9 4 -13
v -9 4 -14
v 9 4 -14
v -13 5 15
v -9 5 15
v 9 5 15
v 13 5 15
v -14 5 14
v -13 5 14
v -9 5 14
v 9 5 14
v 13 5 14
v 14 5 14
v -15 5 13
v -14 5 13
v -13 5 13
v 13 5 13
v 14 5 13
v 15 5 13
v -11 5 12
v -9 5 12
v 9 5 12
v 11 5 12
v -12 5 11
v -11 5 11
v -3 5 11
v 3 5 11
v 11 5 11
v 12 5 11
v -6 5 10
v -3 5 10
v -2 5 10
v 2 5 10
v 3 5 10
v 6 5 10
v -15 5 9
v -14 5 9
v -12 5 9
v -8 5 9
v -6 5 9
v -5 5 9
v -2 5 9
v 2 5 9
v 5 5 9
v 6 5 9
v 8 5 9
v 12 5 9
v 14 5 9
v 15 5 9
v -7 5 8
v -5 5 8
v 5 5 8
v 7 5 8
v -9 5 7
v -8 5 7
v -2 5 7
v 2 5 7
v 8 5 7
v 9 5 7
v -8 5 6
v -7 5 6
v -3 5 6
v -2 5 6
v 2 5 6
v 3 5 6
v 7 5 6
v 8 5 6
v -4 5 5
v -3 5 5
v -2 5 5
v 2 5 5
v 3 5 5
v 4 5 5
v -1 5 4
v 1 5 4
v -8 5 2
v -7 5 2
v -1 5 2
v 1 5 2
v 7 5 2
v 8 5 2
v -9 5 1
v -8 5 1
v -4 5 1
v -3 5 1
v -2 5 1
v 2 5 1
v 3 5 1
v 4 5 1
v 8 5 1
v 9 5 1
v -7 5 -0
v -6 5 -0
v -3 5 -0
v -2 5 -0
v 2 5 -0
v 3 5 -0
v 6 5 -0
v 7 5 -0
v -8 5 -1
v -7 5 -1
v -6 5 -1
v -5 5 -1
v -2 5 -1
v 2 5 -1
v 5 5 -1
v 6 5 -1
v 7 5 -1
v 8 5 -1
v -7 5 -2
v -6 5 -2
v -5 5 -2
v -4 5 -2
v 4 5 -2
v 5 5 -2
v 6 5 -2
v 7 5 -2
v -6 5 -3
v -5 5 -3
v -4 5 -3
v -3 5 -3
v 3 5 -3
v 4 5 -3
v 5 5 -3
v 6 5 -3
v -5 5 -4
v -4 5 -4
v -3 5 -4
v 3 5 -4
v 4 5 -4
v 5 5 -4
v -4 5 -5
v -3 5 -5
v 3 5 -5
v 4 5 -5
v -4 5 -6
v -3 5 -6
v 3 5 -6
v 4 5 -6
v -3 5 -7
v 3 5 -7
v -5 5 -8
v -4 5 -8
v 4 5 -8
v 5 5 -8
v -15 5 -9
v -14 5 -9
v -12 5 -9
v -6 5 -9
v -5 5 -9
v -4 5 -9
v -3 5 -9
v 3 5 -9
v 4 5 -9
v 5 5 -9
v 6 5 -9
v 12 5 -9
v 14 5 -9
v 15 5 -9
v -4 5 -10
v 4 5 -10
v -12 5 -11
v -11 5 -11
v -6 5 -11
v 6 5 -11
v 11 5 -11
v 12 5 -11
v -11 5 -12
v -9 5 -12
v 9 5 -12
v 11 5 -12
v -15 5 -13
v -14 5 -13
v -13 5 -13
v 13 5 -13
v 14 5 -13
v 15 5 -13
v -14 5 -14
v -13 5 -14
v -9 5 -14
v 9 5 -14
v 13 5 -14
v 14 5 -14
v -13 5 -15
v -9 5 -15
v 9 5 -15
v 13 5 -15

# faces
f 5/11/1 2/11/1 1/11/1
f 6/11/1 2/11/1 5/11/1
f 7/11/1 4/11/1 3/11/1
f 8/11/1 4/11/1 7/11/1
f 15/11/1 12/11/1 11/11/1
f 16/11/1 12/11/1 15/11/1
f 17/11/1 10/11/1 9/11/1
f 18/11/1 10/11/1 17/11/1
f 19/11/1 14/11/1 13/11/1
f 20/11/1 14/11/1 19/11/1
f 25/11/1 22/11/1 21/11/1
f 26/11/1 22/11/1 25/11/1
f 27/11/1 24/11/1 23/11/1
f 28/11/1 24/11/1 27/11/1
f 31/7/1 30/7/1 29/7/1
f 32/7/1 30/7/1 31/7/1
f 37/7/1 34/7/1 33/7/1
f 38/7/1 34/7/1 37/7/1
f 39/7/1 36/7/1 35/7/1
f 40/7/1 36/7/1 39/7/1
f 43/7/1 42/7/1 41/7/1
f 44/7/1 42/7/1 43/7/1
f 51/7/1 46/7/1 45/7/1
f 52/7/1 46/7/1 51/7/1
f 53/7/1 48/7/1 47/7/1
f 54/7/1 48/7/1 53/7/1
f 55/7/1 50/7/1 49/7/1
f 56/7/1 50/7/1 55/7/1
f 61/7/1 58/7/1 57/7/1
f 62/7/1 58/7/1 61/7/1
f 63/7/1 60/7/1 59/7/1
f 64/7/1 60/7/1 63/7/1
f 67/11/1 66/11/1 65/11/1
f 68/11/1 66/11/1 67/11/1
f 77/2/1 74/2/1 73/2/1
f 77/2/1 76/2/1 75/2/1
f 77/2/1 75/2/1 74/2/1
f 78/2/1 76/2/1 77/2/1
f 79/7/1 70/7/1 69/7/1
f 80/7/1 70/7/1 79/7/1
f 81/7/1 72/7/1 71/7/1
f 82/7/1 72/7/1 81/7/1
f 91/7/1 86/7/1 85/7/1
f 92/7/1 86/7/1 91/7/1
f 93/7/1 84/7/1 83/7/1
f 94/7/1 84/7/1 93/7/1
f 95/2/1 88/2/1 87/2/1
f 96/2/1 88/2/1 95/2/1
f 97/2/1 90/2/1 89/2/1
f 98/2/1 90/2/1 97/2/1
f 99/10/1 92/10/1 91/10/1
f 100/10/1 92/10/1 99/10/1
f 105/2/1 102/2/1 101/2/1
f 106/2/1 102/2/1 105/2/1
f 107/2/1 104/2/1 103/2/1
f 108/2/1 104/2/1 107/2/1
f 111/3/1 110/3/1 109/3/1
f 112/3/1 110/3/1 111/3/1
f 119/7/1 114/7/1 113/7/1
f 120/7/1 114/7/1 119/7/1
f 121/2/1 116/2/1 115/2/1
f 122/2/1 116/2/1 121/2/1
f 123/2/1 118/2/1 117/2/1
f 124/2/1 118/2/1 123/2/1
f 131/2/1 126/2/1 125/2/1
f 132/2/1 126/2/1 131/2/1
f 133/7/1 128/7/1 127/7/1
f 134/7/1 128/7/1 133/7/1
f 135/7/1 130/7/1 129/7/1
f 136/7/1 130/7/1 135/7/1
f 141/7/1 138/7/1 137/7/1
f 142/7/1 138/7/1 141/7/1
f 143/7/1 140/7/1 139/7/1
f 144/7/1 140/7/1 143/7/1
f 147/4/1 146/4/1 145/4/1
f 148/4/1 146/4/1 147/4/1
f 153/7/1 150/7/1 149/7/1
f 154/7/1 150/7/1 153/7/1
f 155/7/1 152/7/1 151/7/1
f 156/7/1 152/7/1 155/7/1
f 159/7/1 158/7/1 157/7/1
f 160/7/1 158/7/1 159/7/1
f 165/7/1 162/7/1 161/7/1
f 166/7/1 162/7/1 165/7/1
f 167/7/1 164/7/1 163/7/1
f 168/7/1 164/7/1 167/7/1
f 171/7/1 170/7/1 169/7/1
f 172/7/1 170/7/1 171/7/1
f 177/11/1 174/11/1 173/11/1
f 182/11/1 176/11/1 175/11/1
f 183/11/1 177/11/1 173/11/1
f 184/9/1 178/9/1 177/9/1
f 184/11/1 177/11/1 183/11/1
f 184/9/1 179/9/1 178/9/1
f 185/9/1 179/9/1 184/9/1
f 186/9/1 181/9/1 180/9/1
f 186/9/1 182/9/1 181/9/1
f 187/11/1 176/11/1 182/11/1
f 187/9/1 182/9/1 186/9/1
f 188/11/1 176/11/1 187/11/1
f 193/9/1 190/9/1 189/9/1
f 194/9/1 190/9/1 193/9/1
f 195/9/1 192/9/1 191/9/1
f 196/9/1 192/9/1 195/9/1
f 201/9/1 198/9/1 197/9/1
f 201/4/1 199/4/1 198/4/1
f 202/9/1 200/9/1 199/9/1
f 202/4/1 199/4/1 201/4/1
f 203/9/1 201/9/1 197/9/1
f 204/9/1 201/9/1 203/9/1
f 205/9/1 200/9/1 202/9/1
f 206/9/1 200/9/1 205/9/1
f 207/9/2 208/9/2 211/9/2
f 208/4/2 209/4/2 211/4/2
f 209/9/2 210/9/2 212/9/2
f 211/4/2 209/4/2 212/4/2
f 207/9/2 211/9/2 213/9/2
f 213/9/2 211/9/2 214/9/2
f 212/9/2 210/9/2 215/9/2
f 215/9/2 210/9/2 216/9/2
f 217/9/2 218/9/2 221/9/2
f 221/9/2 218/9/2 222/9/2
f 219/9/2 220/9/2 223/9/2
f 223/9/2 220/9/2 224/9/2
f 225/11/2 226/11/2 229/11/2
f 227/11/2 228/11/2 234/11/2
f 225/11/2 229/11/2 235/11/2
f 229/9/2 230/9/2 236/9/2
f 235/11/2 229/11/2 236/11/2
f 230/9/2 231/9/2 236/9/2
f 236/9/2 231/9/2 237/9/2
f 232/9/2 233/9/2 238/9/2
f 233/9/2 234/9/2 238/9/2
f 234/11/2 228/11/2 239/11/2
f 238/9/2 234/9/2 239/9/2
f 239/11/2 228/11/2 240/11/2
f 241/7/2 242/7/2 243/7/2
f 243/7/2 242/7/2 244/7/2
f 245/7/2 246/7/2 249/7/2
f 249/7/2 246/7/2 250/7/2
f 247/7/2 248/7/2 251/7/2
f 251/7/2 248/7/2 252/7/2
f 253/7/2 254/7/2 255/7/2
f 255/7/2 254/7/2 256/7/2
f 257/4/2 258/4/2 259/4/2
f 259/4/2 258/4/2 260/4/2
f 261/7/2 262/7/2 265/7/2
f 265/7/2 262/7/2 266/7/2
f 263/7/2 264/7/2 267/7/2
f 267/7/2 264/7/2 268/7/2
f 269/7/2 270/7/2 273/7/2
f 273/7/2 270/7/2 274/7/2
f 271/7/2 272/7/2 275/7/2
f 275/7/2 272/7/2 276/7/2
f 277/2/2 278/2/2 283/2/2
f 283/2/2 278/2/2 284/2/2
f 279/7/2 280/7/2 285/7/2
f 285/7/2 280/7/2 286/7/2
f 281/7/2 282/7/2 287/7/2
f 287/7/2 282/7/2 288/7/2
f 289/7/2 290/7/2 295/7/2
f 295/7/2 290/7/2 296/7/2
f 291/2/2 292/2/2 297/2/2
f 297/2/2 292/2/2 298/2/2
f 293/2/2 294/2/2 299/2/2
f 299/2/2 294/2/2 300/2/2
f 301/3/2 302/3/2 303/3/2
f 303/3/2 302/3/2 304/3/2
f 305/2/2 306/2/2 309/2/2
f 309/2/2 306/2/2 310/2/2
f 307/2/2 308/2/2 311/2/2
f 311/2/2 308/2/2 312/2/2
f 315/7/2 316/7/2 321/7/2
f 321/7/2 316/7/2 322/7/2
f 313/7/2 314/7/2 323/7/2
f 323/7/2 314/7/2 324/7/2
f 317/2/2 318/2/2 325/2/2
f 325/2/2 318/2/2 326/2/2
f 319/2/2 320/2/2 327/2/2
f 327/2/2 320/2/2 328/2/2
f 321/10/2 322/10/2 329/10/2
f 329/10/2 322/10/2 330/10/2
f 331/11/2 332/11/2 333/11/2
f 333/11/2 332/11/2 334/11/2
f 339/2/2 340/2/2 343/2/2
f 341/2/2 342/2/2 343/2/2
f 340/2/2 341/2/2 343/2/2
f 343/2/2 342/2/2 344/2/2
f 335/7/2 336/7/2 345/7/2
f 345/7/2 336/7/2 346/7/2
f 337/7/2 338/7/2 347/7/2
f 347/7/2 338/7/2 348/7/2
f 349/7/2 350/7/2 353/7/2
f 353/7/2 350/7/2 354/7/2
f 351/7/2 352/7/2 355/7/2
f 355/7/2 352/7/2 356/7/2
f 357/7/2 358/7/2 363/7/2
f 363/7/2 358/7/2 364/7/2
f 359/7/2 360/7/2 365/7/2
f 365/7/2 360/7/2 366/7/2
f 361/7/2 362/7/2 367/7/2
f 367/7/2 362/7/2 368/7/2
f 369/7/2 370/7/2 371/7/2
f 371/7/2 370/7/2 372/7/2
f 373/7/2 374/7/2 377/7/2
f 377/7/2 374/7/2 378/7/2
f 375/7/2 376/7/2 379/7/2
f 379/7/2 376/7/2 380/7/2
f 381/7/2 382/7/2 383/7/2
f 383/7/2 382/7/2 384/7/2
f 385/11/2 386/11/2 389/11/2
f 389/11/2 386/11/2 390/11/2
f 387/11/2 388/11/2 391/11/2
f 391/11/2 388/11/2 392/11/2
f 395/11/2 396/11/2 399/11/2
f 399/11/2 396/11/2 400/11/2
f 393/11/2 394/11/2 401/11/2
f 401/11/2 394/11/2 402/11/2
f 397/11/2 398/11/2 403/11/2
f 403/11/2 398/11/2 404/11/2
f 405/11/2 406/11/2 409/11/2
f 409/11/2 406/11/2 410/11/2
f 407/11/2 408/11/2 411/11/2
f 411/11/2 408/11/2 412/11/2
f 415/11/3 414/11/3 413/11/3
f 416/11/3 414/11/3 415/11/3
f 419/11/3 418/11/3 417/11/3
f 420/11/3 418/11/3 419/11/3
f 423/11/3 422/11/3 421/11/3
f 424/11/3 422/11/3 423/11/3
f 427/11/3 426/11/3 425/11/3
f 428/11/3 426/11/3 427/11/3
f 431/11/3 430/11/3 429/11/3
f 432/11/3 430/11/3 431/11/3
f 435/11/3 434/11/3 433/11/3
f 436/11/3 434/11/3 435/11/3
f 439/11/3 438/11/3 437/11/3
f 440/11/3 438/11/3 439/11/3
f 443/7/3 442/7/3 441/7/3
f 444/7/3 442/7/3 443/7/3
f 447/7/3 446/7/3 445/7/3
f 448/7/3 446/7/3 447/7/3
f 451/7/3 450/7/3 449/7/3
f 452/7/3 450/7/3 451/7/3
f 455/7/3 454/7/3 453/7/3
f 456/7/3 454/7/3 455/7/3
f 459/7/3 458/7/3 457/7/3
f 460/7/3 458/7/3 459/7/3
f 463/7/3 462/7/3 461/7/3
f 464/7/3 462/7/3 463/7/3
f 467/2/3 466/2/3 465/2/3
f 468/2/3 466/2/3 467/2/3
f 469/2/3 466/2/3 468/2/3
f 470/2/3 466/2/3 469/2/3
f 473/7/3 472/7/3 471/7/3
f 474/7/3 472/7/3 473/7/3
f 477/2/3 476/2/3 475/2/3
f 478/2/3 476/2/3 477/2/3
f 481/2/3 480/2/3 479/2/3
f 482/2/3 480/2/3 481/2/3
f 485/2/3 484/2/3 483/2/3
f 486/2/3 484/2/3 485/2/3
f 489/2/3 488/2/3 487/2/3
f 490/2/3 488/2/3 489/2/3
f 493/11/3 492/11/3 491/11/3
f 494/11/3 492/11/3 493/11/3
f 497/3/3 496/3/3 495/3/3
f 498/3/3 496/3/3 497/3/3
f 501/11/3 500/11/3 499/11/3
f 502/11/3 500/11/3 501/11/3
f 505/7/3 504/7/3 503/7/3
f 506/7/3 504/7/3 505/7/3
f 509/7/3 508/7/3 507/7/3
f 510/7/3 508/7/3 509/7/3
f 513/2/3 512/2/3 511/2/3
f 514/2/3 512/2/3 513/2/3
f 517/2/3 516/2/3 515/2/3
f 518/2/3 516/2/3 517/2/3
f 521/7/3 520/7/3 519/7/3
f 522/7/3 520/7/3 521/7/3
f 525/2/3 524/2/3 523/2/3
f 526/2/3 524/2/3 525/2/3
f 529/7/3 528/7/3 527/7/3
f 530/7/3 528/7/3 529/7/3
f 533/7/3 532/7/3 531/7/3
f 534/7/3 532/7/3 533/7/3
f 537/7/3 536/7/3 535/7/3
f 538/7/3 536/7/3 537/7/3
f 541/7/3 540/7/3 539/7/3
f 542/7/3 540/7/3 541/7/3
f 545/7/3 544/7/3 543/7/3
f 546/7/3 544/7/3 545/7/3
f 549/7/3 548/7/3 547/7/3
f 550/7/3 548/7/3 549/7/3
f 553/7/3 552/7/3 551/7/3
f 554/7/3 552/7/3 553/7/3
f 557/7/3 556/7/3 555/7/3
f 558/7/3 556/7/3 557/7/3
f 561/7/3 560/7/3 559/7/3
f 562/7/3 560/7/3 561/7/3
f 563/7/3 560/7/3 562/7/3
f 567/7/3 565/7/3 564/7/3
f 567/7/3 566/7/3 565/7/3
f 568/7/3 566/7/3 567/7/3
f 571/7/3 570/7/3 569/7/3
f 572/7/3 570/7/3 571/7/3
f 575/7/3 574/7/3 573/7/3
f 576/7/3 574/7/3 575/7/3
f 579/11/3 578/11/3 577/11/3
f 580/11/3 578/11/3 579/11/3
f 581/11/3 578/11/3 580/11/3
f 582/9/3 581/9/3 580/9/3
f 583/9/3 581/9/3 582/9/3
f 584/9/3 581/9/3 583/9/3
f 587/7/3 586/7/3 585/7/3
f 588/7/3 586/7/3 587/7/3
f 591/7/3 590/7/3 589/7/3
f 592/7/3 590/7/3 591/7/3
f 595/9/3 594/9/3 593/9/3
f 597/9/3 594/9/3 595/9/3
f 598/9/3 594/9/3 597/9/3
f 599/11/3 597/11/3 596/11/3
f 599/11/3 598/11/3 597/11/3
f 600/11/3 598/11/3 599/11/3
f 603/7/3 602/7/3 601/7/3
f 604/7/3 602/7/3 603/7/3
f 607/9/3 606/9/3 605/9/3
f 608/9/3 606/9/3 607/9/3
f 611/9/3 610/9/3 609/9/3
f 612/9/3 610/9/3 611/9/3
f 615/9/3 614/9/3 613/9/3
f 616/9/3 614/9/3 615/9/3
f 617/9/3 614/9/3 616/9/3
f 618/4/3 616/4/3 615/4/3
f 619/4/3 616/4/3 618/4/3
f 621/9/3 619/9/3 618/9/3
f 621/9/3 620/9/3 619/9/3
f 622/9/3 620/9/3 621/9/3
f 623/9/4 624/9/4 625/9/4
f 625/9/4 624/9/4 626/9/4
f 626/9/4 624/9/4 627/9/4
f 625/4/4 626/4/4 628/4/4
f 628/4/4 626/4/4 629/4/4
f 628/9/4 629/9/4 631/9/4
f 629/9/4 630/9/4 631/9/4
f 631/9/4 630/9/4 632/9/4
f 633/9/4 634/9/4 635/9/4
f 635/9/4 634/9/4 636/9/4
f 637/9/4 638/9/4 639/9/4
f 639/9/4 638/9/4 640/9/4
f 641/7/4 642/7/4 643/7/4
f 643/7/4 642/7/4 644/7/4
f 645/11/4 646/11/4 647/11/4
f 647/11/4 646/11/4 648/11/4
f 648/11/4 646/11/4 649/11/4
f 648/9/4 649/9/4 650/9/4
f 650/9/4 649/9/4 651/9/4
f 651/9/4 649/9/4 652/9/4
f 653/7/4 654/7/4 655/7/4
f 655/7/4 654/7/4 656/7/4
f 657/7/4 658/7/4 659/7/4
f 659/7/4 658/7/4 660/7/4
f 661/9/4 662/9/4 663/9/4
f 663/9/4 662/9/4 665/9/4
f 665/9/4 662/9/4 666/9/4
f 664/11/4 665/11/4 667/11/4
f 665/11/4 666/11/4 667/11/4
f 667/11/4 666/11/4 668/11/4
f 669/7/4 670/7/4 671/7/4
f 671/7/4 670/7/4 672/7/4
f 673/7/4 674/7/4 675/7/4
f 675/7/4 674/7/4 676/7/4
f 677/7/4 678/7/4 679/7/4
f 679/7/4 678/7/4 680/7/4
f 681/2/4 682/2/4 683/2/4
f 683/2/4 682/2/4 684/2/4
f 685/7/4 686/7/4 687/7/4
f 687/7/4 686/7/4 688/7/4
f 689/4/4 690/4/4 691/4/4
f 691/4/4 690/4/4 692/4/4
f 693/2/4 694/2/4 695/2/4
f 695/2/4 694/2/4 696/2/4
f 697/2/4 698/2/4 699/2/4
f 699/2/4 698/2/4 700/2/4
f 701/4/4 702/4/4 703/4/4
f 703/4/4 702/4/4 704/4/4
f 705/3/4 706/3/4 707/3/4
f 707/3/4 706/3/4 708/3/4
f 709/7/4 710/7/4 711/7/4
f 711/7/4 710/7/4 712/7/4
f 713/2/4 714/2/4 715/2/4
f 715/2/4 714/2/4 716/2/4
f 717/2/4 718/2/4 719/2/4
f 719/2/4 718/2/4 720/2/4
f 721/7/4 722/7/4 723/7/4
f 723/7/4 722/7/4 724/7/4
f 725/2/4 726/2/4 727/2/4
f 727/2/4 726/2/4 728/2/4
f 729/2/4 730/2/4 731/2/4
f 731/2/4 730/2/4 732/2/4
f 733/7/4 734/7/4 735/7/4
f 735/7/4 734/7/4 736/7/4
f 737/2/4 738/2/4 739/2/4
f 739/2/4 738/2/4 740/2/4
f 740/2/4 738/2/4 741/2/4
f 741/2/4 738/2/4 742/2/4
f 743/7/4 744/7/4 745/7/4
f 745/7/4 744/7/4 746/7/4
f 747/7/4 748/7/4 749/7/4
f 749/7/4 748/7/4 750/7/4
f 751/7/4 752/7/4 753/7/4
f 753/7/4 752/7/4 754/7/4
f 755/7/4 756/7/4 757/7/4
f 757/7/4 756/7/4 758/7/4
f 759/7/4 760/7/4 761/7/4
f 761/7/4 760/7/4 762/7/4
f 763/7/4 764/7/4 765/7/4
f 765/7/4 764/7/4 766/7/4
f 767/7/4 768/7/4 769/7/4
f 769/7/4 768/7/4 770/7/4
f 771/7/4 772/7/4 773/7/4
f 773/7/4 772/7/4 774/7/4
f 774/7/4 772/7/4 775/7/4
f 776/7/4 777/7/4 779/7/4
f 777/7/4 778/7/4 779/7/4
f 779/7/4 778/7/4 780/7/4
f 781/7/4 782/7/4 783/7/4
f 783/7/4 782/7/4 784/7/4
f 785/7/4 786/7/4 787/7/4
f 787/7/4 786/7/4 788/7/4
f 789/7/4 790/7/4 791/7/4
f 791/7/4 790/7/4 792/7/4
f 793/7/4 794/7/4 795/7/4
f 795/7/4 794/7/4 796/7/4
f 797/11/4 798/11/4 799/11/4
f 799/11/4 798/11/4 800/11/4
f 801/11/4 802/11/4 803/11/4
f 803/11/4 802/11/4 804/11/4
f 805/11/4 806/11/4 807/11/4
f 807/11/4 806/11/4 808/11/4
f 809/11/4 810/11/4 811/11/4
f 811/11/4 810/11/4 812/11/4
f 813/11/4 814/11/4 815/11/4
f 815/11/4 814/11/4 816/11/4
f 817/11/4 818/11/4 819/11/4
f 819/11/4 818/11/4 820/11/4
f 821/11/4 822/11/4 823/11/4
f 823/11/4 822/11/4 824/11/4
f 830/11/5 826/11/5 825/11/5
f 831/11/5 826/11/5 830/11/5
f 832/11/5 828/11/5 827/11/5
f 833/11/5 828/11/5 832/11/5
f 836/11/5 831/11/5 830/11/5
f 836/11/5 834/11/5 833/11/5
f 836/11/5 833/11/5 832/11/5
f 836/11/5 832/11/5 831/11/5
f 836/11/5 830/11/5 829/11/5
f 837/11/5 834/11/5 836/11/5
f 839/11/5 836/11/5 835/11/5
f 839/11/5 838/11/5 837/11/5
f 839/11/5 837/11/5 836/11/5
f 840/11/5 838/11/5 839/11/5
f 841/11/5 838/11/5 840/11/5
f 842/11/5 838/11/5 841/11/5
f 844/11/5 841/11/5 840/11/5
f 845/11/5 841/11/5 844/11/5
f 847/11/5 844/11/5 843/11/5
f 847/11/5 846/11/5 845/11/5
f 847/11/5 845/11/5 844/11/5
f 848/11/5 846/11/5 847/11/5
f 849/11/5 846/11/5 848/11/5
f 850/11/5 846/11/5 849/11/5
f 851/11/5 849/11/5 848/11/5
f 852/11/5 849/11/5 851/11/5
f 853/11/5 849/11/5 852/11/5
f 854/11/5 849/11/5 853/11/5
f 855/11/5 849/11/5 854/11/5
f 856/11/5 849/11/5 855/11/5
f 857/11/5 853/11/5 852/11/5
f 858/11/5 853/11/5 857/11/5
f 859/11/5 855/11/5 854/11/5
f 860/11/5 855/11/5 859/11/5
f 865/8/5 862/8/5 861/8/5
f 866/8/5 862/8/5 865/8/5
f 867/8/5 864/8/5 863/8/5
f 868/8/5 864/8/5 867/8/5
f 869/11/6 870/11/6 873/11/6
f 873/11/6 870/11/6 874/11/6
f 871/11/6 872/11/6 875/11/6
f 875/11/6 872/11/6 876/11/6
f 877/8/6 878/8/6 882/8/6
f 879/8/6 880/8/6 882/8/6
f 878/8/6 879/8/6 882/8/6
f 882/8/6 880/8/6 883/8/6
f 883/8/6 880/8/6 884/8/6
f 884/8/6 880/8/6 885/8/6
f 881/8/6 882/8/6 887/8/6
f 882/8/6 883/8/6 887/8/6
f 887/8/6 883/8/6 888/8/6
f 885/8/6 886/8/6 889/8/6
f 884/8/6 885/8/6 889/8/6
f 889/8/6 886/8/6 890/8/6
f 881/8/6 887/8/6 891/8/6
f 891/8/6 887/8/6 892/8/6
f 892/8/6 887/8/6 893/8/6
f 890/8/6 886/8/6 894/8/6
f 894/8/6 886/8/6 895/8/6
f 895/8/6 886/8/6 896/8/6
f 891/8/6 892/8/6 897/8/6
f 897/8/6 892/8/6 898/8/6
f 895/8/6 896/8/6 899/8/6
f 899/8/6 896/8/6 900/8/6
f 891/8/6 897/8/6 901/8/6
f 900/8/6 896/8/6 904/8/6
f 901/8/6 902/8/6 905/8/6
f 903/8/6 904/8/6 908/8/6
f 905/8/6 906/8/6 909/8/6
f 907/8/6 908/8/6 912/8/6
f 909/8/6 910/8/6 913/8/6
f 891/8/6 901/8/6 913/8/6
f 901/8/6 905/8/6 913/8/6
f 905/8/6 909/8/6 913/8/6
f 913/8/6 910/8/6 914/8/6
f 914/8/6 910/8/6 915/8/6
f 911/8/6 912/8/6 918/8/6
f 912/8/6 908/8/6 919/8/6
f 918/8/6 912/8/6 919/8/6
f 904/8/6 896/8/6 920/8/6
f 919/8/6 908/8/6 920/8/6
f 908/8/6 904/8/6 920/8/6
f 891/8/6 913/8/6 921/8/6
f 913/10/6 914/10/6 921/10/6
f 915/8/6 916/8/6 922/8/6
f 921/10/6 914/10/6 922/10/6
f 914/8/6 915/8/6 922/8/6
f 922/8/6 916/8/6 923/8/6
f 917/8/6 918/8/6 926/8/6
f 918/8/6 919/8/6 926/8/6
f 919/10/6 920/10/6 927/10/6
f 926/8/6 919/8/6 927/8/6
f 920/8/6 896/8/6 928/8/6
f 927/10/6 920/10/6 928/10/6
f 922/10/6 923/10/6 929/10/6
f 921/8/6 922/8/6 929/8/6
f 923/8/6 924/8/6 930/8/6
f 929/10/6 923/10/6 930/10/6
f 930/8/6 924/8/6 931/8/6
f 925/8/6 926/8/6 934/8/6
f 926/10/6 927/10/6 935/10/6
f 934/8/6 926/8/6 935/8/6
f 927/8/6 928/8/6 936/8/6
f 935/10/6 927/10/6 936/10/6
f 931/10/6 932/10/6 937/10/6
f 929/8/6 930/8/6 937/8/6
f 930/10/6 931/10/6 937/10/6
f 937/10/6 932/10/6 938/10/6
f 938/10/6 932/10/6 939/10/6
f 933/10/6 934/10/6 940/10/6
f 934/10/6 935/10/6 940/10/6
f 940/10/6 935/10/6 941/10/6
f 935/8/6 936/8/6 942/8/6
f 941/10/6 935/10/6 942/10/6
f 937/8/6 938/8/6 943/8/6
f 929/8/6 937/8/6 943/8/6
f 943/8/6 938/8/6 944/8/6
f 941/8/6 942/8/6 945/8/6
f 942/8/6 936/8/6 946/8/6
f 945/8/6 942/8/6 946/8/6
f 891/8/6 921/8/6 947/8/6
f 921/8/6 929/8/6 947/8/6
f 929/8/6 943/8/6 947/8/6
f 947/8/6 943/8/6 948/8/6
f 948/8/6 943/8/6 949/8/6
f 946/8/6 936/8/6 950/8/6
f 950/8/6 936/8/6 951/8/6
f 928/8/6 896/8/6 952/8/6
f 951/8/6 936/8/6 952/8/6
f 936/8/6 928/8/6 952/8/6
f 947/8/6 948/8/6 953/8/6
f 953/8/6 948/8/6 954/8/6
f 954/8/6 948/8/6 955/8/6
f 951/8/6 952/8/6 956/8/6
f 956/8/6 952/8/6 957/8/6
f 957/8/6 952/8/6 958/8/6
f 954/8/6 955/8/6 959/8/6
f 956/8/6 957/8/6 959/8/6
f 955/8/6 956/8/6 959/8/6
f 959/8/6 957/8/6 960/8/6
f 960/8/6 957/8/6 961/8/6
f 961/8/6 957/8/6 962/8/6
f 963/11/6 964/11/6 965/11/6
f 965/11/6 964/11/6 966/11/6
f 965/4/6 966/4/6 967/4/6
f 967/4/6 966/4/6 968/4/6
f 969/5/6 970/5/6 975/5/6
f 975/5/6 970/5/6 976/5/6
f 974/5/6 975/5/6 982/5/6
f 975/6/6 976/6/6 983/6/6
f 982/5/6 975/5/6 983/5/6
f 983/6/6 976/6/6 984/6/6
f 984/6/6 976/6/6 985/6/6
f 976/5/6 977/5/6 986/5/6
f 985/6/6 976/6/6 986/6/6
f 986/5/6 977/5/6 987/5/6
f 981/5/6 982/5/6 989/5/6
f 982/6/6 983/6/6 990/6/6
f 989/5/6 982/5/6 990/5/6
f 983/6/6 984/6/6 990/6/6
f 990/6/6 984/6/6 991/6/6
f 991/6/6 984/6/6 992/6/6
f 984/2/6 985/2/6 993/2/6
f 992/6/6 984/6/6 993/6/6
f 986/6/6 987/6/6 994/6/6
f 993/2/6 985/2/6 994/2/6
f 985/6/6 986/6/6 994/6/6
f 994/6/6 987/6/6 995/6/6
f 995/6/6 987/6/6 996/6/6
f 987/5/6 988/5/6 997/5/6
f 996/6/6 987/6/6 997/6/6
f 997/5/6 988/5/6 998/5/6
f 981/5/6 989/5/6 1000/5/6
f 990/6/6 991/6/6 1001/6/6
f 989/6/6 990/6/6 1001/6/6
f 1000/5/6 989/5/6 1001/5/6
f 1001/6/6 991/6/6 1002/6/6
f 991/2/6 992/2/6 1003/2/6
f 1002/6/6 991/6/6 1003/6/6
f 1003/2/6 992/2/6 1004/2/6
f 995/2/6 996/2/6 1005/2/6
f 996/6/6 997/6/6 1006/6/6
f 997/6/6 998/6/6 1006/6/6
f 1005/2/6 996/2/6 1006/2/6
f 1006/6/6 998/6/6 1007/6/6
f 998/5/6 988/5/6 1008/5/6
f 1007/6/6 998/6/6 1008/6/6
f 1008/5/6 988/5/6 1009/5/6
f 1001/6/6 1002/6/6 1011/6/6
f 1000/6/6 1001/6/6 1011/6/6
f 1002/2/6 1003/2/6 1011/2/6
f 1011/2/6 1003/2/6 1012/2/6
f 1004/1/6 1005/1/6 1013/1/6
f 1013/1/6 1005/1/6 1014/1/6
f 1006/2/6 1007/2/6 1015/2/6
f 1008/6/6 1009/6/6 1016/6/6
f 1007/6/6 1008/6/6 1016/6/6
f 1015/2/6 1007/2/6 1016/2/6
f 1000/6/6 1011/6/6 1017/6/6
f 1017/6/6 1011/6/6 1018/6/6
f 1014/1/6 1015/1/6 1019/1/6
f 1013/1/6 1014/1/6 1019/1/6
f 1012/1/6 1013/1/6 1019/1/6
f 1019/1/6 1015/1/6 1020/1/6
f 1016/6/6 1009/6/6 1021/6/6
f 1021/6/6 1009/6/6 1022/6/6
f 999/5/6 1000/5/6 1023/5/6
f 1000/6/6 1017/6/6 1024/6/6
f 1023/5/6 1000/5/6 1024/5/6
f 1024/6/6 1017/6/6 1025/6/6
f 1017/2/6 1018/2/6 1026/2/6
f 1025/6/6 1017/6/6 1026/6/6
f 1026/2/6 1018/2/6 1027/2/6
f 1012/1/6 1019/1/6 1028/1/6
f 1020/1/6 1015/1/6 1029/1/6
f 1021/2/6 1022/2/6 1030/2/6
f 1022/6/6 1009/6/6 1031/6/6
f 1030/2/6 1022/2/6 1031/2/6
f 1031/6/6 1009/6/6 1032/6/6
f 1009/5/6 1010/5/6 1033/5/6
f 1032/6/6 1009/6/6 1033/6/6
f 1033/5/6 1010/5/6 1034/5/6
f 1026/6/6 1027/6/6 1035/6/6
f 1025/6/6 1026/6/6 1035/6/6
f 1012/1/6 1028/1/6 1036/1/6
f 1028/1/6 1029/1/6 1036/1/6
f 1036/1/6 1029/1/6 1037/1/6
f 1029/1/6 1015/1/6 1038/1/6
f 1037/1/6 1029/1/6 1038/1/6
f 1038/1/6 1015/1/6 1039/1/6
f 1031/6/6 1032/6/6 1040/6/6
f 1030/6/6 1031/6/6 1040/6/6
f 1024/5/6 1025/5/6 1041/5/6
f 1025/6/6 1035/6/6 1042/6/6
f 1041/5/6 1025/5/6 1042/5/6
f 1042/6/6 1035/6/6 1043/6/6
f 1035/2/6 1036/2/6 1044/2/6
f 1043/6/6 1035/6/6 1044/6/6
f 1044/2/6 1036/2/6 1045/2/6
f 1037/1/6 1038/1/6 1046/1/6
f 1046/1/6 1038/1/6 1047/1/6
f 1039/2/6 1040/2/6 1048/2/6
f 1040/6/6 1032/6/6 1049/6/6
f 1048/2/6 1040/2/6 1049/2/6
f 1049/6/6 1032/6/6 1050/6/6
f 1032/5/6 1033/5/6 1051/5/6
f 1050/6/6 1032/6/6 1051/6/6
f 1051/5/6 1033/5/6 1052/5/6
f 1042/5/6 1043/5/6 1053/5/6
f 1044/6/6 1045/6/6 1054/6/6
f 1053/5/6 1043/5/6 1054/5/6
f 1043/6/6 1044/6/6 1054/6/6
f 1054/6/6 1045/6/6 1055/6/6
f 1045/2/6 1046/2/6 1056/2/6
f 1055/6/6 1045/6/6 1056/6/6
f 1056/2/6 1046/2/6 1057/2/6
f 1047/2/6 1048/2/6 1060/2/6
f 1049/6/6 1050/6/6 1061/6/6
f 1048/6/6 1049/6/6 1061/6/6
f 1060/2/6 1048/2/6 1061/2/6
f 1061/6/6 1050/6/6 1062/6/6
f 1050/5/6 1051/5/6 1063/5/6
f 1062/6/6 1050/6/6 1063/6/6
f 1063/5/6 1051/5/6 1064/5/6
f 1054/5/6 1055/5/6 1065/5/6
f 1055/6/6 1056/6/6 1066/6/6
f 1065/5/6 1055/5/6 1066/5/6
f 1056/6/6 1057/6/6 1066/6/6
f 1057/6/6 1058/6/6 1066/6/6
f 1066/6/6 1058/6/6 1067/6/6
f 1058/2/6 1059/2/6 1068/2/6
f 1067/6/6 1058/6/6 1068/6/6
f 1059/6/6 1060/6/6 1069/6/6
f 1068/2/6 1059/2/6 1069/2/6
f 1061/6/6 1062/6/6 1069/6/6
f 1060/6/6 1061/6/6 1069/6/6
f 1069/6/6 1062/6/6 1070/6/6
f 1062/5/6 1063/5/6 1071/5/6
f 1070/6/6 1062/6/6 1071/6/6
f 1071/5/6 1063/5/6 1072/5/6
f 1066/5/6 1067/5/6 1073/5/6
f 1067/6/6 1068/6/6 1074/6/6
f 1073/5/6 1067/5/6 1074/5/6
f 1069/6/6 1070/6/6 1074/6/6
f 1068/6/6 1069/6/6 1074/6/6
f 1070/5/6 1071/5/6 1075/5/6
f 1074/6/6 1070/6/6 1075/6/6
f 1075/5/6 1071/5/6 1076/5/6
f 1074/5/6 1075/5/6 1077/5/6
f 1077/5/6 1075/5/6 1078/5/6
f 1079/5/6 1080/5/6 1081/5/6
f 1081/5/6 1080/5/6 1082/5/6
f 971/11/6 972/11/6 1083/11/6
f 972/4/6 973/4/6 1084/4/6
f 1083/11/6 972/11/6 1084/11/6
f 1084/4/6 973/4/6 1085/4/6
f 1079/5/6 1081/5/6 1087/5/6
f 1081/6/6 1082/6/6 1088/6/6
f 1087/5/6 1081/5/6 1088/5/6
f 1082/5/6 1080/5/6 1089/5/6
f 1088/6/6 1082/6/6 1089/6/6
f 1089/5/6 1080/5/6 1090/5/6
f 978/4/6 979/4/6 1092/4/6
f 979/11/6 980/11/6 1093/11/6
f 1092/4/6 979/4/6 1093/4/6
f 1093/11/6 980/11/6 1094/11/6
f 1090/5/6 1091/5/6 1095/5/6
f 1088/5/6 1089/5/6 1095/5/6
f 1089/5/6 1090/5/6 1095/5/6
f 1087/5/6 1088/5/6 1095/5/6
f 1086/5/6 1087/5/6 1095/5/6
f 1095/5/6 1091/5/6 1096/5/6
f 1097/4/6 1098/4/6 1099/4/6
f 1099/4/6 1098/4/6 1100/4/6
f 1099/11/6 1100/11/6 1101/11/6
f 1101/11/6 1100/11/6 1102/11/6
f 1103/11/6 1104/11/6 1108/11/6
f 1108/11/6 1104/11/6 1109/11/6
f 1105/11/6 1106/11/6 1110/11/6
f 1110/11/6 1106/11/6 1111/11/6
f 1107/11/6 1108/11/6 1114/11/6
f 1108/9/6 1109/9/6 1115/9/6
f 1114/11/6 1108/11/6 1115/11/6
f 1111/11/6 1112/11/6 1116/11/6
f 1110/9/6 1111/9/6 1116/9/6
f 1116/11/6 1112/11/6 1117/11/6
f 1115/9/6 1109/9/6 1119/9/6
f 1114/9/6 1115/9/6 1119/9/6
f 1119/9/6 1109/9/6 1120/9/6
f 1116/9/6 1117/9/6 1121/9/6
f 1110/9/6 1116/9/6 1121/9/6
f 1121/9/6 1117/9/6 1122/9/6
f 1114/9/6 1119/9/6 1123/9/6
f 1123/9/6 1119/9/6 1124/9/6
f 1122/9/6 1117/9/6 1127/9/6
f 1127/9/6 1117/9/6 1128/9/6
f 1125/7/6 1126/7/6 1130/7/6
f 1130/7/6 1126/7/6 1131/7/6
f 1131/7/6 1126/7/6 1132/7/6
f 1132/7/6 1126/7/6 1133/7/6
f 1113/11/6 1114/11/6 1135/11/6
f 1114/9/6 1123/9/6 1136/9/6
f 1135/11/6 1114/11/6 1136/11/6
f 1136/9/6 1123/9/6 1137/9/6
f 1129/7/6 1130/7/6 1139/7/6
f 1130/7/6 1131/7/6 1139/7/6
f 1139/7/6 1131/7/6 1140/7/6
f 1140/7/6 1131/7/6 1141/7/6
f 1133/7/6 1134/7/6 1142/7/6
f 1132/7/6 1133/7/6 1142/7/6
f 1142/7/6 1134/7/6 1143/7/6
f 1143/7/6 1134/7/6 1144/7/6
f 1128/9/6 1117/9/6 1146/9/6
f 1117/11/6 1118/11/6 1147/11/6
f 1146/9/6 1117/9/6 1147/9/6
f 1147/11/6 1118/11/6 1148/11/6
f 1139/7/6 1140/7/6 1149/7/6
f 1138/7/6 1139/7/6 1149/7/6
f 1149/7/6 1140/7/6 1150/7/6
f 1144/7/6 1145/7/6 1151/7/6
f 1143/7/6 1144/7/6 1151/7/6
f 1151/7/6 1145/7/6 1152/7/6
f 1138/7/6 1149/7/6 1154/7/6
f 1152/7/6 1145/7/6 1157/7/6
f 1154/7/6 1149/7/6 1159/7/6
f 1153/7/6 1154/7/6 1159/7/6
f 1159/7/6 1149/7/6 1160/7/6
f 1155/2/6 1156/2/6 1162/2/6
f 1162/2/6 1156/2/6 1163/2/6
f 1157/7/6 1158/7/6 1165/7/6
f 1152/7/6 1157/7/6 1165/7/6
f 1165/7/6 1158/7/6 1166/7/6
f 1161/2/6 1162/2/6 1168/2/6
f 1168/2/6 1162/2/6 1169/2/6
f 1163/2/6 1164/2/6 1170/2/6
f 1170/2/6 1164/2/6 1171/2/6
f 1153/7/6 1159/7/6 1175/7/6
f 1173/3/6 1174/3/6 1177/3/6
f 1177/3/6 1174/3/6 1178/3/6
f 1166/7/6 1158/7/6 1180/7/6
f 1175/7/6 1176/7/6 1181/7/6
f 1153/7/6 1175/7/6 1181/7/6
f 1181/7/6 1176/7/6 1182/7/6
f 1167/2/6 1168/2/6 1183/2/6
f 1183/2/6 1168/2/6 1184/2/6
f 1171/2/6 1172/2/6 1187/2/6
f 1187/2/6 1172/2/6 1188/2/6
f 1179/7/6 1180/7/6 1189/7/6
f 1180/7/6 1158/7/6 1189/7/6
f 1189/7/6 1158/7/6 1190/7/6
f 1182/7/6 1176/7/6 1191/7/6
f 1184/2/6 1185/2/6 1193/2/6
f 1193/2/6 1185/2/6 1194/2/6
f 1186/2/6 1187/2/6 1195/2/6
f 1195/2/6 1187/2/6 1196/2/6
f 1179/7/6 1189/7/6 1198/7/6
f 1191/7/6 1192/7/6 1199/7/6
f 1182/7/6 1191/7/6 1199/7/6
f 1199/7/6 1192/7/6 1200/7/6
f 1200/7/6 1192/7/6 1201/7/6
f 1194/2/6 1195/2/6 1203/2/6
f 1203/2/6 1195/2/6 1204/2/6
f 1197/7/6 1198/7/6 1206/7/6
f 1198/7/6 1189/7/6 1207/7/6
f 1206/7/6 1198/7/6 1207/7/6
f 1207/7/6 1189/7/6 1208/7/6
f 1201/7/6 1202/7/6 1209/7/6
f 1200/7/6 1201/7/6 1209/7/6
f 1209/7/6 1202/7/6 1210/7/6
f 1210/7/6 1202/7/6 1211/7/6
f 1205/7/6 1206/7/6 1214/7/6
f 1206/7/6 1207/7/6 1214/7/6
f 1214/7/6 1207/7/6 1215/7/6
f 1215/7/6 1207/7/6 1216/7/6
f 1211/7/6 1212/7/6 1217/7/6
f 1210/7/6 1211/7/6 1217/7/6
f 1217/7/6 1212/7/6 1218/7/6
f 1218/7/6 1212/7/6 1219/7/6
f 1214/7/6 1215/7/6 1222/7/6
f 1213/7/6 1214/7/6 1222/7/6
f 1222/7/6 1215/7/6 1223/7/6
f 1223/7/6 1215/7/6 1224/7/6
f 1219/7/6 1220/7/6 1225/7/6
f 1218/7/6 1219/7/6 1225/7/6
f 1225/7/6 1220/7/6 1226/7/6
f 1226/7/6 1220/7/6 1227/7/6
f 1222/7/6 1223/7/6 1228/7/6
f 1221/7/6 1222/7/6 1228/7/6
f 1228/7/6 1223/7/6 1229/7/6
f 1229/7/6 1223/7/6 1230/7/6
f 1226/7/6 1227/7/6 1231/7/6
f 1228/7/6 1229/7/6 1231/7/6
f 1227/7/6 1228/7/6 1231/7/6
f 1231/7/6 1229/7/6 1232/7/6
f 1232/7/6 1229/7/6 1233/7/6
f 1233/7/6 1229/7/6 1234/7/6
f 1232/10/6 1233/10/6 1236/10/6
f 1236/10/6 1233/10/6 1237/10/6
f 1235/7/6 1236/7/6 1239/7/6
f 1237/7/6 1238/7/6 1239/7/6
f 1236/7/6 1237/7/6 1239/7/6
f 1239/7/6 1238/7/6 1240/7/6
f 1235/7/6 1239/7/6 1242/7/6
f 1240/7/6 1238/7/6 1243/7/6
f 1241/7/6 1242/7/6 1249/7/6
f 1242/7/6 1239/7/6 1250/7/6
f 1249/7/6 1242/7/6 1250/7/6
f 1250/7/6 1239/7/6 1251/7/6
f 1240/7/6 1243/7/6 1252/7/6
f 1243/7/6 1244/7/6 1252/7/6
f 1252/7/6 1244/7/6 1253/7/6
f 1253/7/6 1244/7/6 1254/7/6
f 1248/7/6 1249/7/6 1259/7/6
f 1249/7/6 1250/7/6 1259/7/6
f 1254/7/6 1255/7/6 1260/7/6
f 1253/7/6 1254/7/6 1260/7/6
f 1246/9/6 1247/9/6 1261/9/6
f 1248/7/6 1259/7/6 1263/7/6
f 1259/7/6 1260/7/6 1263/7/6
f 1260/7/6 1255/7/6 1264/7/6
f 1263/7/6 1260/7/6 1264/7/6
f 1256/9/6 1257/9/6 1266/9/6
f 1261/9/6 1262/9/6 1267/9/6
f 1265/9/6 1266/9/6 1270/9/6
f 1245/11/6 1246/11/6 1271/11/6
f 1267/9/6 1268/9/6 1272/9/6
f 1271/11/6 1246/11/6 1272/11/6
f 1246/9/6 1261/9/6 1272/9/6
f 1261/9/6 1267/9/6 1272/9/6
f 1272/9/6 1268/9/6 1273/9/6
f 1269/9/6 1270/9/6 1274/9/6
f 1266/9/6 1257/9/6 1274/9/6
f 1270/9/6 1266/9/6 1274/9/6
f 1257/11/6 1258/11/6 1275/11/6
f 1274/9/6 1257/9/6 1275/9/6
f 1275/11/6 1258/11/6 1276/11/6
f 1272/11/6 1273/11/6 1277/11/6
f 1273/9/6 1268/9/6 1278/9/6
f 1277/11/6 1273/11/6 1278/11/6
f 1278/9/6 1268/9/6 1279/9/6
f 1269/9/6 1274/9/6 1280/9/6
f 1274/11/6 1275/11/6 1281/11/6
f 1280/9/6 1274/9/6 1281/9/6
f 1281/11/6 1275/11/6 1282/11/6
f 1278/11/6 1279/11/6 1283/11/6
f 1283/11/6 1279/11/6 1284/11/6
f 1280/11/6 1281/11/6 1285/11/6
f 1285/11/6 1281/11/6 1286/11/6
