# MagicaVoxel @ Ephtracy

# group
g Panel1

# material
mtllib Panel1.mtl
usemtl palette

# normals
vn -1 0 0
vn 1 0 0
vn 0 0 1
vn 0 0 -1
vn 0 -1 0
vn 0 1 0

# texcoords
vt 0.544922 0.5
vt 0.548828 0.5
vt 0.615234 0.5

# verts
v -25 0 25
v -25 0 -25
v -25 39 25
v -25 39 -25
v -24 39 25
v -24 39 -25
v -24 40 25
v -24 40 -25
v 15 38 25
v 15 38 -25
v 15 39 25
v 15 39 -25
v 16 39 25
v 16 39 -25
v 16 40 25
v 16 40 -25
v -21 39 25
v -21 39 -25
v -21 40 25
v -21 40 -25
v -20 38 25
v -20 38 -25
v -20 39 25
v -20 39 -25
v 19 39 25
v 19 39 -25
v 19 40 25
v 19 40 -25
v 20 0 25
v 20 0 -25
v 20 39 25
v 20 39 -25
v -25 0 25
v -25 39 25
v -24 0 25
v -24 37 25
v -24 39 25
v -24 40 25
v -21 37 25
v -21 39 25
v -21 40 25
v -20 37 25
v -20 38 25
v -20 39 25
v 15 37 25
v 15 38 25
v 15 39 25
v 16 37 25
v 16 39 25
v 16 40 25
v 19 0 25
v 19 37 25
v 19 39 25
v 19 40 25
v 20 0 25
v 20 39 25
v -25 0 -25
v -25 39 -25
v -24 0 -25
v -24 37 -25
v -24 39 -25
v -24 40 -25
v -21 37 -25
v -21 39 -25
v -21 40 -25
v -20 37 -25
v -20 38 -25
v -20 39 -25
v 15 37 -25
v 15 38 -25
v 15 39 -25
v 16 37 -25
v 16 39 -25
v 16 40 -25
v 19 0 -25
v 19 37 -25
v 19 39 -25
v 19 40 -25
v 20 0 -25
v 20 39 -25
v -25 0 25
v -24 0 25
v 19 0 25
v 20 0 25
v -25 0 -25
v -24 0 -25
v 19 0 -25
v 20 0 -25
v -20 38 25
v 15 38 25
v -20 38 -25
v 15 38 -25
v -25 39 25
v -24 39 25
v -21 39 25
v -20 39 25
v 15 39 25
v 16 39 25
v 19 39 25
v 20 39 25
v -25 39 -25
v -24 39 -25
v -21 39 -25
v -20 39 -25
v 15 39 -25
v 16 39 -25
v 19 39 -25
v 20 39 -25
v -24 40 25
v -21 40 25
v 16 40 25
v 19 40 25
v -24 40 -25
v -21 40 -25
v 16 40 -25
v 19 40 -25

# faces
f 3/1/1 2/1/1 1/1/1
f 4/1/1 2/1/1 3/1/1
f 7/2/1 6/2/1 5/2/1
f 8/2/1 6/2/1 7/2/1
f 11/1/1 10/1/1 9/1/1
f 12/1/1 10/1/1 11/1/1
f 15/2/1 14/2/1 13/2/1
f 16/2/1 14/2/1 15/2/1
f 17/2/2 18/2/2 19/2/2
f 19/2/2 18/2/2 20/2/2
f 21/1/2 22/1/2 23/1/2
f 23/1/2 22/1/2 24/1/2
f 25/2/2 26/2/2 27/2/2
f 27/2/2 26/2/2 28/2/2
f 29/1/2 30/1/2 31/1/2
f 31/1/2 30/1/2 32/1/2
f 35/1/3 34/1/3 33/1/3
f 36/1/3 34/1/3 35/1/3
f 37/1/3 34/1/3 36/1/3
f 39/3/3 36/3/3 35/3/3
f 39/2/3 38/2/3 37/2/3
f 39/2/3 37/2/3 36/2/3
f 40/2/3 38/2/3 39/2/3
f 41/2/3 38/2/3 40/2/3
f 42/3/3 39/3/3 35/3/3
f 42/1/3 40/1/3 39/1/3
f 43/1/3 40/1/3 42/1/3
f 44/1/3 40/1/3 43/1/3
f 45/3/3 42/3/3 35/3/3
f 45/3/3 43/3/3 42/3/3
f 46/3/3 43/3/3 45/3/3
f 48/3/3 45/3/3 35/3/3
f 48/1/3 47/1/3 46/1/3
f 48/1/3 46/1/3 45/1/3
f 49/1/3 47/1/3 48/1/3
f 51/3/3 48/3/3 35/3/3
f 52/2/3 49/2/3 48/2/3
f 52/3/3 48/3/3 51/3/3
f 52/2/3 50/2/3 49/2/3
f 53/2/3 50/2/3 52/2/3
f 54/2/3 50/2/3 53/2/3
f 55/1/3 52/1/3 51/1/3
f 55/1/3 53/1/3 52/1/3
f 56/1/3 53/1/3 55/1/3
f 57/1/4 58/1/4 59/1/4
f 59/1/4 58/1/4 60/1/4
f 60/1/4 58/1/4 61/1/4
f 59/3/4 60/3/4 63/3/4
f 61/2/4 62/2/4 63/2/4
f 60/2/4 61/2/4 63/2/4
f 63/2/4 62/2/4 64/2/4
f 64/2/4 62/2/4 65/2/4
f 59/3/4 63/3/4 66/3/4
f 63/1/4 64/1/4 66/1/4
f 66/1/4 64/1/4 67/1/4
f 67/1/4 64/1/4 68/1/4
f 59/3/4 66/3/4 69/3/4
f 66/3/4 67/3/4 69/3/4
f 69/3/4 67/3/4 70/3/4
f 59/3/4 69/3/4 72/3/4
f 70/1/4 71/1/4 72/1/4
f 69/1/4 70/1/4 72/1/4
f 72/1/4 71/1/4 73/1/4
f 59/3/4 72/3/4 75/3/4
f 72/2/4 73/2/4 76/2/4
f 75/3/4 72/3/4 76/3/4
f 73/2/4 74/2/4 76/2/4
f 76/2/4 74/2/4 77/2/4
f 77/2/4 74/2/4 78/2/4
f 75/1/4 76/1/4 79/1/4
f 76/1/4 77/1/4 79/1/4
f 79/1/4 77/1/4 80/1/4
f 85/1/5 82/1/5 81/1/5
f 86/3/5 83/3/5 82/3/5
f 86/1/5 82/1/5 85/1/5
f 87/1/5 84/1/5 83/1/5
f 87/3/5 83/3/5 86/3/5
f 88/1/5 84/1/5 87/1/5
f 89/3/6 90/3/6 91/3/6
f 91/3/6 90/3/6 92/3/6
f 93/1/6 94/1/6 101/1/6
f 101/1/6 94/1/6 102/1/6
f 95/1/6 96/1/6 103/1/6
f 103/1/6 96/1/6 104/1/6
f 97/1/6 98/1/6 105/1/6
f 105/1/6 98/1/6 106/1/6
f 99/1/6 100/1/6 107/1/6
f 107/1/6 100/1/6 108/1/6
f 109/2/6 110/2/6 113/2/6
f 113/2/6 110/2/6 114/2/6
f 111/2/6 112/2/6 115/2/6
f 115/2/6 112/2/6 116/2/6
