# MagicaVoxel @ Ephtracy

# group
g Panel3

# material
mtllib Panel3.mtl
usemtl palette

# normals
vn -1 0 0
vn 1 0 0
vn 0 0 1
vn 0 0 -1
vn 0 -1 0
vn 0 1 0

# texcoords
vt 0.544922 0.5
vt 0.548828 0.5
vt 0.615234 0.5

# verts
v -25 0 25
v -25 0 -23
v -25 39 25
v -25 39 -23
v -24 0 -23
v -24 0 -24
v -24 39 25
v -24 39 -22
v -24 39 -23
v -24 39 -24
v -24 40 25
v -24 40 -22
v -23 0 -24
v -23 0 -25
v -23 39 -22
v -23 39 -23
v -23 39 -24
v -23 39 -25
v -23 40 -22
v -23 40 -23
v -22 39 -23
v -22 39 -24
v -22 40 -23
v -22 40 -24
v 10 38 25
v 10 38 17
v 10 39 25
v 10 39 17
v 11 38 17
v 11 38 16
v 11 39 25
v 11 39 18
v 11 39 17
v 11 39 16
v 11 40 25
v 11 40 18
v 12 38 16
v 12 38 15
v 12 39 18
v 12 39 17
v 12 39 16
v 12 39 15
v 12 40 18
v 12 40 17
v 13 39 17
v 13 39 16
v 13 40 17
v 13 40 16
v -21 39 25
v -21 39 -20
v -21 40 25
v -21 40 -20
v -20 38 25
v -20 38 -19
v -20 39 25
v -20 39 -19
v -20 39 -20
v -20 39 -21
v -20 40 -20
v -20 40 -21
v -19 38 -19
v -19 38 -20
v -19 39 -19
v -19 39 -20
v 14 39 25
v 14 39 20
v 14 40 25
v 14 40 20
v 15 0 25
v 15 0 21
v 15 39 25
v 15 39 21
v 15 39 20
v 15 39 19
v 15 40 20
v 15 40 19
v 16 0 21
v 16 0 20
v 16 39 21
v 16 39 20
v 25 0 20
v 25 0 19
v 25 0 -24
v 25 0 -25
v 25 37 19
v 25 37 16
v 25 37 15
v 25 37 -20
v 25 37 -21
v 25 37 -24
v 25 38 15
v 25 38 -20
v 25 39 20
v 25 39 19
v 25 39 16
v 25 39 15
v 25 39 -20
v 25 39 -21
v 25 39 -24
v 25 39 -25
v 25 40 19
v 25 40 16
v 25 40 -21
v 25 40 -24
v -25 0 25
v -25 39 25
v -24 0 25
v -24 37 25
v -24 39 25
v -24 40 25
v -21 37 25
v -21 39 25
v -21 40 25
v -20 37 25
v -20 38 25
v -20 39 25
v 10 37 25
v 10 38 25
v 10 39 25
v 11 37 25
v 11 39 25
v 11 40 25
v 14 0 25
v 14 37 25
v 14 39 25
v 14 40 25
v 15 0 25
v 15 39 25
v 15 0 21
v 15 39 21
v 16 0 21
v 16 39 21
v 14 39 20
v 14 40 20
v 15 39 20
v 15 40 20
v 16 0 20
v 16 39 20
v 25 0 20
v 25 39 20
v 15 39 19
v 15 40 19
v 25 39 19
v 25 40 19
v -20 38 -19
v -20 39 -19
v -19 38 -19
v -19 39 -19
v -21 39 -20
v -21 40 -20
v -20 39 -20
v -20 40 -20
v -19 38 -20
v -19 39 -20
v 25 38 -20
v 25 39 -20
v -20 39 -21
v -20 40 -21
v 25 39 -21
v 25 40 -21
v 11 39 18
v 11 40 18
v 12 39 18
v 12 40 18
v 10 38 17
v 10 39 17
v 11 38 17
v 11 39 17
v 12 39 17
v 12 40 17
v 13 39 17
v 13 40 17
v 11 38 16
v 11 39 16
v 12 38 16
v 12 39 16
v 13 39 16
v 13 40 16
v 25 39 16
v 25 40 16
v 12 38 15
v 12 39 15
v 25 38 15
v 25 39 15
v -24 39 -22
v -24 40 -22
v -23 39 -22
v -23 40 -22
v -25 0 -23
v -25 39 -23
v -24 0 -23
v -24 39 -23
v -23 39 -23
v -23 40 -23
v -22 39 -23
v -22 40 -23
v -24 0 -24
v -24 39 -24
v -23 0 -24
v -23 39 -24
v -22 39 -24
v -22 40 -24
v 25 39 -24
v 25 40 -24
v -23 0 -25
v -23 39 -25
v 25 0 -25
v 25 39 -25
v -25 0 25
v -24 0 25
v 14 0 25
v 15 0 25
v 14 0 21
v 15 0 21
v 16 0 21
v 15 0 20
v 16 0 20
v 25 0 20
v 16 0 19
v 25 0 19
v -25 0 -23
v -24 0 -23
v -23 0 -23
v -24 0 -24
v -23 0 -24
v 25 0 -24
v -23 0 -25
v 25 0 -25
v -20 38 25
v 10 38 25
v 10 38 17
v 11 38 17
v 11 38 16
v 12 38 16
v 12 38 15
v 25 38 15
v -20 38 -19
v -19 38 -19
v -19 38 -20
v 25 38 -20
v -25 39 25
v -24 39 25
v -21 39 25
v -20 39 25
v 10 39 25
v 11 39 25
v 14 39 25
v 15 39 25
v 15 39 21
v 16 39 21
v 14 39 20
v 15 39 20
v 16 39 20
v 25 39 20
v 15 39 19
v 25 39 19
v 11 39 18
v 12 39 18
v 10 39 17
v 11 39 17
v 12 39 17
v 13 39 17
v 11 39 16
v 12 39 16
v 13 39 16
v 25 39 16
v 12 39 15
v 25 39 15
v -20 39 -19
v -19 39 -19
v -21 39 -20
v -20 39 -20
v -19 39 -20
v 25 39 -20
v -20 39 -21
v 25 39 -21
v -24 39 -22
v -23 39 -22
v -25 39 -23
v -24 39 -23
v -23 39 -23
v -22 39 -23
v -24 39 -24
v -23 39 -24
v -22 39 -24
v 25 39 -24
v -23 39 -25
v 25 39 -25
v -24 40 25
v -21 40 25
v 11 40 25
v 14 40 25
v 14 40 20
v 15 40 20
v 15 40 19
v 25 40 19
v 11 40 18
v 12 40 18
v 12 40 17
v 13 40 17
v 13 40 16
v 25 40 16
v -21 40 -20
v -20 40 -20
v -20 40 -21
v 25 40 -21
v -24 40 -22
v -23 40 -22
v -23 40 -23
v -22 40 -23
v -22 40 -24
v 25 40 -24

# faces
f 3/1/1 2/1/1 1/1/1
f 4/1/1 2/1/1 3/1/1
f 9/1/1 6/1/1 5/1/1
f 10/1/1 6/1/1 9/1/1
f 11/2/1 8/2/1 7/2/1
f 12/2/1 8/2/1 11/2/1
f 17/1/1 14/1/1 13/1/1
f 18/1/1 14/1/1 17/1/1
f 19/2/1 16/2/1 15/2/1
f 20/2/1 16/2/1 19/2/1
f 23/2/1 22/2/1 21/2/1
f 24/2/1 22/2/1 23/2/1
f 27/1/1 26/1/1 25/1/1
f 28/1/1 26/1/1 27/1/1
f 33/1/1 30/1/1 29/1/1
f 34/1/1 30/1/1 33/1/1
f 35/2/1 32/2/1 31/2/1
f 36/2/1 32/2/1 35/2/1
f 41/1/1 38/1/1 37/1/1
f 42/1/1 38/1/1 41/1/1
f 43/2/1 40/2/1 39/2/1
f 44/2/1 40/2/1 43/2/1
f 47/2/1 46/2/1 45/2/1
f 48/2/1 46/2/1 47/2/1
f 49/2/2 50/2/2 51/2/2
f 51/2/2 50/2/2 52/2/2
f 53/1/2 54/1/2 55/1/2
f 55/1/2 54/1/2 56/1/2
f 57/2/2 58/2/2 59/2/2
f 59/2/2 58/2/2 60/2/2
f 61/1/2 62/1/2 63/1/2
f 63/1/2 62/1/2 64/1/2
f 65/2/2 66/2/2 67/2/2
f 67/2/2 66/2/2 68/2/2
f 69/1/2 70/1/2 71/1/2
f 71/1/2 70/1/2 72/1/2
f 73/2/2 74/2/2 75/2/2
f 75/2/2 74/2/2 76/2/2
f 77/1/2 78/1/2 79/1/2
f 79/1/2 78/1/2 80/1/2
f 81/1/2 82/1/2 85/1/2
f 82/3/2 83/3/2 85/3/2
f 85/3/2 83/3/2 86/3/2
f 86/3/2 83/3/2 87/3/2
f 87/3/2 83/3/2 88/3/2
f 88/3/2 83/3/2 89/3/2
f 83/1/2 84/1/2 90/1/2
f 89/3/2 83/3/2 90/3/2
f 86/1/2 87/1/2 91/1/2
f 87/3/2 88/3/2 91/3/2
f 88/1/2 89/1/2 92/1/2
f 91/3/2 88/3/2 92/3/2
f 81/1/2 85/1/2 93/1/2
f 85/2/2 86/2/2 94/2/2
f 93/1/2 85/1/2 94/1/2
f 86/1/2 91/1/2 95/1/2
f 94/2/2 86/2/2 95/2/2
f 95/1/2 91/1/2 96/1/2
f 92/1/2 89/1/2 97/1/2
f 89/2/2 90/2/2 98/2/2
f 97/1/2 89/1/2 98/1/2
f 90/1/2 84/1/2 99/1/2
f 98/2/2 90/2/2 99/2/2
f 99/1/2 84/1/2 100/1/2
f 94/2/2 95/2/2 101/2/2
f 101/2/2 95/2/2 102/2/2
f 98/2/2 99/2/2 103/2/2
f 103/2/2 99/2/2 104/2/2
f 107/1/3 106/1/3 105/1/3
f 108/1/3 106/1/3 107/1/3
f 109/1/3 106/1/3 108/1/3
f 111/3/3 108/3/3 107/3/3
f 111/2/3 110/2/3 109/2/3
f 111/2/3 109/2/3 108/2/3
f 112/2/3 110/2/3 111/2/3
f 113/2/3 110/2/3 112/2/3
f 114/3/3 111/3/3 107/3/3
f 114/1/3 112/1/3 111/1/3
f 115/1/3 112/1/3 114/1/3
f 116/1/3 112/1/3 115/1/3
f 117/3/3 114/3/3 107/3/3
f 117/3/3 115/3/3 114/3/3
f 118/3/3 115/3/3 117/3/3
f 120/3/3 117/3/3 107/3/3
f 120/1/3 119/1/3 118/1/3
f 120/1/3 118/1/3 117/1/3
f 121/1/3 119/1/3 120/1/3
f 123/3/3 120/3/3 107/3/3
f 124/2/3 121/2/3 120/2/3
f 124/3/3 120/3/3 123/3/3
f 124/2/3 122/2/3 121/2/3
f 125/2/3 122/2/3 124/2/3
f 126/2/3 122/2/3 125/2/3
f 127/1/3 124/1/3 123/1/3
f 127/1/3 125/1/3 124/1/3
f 128/1/3 125/1/3 127/1/3
f 131/1/3 130/1/3 129/1/3
f 132/1/3 130/1/3 131/1/3
f 135/2/3 134/2/3 133/2/3
f 136/2/3 134/2/3 135/2/3
f 139/1/3 138/1/3 137/1/3
f 140/1/3 138/1/3 139/1/3
f 143/2/3 142/2/3 141/2/3
f 144/2/3 142/2/3 143/2/3
f 147/1/3 146/1/3 145/1/3
f 148/1/3 146/1/3 147/1/3
f 151/2/3 150/2/3 149/2/3
f 152/2/3 150/2/3 151/2/3
f 155/1/3 154/1/3 153/1/3
f 156/1/3 154/1/3 155/1/3
f 159/2/3 158/2/3 157/2/3
f 160/2/3 158/2/3 159/2/3
f 161/2/4 162/2/4 163/2/4
f 163/2/4 162/2/4 164/2/4
f 165/1/4 166/1/4 167/1/4
f 167/1/4 166/1/4 168/1/4
f 169/2/4 170/2/4 171/2/4
f 171/2/4 170/2/4 172/2/4
f 173/1/4 174/1/4 175/1/4
f 175/1/4 174/1/4 176/1/4
f 177/2/4 178/2/4 179/2/4
f 179/2/4 178/2/4 180/2/4
f 181/1/4 182/1/4 183/1/4
f 183/1/4 182/1/4 184/1/4
f 185/2/4 186/2/4 187/2/4
f 187/2/4 186/2/4 188/2/4
f 189/1/4 190/1/4 191/1/4
f 191/1/4 190/1/4 192/1/4
f 193/2/4 194/2/4 195/2/4
f 195/2/4 194/2/4 196/2/4
f 197/1/4 198/1/4 199/1/4
f 199/1/4 198/1/4 200/1/4
f 201/2/4 202/2/4 203/2/4
f 203/2/4 202/2/4 204/2/4
f 205/1/4 206/1/4 207/1/4
f 207/1/4 206/1/4 208/1/4
f 213/3/5 211/3/5 210/3/5
f 213/1/5 212/1/5 211/1/5
f 214/1/5 212/1/5 213/1/5
f 216/3/5 214/3/5 213/3/5
f 216/1/5 215/1/5 214/1/5
f 217/1/5 215/1/5 216/1/5
f 219/3/5 217/3/5 216/3/5
f 219/1/5 218/1/5 217/1/5
f 220/1/5 218/1/5 219/1/5
f 221/1/5 210/1/5 209/1/5
f 222/3/5 213/3/5 210/3/5
f 222/1/5 210/1/5 221/1/5
f 222/3/5 216/3/5 213/3/5
f 222/3/5 220/3/5 219/3/5
f 222/3/5 219/3/5 216/3/5
f 223/3/5 220/3/5 222/3/5
f 224/1/5 223/1/5 222/1/5
f 225/3/5 220/3/5 223/3/5
f 225/1/5 223/1/5 224/1/5
f 226/3/5 220/3/5 225/3/5
f 227/1/5 226/1/5 225/1/5
f 228/1/5 226/1/5 227/1/5
f 229/3/6 230/3/6 231/3/6
f 231/3/6 232/3/6 233/3/6
f 233/3/6 234/3/6 235/3/6
f 229/3/6 231/3/6 237/3/6
f 235/3/6 236/3/6 237/3/6
f 233/3/6 235/3/6 237/3/6
f 231/3/6 233/3/6 237/3/6
f 237/3/6 236/3/6 238/3/6
f 238/3/6 236/3/6 239/3/6
f 239/3/6 236/3/6 240/3/6
f 247/1/6 248/1/6 249/1/6
f 247/1/6 249/1/6 251/1/6
f 249/1/6 250/1/6 251/1/6
f 251/1/6 250/1/6 252/1/6
f 252/1/6 250/1/6 253/1/6
f 253/1/6 254/1/6 255/1/6
f 252/1/6 253/1/6 255/1/6
f 255/1/6 254/1/6 256/1/6
f 245/1/6 246/1/6 257/1/6
f 245/1/6 257/1/6 259/1/6
f 257/1/6 258/1/6 259/1/6
f 259/1/6 258/1/6 260/1/6
f 260/1/6 258/1/6 261/1/6
f 261/1/6 262/1/6 263/1/6
f 260/1/6 261/1/6 263/1/6
f 263/1/6 262/1/6 264/1/6
f 264/1/6 262/1/6 265/1/6
f 265/1/6 266/1/6 267/1/6
f 264/1/6 265/1/6 267/1/6
f 267/1/6 266/1/6 268/1/6
f 243/1/6 244/1/6 269/1/6
f 243/1/6 269/1/6 271/1/6
f 269/1/6 270/1/6 271/1/6
f 271/1/6 270/1/6 272/1/6
f 272/1/6 270/1/6 273/1/6
f 273/1/6 274/1/6 275/1/6
f 272/1/6 273/1/6 275/1/6
f 275/1/6 274/1/6 276/1/6
f 241/1/6 242/1/6 277/1/6
f 241/1/6 277/1/6 279/1/6
f 277/1/6 278/1/6 279/1/6
f 279/1/6 278/1/6 280/1/6
f 280/1/6 278/1/6 281/1/6
f 281/1/6 282/1/6 283/1/6
f 280/1/6 281/1/6 283/1/6
f 283/1/6 282/1/6 284/1/6
f 284/1/6 282/1/6 285/1/6
f 285/1/6 286/1/6 287/1/6
f 284/1/6 285/1/6 287/1/6
f 287/1/6 286/1/6 288/1/6
f 291/2/6 292/2/6 293/2/6
f 293/2/6 294/2/6 295/2/6
f 291/2/6 293/2/6 297/2/6
f 295/2/6 296/2/6 297/2/6
f 293/2/6 295/2/6 297/2/6
f 297/2/6 296/2/6 298/2/6
f 298/2/6 296/2/6 299/2/6
f 299/2/6 296/2/6 300/2/6
f 300/2/6 296/2/6 301/2/6
f 301/2/6 296/2/6 302/2/6
f 289/2/6 290/2/6 303/2/6
f 303/2/6 304/2/6 305/2/6
f 289/2/6 303/2/6 307/2/6
f 305/2/6 306/2/6 307/2/6
f 303/2/6 305/2/6 307/2/6
f 307/2/6 306/2/6 308/2/6
f 308/2/6 306/2/6 309/2/6
f 309/2/6 306/2/6 310/2/6
f 310/2/6 306/2/6 311/2/6
f 311/2/6 306/2/6 312/2/6
