# MagicaVoxel @ Ephtracy

# group
g Table

# material
mtllib Table.mtl
usemtl palette

# normals
vn -1 0 0
vn 1 0 0
vn 0 0 1
vn 0 0 -1
vn 0 -1 0
vn 0 1 0

# texcoords
vt 0.0644531 0.5
vt 0.0683594 0.5
vt 0.0917969 0.5

# verts
v -10 0 15
v -10 0 13
v -10 0 12
v -10 0 3
v -10 0 2
v -10 0 -0
v -10 26 6
v -10 26 3
v -10 27 5
v -10 27 2
v -10 28 11
v -10 28 6
v -10 29 10
v -10 29 5
v -10 29 -0
v -10 30 12
v -10 30 11
v -10 31 13
v -10 31 10
v -10 31 5
v -10 33 15
v -10 33 10
v 10 0 15
v 10 0 13
v 10 0 12
v 10 0 3
v 10 0 2
v 10 0 -0
v 10 26 6
v 10 26 3
v 10 27 5
v 10 27 2
v 10 28 11
v 10 28 6
v 10 29 10
v 10 29 5
v 10 29 -0
v 10 30 12
v 10 30 11
v 10 31 13
v 10 31 10
v 10 31 5
v 10 33 15
v 10 33 10
v -10 0 15
v -10 33 15
v -8 0 15
v -8 31 15
v -7 0 15
v -7 30 15
v 7 0 15
v 7 30 15
v 8 0 15
v 8 31 15
v 10 0 15
v 10 33 15
v -10 31 10
v -10 33 10
v -8 31 10
v -8 33 10
v -7 31 10
v -7 33 10
v 7 31 10
v 7 33 10
v 8 31 10
v 8 33 10
v 10 31 10
v 10 33 10
v -10 29 5
v -10 31 5
v -8 29 5
v -8 31 5
v -7 29 5
v -7 31 5
v 7 29 5
v 7 31 5
v 8 29 5
v 8 31 5
v 10 29 5
v 10 31 5
v -10 0 -0
v -10 29 -0
v -8 0 -0
v -8 27 -0
v -7 0 -0
v -7 26 -0
v 7 0 -0
v 7 26 -0
v 8 0 -0
v 8 27 -0
v 10 0 -0
v 10 29 -0
v -10 0 15
v -8 0 15
v -7 0 15
v 7 0 15
v 8 0 15
v 10 0 15
v -9 0 14
v -8 0 14
v -7 0 14
v 7 0 14
v 8 0 14
v 9 0 14
v -10 0 13
v -9 0 13
v 9 0 13
v 10 0 13
v -10 0 12
v -9 0 12
v 9 0 12
v 10 0 12
v -10 0 3
v -9 0 3
v 9 0 3
v 10 0 3
v -10 0 2
v -9 0 2
v 9 0 2
v 10 0 2
v -9 0 1
v -8 0 1
v -7 0 1
v 7 0 1
v 8 0 1
v 9 0 1
v -10 0 -0
v -8 0 -0
v -7 0 -0
v 7 0 -0
v 8 0 -0
v 10 0 -0
v -10 29 5
v -8 29 5
v -7 29 5
v 7 29 5
v 8 29 5
v 10 29 5
v -7 29 3
v 7 29 3
v -8 29 2
v 8 29 2
v -10 29 -0
v 10 29 -0
v -10 31 10
v -8 31 10
v -7 31 10
v 7 31 10
v 8 31 10
v 10 31 10
v -10 31 5
v -8 31 5
v -7 31 5
v 7 31 5
v 8 31 5
v 10 31 5
v -10 33 15
v 10 33 15
v -8 33 13
v 8 33 13
v -7 33 12
v 7 33 12
v -10 33 10
v -8 33 10
v -7 33 10
v 7 33 10
v 8 33 10
v 10 33 10

# faces
f 7/2/1 4/2/1 3/2/1
f 8/1/1 5/1/1 4/1/1
f 8/2/1 4/2/1 7/2/1
f 9/1/1 8/1/1 7/1/1
f 10/3/1 6/3/1 5/3/1
f 10/1/1 8/1/1 9/1/1
f 10/1/1 5/1/1 8/1/1
f 11/2/1 7/2/1 3/2/1
f 12/1/1 9/1/1 7/1/1
f 12/2/1 7/2/1 11/2/1
f 13/1/1 12/1/1 11/1/1
f 14/3/1 10/3/1 9/3/1
f 14/1/1 12/1/1 13/1/1
f 14/1/1 9/1/1 12/1/1
f 15/3/1 6/3/1 10/3/1
f 15/3/1 10/3/1 14/3/1
f 16/1/1 3/1/1 2/1/1
f 16/2/1 11/2/1 3/2/1
f 17/1/1 13/1/1 11/1/1
f 17/2/1 11/2/1 16/2/1
f 18/3/1 2/3/1 1/3/1
f 18/1/1 16/1/1 2/1/1
f 18/1/1 17/1/1 16/1/1
f 19/1/1 13/1/1 17/1/1
f 19/1/1 17/1/1 18/1/1
f 19/3/1 14/3/1 13/3/1
f 20/3/1 14/3/1 19/3/1
f 21/3/1 18/3/1 1/3/1
f 21/3/1 19/3/1 18/3/1
f 22/3/1 19/3/1 21/3/1
f 25/2/2 26/2/2 29/2/2
f 26/1/2 27/1/2 30/1/2
f 29/2/2 26/2/2 30/2/2
f 29/1/2 30/1/2 31/1/2
f 27/3/2 28/3/2 32/3/2
f 31/1/2 30/1/2 32/1/2
f 30/1/2 27/1/2 32/1/2
f 25/2/2 29/2/2 33/2/2
f 29/1/2 31/1/2 34/1/2
f 33/2/2 29/2/2 34/2/2
f 33/1/2 34/1/2 35/1/2
f 31/3/2 32/3/2 36/3/2
f 35/1/2 34/1/2 36/1/2
f 34/1/2 31/1/2 36/1/2
f 32/3/2 28/3/2 37/3/2
f 36/3/2 32/3/2 37/3/2
f 24/1/2 25/1/2 38/1/2
f 25/2/2 33/2/2 38/2/2
f 33/1/2 35/1/2 39/1/2
f 38/2/2 33/2/2 39/2/2
f 23/3/2 24/3/2 40/3/2
f 24/1/2 38/1/2 40/1/2
f 38/1/2 39/1/2 40/1/2
f 39/1/2 35/1/2 41/1/2
f 40/1/2 39/1/2 41/1/2
f 35/3/2 36/3/2 41/3/2
f 41/3/2 36/3/2 42/3/2
f 23/3/2 40/3/2 43/3/2
f 40/3/2 41/3/2 43/3/2
f 43/3/2 41/3/2 44/3/2
f 47/3/3 46/3/3 45/3/3
f 48/3/3 46/3/3 47/3/3
f 49/1/3 48/1/3 47/1/3
f 50/1/3 48/1/3 49/1/3
f 51/2/3 50/2/3 49/2/3
f 52/1/3 48/1/3 50/1/3
f 52/2/3 50/2/3 51/2/3
f 53/1/3 52/1/3 51/1/3
f 54/3/3 46/3/3 48/3/3
f 54/1/3 52/1/3 53/1/3
f 54/1/3 48/1/3 52/1/3
f 55/3/3 54/3/3 53/3/3
f 56/3/3 46/3/3 54/3/3
f 56/3/3 54/3/3 55/3/3
f 57/3/4 58/3/4 59/3/4
f 59/3/4 58/3/4 60/3/4
f 59/1/4 60/1/4 61/1/4
f 61/1/4 60/1/4 62/1/4
f 61/2/4 62/2/4 63/2/4
f 63/2/4 62/2/4 64/2/4
f 63/1/4 64/1/4 65/1/4
f 65/1/4 64/1/4 66/1/4
f 65/3/4 66/3/4 67/3/4
f 67/3/4 66/3/4 68/3/4
f 69/3/4 70/3/4 71/3/4
f 71/3/4 70/3/4 72/3/4
f 71/1/4 72/1/4 73/1/4
f 73/1/4 72/1/4 74/1/4
f 73/2/4 74/2/4 75/2/4
f 75/2/4 74/2/4 76/2/4
f 75/1/4 76/1/4 77/1/4
f 77/1/4 76/1/4 78/1/4
f 77/3/4 78/3/4 79/3/4
f 79/3/4 78/3/4 80/3/4
f 81/3/4 82/3/4 83/3/4
f 83/3/4 82/3/4 84/3/4
f 83/1/4 84/1/4 85/1/4
f 85/1/4 84/1/4 86/1/4
f 85/2/4 86/2/4 87/2/4
f 86/1/4 84/1/4 88/1/4
f 87/2/4 86/2/4 88/2/4
f 87/1/4 88/1/4 89/1/4
f 84/3/4 82/3/4 90/3/4
f 89/1/4 88/1/4 90/1/4
f 88/1/4 84/1/4 90/1/4
f 89/3/4 90/3/4 91/3/4
f 90/3/4 82/3/4 92/3/4
f 91/3/4 90/3/4 92/3/4
f 99/3/5 94/3/5 93/3/5
f 100/1/5 95/1/5 94/1/5
f 100/3/5 94/3/5 99/3/5
f 101/2/5 96/2/5 95/2/5
f 101/1/5 95/1/5 100/1/5
f 102/1/5 97/1/5 96/1/5
f 102/2/5 96/2/5 101/2/5
f 103/3/5 98/3/5 97/3/5
f 103/1/5 97/1/5 102/1/5
f 104/3/5 98/3/5 103/3/5
f 105/3/5 99/3/5 93/3/5
f 106/2/5 102/2/5 101/2/5
f 106/3/5 99/3/5 105/3/5
f 106/2/5 100/2/5 99/2/5
f 106/2/5 104/2/5 103/2/5
f 106/2/5 103/2/5 102/2/5
f 106/2/5 101/2/5 100/2/5
f 107/3/5 98/3/5 104/3/5
f 107/2/5 104/2/5 106/2/5
f 108/3/5 98/3/5 107/3/5
f 109/1/5 106/1/5 105/1/5
f 110/2/5 107/2/5 106/2/5
f 110/1/5 106/1/5 109/1/5
f 111/1/5 108/1/5 107/1/5
f 111/2/5 107/2/5 110/2/5
f 112/1/5 108/1/5 111/1/5
f 113/2/5 110/2/5 109/2/5
f 113/2/5 111/2/5 110/2/5
f 113/2/5 112/2/5 111/2/5
f 114/2/5 112/2/5 113/2/5
f 115/2/5 112/2/5 114/2/5
f 116/2/5 112/2/5 115/2/5
f 117/1/5 114/1/5 113/1/5
f 118/2/5 115/2/5 114/2/5
f 118/1/5 114/1/5 117/1/5
f 119/1/5 116/1/5 115/1/5
f 119/2/5 115/2/5 118/2/5
f 120/1/5 116/1/5 119/1/5
f 121/3/5 118/3/5 117/3/5
f 121/2/5 119/2/5 118/2/5
f 122/2/5 119/2/5 121/2/5
f 123/2/5 119/2/5 122/2/5
f 124/2/5 119/2/5 123/2/5
f 125/2/5 119/2/5 124/2/5
f 126/3/5 120/3/5 119/3/5
f 126/2/5 119/2/5 125/2/5
f 127/3/5 121/3/5 117/3/5
f 127/3/5 122/3/5 121/3/5
f 128/1/5 123/1/5 122/1/5
f 128/3/5 122/3/5 127/3/5
f 129/2/5 124/2/5 123/2/5
f 129/1/5 123/1/5 128/1/5
f 130/1/5 125/1/5 124/1/5
f 130/2/5 124/2/5 129/2/5
f 131/3/5 126/3/5 125/3/5
f 131/1/5 125/1/5 130/1/5
f 132/3/5 120/3/5 126/3/5
f 132/3/5 126/3/5 131/3/5
f 134/1/6 135/1/6 139/1/6
f 135/2/6 136/2/6 139/2/6
f 136/1/6 137/1/6 140/1/6
f 139/2/6 136/2/6 140/2/6
f 133/3/6 134/3/6 141/3/6
f 134/1/6 139/1/6 141/1/6
f 139/1/6 140/1/6 141/1/6
f 140/1/6 137/1/6 142/1/6
f 141/1/6 140/1/6 142/1/6
f 137/3/6 138/3/6 142/3/6
f 133/3/6 141/3/6 143/3/6
f 141/3/6 142/3/6 143/3/6
f 142/3/6 138/3/6 144/3/6
f 143/3/6 142/3/6 144/3/6
f 145/3/6 146/3/6 151/3/6
f 146/1/6 147/1/6 152/1/6
f 151/3/6 146/3/6 152/3/6
f 147/2/6 148/2/6 153/2/6
f 152/1/6 147/1/6 153/1/6
f 148/1/6 149/1/6 154/1/6
f 153/2/6 148/2/6 154/2/6
f 149/3/6 150/3/6 155/3/6
f 154/1/6 149/1/6 155/1/6
f 155/3/6 150/3/6 156/3/6
f 157/3/6 158/3/6 159/3/6
f 159/3/6 158/3/6 160/3/6
f 159/1/6 160/1/6 161/1/6
f 161/1/6 160/1/6 162/1/6
f 157/3/6 159/3/6 163/3/6
f 159/1/6 161/1/6 164/1/6
f 163/3/6 159/3/6 164/3/6
f 161/2/6 162/2/6 165/2/6
f 164/1/6 161/1/6 165/1/6
f 162/1/6 160/1/6 166/1/6
f 165/2/6 162/2/6 166/2/6
f 160/3/6 158/3/6 167/3/6
f 166/1/6 160/1/6 167/1/6
f 167/3/6 158/3/6 168/3/6
